<?xml version="1.0" encoding="utf-8"?>
<!-- Generator: Adobe Illustrator 16.0.4, SVG Export Plug-In . SVG Version: 6.00 Build 0)  -->
<!DOCTYPE svg PUBLIC "-//W3C//DTD SVG 1.1//EN" "http://www.w3.org/Graphics/SVG/1.1/DTD/svg11.dtd">
<svg version="1.1" id="Layer_1" xmlns="http://www.w3.org/2000/svg" xmlns:xlink="http://www.w3.org/1999/xlink" x="0px" y="0px"
	 width="37.296px" height="37.285px" viewBox="0 0 37.296 37.285" enable-background="new 0 0 37.296 37.285" xml:space="preserve">
<g>
	<path fill="#FFD000" d="M0,0h37.296v20.835L20.892,4.436c-0.565-0.578-1.357-0.93-2.237-0.93c-1.747,0-3.168,1.42-3.168,3.167
		c0,0.867,0.352,1.659,0.931,2.237l20.879,20.873v7.502H21.771l-9.365-9.362v-3.028H0V0z"/>
	<polygon fill="#BF9B07" points="0,24.895 12.406,24.895 12.406,37.285 	"/>
	<polygon fill="#EDC001" points="12.406,27.923 12.406,37.285 21.771,37.285 	"/>
	<polygon fill="#EDC001" points="20.892,4.436 37.296,20.835 37.296,29.783 16.417,8.91 	"/>
	<path fill="#FFFFFF" d="M18.654,3.506c1.747,0,3.168,1.42,3.168,3.167s-1.421,3.154-3.168,3.154s-3.168-1.408-3.168-3.154
		S16.907,3.506,18.654,3.506L18.654,3.506z"/>
</g>
</svg>
