<?xml version="1.0" encoding="utf-8"?>
<!-- Generator: Adobe Illustrator 16.0.3, SVG Export Plug-In . SVG Version: 6.00 Build 0)  -->
<!DOCTYPE svg PUBLIC "-//W3C//DTD SVG 1.1//EN" "http://www.w3.org/Graphics/SVG/1.1/DTD/svg11.dtd">
<svg version="1.1" xmlns="http://www.w3.org/2000/svg" xmlns:xlink="http://www.w3.org/1999/xlink" x="0px" y="0px" width="24px"
	 height="24px" viewBox="0 0 24 24" enable-background="new 0 0 24 24" xml:space="preserve">
<g id="Outline_Icons">
	<g>
		<path d="M11.5,7.5c-2.206,0-4,1.794-4,4c0,2.206,1.794,4,4,4s4-1.794,4-4C15.5,9.294,13.706,7.5,11.5,7.5z M11.5,14.5
			c-1.654,0-3-1.346-3-3s1.346-3,3-3s3,1.346,3,3S13.154,14.5,11.5,14.5z"/>
		<path d="M11.5,6C11.776,6,12,5.776,12,5.5v-5C12,0.224,11.776,0,11.5,0S11,0.224,11,0.5v5C11,5.776,11.224,6,11.5,6z"/>
		<path d="M11.5,17c-0.276,0-0.5,0.224-0.5,0.5v5c0,0.276,0.224,0.5,0.5,0.5s0.5-0.224,0.5-0.5v-5C12,17.224,11.776,17,11.5,17z"/>
		<path d="M22.5,11h-5c-0.276,0-0.5,0.224-0.5,0.5s0.224,0.5,0.5,0.5h5c0.276,0,0.5-0.224,0.5-0.5S22.776,11,22.5,11z"/>
		<path d="M6.904,7.61c0.098,0.098,0.226,0.146,0.354,0.146S7.513,7.708,7.611,7.61c0.195-0.195,0.195-0.512,0-0.707L6.197,5.489
			c-0.195-0.195-0.512-0.195-0.707,0s-0.195,0.512,0,0.707L6.904,7.61z"/>
		<path d="M6,11.5C6,11.224,5.776,11,5.5,11h-2h-3C0.224,11,0,11.224,0,11.5S0.224,12,0.5,12h3h2C5.776,12,6,11.776,6,11.5z"/>
		<path d="M16.096,15.391c-0.195-0.195-0.512-0.195-0.707,0s-0.195,0.512,0,0.707l1.414,1.414c0.098,0.098,0.226,0.146,0.354,0.146
			s0.256-0.049,0.354-0.146c0.195-0.195,0.195-0.512,0-0.707L16.096,15.391z"/>
		<path d="M6.903,15.39l-1.414,1.414c-0.195,0.195-0.195,0.512,0,0.707c0.098,0.098,0.226,0.146,0.354,0.146
			s0.256-0.049,0.354-0.146l1.414-1.414c0.195-0.195,0.195-0.512,0-0.707S7.098,15.194,6.903,15.39z"/>
		<path d="M15.744,7.757c0.128,0,0.256-0.049,0.354-0.146l1.414-1.414c0.195-0.195,0.195-0.512,0-0.708
			c-0.195-0.195-0.512-0.195-0.707,0L15.39,6.904c-0.195,0.195-0.195,0.512,0,0.707C15.488,7.708,15.616,7.757,15.744,7.757z"/>
	</g>
</g>

</svg>
