<?xml version="1.0" encoding="utf-8"?>
<!-- Generator: Adobe Illustrator 16.0.3, SVG Export Plug-In . SVG Version: 6.00 Build 0)  -->
<!DOCTYPE svg PUBLIC "-//W3C//DTD SVG 1.1//EN" "http://www.w3.org/Graphics/SVG/1.1/DTD/svg11.dtd">
<svg version="1.1" xmlns="http://www.w3.org/2000/svg" xmlns:xlink="http://www.w3.org/1999/xlink" x="0px" y="0px" width="24px"
	 height="24px" viewBox="0 0 24 24" enable-background="new 0 0 24 24" xml:space="preserve">
<g id="Outline_Icons">
	<g>
		<path d="M13.806,8.508c-0.912-1.018-2.686-1.028-3.613,0.007C9.738,9.023,9.519,9.701,9.592,10.36l0.253,3.18
			C9.866,13.8,10.083,14,10.343,14h3.234c0.256,0,0.471-0.193,0.498-0.448l0.33-3.174C14.481,9.7,14.263,9.019,13.806,8.508z
			 M13.411,10.271L13.127,13h-2.322l-0.218-2.734c-0.044-0.397,0.081-0.782,0.351-1.084c0.552-0.615,1.585-0.606,2.123-0.007
			C13.328,9.474,13.456,9.871,13.411,10.271z"/>
		<path d="M21.5,7h-5.773c-0.113-0.167-0.218-0.339-0.354-0.491c-0.271-0.304-0.589-0.549-0.925-0.766
			C14.489,5.67,14.52,5.59,14.52,5.5c0-0.055-0.009-0.107-0.025-0.157C14.482,5.082,14.446,4.576,14.342,4H17
			c0.276,0,0.5-0.224,0.5-0.5S17.276,3,17,3h-2.907C13.754,1.963,13.137,1,12,1s-1.755,0.963-2.093,2H7C6.723,3,6.5,3.224,6.5,3.5
			S6.723,4,7,4h2.659C9.528,4.717,9.503,5.326,9.5,5.488c-0.002,0.088,0.027,0.17,0.068,0.246C9.226,5.953,8.901,6.201,8.626,6.51
			C8.49,6.662,8.386,6.834,8.273,7H2.5C1.121,7,0,8.121,0,9.5v2C0,12.879,1.121,14,2.5,14H7.94l0.446,4.012
			C6.51,18.072,5,19.609,5,21.5C5,21.776,5.223,22,5.5,22h3.484c0.507,1.184,1.667,2,3.016,2c1.349,0,2.509-0.816,3.016-2H18.5
			c0.276,0,0.5-0.224,0.5-0.5c0-1.891-1.51-3.428-3.387-3.488L16.059,14H21.5c1.378,0,2.5-1.121,2.5-2.5v-2
			C24,8.121,22.878,7,21.5,7z M19.989,8v5h-1V8H19.989z M12,2c0.467,0,0.795,0.432,1.026,1h-2.046C11.215,2.426,11.547,2,12,2z
			 M10.531,5c0.029-0.311,0.079-0.656,0.151-1h2.636c0.073,0.354,0.122,0.703,0.15,1H10.531z M5,8v5H4V8H5z M1,11.5v-2
			C1,8.673,1.672,8,2.5,8H3v5H2.5C1.672,13,1,12.327,1,11.5z M6,13V8h1.754C7.521,8.645,7.422,9.334,7.5,10.028L7.83,13H6z
			 M8.496,19l0.222,2H6.05C6.282,19.861,7.29,19.002,8.496,19z M12,23c-1.17,0-2.15-0.877-2.279-2.04L8.494,9.917
			C8.383,8.923,8.703,7.924,9.371,7.176C10.04,6.429,10.998,6,12,6C13,6,13.958,6.429,14.627,7.176
			c0.668,0.747,0.989,1.746,0.878,2.741L14.279,20.96C14.149,22.123,13.17,23,12,23z M17.949,21h-2.668l0.222-2
			C16.709,19.002,17.717,19.861,17.949,21z M16.245,8h1.744v5h-1.82l0.33-2.972C16.576,9.334,16.478,8.645,16.245,8z M23,11.5
			c0,0.827-0.673,1.5-1.5,1.5h-0.51V8h0.51C22.327,8,23,8.673,23,9.5V11.5z"/>
	</g>
</g>

</svg>
