<?xml version="1.0" encoding="utf-8"?>
<!-- Generator: Adobe Illustrator 16.0.3, SVG Export Plug-In . SVG Version: 6.00 Build 0)  -->
<!DOCTYPE svg PUBLIC "-//W3C//DTD SVG 1.1//EN" "http://www.w3.org/Graphics/SVG/1.1/DTD/svg11.dtd">
<svg version="1.1" xmlns="http://www.w3.org/2000/svg" xmlns:xlink="http://www.w3.org/1999/xlink" x="0px" y="0px" width="24px"
	 height="24px" viewBox="0 0 24 24" enable-background="new 0 0 24 24" xml:space="preserve">
<g id="Outline_Icons">
	<g>
		<path d="M20.647,16.646L18,19.293l-1.646-1.646c-0.195-0.195-0.512-0.195-0.707,0s-0.195,0.512,0,0.707l2,2
			C17.745,20.451,17.873,20.5,18,20.5s0.256-0.049,0.354-0.146l3-3c0.195-0.195,0.195-0.512,0-0.707S20.842,16.451,20.647,16.646z"
			/>
		<path d="M18.5,13c-3.033,0-5.5,2.467-5.5,5.5c0,3.033,2.467,5.5,5.5,5.5s5.5-2.467,5.5-5.5C24,15.467,21.533,13,18.5,13z M18.5,23
			c-2.481,0-4.5-2.019-4.5-4.5s2.019-4.5,4.5-4.5s4.5,2.019,4.5,4.5S20.982,23,18.5,23z"/>
		<path d="M13.479,12.441c-0.078-0.264-0.353-0.418-0.621-0.338l-8.34,2.453L1.79,13.532l6.421-2.997
			c0.181-0.084,0.294-0.268,0.289-0.467C8.494,9.869,8.371,9.692,8.186,9.618L1,6.744V1.341l2.597,1.112L4.526,5.24
			C4.573,5.381,4.68,5.494,4.819,5.549l14.306,5.554c0.41,0.172,0.722,0.511,0.855,0.932c0.083,0.263,0.363,0.412,0.628,0.325
			c0.263-0.083,0.409-0.364,0.325-0.628c-0.222-0.701-0.741-1.267-1.435-1.556l-4.349-1.689l-2.687-6.593
			c-0.049-0.122-0.145-0.219-0.266-0.271l-3.5-1.5C8.512,0.044,8.299,0.082,8.154,0.221C8.009,0.36,7.961,0.572,8.033,0.759
			l2.21,5.823L5.4,4.701L4.474,1.924C4.429,1.789,4.328,1.679,4.197,1.623l-3.5-1.5C0.542,0.056,0.364,0.071,0.225,0.165
			C0.084,0.257,0,0.414,0,0.582v6.5c0,0.205,0.125,0.389,0.314,0.464l6.428,2.571l-6.454,3.012C0.106,13.214-0.007,13.4,0,13.602
			s0.135,0.378,0.324,0.449l4,1.5c0.057,0.021,0.116,0.031,0.176,0.031c0.047,0,0.095-0.007,0.141-0.021l8.5-2.5
			C13.406,12.984,13.558,12.706,13.479,12.441z M9.385,1.506l2.229,0.955l2.253,5.528l-2.371-0.921L9.385,1.506z"/>
	</g>
</g>

</svg>
