<?xml version="1.0" encoding="utf-8"?>
<!-- Generator: Adobe Illustrator 16.0.3, SVG Export Plug-In . SVG Version: 6.00 Build 0)  -->
<!DOCTYPE svg PUBLIC "-//W3C//DTD SVG 1.1//EN" "http://www.w3.org/Graphics/SVG/1.1/DTD/svg11.dtd">
<svg version="1.1" xmlns="http://www.w3.org/2000/svg" xmlns:xlink="http://www.w3.org/1999/xlink" x="0px" y="0px" width="24px"
	 height="24px" viewBox="0 0 24 24" enable-background="new 0 0 24 24" xml:space="preserve">
<g id="Outline_Icons">
	<g>
		<path d="M13.5,17L13.5,17h-3H10.5c-0.276,0-0.5,0.224-0.5,0.5s0.224,0.5,0.5,0.5H10.5H13.5H13.5c0.276,0,0.5-0.224,0.5-0.5
			S13.777,17,13.5,17z"/>
		<path d="M23.374,9.366c-0.158-0.418-0.55-0.669-1.05-0.669c-0.047,0-0.095,0.007-0.141,0.021l-7.627,2.234l-0.648-3.307
			l2.468-2.814c0.129-0.147,0.161-0.357,0.08-0.536C16.375,4.116,16.196,4.001,16,4.001L13.414,4
			c-0.206-0.581-0.76-0.997-1.41-0.999C12.003,3.001,12.002,3,12,3c0,0,0,0,0,0h0c-0.001,0-0.002,0.001-0.003,0.001
			c-0.65,0.002-1.204,0.418-1.41,0.999L8,4.001c-0.196,0-0.375,0.115-0.456,0.294c-0.081,0.179-0.05,0.389,0.08,0.536l2.469,2.814
			l-0.649,3.309L1.817,8.717C1.772,8.703,1.725,8.696,1.677,8.696c-0.5,0-0.893,0.251-1.051,0.67
			c-0.185,0.492,0.006,1.099,0.475,1.51c0.521,0.458,6.019,4.803,7.229,5.758l-0.165,0.84c-0.188,1.128,0.128,2.277,0.869,3.151
			C9.774,21.499,10.855,22,12,22s2.226-0.501,2.966-1.374c0.741-0.875,1.058-2.024,0.867-3.166l-0.162-0.826
			c1.21-0.956,6.708-5.3,7.229-5.758C23.369,10.465,23.559,9.857,23.374,9.366z M1.76,10.124c-0.204-0.178-0.22-0.372-0.199-0.407
			C1.566,9.714,1.584,9.705,1.618,9.7l7.632,2.239l-0.705,3.592C6.068,13.573,2.167,10.481,1.76,10.124z M14.203,19.979
			C13.653,20.628,12.851,21,12,21s-1.653-0.372-2.203-1.021c-0.55-0.649-0.786-1.503-0.648-2.326l1.973-10.056
			c0.03-0.152-0.013-0.31-0.115-0.426L9.104,5L11,5c0.276,0,0.5-0.224,0.5-0.5C11.5,4.225,11.725,4,12,4c0.275,0,0.5,0.225,0.5,0.5
			C12.5,4.776,12.723,5,13,5l1.897,0l-1.903,2.17c-0.102,0.116-0.145,0.274-0.115,0.426l1.97,10.042
			C14.989,18.476,14.753,19.329,14.203,19.979z M22.24,10.125c-0.406,0.357-4.307,3.449-6.786,5.406l-0.705-3.594L22.382,9.7
			c0.034,0.005,0.051,0.013,0.055,0.015C22.459,9.752,22.443,9.946,22.24,10.125z"/>
	</g>
</g>

</svg>
