<?xml version="1.0" encoding="utf-8"?>
<!-- Generator: Adobe Illustrator 16.0.3, SVG Export Plug-In . SVG Version: 6.00 Build 0)  -->
<!DOCTYPE svg PUBLIC "-//W3C//DTD SVG 1.1//EN" "http://www.w3.org/Graphics/SVG/1.1/DTD/svg11.dtd">
<svg version="1.1" xmlns="http://www.w3.org/2000/svg" xmlns:xlink="http://www.w3.org/1999/xlink" x="0px" y="0px" width="24px"
	 height="24px" viewBox="0 0 24 24" enable-background="new 0 0 24 24" xml:space="preserve">
<g id="Outline_Icons_1_">
	<g id="Outline_Icons">
		<g>
			<path d="M6,15c0.276,0,0.5-0.224,0.5-0.5V12c0-2.43,1.449-4.604,3.692-5.538C10.378,6.384,10.5,6.202,10.5,6c0-1.103,0.897-2,2-2
				s2,0.897,2,2c0,0.276,0.224,0.5,0.5,0.5s0.5-0.224,0.5-0.5c0-1.654-1.346-3-3-3c-1.542,0-2.815,1.169-2.981,2.667
				C7.067,6.819,5.5,9.271,5.5,12v2.5C5.5,14.776,5.724,15,6,15z"/>
			<path d="M20.5,18c-0.827,0-1.5-0.673-1.5-1.5V12c0-0.926-0.181-1.832-0.537-2.69c-0.106-0.256-0.399-0.374-0.653-0.271
				c-0.255,0.106-0.376,0.398-0.271,0.653C17.845,10.43,18,11.206,18,12v4.5c0,0.562,0.187,1.082,0.501,1.5H9.5
				C9.224,18,9,18.224,9,18.5S9.224,19,9.5,19h0.051c0.232,1.14,1.242,2,2.449,2s2.217-0.86,2.449-2H20.5c0.276,0,0.5-0.224,0.5-0.5
				S20.776,18,20.5,18z M12,20c-0.651,0-1.201-0.419-1.408-1h2.816C13.201,19.581,12.651,20,12,20z"/>
			<path d="M23.854,0.146c-0.195-0.195-0.512-0.195-0.707,0l-23,23c-0.195,0.195-0.195,0.512,0,0.707
				c0.195,0.195,0.512,0.195,0.707,0l23-23C24.049,0.659,24.049,0.342,23.854,0.146z"/>
		</g>
	</g>
	<g id="New_icons_1_">
	</g>
</g>

</svg>
