<?xml version="1.0" encoding="utf-8"?>
<!-- Generator: Adobe Illustrator 16.0.3, SVG Export Plug-In . SVG Version: 6.00 Build 0)  -->
<!DOCTYPE svg PUBLIC "-//W3C//DTD SVG 1.1//EN" "http://www.w3.org/Graphics/SVG/1.1/DTD/svg11.dtd">
<svg version="1.1" xmlns="http://www.w3.org/2000/svg" xmlns:xlink="http://www.w3.org/1999/xlink" x="0px" y="0px" width="24px"
	 height="24px" viewBox="0 0 24 24" enable-background="new 0 0 24 24" xml:space="preserve">
<g id="Outline_Icons">
	<g>
		<path d="M15.5,16c-0.276,0-0.5,0.224-0.5,0.5v0.326c-0.797-0.806-1.898-1.326-3-1.326c-1.693,0-3.4,1.218-3.972,2.833
			c-0.092,0.261,0.045,0.547,0.305,0.639c0.264,0.094,0.546-0.044,0.639-0.305C9.4,17.452,10.731,16.5,12,16.5
			c1.022,0,2.077,0.623,2.676,1.5H13.5c-0.276,0-0.5,0.224-0.5,0.5s0.224,0.5,0.5,0.5h2c0.056,0,0.111-0.009,0.167-0.028
			c0.005-0.002,0.009-0.006,0.014-0.008c0.034-0.014,0.062-0.036,0.093-0.057c0.023-0.016,0.05-0.027,0.07-0.047
			c0.024-0.023,0.04-0.053,0.06-0.08c0.018-0.025,0.038-0.048,0.051-0.075c0.012-0.026,0.015-0.055,0.021-0.084
			c0.009-0.035,0.021-0.069,0.021-0.107C15.997,18.51,16,18.505,16,18.5v-2C16,16.224,15.776,16,15.5,16z"/>
		<path d="M15.667,20.028c-0.262-0.091-0.546,0.045-0.639,0.305C14.6,21.548,13.269,22.5,12,22.5c-1.022,0-2.077-0.623-2.676-1.5
			H10.5c0.276,0,0.5-0.224,0.5-0.5S10.776,20,10.5,20h-2c-0.026,0-0.05,0.012-0.075,0.016c-0.031,0.004-0.062,0.002-0.092,0.013
			c-0.005,0.002-0.009,0.006-0.014,0.008c-0.034,0.014-0.062,0.036-0.093,0.056c-0.023,0.017-0.05,0.028-0.07,0.048
			c-0.024,0.023-0.04,0.053-0.06,0.08c-0.018,0.024-0.038,0.048-0.051,0.075c-0.012,0.026-0.014,0.055-0.021,0.083
			c-0.009,0.036-0.021,0.07-0.021,0.108C8.003,20.49,8,20.495,8,20.5v2C8,22.776,8.224,23,8.5,23S9,22.776,9,22.5v-0.326
			c0.797,0.806,1.898,1.326,3,1.326c1.693,0,3.4-1.218,3.972-2.833C16.063,20.406,15.927,20.12,15.667,20.028z"/>
		<path d="M5.494,8h13c0.153,0,0.298-0.07,0.393-0.19c0.095-0.119,0.129-0.276,0.094-0.425c-0.609-2.565-2.523-4.439-4.996-5.104
			l1.35-1.439c0.188-0.201,0.178-0.518-0.023-0.707c-0.201-0.188-0.517-0.18-0.707,0.023l-1.787,1.906C12.546,2.037,12.279,2,12,2
			s-0.546,0.037-0.816,0.064L9.396,0.158c-0.19-0.203-0.506-0.211-0.707-0.023C8.488,0.324,8.478,0.641,8.666,0.842l1.347,1.437
			c-2.491,0.663-4.41,2.538-5.006,5.108C4.973,7.535,5.008,7.691,5.103,7.812C5.197,7.931,5.342,8,5.494,8z M12,3
			c2.713,0,4.98,1.583,5.827,4H6.157C6.991,4.583,9.265,3,12,3z"/>
		<rect x="10" y="5" width="1" height="1"/>
		<rect x="13" y="5" width="1" height="1"/>
		<path d="M20,9h-1.5h-13H4c-1.313,0-2,1.258-2,2.5v8C2,19.776,2.224,20,2.5,20S3,19.776,3,19.5v-8C3,10.981,3.209,10,4,10h1v9.5
			C5,19.776,5.224,20,5.5,20H7v-1H6v-9h12v9h-1v1h1.5c0.276,0,0.5-0.224,0.5-0.5V10h1c0.791,0,1,0.981,1,1.5v8
			c0,0.276,0.224,0.5,0.5,0.5s0.5-0.224,0.5-0.5v-8C22,10.258,21.313,9,20,9z"/>
	</g>
</g>

</svg>
