<?xml version="1.0" encoding="utf-8"?>
<!-- Generator: Adobe Illustrator 16.0.3, SVG Export Plug-In . SVG Version: 6.00 Build 0)  -->
<!DOCTYPE svg PUBLIC "-//W3C//DTD SVG 1.1//EN" "http://www.w3.org/Graphics/SVG/1.1/DTD/svg11.dtd">
<svg version="1.1" xmlns="http://www.w3.org/2000/svg" xmlns:xlink="http://www.w3.org/1999/xlink" x="0px" y="0px" width="24px"
	 height="24px" viewBox="0 0 24 24" enable-background="new 0 0 24 24" xml:space="preserve">
<g id="Outline_Icons">
	<g>
		<path d="M11.357,6.763C10.8,6.441,10.036,6,8,6c-3.364,0-6,3.294-6,7.5C2,17.456,5.038,24,8.5,24c1.802,0,2.331-0.342,2.794-0.754
			C11.482,23.077,11.569,23,12,23s0.518,0.077,0.706,0.246C13.169,23.658,13.698,24,15.5,24c3.462,0,6.5-6.544,6.5-10.5
			C22,9.294,19.364,6,16,6c-2.036,0-2.8,0.441-3.357,0.763C12.586,6.795,12.549,6.81,12.5,6.836V5.5C12.5,4.121,11.379,3,10,3H8
			C7.724,3,7.5,3.224,7.5,3.5S7.724,4,8,4h2c0.827,0,1.5,0.673,1.5,1.5v1.336C11.451,6.81,11.414,6.795,11.357,6.763z M13.143,7.629
			C13.628,7.349,14.232,7,16,7c2.804,0,5,2.855,5,6.5c0,3.838-2.897,9.5-5.5,9.5c-1.566,0-1.865-0.266-2.128-0.501
			C13.055,22.217,12.752,22,12,22s-1.055,0.217-1.372,0.499C10.365,22.734,10.066,23,8.5,23C5.897,23,3,17.338,3,13.5
			C3,9.855,5.196,7,8,7c1.768,0,2.372,0.349,2.857,0.629C11.174,7.812,11.5,8,12,8S12.826,7.812,13.143,7.629z"/>
		<path d="M19,0.5C19,0.224,18.776,0,18.5,0c-2.757,0-5,2.243-5,5c0,0.276,0.224,0.5,0.5,0.5C16.757,5.5,19,3.257,19,0.5z
			 M17.964,1.036c-0.238,1.777-1.65,3.189-3.428,3.428C14.774,2.687,16.187,1.274,17.964,1.036z"/>
	</g>
</g>

</svg>
