<?xml version="1.0" encoding="utf-8"?>
<!-- Generator: Adobe Illustrator 16.0.3, SVG Export Plug-In . SVG Version: 6.00 Build 0)  -->
<!DOCTYPE svg PUBLIC "-//W3C//DTD SVG 1.1//EN" "http://www.w3.org/Graphics/SVG/1.1/DTD/svg11.dtd">
<svg version="1.1" xmlns="http://www.w3.org/2000/svg" xmlns:xlink="http://www.w3.org/1999/xlink" x="0px" y="0px" width="24px"
	 height="24px" viewBox="0 0 24 24" enable-background="new 0 0 24 24" xml:space="preserve">
<g id="Outline_Icons">
	<path d="M23.277,12.227l-3.449-3.451c-0.189-0.189-0.495-0.195-0.692-0.015L15,12.57V0.5C15,0.224,14.776,0,14.5,0h-5
		C9.224,0,9,0.224,9,0.5v12.086L4.865,8.762C4.668,8.58,4.361,8.585,4.172,8.775l-3.451,3.451c-0.094,0.094-0.146,0.221-0.146,0.354
		s0.053,0.26,0.146,0.354l10.926,10.924c0.098,0.098,0.226,0.146,0.354,0.146s0.256-0.049,0.354-0.146l10.924-10.924
		C23.473,12.738,23.473,12.422,23.277,12.227z M12,22.797L1.781,12.58l2.758-2.758l4.622,4.274c0.146,0.135,0.357,0.17,0.54,0.091
		s0.3-0.26,0.3-0.458V1h4v12.711c0,0.198,0.117,0.378,0.299,0.458c0.183,0.081,0.394,0.044,0.54-0.09l4.622-4.257l2.756,2.758
		L12,22.797z"/>
</g>
<g id="Frames-24px">
	<rect fill="none" width="24" height="24"/>
</g>
</svg>
