<?xml version="1.0" encoding="utf-8"?>
<!-- Generator: Adobe Illustrator 16.0.3, SVG Export Plug-In . SVG Version: 6.00 Build 0)  -->
<!DOCTYPE svg PUBLIC "-//W3C//DTD SVG 1.1//EN" "http://www.w3.org/Graphics/SVG/1.1/DTD/svg11.dtd">
<svg version="1.1" xmlns="http://www.w3.org/2000/svg" xmlns:xlink="http://www.w3.org/1999/xlink" x="0px" y="0px" width="24px"
	 height="24px" viewBox="0 0 24 24" enable-background="new 0 0 24 24" xml:space="preserve">
<g id="Outline_Icons">
	<g>
		<path d="M17.5,6.008h-2.999c-0.276,0-0.5,0.224-0.5,0.5v4.646l-5.88-5.853C7.926,5.108,7.61,5.107,7.415,5.303L5.298,7.42
			C5.103,7.615,5.103,7.931,5.297,8.126l5.853,5.88H6.502c-0.276,0-0.5,0.224-0.5,0.5v2.996c0,0.276,0.224,0.5,0.5,0.5H17.5
			c0.276,0,0.5-0.224,0.5-0.5V6.508C18,6.231,17.776,6.008,17.5,6.008z M17,17.002H7.002v-1.996h5.351
			c0.202,0,0.384-0.121,0.462-0.309c0.077-0.187,0.035-0.401-0.107-0.544l-6.35-6.379L7.77,6.362l6.379,6.35
			c0.144,0.143,0.359,0.185,0.544,0.107c0.187-0.078,0.308-0.26,0.308-0.462v-5.35H17V17.002z"/>
		<path d="M20.484,3.52c-2.266-2.267-5.28-3.515-8.485-3.515S5.78,1.253,3.514,3.52c-4.678,4.679-4.678,12.291,0.001,16.97
			c2.267,2.267,5.28,3.515,8.486,3.515c0,0,0,0,0,0c3.205,0,6.217-1.248,8.483-3.514C25.163,15.812,25.163,8.198,20.484,3.52z
			 M19.777,19.783C17.7,21.86,14.938,23.005,12,23.004c-2.938,0-5.701-1.144-7.779-3.222S1,14.942,1,12.004
			c0-2.938,1.144-5.7,3.221-7.777c2.078-2.077,4.84-3.222,7.778-3.222s5.701,1.145,7.778,3.222
			C24.066,8.516,24.066,15.494,19.777,19.783z"/>
	</g>
</g>
<g id="Frames-24px">
	<rect fill="none" width="24" height="24"/>
</g>
</svg>
