<?xml version="1.0" encoding="utf-8"?>
<!-- Generator: Adobe Illustrator 16.0.3, SVG Export Plug-In . SVG Version: 6.00 Build 0)  -->
<!DOCTYPE svg PUBLIC "-//W3C//DTD SVG 1.1//EN" "http://www.w3.org/Graphics/SVG/1.1/DTD/svg11.dtd">
<svg version="1.1" xmlns="http://www.w3.org/2000/svg" xmlns:xlink="http://www.w3.org/1999/xlink" x="0px" y="0px" width="24px"
	 height="24px" viewBox="0 0 24 24" enable-background="new 0 0 24 24" xml:space="preserve">
<g id="Outline_Icons">
	<path d="M24,5.578c0.001-0.134-0.052-0.262-0.146-0.356L18.822,0.19c-0.094-0.094-0.221-0.146-0.354-0.146
		c-0.001,0-0.002,0-0.002,0c-0.134,0.001-0.261,0.055-0.355,0.15L7,11.538V4.513c0-0.276-0.224-0.5-0.5-0.5h-6
		c-0.276,0-0.5,0.224-0.5,0.5V23.5C0,23.776,0.224,24,0.5,24h19c0.276,0,0.5-0.224,0.5-0.5v-5.998c0-0.276-0.224-0.5-0.5-0.5h-6.991
		l11.34-11.069C23.945,5.84,23.999,5.712,24,5.578z M10.932,17.145c-0.146,0.142-0.19,0.357-0.114,0.546s0.26,0.312,0.463,0.312H19
		V23H1V5.013h5v7.75c0,0.203,0.123,0.386,0.311,0.463c0.188,0.079,0.404,0.033,0.546-0.113L18.473,1.255l4.316,4.316L10.932,17.145z
		"/>
</g>
<g id="Frames-24px">
	<rect fill="none" width="24" height="24"/>
</g>
</svg>
