<?xml version="1.0" encoding="utf-8"?>
<!-- Generator: Adobe Illustrator 16.0.3, SVG Export Plug-In . SVG Version: 6.00 Build 0)  -->
<!DOCTYPE svg PUBLIC "-//W3C//DTD SVG 1.1//EN" "http://www.w3.org/Graphics/SVG/1.1/DTD/svg11.dtd">
<svg version="1.1" xmlns="http://www.w3.org/2000/svg" xmlns:xlink="http://www.w3.org/1999/xlink" x="0px" y="0px" width="24px"
	 height="24px" viewBox="0 0 24 24" enable-background="new 0 0 24 24" xml:space="preserve">
<g id="Outline_Icons">
	<path d="M23.5,9.02H11.376L15.24,4.87c0.184-0.197,0.178-0.504-0.012-0.694l-3.45-3.449c-0.195-0.195-0.512-0.195-0.707,0
		L0.146,11.65C0.052,11.744,0,11.871,0,12.004s0.053,0.26,0.146,0.354l10.925,10.926c0.094,0.094,0.221,0.146,0.354,0.146
		s0.26-0.053,0.354-0.146l3.45-3.45c0.19-0.189,0.196-0.496,0.014-0.693l-3.824-4.136H23.5c0.276,0,0.5-0.224,0.5-0.5V9.52
		C24,9.243,23.776,9.02,23.5,9.02z M23,14.004H10.274c-0.199,0-0.378,0.117-0.458,0.3c-0.08,0.182-0.044,0.394,0.091,0.54
		l4.274,4.622l-2.757,2.757L1.207,12.004L11.424,1.787l2.755,2.755L9.862,9.179c-0.136,0.146-0.172,0.357-0.093,0.54
		s0.259,0.301,0.458,0.301H23V14.004z"/>
</g>
<g id="Frames-24px">
	<rect fill="none" width="24" height="24"/>
</g>
</svg>
