<?xml version="1.0" encoding="utf-8"?>
<!-- Generator: Adobe Illustrator 16.0.3, SVG Export Plug-In . SVG Version: 6.00 Build 0)  -->
<!DOCTYPE svg PUBLIC "-//W3C//DTD SVG 1.1//EN" "http://www.w3.org/Graphics/SVG/1.1/DTD/svg11.dtd">
<svg version="1.1" xmlns="http://www.w3.org/2000/svg" xmlns:xlink="http://www.w3.org/1999/xlink" x="0px" y="0px" width="24px"
	 height="24px" viewBox="0 0 24 24" enable-background="new 0 0 24 24" xml:space="preserve">
<g id="Outline_Icons">
	<g>
		<path d="M19.84,11.65l-1.997-1.996c-0.188-0.188-0.52-0.188-0.707,0L14,12.793V4.5C14,4.224,13.776,4,13.5,4h-2.998
			c-0.276,0-0.5,0.224-0.5,0.5v8.294l-3.14-3.14c-0.195-0.195-0.512-0.195-0.707,0L4.159,11.65
			c-0.094,0.094-0.146,0.221-0.146,0.354s0.053,0.26,0.146,0.354l7.487,7.487c0.094,0.094,0.221,0.146,0.354,0.146
			s0.26-0.053,0.354-0.146l7.487-7.487c0.094-0.094,0.146-0.221,0.146-0.354S19.934,11.744,19.84,11.65z M12,18.784l-6.78-6.78
			l1.29-1.289l3.64,3.64c0.144,0.144,0.358,0.187,0.545,0.108c0.187-0.077,0.309-0.26,0.309-0.462V5H13v9.001
			c0,0.202,0.122,0.385,0.309,0.462s0.402,0.035,0.545-0.108l3.636-3.64l1.29,1.289L12,18.784z"/>
		<path d="M12,0.004c-6.617,0-12,5.383-12,12s5.383,12,12,12s12-5.383,12-12S18.616,0.004,12,0.004z M12,23.004
			c-6.065,0-11-4.935-11-11s4.935-11,11-11s11,4.935,11,11S18.064,23.004,12,23.004z"/>
	</g>
</g>
<g id="Frames-24px">
	<rect fill="none" width="24" height="24"/>
</g>
</svg>
