<?xml version="1.0" encoding="utf-8"?>
<!-- Generator: Adobe Illustrator 16.0.3, SVG Export Plug-In . SVG Version: 6.00 Build 0)  -->
<!DOCTYPE svg PUBLIC "-//W3C//DTD SVG 1.1//EN" "http://www.w3.org/Graphics/SVG/1.1/DTD/svg11.dtd">
<svg version="1.1" xmlns="http://www.w3.org/2000/svg" xmlns:xlink="http://www.w3.org/1999/xlink" x="0px" y="0px" width="24px"
	 height="24px" viewBox="0 0 24 24" enable-background="new 0 0 24 24" xml:space="preserve">
<g id="Outline_Icons">
	<path d="M24,7.404c0-0.133-0.053-0.26-0.146-0.354l-6.9-6.9c-0.188-0.188-0.52-0.188-0.707,0L5.866,10.531L0.854,5.518
		C0.71,5.375,0.496,5.333,0.309,5.409C0.122,5.486,0,5.669,0,5.871v17.633c0,0.276,0.224,0.5,0.5,0.5h17.633
		c0.202,0,0.385-0.122,0.462-0.309c0.078-0.187,0.035-0.402-0.108-0.545l-5.014-5.013l10.381-10.38C23.947,7.664,24,7.537,24,7.404z
		 M12.412,17.784c-0.094,0.094-0.146,0.221-0.146,0.354s0.053,0.26,0.146,0.354l4.514,4.513H1V7.078l4.513,4.514
		c0.188,0.188,0.52,0.188,0.707,0L16.6,1.211l6.193,6.193L12.412,17.784z"/>
</g>
<g id="Frames-24px">
	<rect fill="none" width="24" height="24"/>
</g>
</svg>
