<?xml version="1.0" encoding="utf-8"?>
<!-- Generator: Adobe Illustrator 16.0.3, SVG Export Plug-In . SVG Version: 6.00 Build 0)  -->
<!DOCTYPE svg PUBLIC "-//W3C//DTD SVG 1.1//EN" "http://www.w3.org/Graphics/SVG/1.1/DTD/svg11.dtd">
<svg version="1.1" xmlns="http://www.w3.org/2000/svg" xmlns:xlink="http://www.w3.org/1999/xlink" x="0px" y="0px" width="24px"
	 height="24px" viewBox="0 0 24 24" enable-background="new 0 0 24 24" xml:space="preserve">
<g id="Outline_Icons">
	<path d="M23.5,3H8c-0.144,0-0.28,0.062-0.375,0.169l-7.5,8.5c-0.167,0.189-0.167,0.473,0,0.662l7.5,8.5C7.721,20.938,7.857,21,8,21
		h15.5c0.276,0,0.5-0.224,0.5-0.5v-17C24,3.224,23.777,3,23.5,3z M23,20H8.226l-7.059-8l7.059-8H23V20z"/>
</g>
<g id="Layer_2">
	<rect fill="none" width="24" height="24"/>
</g>
</svg>
