<?xml version="1.0" encoding="utf-8"?>
<!-- Generator: Adobe Illustrator 16.0.3, SVG Export Plug-In . SVG Version: 6.00 Build 0)  -->
<!DOCTYPE svg PUBLIC "-//W3C//DTD SVG 1.1//EN" "http://www.w3.org/Graphics/SVG/1.1/DTD/svg11.dtd">
<svg version="1.1" xmlns="http://www.w3.org/2000/svg" xmlns:xlink="http://www.w3.org/1999/xlink" x="0px" y="0px" width="24px"
	 height="24px" viewBox="0 0 24 24" enable-background="new 0 0 24 24" xml:space="preserve">
<g id="Outline_Icons">
	<g>
		<path d="M19.956,12.312c-0.077-0.187-0.26-0.309-0.462-0.309H15l-0.003-7.492c0-0.276-0.224-0.5-0.5-0.5H9.502
			c-0.133,0-0.26,0.053-0.354,0.146S9.002,4.379,9.002,4.512l0.002,7.492H4.508c-0.202,0-0.385,0.122-0.462,0.309
			c-0.078,0.187-0.035,0.402,0.108,0.545l7.494,7.494c0.094,0.094,0.221,0.146,0.354,0.146s0.26-0.053,0.354-0.146l7.492-7.494
			C19.991,12.715,20.034,12.499,19.956,12.312z M12.002,19.291l-6.287-6.287h3.789c0.133,0,0.26-0.053,0.354-0.146
			s0.146-0.221,0.146-0.354l-0.002-7.492h3.995L14,12.504c0,0.276,0.224,0.5,0.5,0.5h3.787L12.002,19.291z"/>
		<path d="M12,0.004c-6.617,0-12,5.383-12,12s5.383,12,12,12s12-5.383,12-12S18.617,0.004,12,0.004z M12,23.004
			c-6.065,0-11-4.935-11-11s4.935-11,11-11s11,4.935,11,11S18.065,23.004,12,23.004z"/>
	</g>
</g>
<g id="Frames-24px">
	<rect fill="none" width="24" height="24"/>
</g>
</svg>
