<?xml version="1.0" encoding="utf-8"?>
<!-- Generator: Adobe Illustrator 16.0.3, SVG Export Plug-In . SVG Version: 6.00 Build 0)  -->
<!DOCTYPE svg PUBLIC "-//W3C//DTD SVG 1.1//EN" "http://www.w3.org/Graphics/SVG/1.1/DTD/svg11.dtd">
<svg version="1.1" xmlns="http://www.w3.org/2000/svg" xmlns:xlink="http://www.w3.org/1999/xlink" x="0px" y="0px" width="24px"
	 height="24px" viewBox="0 0 24 24" enable-background="new 0 0 24 24" xml:space="preserve">
<g id="Outline_Icons">
	<g>
		<path d="M19.84,11.65l-7.487-7.486c-0.195-0.195-0.512-0.195-0.707,0L4.159,11.65c-0.195,0.195-0.195,0.512,0,0.707l1.997,1.997
			c0.094,0.094,0.221,0.146,0.354,0.146s0.26-0.053,0.354-0.146l3.14-3.14V19.5c0,0.276,0.224,0.5,0.5,0.5H13.5
			c0.276,0,0.5-0.224,0.5-0.5v-8.284l3.136,3.139c0.094,0.094,0.221,0.146,0.354,0.146s0.26-0.053,0.354-0.146l1.997-1.997
			C20.035,12.162,20.035,11.846,19.84,11.65z M17.49,13.294l-3.636-3.64c-0.142-0.143-0.357-0.184-0.545-0.108
			C13.122,9.623,13,9.806,13,10.008V19h-1.998v-8.992c0-0.202-0.122-0.385-0.309-0.462c-0.187-0.076-0.402-0.035-0.545,0.108
			l-3.64,3.64l-1.29-1.29L12,5.225l6.78,6.779L17.49,13.294z"/>
		<path d="M12,0.004c-6.617,0-12,5.383-12,12s5.383,12,12,12s12-5.383,12-12S18.616,0.004,12,0.004z M12,23.004
			c-6.065,0-11-4.935-11-11s4.935-11,11-11s11,4.935,11,11S18.064,23.004,12,23.004z"/>
	</g>
</g>
<g id="Frames-24px">
	<rect fill="none" width="24" height="24"/>
</g>
</svg>
