<?xml version="1.0" encoding="utf-8"?>
<!-- Generator: Adobe Illustrator 16.0.3, SVG Export Plug-In . SVG Version: 6.00 Build 0)  -->
<!DOCTYPE svg PUBLIC "-//W3C//DTD SVG 1.1//EN" "http://www.w3.org/Graphics/SVG/1.1/DTD/svg11.dtd">
<svg version="1.1" xmlns="http://www.w3.org/2000/svg" xmlns:xlink="http://www.w3.org/1999/xlink" x="0px" y="0px" width="24px"
	 height="24px" viewBox="0 0 24 24" enable-background="new 0 0 24 24" xml:space="preserve">
<g id="Outline_Icons">
	<path d="M22.392,5.633c0-0.133-0.053-0.26-0.146-0.354l-3.536-3.535c-0.094-0.094-0.221-0.146-0.354-0.146h0
		c-0.133,0-0.26,0.053-0.354,0.147l-8.997,9.043V2.37c0-0.202-0.122-0.385-0.31-0.462C8.508,1.83,8.292,1.874,8.149,2.019
		L3.156,7.057c-0.093,0.093-0.145,0.22-0.145,0.352V20.5c0,0.276,0.224,0.5,0.5,0.5h13.085c0.133,0,0.261-0.054,0.355-0.148l4.95-5
		c0.142-0.144,0.184-0.357,0.106-0.544S21.747,15,21.545,15h-8.336l9.036-9.014C22.339,5.894,22.392,5.766,22.392,5.633z
		 M11.647,15.146c-0.144,0.143-0.187,0.357-0.109,0.545C11.615,15.878,11.798,16,12,16h8.347l-3.959,4H4.011V7.614l3.994-4.029V12
		c0,0.202,0.122,0.385,0.309,0.462c0.187,0.076,0.402,0.035,0.545-0.109l9.498-9.547l2.827,2.827L11.647,15.146z"/>
</g>
<g id="Frames-24px">
	<rect fill="none" width="24" height="24"/>
</g>
</svg>
