<?xml version="1.0" encoding="utf-8"?>
<!-- Generator: Adobe Illustrator 16.0.3, SVG Export Plug-In . SVG Version: 6.00 Build 0)  -->
<!DOCTYPE svg PUBLIC "-//W3C//DTD SVG 1.1//EN" "http://www.w3.org/Graphics/SVG/1.1/DTD/svg11.dtd">
<svg version="1.1" xmlns="http://www.w3.org/2000/svg" xmlns:xlink="http://www.w3.org/1999/xlink" x="0px" y="0px" width="24px"
	 height="24px" viewBox="0 0 24 24" enable-background="new 0 0 24 24" xml:space="preserve">
<g id="Outline_Icons">
	<path d="M16.854,7.146c-0.195-0.195-0.512-0.195-0.707,0L1,22.293V16.5C1,16.224,0.776,16,0.5,16S0,16.224,0,16.5v7
		c0,0.065,0.014,0.13,0.038,0.191c0.051,0.122,0.148,0.22,0.271,0.271C0.37,23.986,0.435,24,0.5,24h7C7.776,24,8,23.776,8,23.5
		S7.776,23,7.5,23H1.707L16.854,7.854C17.049,7.658,17.049,7.342,16.854,7.146z"/>
</g>

</svg>
