<?xml version="1.0" encoding="utf-8"?>
<!-- Generator: Adobe Illustrator 16.0.3, SVG Export Plug-In . SVG Version: 6.00 Build 0)  -->
<!DOCTYPE svg PUBLIC "-//W3C//DTD SVG 1.1//EN" "http://www.w3.org/Graphics/SVG/1.1/DTD/svg11.dtd">
<svg version="1.1" xmlns="http://www.w3.org/2000/svg" xmlns:xlink="http://www.w3.org/1999/xlink" x="0px" y="0px" width="24px"
	 height="24px" viewBox="0 0 24 24" enable-background="new 0 0 24 24" xml:space="preserve">
<g id="Outline_Icons">
	<g>
		<rect x="21.301" y="21.305" width="1.699" height="1.699"/>
		<rect x="17.9" y="21.305" width="1.699" height="1.699"/>
		<rect x="14.5" y="21.305" width="1.699" height="1.699"/>
		<rect x="11.1" y="21.305" width="1.701" height="1.699"/>
		<rect x="17.9" y="17.904" width="1.699" height="1.699"/>
		<rect x="14.5" y="17.904" width="1.699" height="1.699"/>
		<rect x="11.1" y="17.904" width="1.701" height="1.699"/>
		<rect x="17.9" y="14.504" width="1.699" height="1.699"/>
		<rect x="14.5" y="14.504" width="1.699" height="1.699"/>
		<rect x="11.1" y="14.504" width="1.701" height="1.699"/>
		<rect x="7.699" y="21.305" width="1.701" height="1.699"/>
		<rect x="11.1" y="7.703" width="1.701" height="1.701"/>
		<rect x="7.699" y="7.703" width="1.701" height="1.701"/>
		<rect x="4.301" y="7.703" width="1.699" height="1.701"/>
		<rect x="7.699" y="4.305" width="1.701" height="1.699"/>
		<rect x="17.9" y="11.104" width="1.699" height="1.701"/>
		<rect x="14.5" y="11.104" width="1.699" height="1.701"/>
		<rect x="11.1" y="11.104" width="1.701" height="1.701"/>
		<rect x="7.699" y="11.104" width="1.701" height="1.701"/>
		<rect x="21.301" y="7.703" width="1.699" height="1.701"/>
		<rect x="21.301" y="11.104" width="1.699" height="1.701"/>
		<rect x="21.301" y="14.504" width="1.699" height="1.699"/>
		<rect x="21.301" y="17.904" width="1.699" height="1.699"/>
	</g>
</g>
<g id="Frames-24px">
	<rect fill="none" width="24" height="24"/>
</g>
</svg>
