<?xml version="1.0" encoding="utf-8"?>
<!-- Generator: Adobe Illustrator 16.0.3, SVG Export Plug-In . SVG Version: 6.00 Build 0)  -->
<!DOCTYPE svg PUBLIC "-//W3C//DTD SVG 1.1//EN" "http://www.w3.org/Graphics/SVG/1.1/DTD/svg11.dtd">
<svg version="1.1" xmlns="http://www.w3.org/2000/svg" xmlns:xlink="http://www.w3.org/1999/xlink" x="0px" y="0px" width="24px"
	 height="24px" viewBox="0 0 24 24" enable-background="new 0 0 24 24" xml:space="preserve">
<g id="Outline_Icons">
	<path d="M23.5,12H12.865l5.317-9.209C18.321,2.552,18.239,2.246,18,2.108c-0.237-0.138-0.545-0.056-0.683,0.183L12,11.501
		l-5.317-9.21C6.545,2.052,6.238,1.969,6,2.108C5.761,2.246,5.679,2.552,5.817,2.791L11.135,12H0.5C0.224,12,0,12.224,0,12.5
		S0.224,13,0.5,13h10.635l-5.317,9.209C5.679,22.448,5.761,22.754,6,22.892c0.079,0.046,0.165,0.067,0.25,0.067
		c0.172,0,0.341-0.09,0.433-0.25L12,13.499l5.317,9.21c0.092,0.16,0.261,0.25,0.433,0.25c0.085,0,0.171-0.021,0.25-0.067
		c0.239-0.138,0.321-0.443,0.183-0.683L12.865,13H23.5c0.276,0,0.5-0.224,0.5-0.5S23.776,12,23.5,12z"/>
</g>

</svg>
