<?xml version="1.0" encoding="utf-8"?>
<!-- Generator: Adobe Illustrator 19.2.1, SVG Export Plug-In . SVG Version: 6.00 Build 0)  -->
<svg version="1.1" xmlns="http://www.w3.org/2000/svg" xmlns:xlink="http://www.w3.org/1999/xlink" x="0px" y="0px" width="24px"
	 height="24px" viewBox="0 0 24 24" enable-background="new 0 0 24 24" xml:space="preserve">
<g id="Outline_Icons_1_">
	<g id="Outline_Icons">
		<path d="M22.729,5.324c-0.609-0.344-1.305-0.408-1.951-0.207c-0.267-0.569-0.766-1.059-1.453-1.411
			c-0.666-0.342-1.43-0.519-2.199-0.537C16.042,1.52,14.113,0.5,12,0.5S7.958,1.52,6.874,3.169C6.105,3.187,5.341,3.364,4.675,3.706
			C3.988,4.059,3.489,4.548,3.222,5.117C2.576,4.917,1.88,4.981,1.27,5.324C0.475,5.773,0,6.587,0,7.5
			c0,0.936,0.493,1.758,1.317,2.2c0.646,0.346,1.398,0.39,2.064,0.139c0.374,0.593,0.997,1.052,1.831,1.341
			c0.63,0.219,1.351,0.326,2.054,0.326c0.784,0,1.535-0.14,2.122-0.396c0.546,0.611,0.606,1.04,0.611,2.405
			c-0.404,0.001-0.81,0.087-1.182,0.286C7.992,14.243,7.5,15.065,7.5,16c0,0.914,0.476,1.729,1.273,2.178
			c0.371,0.209,0.776,0.312,1.181,0.319c-0.231,2.009-1.856,2.386-4.269,2.675C3.957,21.378,2,21.613,2,23.5
			C2,23.776,2.224,24,2.5,24h19c0.276,0,0.5-0.224,0.5-0.5c0-1.887-1.958-2.122-3.685-2.329c-2.413-0.289-4.037-0.666-4.268-2.675
			c0.405-0.006,0.809-0.109,1.181-0.319C16.024,17.729,16.5,16.914,16.5,16c0-0.935-0.492-1.757-1.317-2.199
			c-0.372-0.199-0.778-0.285-1.182-0.286c0.006-1.366,0.065-1.794,0.611-2.406c1.19,0.52,2.907,0.511,4.175,0.07
			c0.834-0.29,1.457-0.748,1.831-1.341c0.667,0.252,1.418,0.208,2.064-0.139C23.507,9.258,24,8.436,24,7.5
			C24,6.587,23.525,5.773,22.729,5.324z M15.5,16c0,0.548-0.286,1.037-0.764,1.307c-0.473,0.267-1.036,0.256-1.505-0.027
			c-0.238-0.143-0.544-0.067-0.686,0.169c-0.143,0.236-0.067,0.544,0.169,0.687c0.096,0.058,0.2,0.086,0.301,0.131
			c0.152,3.286,3.047,3.643,5.182,3.899c1.523,0.183,2.377,0.342,2.679,0.835H3.125c0.301-0.493,1.156-0.653,2.679-0.835
			c2.135-0.256,5.03-0.612,5.182-3.899c0.1-0.044,0.205-0.073,0.301-0.131c0.236-0.143,0.312-0.45,0.169-0.687
			c-0.143-0.236-0.45-0.312-0.686-0.169c-0.47,0.283-1.032,0.293-1.505,0.027C8.786,17.037,8.5,16.548,8.5,16
			c0-0.561,0.295-1.053,0.79-1.318c0.499-0.267,1.075-0.24,1.54,0.069c0.229,0.152,0.54,0.09,0.693-0.14
			c0.153-0.23,0.09-0.54-0.14-0.693c-0.121-0.08-0.254-0.128-0.384-0.186c-0.001-1.06-0.023-1.741-0.258-2.333
			c0.399,0.069,0.818,0.112,1.254,0.112c0.002,0,0.006,0,0.008,0c0.437,0,0.856-0.043,1.255-0.112
			c-0.235,0.592-0.256,1.273-0.258,2.333c-0.13,0.058-0.263,0.106-0.384,0.186c-0.23,0.153-0.293,0.463-0.14,0.693
			c0.153,0.23,0.463,0.292,0.693,0.14c0.466-0.31,1.043-0.337,1.54-0.069C15.205,14.947,15.5,15.439,15.5,16z M22.21,8.818
			c-0.497,0.266-1.073,0.241-1.539-0.07c-0.128-0.086-0.289-0.107-0.435-0.059c-0.146,0.048-0.262,0.161-0.313,0.306
			c-0.248,0.69-0.932,1.055-1.463,1.24c-1.322,0.458-2.978,0.287-3.695-0.16c-0.075-0.046-0.211-0.075-0.28-0.073
			c-0.048,0.001-0.178,0.036-0.21,0.051c-0.576,0.29-1.404,0.457-2.272,0.457c-0.003,0-0.004,0-0.007,0
			c-0.867,0-1.695-0.167-2.271-0.457C9.669,10.026,9.556,10,9.461,10.007c-0.062,0.005-0.158,0.026-0.226,0.068
			c-0.718,0.448-2.373,0.619-3.695,0.16c-0.531-0.185-1.216-0.549-1.463-1.24C4.025,8.851,3.91,8.738,3.764,8.69
			C3.618,8.641,3.457,8.663,3.329,8.748C2.863,9.059,2.287,9.085,1.79,8.818C1.295,8.554,1,8.061,1,7.5
			c0-0.548,0.285-1.036,0.762-1.305c0.473-0.268,1.036-0.258,1.507,0.026h0c0.326,0.197,0.562,0.507,0.666,0.873
			c0.062,0.22,0.263,0.364,0.48,0.364c0.045,0,0.091-0.006,0.137-0.019c0.266-0.075,0.42-0.352,0.345-0.617
			C4.76,6.337,4.484,5.912,4.104,5.593c0.165-0.39,0.52-0.736,1.027-0.997C6.216,4.04,7.685,4.023,8.787,4.555
			c0.249,0.121,0.548,0.016,0.667-0.233c0.12-0.249,0.016-0.548-0.233-0.668C8.851,3.476,8.452,3.35,8.041,3.269
			C8.978,2.165,10.426,1.5,12,1.5s3.022,0.665,3.959,1.769c-0.411,0.081-0.81,0.207-1.18,0.386c-0.248,0.12-0.353,0.419-0.233,0.668
			c0.12,0.249,0.42,0.353,0.667,0.233c1.101-0.531,2.57-0.516,3.655,0.042c0.507,0.26,0.862,0.607,1.027,0.997
			c-0.379,0.319-0.656,0.745-0.792,1.228c-0.075,0.266,0.079,0.542,0.345,0.617c0.045,0.013,0.091,0.019,0.137,0.019
			c0.218,0,0.418-0.143,0.48-0.364c0.104-0.366,0.34-0.676,0.666-0.873h0c0.471-0.283,1.034-0.293,1.507-0.026
			C22.715,6.464,23,6.952,23,7.5C23,8.061,22.705,8.554,22.21,8.818z"/>
	</g>
	<g id="New_icons_1_">
	</g>
</g>

</svg>
