<?xml version="1.0" encoding="utf-8"?>
<!-- Generator: Adobe Illustrator 16.0.3, SVG Export Plug-In . SVG Version: 6.00 Build 0)  -->
<!DOCTYPE svg PUBLIC "-//W3C//DTD SVG 1.1//EN" "http://www.w3.org/Graphics/SVG/1.1/DTD/svg11.dtd">
<svg version="1.1" xmlns="http://www.w3.org/2000/svg" xmlns:xlink="http://www.w3.org/1999/xlink" x="0px" y="0px" width="24px"
	 height="24px" viewBox="0 0 24 24" enable-background="new 0 0 24 24" xml:space="preserve">
<g id="Outline_Icons">
	<path d="M22.484,5c0.276,0,0.5-0.224,0.5-0.5S22.761,4,22.484,4H12V0h-1v4H0.5C0.224,4,0,4.224,0,4.5S0.224,5,0.5,5H4v4.551
		C2.309,9.796,1,11.241,1,13c0,1.93,1.57,3.5,3.5,3.5S8,14.93,8,13c0-1.759-1.309-3.204-3-3.449V5h6v8.426
		c-1.687,0.693-2.979,2.112-2.979,4.564c0,2.033,0.885,3.558,2.558,4.409c1.317,0.67,2.782,0.743,3.352,0.743
		c0.189,0,0.298-0.008,0.298-0.008c0.217-0.015,0.399-0.168,0.451-0.379c0.053-0.21-0.036-0.431-0.221-0.545
		c-1.135-0.705-1.854-2.392-1.833-4.297c0.021-1.857,0.734-3.424,1.859-4.088c0.188-0.111,0.282-0.331,0.232-0.544
		c-0.049-0.212-0.231-0.368-0.449-0.386c0,0-0.134-0.01-0.363-0.01c-0.638,0-1.283,0.072-1.904,0.219V5h6v6.831l-3.44,6.434
		c-0.083,0.154-0.079,0.342,0.012,0.492C14.661,18.908,14.824,19,15,19h7c0.176,0,0.339-0.093,0.43-0.244
		c0.09-0.15,0.094-0.338,0.011-0.493L19,11.887V5H22.484z M7,13c0,1.379-1.121,2.5-2.5,2.5S2,14.379,2,13s1.121-2.5,2.5-2.5
		S7,11.621,7,13z M11.626,17.903c-0.019,1.64,0.432,3.122,1.225,4.159c-1.553-0.228-3.83-1.073-3.83-4.072
		c0-1.629,0.661-2.796,1.966-3.467c0.627-0.322,1.311-0.483,1.878-0.562C12.098,14.945,11.644,16.347,11.626,17.903z M15.834,18
		l2.652-4.959L21.162,18H15.834z"/>
</g>

</svg>
