<?xml version="1.0" encoding="utf-8"?>
<!-- Generator: Adobe Illustrator 16.0.3, SVG Export Plug-In . SVG Version: 6.00 Build 0)  -->
<!DOCTYPE svg PUBLIC "-//W3C//DTD SVG 1.1//EN" "http://www.w3.org/Graphics/SVG/1.1/DTD/svg11.dtd">
<svg version="1.1" xmlns="http://www.w3.org/2000/svg" xmlns:xlink="http://www.w3.org/1999/xlink" x="0px" y="0px" width="24px"
	 height="24px" viewBox="0 0 24 24" enable-background="new 0 0 24 24" xml:space="preserve">
<g id="Outline_Icons">
	<g>
		<path d="M23.5,6.5C23.224,6.5,23,6.724,23,7v4H1V7c0-0.276-0.224-0.5-0.5-0.5S0,6.724,0,7v16.5C0,23.776,0.224,24,0.5,24
			S1,23.776,1,23.5V20h22v3.5c0,0.276,0.224,0.5,0.5,0.5s0.5-0.224,0.5-0.5V7C24,6.724,23.776,6.5,23.5,6.5z M10,12h4v7h-4V12z
			 M9,19H5v-7h4V19z M15,12h4v7h-4V12z M1,12h3v7H1V12z M20,19v-7h3v7H20z"/>
		<path d="M10.5,7c0,0.827,0.673,1.5,1.5,1.5s1.5-0.673,1.5-1.5c0-0.441-0.195-0.835-0.5-1.109V4h2v1.592
			C14.419,5.799,14,6.349,14,7c0,0.827,0.673,1.5,1.5,1.5S17,7.827,17,7c0-0.651-0.419-1.201-1-1.408V4h2v1.891
			C17.695,6.165,17.5,6.559,17.5,7c0,0.827,0.673,1.5,1.5,1.5s1.5-0.673,1.5-1.5S19.827,5.5,19,5.5V4h1c0.276,0,0.5-0.224,0.5-0.5
			S20.276,3,20,3h-4V0.5C16,0.224,15.776,0,15.5,0S15,0.224,15,0.5V3h-4c-0.276,0-0.5,0.224-0.5,0.5S10.724,4,11,4h1v1.5
			C11.173,5.5,10.5,6.173,10.5,7z M15.5,7.5C15.225,7.5,15,7.275,15,7s0.225-0.5,0.5-0.5S16,6.725,16,7S15.775,7.5,15.5,7.5z
			 M19.5,7c0,0.275-0.225,0.5-0.5,0.5S18.5,7.275,18.5,7s0.225-0.5,0.5-0.5S19.5,6.725,19.5,7z M12,7.5c-0.275,0-0.5-0.225-0.5-0.5
			s0.225-0.5,0.5-0.5s0.5,0.225,0.5,0.5S12.275,7.5,12,7.5z"/>
	</g>
</g>

</svg>
