<?xml version="1.0" encoding="utf-8"?>
<!-- Generator: Adobe Illustrator 16.0.3, SVG Export Plug-In . SVG Version: 6.00 Build 0)  -->
<!DOCTYPE svg PUBLIC "-//W3C//DTD SVG 1.1//EN" "http://www.w3.org/Graphics/SVG/1.1/DTD/svg11.dtd">
<svg version="1.1" xmlns="http://www.w3.org/2000/svg" xmlns:xlink="http://www.w3.org/1999/xlink" x="0px" y="0px" width="24px"
	 height="24px" viewBox="0 0 24 24" enable-background="new 0 0 24 24" xml:space="preserve">
<g id="Outline_Icons">
	<g>
		<path d="M17.438,2.392C16.045,0.872,14.062,0,12,0C9.938,0,7.957,0.872,6.563,2.392C5.17,3.909,4.474,5.959,4.651,8.015
			l0.874,10.049C5.819,21.448,8.604,24,12,24s6.181-2.552,6.475-5.937l0.51-5.858c0.006-0.037,0.012-0.073,0.01-0.112l0.354-4.078
			C19.527,5.96,18.83,3.91,17.438,2.392z M17.479,17.978c-0.013,0.149-0.055,0.288-0.079,0.434l-6.826-2.333l7.346-3.159
			L17.479,17.978z M7.3,3.067C8.505,1.754,10.218,1,12,1c1.783,0,3.496,0.754,4.7,2.067s1.807,3.085,1.652,4.861l-0.336,3.86
			l-8.853,3.807l-2.937-1.004l-0.58-6.663C5.494,6.151,6.097,4.38,7.3,3.067z M12,23c-2.874,0-5.229-2.159-5.479-5.022l-0.199-2.296
			l10.826,3.7C16.379,21.513,14.377,23,12,23z"/>
		<path d="M12.042,13c3.136,0,5.5-2.31,5.5-5.373c0-3.103-2.468-5.627-5.5-5.627s-5.5,2.524-5.5,5.627
			C6.542,10.69,8.906,13,12.042,13z M12.042,3c2.481,0,4.5,2.075,4.5,4.627c0,2.493-1.935,4.373-4.5,4.373s-4.5-1.88-4.5-4.373
			C7.542,5.075,9.561,3,12.042,3z"/>
		<path d="M10.995,9.513c0,0.554,0.441,0.987,1.005,0.987s1.005-0.434,1.005-0.987C13.005,8.954,12.554,8.5,12,8.5
			S10.995,8.954,10.995,9.513z"/>
		<path d="M9.5,6.525C9.5,6.235,9.725,6,10,6s0.5,0.235,0.5,0.525c0,0.276,0.224,0.5,0.5,0.5s0.5-0.224,0.5-0.5
			C11.5,5.685,10.827,5,10,5S8.5,5.685,8.5,6.525c0,0.276,0.224,0.5,0.5,0.5S9.5,6.802,9.5,6.525z"/>
		<path d="M13,7.025c0.276,0,0.5-0.224,0.5-0.5C13.5,6.235,13.725,6,14,6s0.5,0.235,0.5,0.525c0,0.276,0.224,0.5,0.5,0.5
			s0.5-0.224,0.5-0.5C15.5,5.685,14.827,5,14,5s-1.5,0.685-1.5,1.525C12.5,6.802,12.724,7.025,13,7.025z"/>
	</g>
</g>

</svg>
