<?xml version="1.0" encoding="utf-8"?>
<!-- Generator: Adobe Illustrator 16.0.3, SVG Export Plug-In . SVG Version: 6.00 Build 0)  -->
<!DOCTYPE svg PUBLIC "-//W3C//DTD SVG 1.1//EN" "http://www.w3.org/Graphics/SVG/1.1/DTD/svg11.dtd">
<svg version="1.1" xmlns="http://www.w3.org/2000/svg" xmlns:xlink="http://www.w3.org/1999/xlink" x="0px" y="0px" width="24px"
	 height="24px" viewBox="0 0 24 24" enable-background="new 0 0 24 24" xml:space="preserve">
<g id="Outline_Icons_1_">
	<g id="Outline_Icons">
		<g>
			<path d="M15,22.293l-3.146-3.146c-0.195-0.195-0.512-0.195-0.707,0L8,22.293V17H7v6.5c0,0.202,0.122,0.385,0.309,0.462
				c0.186,0.079,0.401,0.035,0.545-0.108l3.646-3.646l3.646,3.646C15.242,23.949,15.37,24,15.5,24c0.064,0,0.13-0.012,0.191-0.038
				C15.878,23.885,16,23.702,16,23.5V17h-1V22.293z"/>
			<path d="M15.475,7.343C15.407,7.139,15.216,7,15,7h-2.025l-1.027-2.057c-0.085-0.169-0.258-0.276-0.447-0.276
				s-0.362,0.107-0.447,0.276L10.024,7H8C7.784,7,7.593,7.139,7.525,7.343c-0.067,0.205,0.003,0.43,0.176,0.558L9.365,9.14
				l-0.679,2.279c-0.059,0.199,0.011,0.414,0.176,0.54c0.164,0.126,0.391,0.137,0.567,0.028l2.066-1.28l2.068,1.32
				c0.082,0.052,0.176,0.078,0.269,0.078c0.105,0,0.211-0.034,0.3-0.1c0.167-0.125,0.238-0.339,0.181-0.54l-0.681-2.33l1.665-1.232
				C15.471,7.773,15.542,7.549,15.475,7.343z M12.98,10.467l-1.212-0.772c-0.082-0.052-0.175-0.079-0.269-0.079
				c-0.091,0-0.183,0.025-0.264,0.075l-1.216,0.753l0.403-1.354c0.06-0.201-0.013-0.418-0.181-0.543L9.509,8h0.824
				c0.189,0,0.362-0.106,0.447-0.276l0.72-1.438l0.719,1.438C12.304,7.894,12.477,8,12.666,8h0.819l-0.728,0.539
				c-0.168,0.125-0.241,0.341-0.183,0.542L12.98,10.467z"/>
			<path d="M11.5,0C6.813,0,3,3.812,3,8.5c0,4.687,3.813,8.5,8.5,8.5S20,13.187,20,8.5C20,3.812,16.187,0,11.5,0z M11.5,16
				C7.364,16,4,12.636,4,8.5S7.364,1,11.5,1S19,4.364,19,8.5S15.636,16,11.5,16z"/>
			<path d="M11.5,2.5c-3.309,0-6,2.691-6,6s2.691,6,6,6s6-2.691,6-6S14.809,2.5,11.5,2.5z M11.5,13.5c-2.757,0-5-2.243-5-5
				s2.243-5,5-5s5,2.243,5,5S14.257,13.5,11.5,13.5z"/>
		</g>
	</g>
	<g id="New_icons_1_">
	</g>
</g>

</svg>
