<?xml version="1.0" encoding="utf-8"?>
<!-- Generator: Adobe Illustrator 16.0.3, SVG Export Plug-In . SVG Version: 6.00 Build 0)  -->
<!DOCTYPE svg PUBLIC "-//W3C//DTD SVG 1.1//EN" "http://www.w3.org/Graphics/SVG/1.1/DTD/svg11.dtd">
<svg version="1.1" xmlns="http://www.w3.org/2000/svg" xmlns:xlink="http://www.w3.org/1999/xlink" x="0px" y="0px" width="24px"
	 height="24px" viewBox="0 0 24 24" enable-background="new 0 0 24 24" xml:space="preserve">
<g id="Outline_Icons_1_">
	<g id="Outline_Icons">
		<g>
			<path d="M24,12c0-0.9-0.481-1.705-1.22-2.145c0.513-0.689,0.649-1.616,0.308-2.448c-0.346-0.831-1.098-1.39-1.948-1.514
				c0.211-0.833-0.019-1.741-0.655-2.378C19.85,2.88,18.94,2.649,18.106,2.861c-0.124-0.85-0.684-1.602-1.516-1.947
				c-0.83-0.345-1.758-0.209-2.447,0.305C13.704,0.48,12.899,0,12,0s-1.704,0.48-2.145,1.219C9.166,0.705,8.236,0.568,7.406,0.914
				C6.575,1.258,6.016,2.011,5.892,2.861C5.059,2.652,4.149,2.88,3.514,3.516C2.877,4.151,2.648,5.06,2.858,5.894
				C2.011,6.018,1.26,6.577,0.915,7.408C0.57,8.24,0.706,9.167,1.218,9.855C0.48,10.295,0,11.1,0,12c0,0.9,0.48,1.705,1.219,2.145
				c-0.513,0.689-0.648,1.617-0.305,2.449c0.344,0.83,1.096,1.389,1.945,1.514c-0.21,0.833,0.019,1.742,0.654,2.379
				c0.637,0.637,1.548,0.865,2.378,0.654c0.125,0.85,0.685,1.602,1.516,1.946s1.761,0.209,2.448-0.304C10.296,23.52,11.101,24,12,24
				s1.703-0.48,2.144-1.218c0.689,0.514,1.618,0.648,2.448,0.305c0.831-0.344,1.39-1.097,1.515-1.946
				c0.828,0.212,1.742-0.018,2.378-0.654c0.637-0.637,0.865-1.546,0.654-2.378c0.851-0.125,1.604-0.684,1.949-1.515
				c0.344-0.832,0.207-1.759-0.307-2.449C23.519,13.705,24,12.9,24,12z M21.776,13.471c-0.201,0.038-0.359,0.194-0.399,0.394
				s0.046,0.405,0.218,0.517c0.604,0.395,0.845,1.164,0.569,1.829c-0.277,0.666-0.992,1.042-1.696,0.891
				c-0.198-0.042-0.406,0.042-0.52,0.212s-0.112,0.393,0.004,0.561c0.408,0.595,0.335,1.396-0.175,1.905
				c-0.51,0.511-1.31,0.583-1.905,0.174c-0.169-0.116-0.392-0.117-0.561-0.004c-0.17,0.113-0.254,0.319-0.212,0.52
				c0.149,0.706-0.226,1.418-0.891,1.694c-0.666,0.275-1.436,0.037-1.828-0.566c-0.11-0.171-0.312-0.262-0.517-0.218
				c-0.2,0.04-0.356,0.198-0.394,0.398C13.339,22.485,12.72,23,12,23c-0.721,0-1.34-0.515-1.473-1.223
				c-0.037-0.201-0.193-0.358-0.395-0.398c-0.032-0.006-0.064-0.009-0.097-0.009c-0.167,0-0.326,0.084-0.42,0.229
				c-0.393,0.604-1.16,0.84-1.826,0.565c-0.666-0.276-1.041-0.988-0.892-1.692c0.042-0.2-0.041-0.405-0.211-0.519
				c-0.17-0.113-0.393-0.112-0.561,0.003c-0.597,0.408-1.397,0.333-1.906-0.175c-0.509-0.51-0.583-1.312-0.176-1.905
				c0.116-0.169,0.117-0.391,0.004-0.562c-0.113-0.169-0.315-0.253-0.52-0.211c-0.71,0.15-1.417-0.227-1.691-0.891
				c-0.275-0.667-0.037-1.436,0.566-1.829c0.171-0.112,0.257-0.316,0.217-0.517s-0.197-0.356-0.398-0.394
				C1.514,13.339,1,12.721,1,12s0.514-1.339,1.223-1.471c0.201-0.038,0.358-0.194,0.398-0.394c0.04-0.201-0.046-0.405-0.218-0.517
				C1.8,9.226,1.562,8.457,1.839,7.791C2.115,7.126,2.826,6.747,3.528,6.9c0.206,0.042,0.406-0.042,0.52-0.211
				c0.114-0.17,0.113-0.392-0.003-0.561C3.638,5.533,3.711,4.731,4.221,4.223s1.312-0.582,1.906-0.175
				c0.168,0.115,0.389,0.117,0.561,0.003c0.17-0.114,0.253-0.319,0.211-0.52C6.749,2.825,7.124,2.113,7.789,1.838
				c0.668-0.277,1.437-0.037,1.827,0.567c0.111,0.171,0.317,0.258,0.517,0.219c0.201-0.04,0.357-0.198,0.395-0.399
				C10.66,1.516,11.279,1,12,1c0.72,0,1.338,0.515,1.471,1.224c0.037,0.201,0.193,0.36,0.394,0.399
				c0.206,0.042,0.406-0.046,0.517-0.218c0.393-0.604,1.163-0.844,1.827-0.567c0.667,0.276,1.042,0.988,0.892,1.693
				c-0.042,0.199,0.041,0.405,0.211,0.52c0.169,0.113,0.392,0.111,0.561-0.003c0.597-0.408,1.397-0.333,1.906,0.176
				c0.51,0.509,0.584,1.31,0.175,1.904c-0.116,0.168-0.117,0.391-0.004,0.561c0.113,0.17,0.32,0.254,0.52,0.212
				c0.706-0.15,1.42,0.224,1.696,0.89c0.273,0.666,0.034,1.436-0.57,1.829c-0.171,0.111-0.257,0.316-0.217,0.517
				c0.04,0.201,0.198,0.357,0.399,0.394C22.485,10.661,23,11.279,23,12C23,12.721,22.485,13.34,21.776,13.471z"/>
			<path d="M12.5,5.752c-1.93,0-3.5,1.57-3.5,3.5c0,0.276,0.224,0.5,0.5,0.5s0.5-0.224,0.5-0.5c0-1.378,1.121-2.5,2.5-2.5
				s2.5,1.122,2.5,2.5c0,1.379-1.121,2.5-2.5,2.5c-0.276,0-0.5,0.224-0.5,0.5v3c0,0.276,0.224,0.5,0.5,0.5s0.5-0.224,0.5-0.5v-2.535
				c1.694-0.243,3-1.705,3-3.465C16,7.322,14.43,5.752,12.5,5.752z"/>
			<path d="M12.5,16.752c-0.552,0-1,0.449-1,1c0,0.551,0.448,1,1,1s1-0.449,1-1C13.5,17.201,13.052,16.752,12.5,16.752z
				 M12.5,17.752L12.5,17.752H13H12.5z"/>
		</g>
	</g>
	<g id="New_icons_1_">
	</g>
</g>

</svg>
