<?xml version="1.0" encoding="utf-8"?>
<!-- Generator: Adobe Illustrator 16.0.3, SVG Export Plug-In . SVG Version: 6.00 Build 0)  -->
<!DOCTYPE svg PUBLIC "-//W3C//DTD SVG 1.1//EN" "http://www.w3.org/Graphics/SVG/1.1/DTD/svg11.dtd">
<svg version="1.1" xmlns="http://www.w3.org/2000/svg" xmlns:xlink="http://www.w3.org/1999/xlink" x="0px" y="0px" width="24px"
	 height="24px" viewBox="0 0 24 24" enable-background="new 0 0 24 24" xml:space="preserve">
<g id="Outline_Icons">
	<g>
		<path d="M6.914,14.85c0.038,0.082,0.088,0.154,0.147,0.218l-0.097,0.117c-0.176,0.213-0.146,0.528,0.067,0.704
			c0.094,0.077,0.206,0.114,0.318,0.114c0.144,0,0.287-0.062,0.386-0.182l0.396-0.479c0.688-0.087,1.48-0.504,1.948-1.07
			c0.482-0.585,0.389-1.031,0.29-1.245c-0.151-0.327-0.493-0.52-0.94-0.528c0.021-0.037,0.052-0.082,0.096-0.135
			c0.328-0.398,0.991-0.743,1.424-0.743c0.002,0,0.004,0,0.006,0c-0.021,0.037-0.052,0.083-0.096,0.136
			c-0.177,0.213-0.146,0.528,0.066,0.704c0.211,0.176,0.526,0.147,0.703-0.066c0.483-0.584,0.391-1.029,0.292-1.243
			c-0.038-0.082-0.088-0.155-0.147-0.22l0.097-0.117c0.176-0.213,0.146-0.528-0.067-0.704c-0.211-0.176-0.526-0.146-0.704,0.066
			l-0.397,0.481c-0.672,0.089-1.482,0.505-1.947,1.067c-0.483,0.586-0.389,1.032-0.289,1.246c0.152,0.328,0.495,0.52,0.94,0.526
			c-0.021,0.037-0.053,0.084-0.097,0.137c-0.328,0.397-0.99,0.741-1.423,0.741c-0.003,0-0.005,0-0.007,0
			c0.021-0.037,0.052-0.083,0.096-0.137c0.176-0.213,0.146-0.528-0.067-0.704c-0.214-0.174-0.528-0.146-0.704,0.068
			C6.722,14.191,6.815,14.636,6.914,14.85z"/>
		<path d="M23.5,6h-23C0.224,6,0,6.224,0,6.5v6C0,12.776,0.224,13,0.5,13h3.793l-4.146,4.146c-0.143,0.144-0.186,0.358-0.108,0.545
			S0.298,18,0.5,18h10c0.133,0,0.26-0.053,0.354-0.146l9-9c0.143-0.143,0.186-0.358,0.108-0.545S19.702,8,19.5,8h-10
			C9.367,8,9.24,8.053,9.146,8.146L5.293,12H1V7h22v5h-3.793l0.646-0.646c0.195-0.195,0.195-0.512,0-0.707s-0.512-0.195-0.707,0
			L10.793,19H0.5C0.224,19,0,19.224,0,19.5S0.224,20,0.5,20H11c0.133,0,0.26-0.053,0.354-0.146L18.207,13H23.5
			c0.276,0,0.5-0.224,0.5-0.5v-6C24,6.224,23.776,6,23.5,6z M9.707,9h8.586l-8,8H1.707L9.707,9z"/>
	</g>
</g>

</svg>
