<?xml version="1.0" encoding="utf-8"?>
<!-- Generator: Adobe Illustrator 16.0.3, SVG Export Plug-In . SVG Version: 6.00 Build 0)  -->
<!DOCTYPE svg PUBLIC "-//W3C//DTD SVG 1.1//EN" "http://www.w3.org/Graphics/SVG/1.1/DTD/svg11.dtd">
<svg version="1.1" xmlns="http://www.w3.org/2000/svg" xmlns:xlink="http://www.w3.org/1999/xlink" x="0px" y="0px" width="24px"
	 height="24px" viewBox="0 0 24 24" enable-background="new 0 0 24 24" xml:space="preserve">
<g id="Outline_Icons">
	<g>
		<path d="M17.836,15.243c-1.654,0-3,1.346-3,3s1.346,3,3,3s3-1.346,3-3S19.49,15.243,17.836,15.243z M17.836,20.243
			c-1.103,0-2-0.897-2-2s0.897-2,2-2s2,0.897,2,2S18.939,20.243,17.836,20.243z"/>
		<path d="M22.092,1.823c-0.695-0.696-1.621-1.08-2.607-1.08c-1.14,0-2.198,0.513-2.896,1.401L5.743,15.429l-3.612,3.612
			c-0.556-0.25-1.251-0.165-1.693,0.279C0.155,19.603,0,19.979,0,20.381s0.156,0.778,0.439,1.061l2.122,2.122
			c0.283,0.283,0.66,0.439,1.061,0.439c0.4,0,0.777-0.155,1.061-0.438c0.283-0.284,0.439-0.662,0.439-1.064
			c0-0.227-0.055-0.442-0.149-0.641l3.536-3.54L21.789,7.312c0.817-0.654,1.319-1.63,1.377-2.678
			C23.224,3.589,22.833,2.563,22.092,1.823z M3.62,20.381l-0.707-0.707l1.061-1.062l1.416,1.416l-1.061,1.062L3.62,20.381z
			 M4.681,17.904l1.06-1.062l1.417,1.416L6.097,19.32L4.681,17.904z M3.975,22.857c-0.189,0.188-0.519,0.188-0.708-0.001
			l-2.122-2.122C1.051,20.64,1,20.515,1,20.381s0.052-0.259,0.146-0.354C1.24,19.933,1.366,19.88,1.5,19.88
			c0.133,0,0.258,0.052,0.353,0.147l2.123,2.123c0.094,0.093,0.145,0.218,0.146,0.352C4.121,22.637,4.069,22.763,3.975,22.857z
			 M21.158,6.537L7.867,17.555l-1.42-1.42l0.037-0.036L17.369,2.771c0.958-1.218,2.923-1.335,4.016-0.24
			c0.54,0.54,0.825,1.287,0.783,2.049C22.125,5.344,21.76,6.055,21.158,6.537z"/>
	</g>
</g>

</svg>
