<?xml version="1.0" encoding="utf-8"?>
<!-- Generator: Adobe Illustrator 16.0.3, SVG Export Plug-In . SVG Version: 6.00 Build 0)  -->
<!DOCTYPE svg PUBLIC "-//W3C//DTD SVG 1.1//EN" "http://www.w3.org/Graphics/SVG/1.1/DTD/svg11.dtd">
<svg version="1.1" xmlns="http://www.w3.org/2000/svg" xmlns:xlink="http://www.w3.org/1999/xlink" x="0px" y="0px" width="24px"
	 height="24px" viewBox="0 0 24 24" enable-background="new 0 0 24 24" xml:space="preserve">
<g id="Outline_Icons">
	<g>
		<path d="M21.276,14.818c-1.162,0-1.776,0.637-2.272,1.384c-0.496-0.747-1.11-1.384-2.272-1.384c-1.341,0-2.728,1.116-2.728,2.984
			c0,2.611,4.226,5.752,4.707,6.102C18.799,23.969,18.901,24,19.005,24s0.206-0.031,0.294-0.096c0.481-0.35,4.705-3.493,4.705-6.102
			C24.004,15.935,22.617,14.818,21.276,14.818z M19.004,22.878c-1.979-1.499-4-3.651-4-5.075c0-1.242,0.878-1.984,1.728-1.984
			c0.847,0,1.171,0.476,1.769,1.466l0.076,0.126c0.182,0.299,0.674,0.299,0.855,0l0.076-0.126c0.598-0.99,0.922-1.466,1.769-1.466
			c0.85,0,1.728,0.742,1.728,1.984C23.004,19.226,20.983,21.378,19.004,22.878z"/>
		<path d="M11.505,18H3.906l-1.778-8h16.754l-0.422,1.898c-0.06,0.27,0.11,0.537,0.38,0.597c0.272,0.06,0.537-0.11,0.597-0.38
			L19.906,10h0.599c0.276,0,0.5-0.224,0.5-0.5v-2c0-0.276-0.224-0.5-0.5-0.5h-20c-0.276,0-0.5,0.224-0.5,0.5v2
			c0,0.276,0.224,0.5,0.5,0.5h0.599l1.913,8.608C3.067,18.838,3.271,19,3.505,19h8c0.276,0,0.5-0.224,0.5-0.5S11.781,18,11.505,18z
			 M1.005,8h19v1h-0.5h-18h-0.5V8z"/>
		<path d="M3.505,6c0.113,0,0.227-0.038,0.32-0.115l6-5c0.212-0.177,0.24-0.493,0.063-0.705C9.711-0.034,9.396-0.06,9.185,0.116
			l-6,5C2.973,5.292,2.944,5.608,3.121,5.82C3.22,5.939,3.362,6,3.505,6z"/>
		<path d="M17.185,5.885C17.278,5.962,17.392,6,17.505,6c0.143,0,0.285-0.061,0.384-0.18c0.177-0.212,0.148-0.528-0.063-0.705l-6-5
			c-0.212-0.175-0.527-0.149-0.704,0.064c-0.177,0.212-0.148,0.528,0.063,0.705L17.185,5.885z"/>
	</g>
</g>

</svg>
