<?xml version="1.0" encoding="utf-8"?>
<!-- Generator: Adobe Illustrator 16.0.3, SVG Export Plug-In . SVG Version: 6.00 Build 0)  -->
<!DOCTYPE svg PUBLIC "-//W3C//DTD SVG 1.1//EN" "http://www.w3.org/Graphics/SVG/1.1/DTD/svg11.dtd">
<svg version="1.1" xmlns="http://www.w3.org/2000/svg" xmlns:xlink="http://www.w3.org/1999/xlink" x="0px" y="0px" width="24px"
	 height="24px" viewBox="0 0 24 24" enable-background="new 0 0 24 24" xml:space="preserve">
<g id="Outline_Icons">
	<g>
		<path d="M18.5,13c-3.032,0-5.5,2.467-5.5,5.5s2.468,5.5,5.5,5.5s5.5-2.467,5.5-5.5S21.532,13,18.5,13z M18.5,14
			c1.061,0,2.023,0.385,2.794,1L15,21.293c-0.616-0.77-1-1.732-1-2.793C14,16.019,16.019,14,18.5,14z M18.5,23
			c-1.061,0-2.023-0.384-2.793-1l6.294-6.293C22.616,16.478,23,17.44,23,18.5C23,20.982,20.981,23,18.5,23z"/>
		<path d="M11.5,18H3.901l-1.778-8h16.754l-0.422,1.898c-0.06,0.27,0.11,0.537,0.38,0.597c0.274,0.059,0.537-0.111,0.597-0.38
			L19.901,10H20.5c0.276,0,0.5-0.224,0.5-0.5v-2C21,7.224,20.776,7,20.5,7h-20C0.224,7,0,7.224,0,7.5v2C0,9.776,0.224,10,0.5,10
			h0.599l1.913,8.608C3.062,18.838,3.266,19,3.5,19h8c0.276,0,0.5-0.224,0.5-0.5S11.776,18,11.5,18z M1,8h19v1h-0.5h-18H1V8z"/>
		<path d="M3.5,6c0.113,0,0.227-0.038,0.32-0.115l6-5c0.212-0.177,0.24-0.493,0.063-0.705C9.706-0.034,9.391-0.06,9.18,0.116l-6,5
			C2.968,5.292,2.939,5.608,3.116,5.82C3.215,5.939,3.357,6,3.5,6z"/>
		<path d="M17.18,5.885C17.273,5.962,17.387,6,17.5,6c0.143,0,0.285-0.061,0.384-0.18c0.177-0.212,0.148-0.528-0.063-0.705l-6-5
			c-0.211-0.175-0.526-0.149-0.704,0.064c-0.177,0.212-0.148,0.528,0.063,0.705L17.18,5.885z"/>
	</g>
</g>

</svg>
