<?xml version="1.0" encoding="utf-8"?>
<!-- Generator: Adobe Illustrator 16.0.3, SVG Export Plug-In . SVG Version: 6.00 Build 0)  -->
<!DOCTYPE svg PUBLIC "-//W3C//DTD SVG 1.1//EN" "http://www.w3.org/Graphics/SVG/1.1/DTD/svg11.dtd">
<svg version="1.1" xmlns="http://www.w3.org/2000/svg" xmlns:xlink="http://www.w3.org/1999/xlink" x="0px" y="0px" width="24px"
	 height="24px" viewBox="0 0 24 24" enable-background="new 0 0 24 24" xml:space="preserve">
<g id="Outline_Icons_1_">
	<g id="Outline_Icons">
		<g>
			<path d="M14.5,8h-4h-4h-4C2.224,8,2,8.224,2,8.5v7C2,15.776,2.224,16,2.5,16h4h4h4c0.276,0,0.5-0.224,0.5-0.5v-7
				C15,8.224,14.776,8,14.5,8z M3,9h3v6H3V9z M7,9h3v6H7V9z M14,15h-3V9h3V15z"/>
			<path d="M23.5,9H21V6.5C21,6.224,20.776,6,20.5,6h-20C0.224,6,0,6.224,0,6.5v11C0,17.776,0.224,18,0.5,18h20
				c0.276,0,0.5-0.224,0.5-0.5V15h2.5c0.276,0,0.5-0.224,0.5-0.5v-5C24,9.224,23.776,9,23.5,9z M23,14h-2.5
				c-0.276,0-0.5,0.224-0.5,0.5V17H1V7h19v2.5c0,0.276,0.224,0.5,0.5,0.5H23V14z"/>
		</g>
	</g>
	<g id="New_icons_1_">
	</g>
</g>

</svg>
