<?xml version="1.0" encoding="utf-8"?>
<!-- Generator: Adobe Illustrator 16.0.3, SVG Export Plug-In . SVG Version: 6.00 Build 0)  -->
<!DOCTYPE svg PUBLIC "-//W3C//DTD SVG 1.1//EN" "http://www.w3.org/Graphics/SVG/1.1/DTD/svg11.dtd">
<svg version="1.1" xmlns="http://www.w3.org/2000/svg" xmlns:xlink="http://www.w3.org/1999/xlink" x="0px" y="0px" width="24px"
	 height="24px" viewBox="0 0 24 24" enable-background="new 0 0 24 24" xml:space="preserve">
<g id="Outline_Icons">
	<g>
		<path d="M4.5,11.5c0,0.596,0.18,1.148,0.479,1.615L4.062,20H4c-1.103,0-2,0.896-2,2c0,1.103,0.897,2,2,2h15c1.103,0,2-0.897,2-2
			c0-1.104-0.897-2-2-2h-0.05l-0.104-1h1.798C21.943,19,23,17.878,23,16.5v-3c0-1.373-1.113-2.489-2.484-2.498
			C21.982,10.259,23,8.754,23,7c0-2.481-2.019-4.5-4.5-4.5c-0.644,0-1.278,0.14-1.863,0.409C15.553,1.102,13.629,0,11.5,0
			C9.37,0,7.446,1.102,6.363,2.908C5.778,2.64,5.144,2.5,4.5,2.5C2.019,2.5,0,4.519,0,7S2.019,11.5,4.5,11.5z M20,22
			c0,0.551-0.448,1-1,1H4c-0.552,0-1-0.449-1-1c0-0.551,0.448-1,1-1h15C19.552,21,20,21.449,20,22z M5.071,20l0.799-5.988
			C6.34,14.318,6.898,14.5,7.5,14.5c0.152,0,0.3-0.019,0.446-0.041l-0.443,3.986c-0.03,0.274,0.167,0.522,0.441,0.552
			C7.964,18.999,7.982,19,8.001,19c0.251,0,0.468-0.189,0.496-0.445l0.495-4.459c0.786-0.454,1.352-1.249,1.479-2.186
			c1.844,0.323,3.736-0.253,5.093-1.505c0.434,0.375,0.936,0.653,1.472,0.839L17.945,20H5.071z M22,13.5v3
			c0,0.827-0.608,1.5-1.355,1.5h-1.901l-0.624-6H20.5C21.327,12,22,12.673,22,13.5z M4.5,3.5c0.634,0,1.259,0.176,1.807,0.509
			c0.12,0.073,0.267,0.093,0.4,0.052c0.135-0.039,0.246-0.133,0.309-0.259C7.864,2.073,9.582,1,11.5,1
			c1.917,0,3.635,1.074,4.485,2.802c0.062,0.126,0.174,0.22,0.308,0.259c0.138,0.041,0.28,0.021,0.4-0.052
			C17.241,3.676,17.866,3.5,18.5,3.5C20.43,3.5,22,5.07,22,7s-1.57,3.5-3.5,3.5c-0.988,0-1.902-0.403-2.574-1.135
			c-0.095-0.104-0.229-0.162-0.368-0.162c0,0,0,0-0.001,0c-0.14,0-0.273,0.06-0.368,0.163c-1.263,1.381-3.234,1.961-5.072,1.437
			c-0.156-0.046-0.328-0.01-0.455,0.094s-0.194,0.265-0.181,0.428c0,0.009,0.019,0.167,0.02,0.176c0,1.103-0.897,2-2,2s-2-0.897-2-2
			c0-0.139,0.017-0.279,0.052-0.431c0.037-0.16-0.008-0.328-0.118-0.449c-0.096-0.104-0.229-0.163-0.369-0.163
			c-0.022,0-0.045,0.001-0.067,0.005C4.833,10.484,4.668,10.5,4.5,10.5C2.57,10.5,1,8.93,1,7S2.57,3.5,4.5,3.5z"/>
		<path d="M14.45,13.002c-0.274,0.027-0.476,0.272-0.447,0.547l0.5,5c0.025,0.258,0.243,0.45,0.496,0.45
			c0.017,0,0.034-0.001,0.051-0.002c0.274-0.027,0.476-0.272,0.447-0.548l-0.5-5C14.97,13.175,14.716,12.976,14.45,13.002z"/>
		<path d="M11.5,13c-0.276,0-0.5,0.224-0.5,0.5v5c0,0.276,0.224,0.5,0.5,0.5s0.5-0.224,0.5-0.5v-5C12,13.224,11.776,13,11.5,13z"/>
	</g>
</g>

</svg>
