<?xml version="1.0" encoding="utf-8"?>
<!-- Generator: Adobe Illustrator 19.2.1, SVG Export Plug-In . SVG Version: 6.00 Build 0)  -->
<svg version="1.1" xmlns="http://www.w3.org/2000/svg" xmlns:xlink="http://www.w3.org/1999/xlink" x="0px" y="0px" width="24px"
	 height="24px" viewBox="0 0 24 24" enable-background="new 0 0 24 24" xml:space="preserve">
<g id="Outline_Icons_1_">
	<g id="Outline_Icons">
		<path d="M21.5,0h-19C2.224,0,2,0.224,2,0.5S2.224,1,2.5,1h1.042l1.96,22.544C5.522,23.773,5.734,24,5.999,24H6l0,0h12l0,0h0
			c0.266,0,0.477-0.227,0.497-0.456L20.458,1H21.5C21.776,1,22,0.776,22,0.5S21.776,0,21.5,0z M18.585,11h-3.541l0.217-5h3.759
			L18.585,11z M18.063,17h-3.28L15,12h3.498L18.063,17z M17.542,23h-3.019l0.217-5h3.237L17.542,23z M9.217,17h-3.28l-0.435-5H9
			L9.217,17z M10,12H14l-0.217,5h-3.564L10,12z M5.415,11L4.98,6h3.759l0.217,5H5.415z M6.024,18H9.26l0.217,5H6.458L6.024,18z
			 M10.261,18h3.478l-0.218,5h-3.042L10.261,18z M14.043,11H9.957L9.74,6h4.521L14.043,11z M9.696,5L9.522,1h4.956l-0.174,4H9.696z
			 M8.521,1l0.174,4H4.893L4.545,1H8.521z M19.107,5h-3.802l0.174-4h3.976L19.107,5z"/>
	</g>
	<g id="New_icons_1_">
	</g>
</g>

</svg>
