<?xml version="1.0" encoding="utf-8"?>
<!-- Generator: Adobe Illustrator 16.0.3, SVG Export Plug-In . SVG Version: 6.00 Build 0)  -->
<!DOCTYPE svg PUBLIC "-//W3C//DTD SVG 1.1//EN" "http://www.w3.org/Graphics/SVG/1.1/DTD/svg11.dtd">
<svg version="1.1" xmlns="http://www.w3.org/2000/svg" xmlns:xlink="http://www.w3.org/1999/xlink" x="0px" y="0px" width="24px"
	 height="24px" viewBox="0 0 24 24" enable-background="new 0 0 24 24" xml:space="preserve">
<g id="Outline_Icons">
	<g>
		<path d="M15,13c0-1.104-0.897-2-2-2V9.521c0-0.276-0.224-0.5-0.5-0.5S12,9.244,12,9.521V11h-1V9.521c0-0.276-0.224-0.5-0.5-0.5
			S10,9.244,10,9.521V11H9.5C9.224,11,9,11.224,9,11.5v3v3C9,17.776,9.224,18,9.5,18H10v1.5c0,0.276,0.224,0.5,0.5,0.5
			s0.5-0.224,0.5-0.5V18h1v1.5c0,0.276,0.224,0.5,0.5,0.5s0.5-0.224,0.5-0.5V18c1.103,0,2-0.897,2-2c0-0.6-0.271-1.133-0.691-1.5
			C14.729,14.133,15,13.6,15,13z M14,16c0,0.551-0.448,1-1,1h-3v-2h3C13.552,15,14,15.449,14,16z M10,14v-2h3c0.552,0,1,0.449,1,1
			c0,0.551-0.448,1-1,1H10z"/>
		<path d="M21.5,2h-19C1.121,2,0,3.122,0,4.5v15C0,20.878,1.121,22,2.5,22h19c1.379,0,2.5-1.122,2.5-2.5v-15
			C24,3.122,22.879,2,21.5,2z M2.5,3h19C22.327,3,23,3.673,23,4.5V7H1V4.5C1,3.673,1.673,3,2.5,3z M21.5,21h-19
			C1.673,21,1,20.327,1,19.5V8h22v11.5C23,20.327,22.327,21,21.5,21z"/>
		<circle cx="4" cy="5" r="1"/>
		<circle cx="7" cy="5" r="1"/>
		<circle cx="10" cy="5" r="1"/>
	</g>
</g>

</svg>
