<?xml version="1.0" encoding="utf-8"?>
<!-- Generator: Adobe Illustrator 16.0.3, SVG Export Plug-In . SVG Version: 6.00 Build 0)  -->
<!DOCTYPE svg PUBLIC "-//W3C//DTD SVG 1.1//EN" "http://www.w3.org/Graphics/SVG/1.1/DTD/svg11.dtd">
<svg version="1.1" xmlns="http://www.w3.org/2000/svg" xmlns:xlink="http://www.w3.org/1999/xlink" x="0px" y="0px" width="24px"
	 height="24px" viewBox="0 0 24 24" enable-background="new 0 0 24 24" xml:space="preserve">
<g id="Outline_Icons">
	<g>
		<path d="M21.89,11.927c0.272-1.124,0.05-2.287-0.632-3.244C20.508,7.629,19.295,7,18.015,7c-0.007,0-0.014,0-0.021,0
			C16.991,4.593,14.628,3,12,3C8.577,3,5.765,5.659,5.518,9.019C2.434,9.266,0,11.861,0,15.015c0,3.316,2.691,6.015,6,6.015h13
			c2.757,0,5-2.249,5-5.015C24,14.392,23.2,12.859,21.89,11.927z M19,20.029H6c-2.757,0-5-2.249-5-5.015C1,12.25,3.243,10,6,10
			c0.276,0,0.5-0.224,0.5-0.5C6.5,6.467,8.968,4,12,4c2.33,0,4.414,1.48,5.186,3.684c0.076,0.217,0.293,0.354,0.521,0.332
			c1.081-0.104,2.114,0.373,2.736,1.247c0.568,0.798,0.711,1.788,0.39,2.715c-0.077,0.224,0.013,0.472,0.216,0.593
			C22.252,13.291,23,14.61,23,16.015C23,18.229,21.206,20.029,19,20.029z"/>
		<path d="M16,11c0-1.104-0.897-2-2-2V7.5C14,7.224,13.776,7,13.5,7S13,7.224,13,7.5V9h-1V7.5C12,7.224,11.776,7,11.5,7
			S11,7.224,11,7.5V9h-0.5C10.224,9,10,9.224,10,9.5v3v3c0,0.276,0.224,0.5,0.5,0.5H11v1.5c0,0.276,0.224,0.5,0.5,0.5
			s0.5-0.224,0.5-0.5V16h1v1.5c0,0.276,0.224,0.5,0.5,0.5s0.5-0.224,0.5-0.5V16c1.103,0,2-0.897,2-2c0-0.6-0.271-1.133-0.691-1.5
			C15.729,12.133,16,11.6,16,11z M15,14c0,0.551-0.448,1-1,1h-3v-2h3C14.552,13,15,13.449,15,14z M11,12v-2h3c0.552,0,1,0.449,1,1
			c0,0.551-0.448,1-1,1H11z"/>
	</g>
</g>

</svg>
