<?xml version="1.0" encoding="utf-8"?>
<!-- Generator: Adobe Illustrator 16.0.3, SVG Export Plug-In . SVG Version: 6.00 Build 0)  -->
<!DOCTYPE svg PUBLIC "-//W3C//DTD SVG 1.1//EN" "http://www.w3.org/Graphics/SVG/1.1/DTD/svg11.dtd">
<svg version="1.1" xmlns="http://www.w3.org/2000/svg" xmlns:xlink="http://www.w3.org/1999/xlink" x="0px" y="0px" width="24px"
	 height="24px" viewBox="0 0 24 24" enable-background="new 0 0 24 24" xml:space="preserve">
<g id="Outline_Icons">
	<g>
		<path d="M21,16c0-4.244-7.273-15.307-7.583-15.775c-0.186-0.28-0.648-0.28-0.834,0C12.273,0.693,5,11.756,5,16
			c0,4.411,3.589,8,8,8S21,20.411,21,16z M6,16c0-3.395,5.434-12.132,7-14.58c1.566,2.448,7,11.184,7,14.58c0,3.86-3.141,7-7,7
			S6,19.86,6,16z"/>
		<path d="M11.277,9.058c-0.242-0.128-0.547-0.036-0.675,0.21C8.876,12.553,8,14.818,8,16c0,1.422,0.608,2.781,1.669,3.729
			c0.095,0.086,0.214,0.128,0.333,0.128c0.137,0,0.274-0.056,0.373-0.166c0.184-0.206,0.166-0.522-0.04-0.706
			C9.486,18.226,9,17.138,9,16c0-0.989,0.884-3.215,2.487-6.268C11.616,9.488,11.522,9.186,11.277,9.058z"/>
	</g>
</g>

</svg>
