<?xml version="1.0" encoding="utf-8"?>
<!-- Generator: Adobe Illustrator 16.0.3, SVG Export Plug-In . SVG Version: 6.00 Build 0)  -->
<!DOCTYPE svg PUBLIC "-//W3C//DTD SVG 1.1//EN" "http://www.w3.org/Graphics/SVG/1.1/DTD/svg11.dtd">
<svg version="1.1" xmlns="http://www.w3.org/2000/svg" xmlns:xlink="http://www.w3.org/1999/xlink" x="0px" y="0px" width="24px"
	 height="24px" viewBox="0 0 24 24" enable-background="new 0 0 24 24" xml:space="preserve">
<g id="Outline_Icons">
	<g>
		<path d="M21.5,23c-0.694,0-1.5-0.655-1.5-1.5c0-0.276-0.224-0.5-0.5-0.5S19,21.224,19,21.5c0,0.845-0.806,1.5-1.5,1.5
			S16,22.345,16,21.5c0-0.276-0.224-0.5-0.5-0.5S15,21.224,15,21.5c0,0.845-0.806,1.5-1.5,1.5S12,22.345,12,21.5
			c0-0.276-0.224-0.5-0.5-0.5S11,21.224,11,21.5c0,0.845-0.806,1.5-1.5,1.5S8,22.345,8,21.5C8,21.224,7.776,21,7.5,21
			S7,21.224,7,21.5C7,22.345,6.194,23,5.5,23S4,22.345,4,21.5C4,21.224,3.776,21,3.5,21S3,21.224,3,21.5C3,22.345,2.194,23,1.5,23
			C1.224,23,1,23.224,1,23.5S1.224,24,1.5,24c0.797,0,1.536-0.418,2-1.04C3.964,23.582,4.703,24,5.5,24s1.536-0.418,2-1.04
			C7.964,23.582,8.703,24,9.5,24s1.536-0.418,2-1.04c0.464,0.622,1.203,1.04,2,1.04s1.536-0.418,2-1.04
			c0.464,0.622,1.203,1.04,2,1.04s1.536-0.418,2-1.04c0.464,0.622,1.203,1.04,2,1.04c0.276,0,0.5-0.224,0.5-0.5S21.776,23,21.5,23z"
			/>
		<path d="M1.5,20c0.797,0,1.536-0.418,2-1.04C3.964,19.582,4.703,20,5.5,20s1.536-0.418,2-1.04C7.964,19.582,8.703,20,9.5,20
			s1.536-0.418,2-1.04c0.464,0.622,1.203,1.04,2,1.04s1.536-0.418,2-1.04c0.464,0.622,1.203,1.04,2,1.04s1.536-0.418,2-1.04
			c0.464,0.622,1.203,1.04,2,1.04c0.276,0,0.5-0.224,0.5-0.5S21.776,19,21.5,19c-0.694,0-1.5-0.655-1.5-1.5
			c0-0.276-0.224-0.5-0.5-0.5S19,17.224,19,17.5c0,0.845-0.806,1.5-1.5,1.5S16,18.345,16,17.5c0-0.276-0.224-0.5-0.5-0.5
			S15,17.224,15,17.5c0,0.845-0.806,1.5-1.5,1.5S12,18.345,12,17.5c0-0.276-0.224-0.5-0.5-0.5S11,17.224,11,17.5
			c0,0.845-0.806,1.5-1.5,1.5S8,18.345,8,17.5C8,17.224,7.776,17,7.5,17S7,17.224,7,17.5C7,18.345,6.194,19,5.5,19S4,18.345,4,17.5
			C4,17.224,3.776,17,3.5,17S3,17.224,3,17.5C3,18.345,2.194,19,1.5,19C1.224,19,1,19.224,1,19.5S1.224,20,1.5,20z"/>
		<path d="M4.488,15.96C4.551,15.987,4.618,16,4.683,16c0.195,0,0.38-0.115,0.46-0.305c0.107-0.254-0.011-0.548-0.266-0.655
			C4.093,14.708,3.662,13.828,3.538,13h14.92c-0.133,0.838-0.575,1.749-1.182,2.053c-0.247,0.124-0.347,0.424-0.224,0.671
			c0.124,0.247,0.423,0.346,0.671,0.224C18.877,15.37,19.5,13.741,19.5,12.5c0-0.276-0.224-0.5-0.5-0.5h-8v-2h6.5
			c0.007,0,0.013,0,0.02,0h0.98c0.276,0,0.5-0.224,0.5-0.5S18.776,9,18.5,9h-0.764L11,0.821V0.5C11,0.224,10.776,0,10.5,0
			S10,0.224,10,0.5V1v8.5V12H3c-0.276,0-0.5,0.224-0.5,0.5C2.5,13.804,3.115,15.38,4.488,15.96z M16.44,9H11V2.394L16.44,9z"/>
	</g>
</g>

</svg>
