<?xml version="1.0" encoding="utf-8"?>
<!-- Generator: Adobe Illustrator 16.0.3, SVG Export Plug-In . SVG Version: 6.00 Build 0)  -->
<!DOCTYPE svg PUBLIC "-//W3C//DTD SVG 1.1//EN" "http://www.w3.org/Graphics/SVG/1.1/DTD/svg11.dtd">
<svg version="1.1" xmlns="http://www.w3.org/2000/svg" xmlns:xlink="http://www.w3.org/1999/xlink" x="0px" y="0px" width="24px"
	 height="24px" viewBox="0 0 24 24" enable-background="new 0 0 24 24" xml:space="preserve">
<g id="Outline_Icons_1_">
	<g id="Outline_Icons">
		<g>
			<path d="M8.409,15.199l-1.384,4.155c-0.066,0.2,0,0.42,0.165,0.551c0.091,0.071,0.2,0.107,0.31,0.107
				c0.092,0,0.184-0.025,0.265-0.076l3.735-2.334l3.735,2.333c0.179,0.112,0.407,0.099,0.574-0.031
				c0.165-0.131,0.231-0.351,0.165-0.551l-1.384-4.152l3.2-2.292c0.177-0.126,0.251-0.352,0.185-0.56
				C17.909,12.14,17.717,12,17.5,12h-4.14l-1.386-4.171c-0.137-0.409-0.812-0.409-0.949,0L9.64,12H5.5
				c-0.217,0-0.409,0.14-0.476,0.347c-0.066,0.208,0.008,0.433,0.185,0.56L8.409,15.199z M10,13c0.216,0,0.406-0.138,0.475-0.342
				L11.5,9.573l1.025,3.085C12.594,12.862,12.784,13,13,13h2.943l-2.234,1.6c-0.179,0.128-0.253,0.357-0.184,0.565l1.062,3.184
				l-2.822-1.762c-0.162-0.101-0.367-0.101-0.529,0l-2.822,1.763l1.062-3.187c0.069-0.208-0.005-0.437-0.184-0.564L7.057,13H10z"/>
			<path d="M21.5,4h-17C3.673,4,3,3.327,3,2.5S3.673,1,4.5,1h17C21.776,1,22,0.776,22,0.5S21.776,0,21.5,0h-17
				C3.121,0,2,1.122,2,2.5c0,0.118,0.008,0.234,0.024,0.347C2.009,2.895,2,2.946,2,3v18.5C2,22.878,3.121,24,4.5,24h17
				c0.276,0,0.5-0.224,0.5-0.5v-19C22,4.224,21.776,4,21.5,4z M21,23H4.5C3.673,23,3,22.327,3,21.5V4.499C3.418,4.813,3.938,5,4.5,5
				H21V23z"/>
			<path d="M4.5,2C4.224,2,4,2.224,4,2.5S4.224,3,4.5,3h16C20.776,3,21,2.776,21,2.5S20.776,2,20.5,2H4.5z"/>
		</g>
	</g>
	<g id="New_icons_1_">
	</g>
</g>

</svg>
