<?xml version="1.0" encoding="utf-8"?>
<!-- Generator: Adobe Illustrator 16.0.3, SVG Export Plug-In . SVG Version: 6.00 Build 0)  -->
<!DOCTYPE svg PUBLIC "-//W3C//DTD SVG 1.1//EN" "http://www.w3.org/Graphics/SVG/1.1/DTD/svg11.dtd">
<svg version="1.1" xmlns="http://www.w3.org/2000/svg" xmlns:xlink="http://www.w3.org/1999/xlink" x="0px" y="0px" width="24px"
	 height="24px" viewBox="0 0 24 24" enable-background="new 0 0 24 24" xml:space="preserve">
<g id="Outline_Icons_1_">
	<g id="Outline_Icons">
		<g>
			<path d="M20.5,4H20V0.5C20,0.224,19.776,0,19.5,0h-14C4.121,0,3,1.122,3,2.5v19C3,22.878,4.121,24,5.5,24h15
				c0.276,0,0.5-0.224,0.5-0.5v-19C21,4.224,20.776,4,20.5,4z M5.5,1H19v3h-1V2.5C18,2.224,17.776,2,17.5,2h-12
				C5.224,2,5,2.224,5,2.5S5.224,3,5.5,3H17v1H5.5C4.673,4,4,3.327,4,2.5S4.673,1,5.5,1z M20,23H5.5C4.673,23,4,22.327,4,21.5V4.499
				C4.418,4.813,4.938,5,5.5,5H20V23z"/>
			<path d="M13.968,14.968l-0.099,0.098c-1.125-0.955-2.207-2.037-3.164-3.164l0.098-0.099c0.32-0.32,0.497-0.745,0.497-1.198
				c0-0.452-0.177-0.876-0.496-1.194L9.539,8.144C8.878,7.487,7.806,7.488,7.146,8.146L6.453,8.84
				c-0.764,0.763-0.886,1.974-0.289,2.879c2.056,3.108,4.783,5.836,7.889,7.888c0.384,0.254,0.823,0.378,1.261,0.378
				c0.591,0,1.178-0.227,1.618-0.666l0.694-0.694c0.66-0.66,0.66-1.734,0-2.394l-1.265-1.263
				C15.723,14.329,14.608,14.328,13.968,14.968z M16.919,17.918l-0.694,0.693c-0.429,0.43-1.109,0.499-1.62,0.162
				c-2.994-1.979-5.624-4.608-7.606-7.605C6.662,10.659,6.73,9.978,7.16,9.547l0.693-0.694c0.135-0.135,0.312-0.203,0.49-0.203
				s0.354,0.067,0.489,0.201l1.265,1.267c0.13,0.129,0.202,0.303,0.202,0.487c0,0.185-0.072,0.358-0.204,0.489c0,0,0,0,0,0
				l-0.421,0.422c-0.182,0.182-0.196,0.471-0.033,0.67c1.163,1.419,2.526,2.783,3.942,3.942c0.196,0.162,0.488,0.147,0.67-0.034
				l0.421-0.421c0.261-0.26,0.718-0.262,0.979,0l1.265,1.264C17.188,17.208,17.188,17.648,16.919,17.918z"/>
		</g>
	</g>
	<g id="New_icons_1_">
	</g>
</g>

</svg>
