<?xml version="1.0" encoding="utf-8"?>
<!-- Generator: Adobe Illustrator 16.0.3, SVG Export Plug-In . SVG Version: 6.00 Build 0)  -->
<!DOCTYPE svg PUBLIC "-//W3C//DTD SVG 1.1//EN" "http://www.w3.org/Graphics/SVG/1.1/DTD/svg11.dtd">
<svg version="1.1" xmlns="http://www.w3.org/2000/svg" xmlns:xlink="http://www.w3.org/1999/xlink" x="0px" y="0px" width="24px"
	 height="24px" viewBox="0 0 24 24" enable-background="new 0 0 24 24" xml:space="preserve">
<g id="Outline_Icons_1_">
	<g id="Outline_Icons">
		<g>
			<path d="M13.933,19.456c0.384,0.254,0.823,0.378,1.26,0.378c0.592,0,1.179-0.227,1.618-0.666l0.693-0.693
				c0.32-0.321,0.496-0.747,0.496-1.2c-0.001-0.452-0.177-0.876-0.496-1.194l-1.264-1.264c-0.661-0.66-1.734-0.658-2.394,0
				l-0.098,0.098c-1.124-0.954-2.206-2.035-3.165-3.164l0.099-0.098c0.319-0.321,0.496-0.746,0.495-1.198
				c0-0.452-0.176-0.876-0.495-1.195L9.419,7.994C9.099,7.675,8.674,7.5,8.223,7.5H8.222c-0.453,0-0.878,0.177-1.196,0.496
				L6.331,8.689c-0.764,0.764-0.885,1.975-0.288,2.879C8.098,14.674,10.826,17.402,13.933,19.456z M7.038,9.396l0.695-0.694
				C7.863,8.572,8.037,8.5,8.222,8.5c0.001,0,0.001,0,0.001,0c0.185,0,0.358,0.073,0.489,0.202l1.264,1.265
				c0.131,0.13,0.202,0.303,0.202,0.488c0,0.186-0.071,0.359-0.202,0.49l-0.422,0.422c-0.182,0.182-0.196,0.472-0.033,0.67
				c1.165,1.421,2.528,2.784,3.942,3.94c0.196,0.164,0.489,0.15,0.67-0.033l0.421-0.421c0.269-0.269,0.709-0.27,0.979,0l1.265,1.264
				c0.13,0.13,0.202,0.303,0.202,0.488c0,0.186-0.072,0.36-0.203,0.491l-0.693,0.693c-0.43,0.43-1.11,0.498-1.62,0.161
				c-2.995-1.98-5.625-4.61-7.606-7.604C6.541,10.507,6.609,9.826,7.038,9.396z"/>
			<path d="M21.5,4h-17C3.673,4,3,3.327,3,2.5S3.673,1,4.5,1h17C21.776,1,22,0.776,22,0.5S21.776,0,21.5,0h-17
				C3.121,0,2,1.122,2,2.5c0,0.118,0.008,0.234,0.024,0.347C2.009,2.895,2,2.946,2,3v18.5C2,22.878,3.121,24,4.5,24h17
				c0.276,0,0.5-0.224,0.5-0.5v-19C22,4.224,21.776,4,21.5,4z M21,23H4.5C3.673,23,3,22.327,3,21.5V4.499C3.418,4.813,3.938,5,4.5,5
				H21V23z"/>
			<path d="M4.5,2C4.224,2,4,2.224,4,2.5S4.224,3,4.5,3h16C20.776,3,21,2.776,21,2.5S20.776,2,20.5,2H4.5z"/>
		</g>
	</g>
	<g id="New_icons_1_">
	</g>
</g>

</svg>
