<?xml version="1.0" encoding="utf-8"?>
<!-- Generator: Adobe Illustrator 16.0.3, SVG Export Plug-In . SVG Version: 6.00 Build 0)  -->
<!DOCTYPE svg PUBLIC "-//W3C//DTD SVG 1.1//EN" "http://www.w3.org/Graphics/SVG/1.1/DTD/svg11.dtd">
<svg version="1.1" xmlns="http://www.w3.org/2000/svg" xmlns:xlink="http://www.w3.org/1999/xlink" x="0px" y="0px" width="24px"
	 height="24px" viewBox="0 0 24 24" enable-background="new 0 0 24 24" xml:space="preserve">
<g id="Outline_Icons_1_">
	<g id="Outline_Icons">
	</g>
	<g id="New_icons_1_">
		<g>
			<path d="M11.706,19.404C11.794,19.469,11.896,19.5,12,19.5s0.206-0.031,0.294-0.096C12.527,19.235,18,15.219,18,12.037
				c0-2.085-1.445-3.347-2.874-3.517C14.1,8.396,12.79,8.825,12,10.279c-0.79-1.454-2.102-1.882-3.126-1.758
				C7.445,8.69,6,9.952,6,12.037C6,15.219,11.473,19.235,11.706,19.404z M8.991,9.514C9.065,9.504,9.142,9.5,9.219,9.5
				c0.879,0,1.883,0.6,2.295,2.312c0.109,0.451,0.863,0.451,0.973,0c0.448-1.863,1.599-2.414,2.522-2.298
				C15.998,9.631,17,10.535,17,12.037c0,2.084-3.37,5.093-5,6.339c-1.63-1.246-5-4.252-5-6.339C7,10.535,8.002,9.631,8.991,9.514z"
				/>
			<path d="M21.5,4h-17C3.673,4,3,3.327,3,2.5S3.673,1,4.5,1h17C21.776,1,22,0.776,22,0.5S21.776,0,21.5,0h-17
				C3.121,0,2,1.122,2,2.5v19C2,22.878,3.121,24,4.5,24h17c0.276,0,0.5-0.224,0.5-0.5v-19C22,4.224,21.776,4,21.5,4z M21,23H4.5
				C3.673,23,3,22.327,3,21.5V4.499C3.418,4.813,3.938,5,4.5,5H21V23z"/>
			<path d="M4.5,2C4.224,2,4,2.224,4,2.5S4.224,3,4.5,3h16C20.776,3,21,2.776,21,2.5S20.776,2,20.5,2H4.5z"/>
		</g>
	</g>
</g>

</svg>
