<?xml version="1.0" encoding="utf-8"?>
<!-- Generator: Adobe Illustrator 16.0.3, SVG Export Plug-In . SVG Version: 6.00 Build 0)  -->
<!DOCTYPE svg PUBLIC "-//W3C//DTD SVG 1.1//EN" "http://www.w3.org/Graphics/SVG/1.1/DTD/svg11.dtd">
<svg version="1.1" xmlns="http://www.w3.org/2000/svg" xmlns:xlink="http://www.w3.org/1999/xlink" x="0px" y="0px" width="24px"
	 height="24px" viewBox="0 0 24 24" enable-background="new 0 0 24 24" xml:space="preserve">
<g id="Outline_Icons_1_">
	<g id="Outline_Icons">
		<g>
			<path d="M23.5,3h-23C0.224,3,0,3.224,0,3.5v5C0,8.776,0.224,9,0.5,9H1v12.5C1,21.776,1.224,22,1.5,22h21
				c0.276,0,0.5-0.224,0.5-0.5V9h0.5C23.776,9,24,8.776,24,8.5v-5C24,3.224,23.776,3,23.5,3z M22,21H2V9h20V21z M23,8h-0.5h-21H1V4
				h22V8z"/>
			<path d="M8.5,14h7c0.276,0,0.5-0.224,0.5-0.5v-2c0-0.276-0.224-0.5-0.5-0.5h-7C8.224,11,8,11.224,8,11.5v2
				C8,13.776,8.224,14,8.5,14z M9,12h6v1H9V12z"/>
		</g>
	</g>
	<g id="New_icons_1_">
	</g>
</g>

</svg>
