<?xml version="1.0" encoding="utf-8"?>
<!-- Generator: Adobe Illustrator 16.0.3, SVG Export Plug-In . SVG Version: 6.00 Build 0)  -->
<!DOCTYPE svg PUBLIC "-//W3C//DTD SVG 1.1//EN" "http://www.w3.org/Graphics/SVG/1.1/DTD/svg11.dtd">
<svg version="1.1" xmlns="http://www.w3.org/2000/svg" xmlns:xlink="http://www.w3.org/1999/xlink" x="0px" y="0px" width="24px"
	 height="24px" viewBox="0 0 24 24" enable-background="new 0 0 24 24" xml:space="preserve">
<g id="Outline_Icons">
	<g>
		<path d="M14,7v1.5C14,8.776,14.224,9,14.5,9S15,8.776,15,8.5V6.597c0.007-0.032,0.02-0.062,0.02-0.097
			c0-0.141-0.068-0.256-0.162-0.347c-0.003-0.003-0.006-0.007-0.01-0.01c-0.023-0.021-0.039-0.053-0.067-0.07l-3.927-3.926
			C10.76,2.053,10.633,2,10.5,2h-6C4.367,2,4.24,2.053,4.146,2.146l-3.999,4C0.086,6.207,0.049,6.287,0.025,6.373
			C0.02,6.395,0.016,6.413,0.013,6.436C0.01,6.458,0,6.478,0,6.5v11C0,17.776,0.224,18,0.5,18h6C6.776,18,7,17.776,7,17.5
			S6.776,17,6.5,17H1V7H14z M13.293,6H8V3h2.293L13.293,6z M4.707,3H7v3H1.707L4.707,3z"/>
		<path d="M24,12c0-0.276-0.224-0.5-0.5-0.5S23,11.724,23,12v1.575c-1.385-1.831-3.687-3.075-6-3.075
			c-2.849,0-5.449,1.942-6.472,4.833c-0.092,0.26,0.045,0.546,0.305,0.638c0.264,0.093,0.546-0.043,0.639-0.305
			C12.353,13.174,14.574,11.5,17,11.5c2.345,0,4.672,1.467,5.723,3.5H20c-0.276,0-0.5,0.224-0.5,0.5S19.724,16,20,16h3.5
			c0.056,0,0.111-0.009,0.167-0.029c0.005-0.001,0.008-0.005,0.013-0.007c0.035-0.013,0.065-0.037,0.097-0.058
			c0.022-0.016,0.048-0.027,0.068-0.045c0.022-0.022,0.038-0.051,0.057-0.077c0.019-0.026,0.04-0.05,0.053-0.08
			c0.012-0.024,0.014-0.053,0.021-0.079c0.01-0.037,0.021-0.072,0.022-0.111c0-0.005,0.003-0.009,0.003-0.014V12z"/>
		<path d="M23.667,18.529c-0.261-0.09-0.545,0.044-0.639,0.305C22.147,21.326,19.926,23,17.5,23c-2.345,0-4.672-1.467-5.723-3.5
			H14.5c0.276,0,0.5-0.224,0.5-0.5s-0.224-0.5-0.5-0.5H11c-0.029,0-0.056,0.012-0.084,0.017c-0.027,0.004-0.056,0.001-0.083,0.012
			c-0.005,0.001-0.008,0.006-0.013,0.007c-0.036,0.014-0.066,0.037-0.099,0.06c-0.021,0.015-0.046,0.026-0.065,0.044
			c-0.025,0.024-0.041,0.054-0.062,0.083c-0.017,0.023-0.036,0.045-0.049,0.072c-0.012,0.026-0.015,0.056-0.021,0.084
			c-0.009,0.035-0.021,0.069-0.021,0.106c0,0.005-0.003,0.009-0.003,0.014v3.5c0,0.276,0.224,0.5,0.5,0.5s0.5-0.224,0.5-0.5v-1.574
			c1.384,1.831,3.686,3.074,6,3.074c2.849,0,5.449-1.942,6.472-4.833C24.063,18.907,23.927,18.621,23.667,18.529z"/>
	</g>
</g>

</svg>
