<?xml version="1.0" encoding="utf-8"?>
<!-- Generator: Adobe Illustrator 16.0.3, SVG Export Plug-In . SVG Version: 6.00 Build 0)  -->
<!DOCTYPE svg PUBLIC "-//W3C//DTD SVG 1.1//EN" "http://www.w3.org/Graphics/SVG/1.1/DTD/svg11.dtd">
<svg version="1.1" xmlns="http://www.w3.org/2000/svg" xmlns:xlink="http://www.w3.org/1999/xlink" x="0px" y="0px" width="24px"
	 height="24px" viewBox="0 0 24 24" enable-background="new 0 0 24 24" xml:space="preserve">
<g id="Outline_Icons">
	<g>
		<path d="M23.398,22.898c-2.122,0.446-3.477-1.664-3.534-1.754c-0.185-0.295-0.682-0.287-0.86,0.014
			c-0.043,0.074-1.084,1.807-3.189,1.807c-2.018,0-3.18-1.803-3.192-1.821c-0.186-0.294-0.684-0.287-0.859,0.015
			c-0.043,0.073-1.083,1.806-3.188,1.806c-2.019,0-3.18-1.803-3.191-1.821c-0.173-0.273-0.619-0.298-0.82-0.044
			c-0.018,0.023-1.844,2.291-3.959,1.841c-0.27-0.057-0.535,0.115-0.593,0.385c-0.057,0.27,0.115,0.536,0.385,0.593
			C0.665,23.975,0.925,24,1.179,24c1.697,0,3.083-1.145,3.747-1.814c0.586,0.677,1.821,1.778,3.65,1.778
			c1.852,0,3.048-1.046,3.632-1.73c0.602,0.679,1.822,1.73,3.607,1.73c1.848,0,3.043-1.041,3.628-1.725
			c0.678,0.786,2.125,2.059,4.158,1.638c0.27-0.057,0.444-0.321,0.388-0.592C23.933,23.016,23.67,22.843,23.398,22.898z"/>
		<path d="M23.222,12.845C21.831,13.776,21,15.33,21,17v2h-4v-2c0-2.757-2.243-5-5-5s-5,2.243-5,5v2H3v-2
			c0-1.67-0.831-3.224-2.222-4.155c-0.229-0.154-0.54-0.092-0.694,0.137c-0.154,0.229-0.092,0.54,0.137,0.694
			C1.335,14.422,2,15.664,2,17v2H1.5C1.224,19,1,19.224,1,19.5S1.224,20,1.5,20h7C8.776,20,9,19.776,9,19.5S8.776,19,8.5,19H8v-2
			c0-2.206,1.794-4,4-4s4,1.794,4,4v2h-0.5c-0.276,0-0.5,0.224-0.5,0.5s0.224,0.5,0.5,0.5h7c0.276,0,0.5-0.224,0.5-0.5
			S22.776,19,22.5,19H22v-2c0-1.336,0.665-2.578,1.778-3.324c0.229-0.154,0.291-0.464,0.137-0.694
			C23.761,12.752,23.45,12.691,23.222,12.845z"/>
		<path d="M23.5,9H21V6c0-1.103,0.897-2,2-2c0.137,0,0.271,0.015,0.4,0.041c0.27,0.05,0.535-0.12,0.59-0.391
			c0.055-0.271-0.12-0.535-0.391-0.59C23.406,3.021,23.205,3,23,3c-1.654,0-3,1.346-3,3v3h-5V6c0-1.654-1.346-3-3-3S9,4.346,9,6v3H4
			V6c0-1.654-1.346-3-3-3C0.795,3,0.594,3.021,0.4,3.06C0.13,3.115-0.045,3.379,0.01,3.65C0.065,3.92,0.327,4.092,0.6,4.041
			C0.729,4.015,0.863,4,1,4c1.103,0,2,0.897,2,2v3H0.5C0.224,9,0,9.224,0,9.5S0.224,10,0.5,10h23c0.276,0,0.5-0.224,0.5-0.5
			S23.776,9,23.5,9z M10,6c0-1.103,0.897-2,2-2s2,0.897,2,2v3h-4V6z"/>
		<path d="M0.5,1h23C23.776,1,24,0.776,24,0.5S23.776,0,23.5,0h-23C0.224,0,0,0.224,0,0.5S0.224,1,0.5,1z"/>
	</g>
</g>

</svg>
