<?xml version="1.0" encoding="utf-8"?>
<!-- Generator: Adobe Illustrator 16.0.3, SVG Export Plug-In . SVG Version: 6.00 Build 0)  -->
<!DOCTYPE svg PUBLIC "-//W3C//DTD SVG 1.1//EN" "http://www.w3.org/Graphics/SVG/1.1/DTD/svg11.dtd">
<svg version="1.1" xmlns="http://www.w3.org/2000/svg" xmlns:xlink="http://www.w3.org/1999/xlink" x="0px" y="0px" width="24px"
	 height="24px" viewBox="0 0 24 24" enable-background="new 0 0 24 24" xml:space="preserve">
<g id="Outline_Icons_1_">
	<g id="Outline_Icons">
		<g>
			<path d="M22.5,5H16V2c0-0.551-0.448-1-1-1H9C8.448,1,8,1.449,8,2v3H1.5C0.673,5,0,5.673,0,6.5v14C0,21.327,0.673,22,1.5,22h21
				c0.827,0,1.5-0.673,1.5-1.5v-14C24,5.673,23.327,5,22.5,5z M15,2v1H9V2H15z M9,4h6v1H9V4z M23,20.5c0,0.276-0.225,0.5-0.5,0.5
				h-21C1.225,21,1,20.776,1,20.5v-14C1,6.224,1.225,6,1.5,6h21C22.775,6,23,6.224,23,6.5V20.5z"/>
			<rect x="3" y="9" width="18" height="1"/>
			<rect x="3" y="13" width="18" height="1"/>
			<rect x="3" y="17" width="18" height="1"/>
		</g>
	</g>
	<g id="New_icons_1_">
	</g>
</g>

</svg>
