<?xml version="1.0" encoding="utf-8"?>
<!-- Generator: Adobe Illustrator 16.0.3, SVG Export Plug-In . SVG Version: 6.00 Build 0)  -->
<!DOCTYPE svg PUBLIC "-//W3C//DTD SVG 1.1//EN" "http://www.w3.org/Graphics/SVG/1.1/DTD/svg11.dtd">
<svg version="1.1" xmlns="http://www.w3.org/2000/svg" xmlns:xlink="http://www.w3.org/1999/xlink" x="0px" y="0px" width="24px"
	 height="24px" viewBox="0 0 24 24" enable-background="new 0 0 24 24" xml:space="preserve">
<g id="Outline_Icons_1_">
	<g id="Outline_Icons">
		<g>
			<path d="M23,15c0-0.276-0.224-0.5-0.5-0.5S22,14.724,22,15v0.77C21.013,14.695,19.538,14,18,14c-2.198,0-4.289,1.402-4.972,3.333
				c-0.092,0.261,0.045,0.547,0.305,0.639c0.26,0.093,0.545-0.045,0.638-0.305C14.508,16.146,16.24,15,18,15
				c1.489,0,2.951,0.826,3.692,2H20c-0.276,0-0.5,0.224-0.5,0.5S19.724,18,20,18h2.5c0.055,0,0.111-0.009,0.167-0.028
				c0.005-0.002,0.008-0.006,0.013-0.008c0.034-0.014,0.062-0.035,0.093-0.056c0.024-0.016,0.051-0.028,0.072-0.048
				c0.023-0.022,0.039-0.051,0.057-0.077c0.018-0.026,0.04-0.049,0.053-0.078c0.012-0.025,0.014-0.055,0.021-0.083
				c0.009-0.036,0.021-0.07,0.021-0.107c0-0.005,0.003-0.01,0.003-0.015V15z"/>
			<path d="M22.667,20.028c-0.262-0.092-0.546,0.044-0.638,0.305C21.492,21.854,19.76,23,18,23c-1.489,0-2.951-0.825-3.692-2H16
				c0.276,0,0.5-0.224,0.5-0.5S16.276,20,16,20h-2.5c-0.03,0-0.056,0.012-0.084,0.017c-0.027,0.005-0.055,0.002-0.083,0.012
				c-0.005,0.002-0.008,0.006-0.013,0.008c-0.034,0.014-0.062,0.035-0.093,0.056c-0.024,0.017-0.051,0.028-0.072,0.048
				c-0.023,0.022-0.039,0.051-0.057,0.077c-0.018,0.026-0.04,0.05-0.053,0.078c-0.012,0.025-0.014,0.055-0.021,0.083
				c-0.009,0.036-0.021,0.07-0.021,0.108c0,0.005-0.003,0.009-0.003,0.014V23c0,0.276,0.224,0.5,0.5,0.5S14,23.276,14,23v-0.77
				c0.987,1.074,2.462,1.77,4,1.77c2.198,0,4.289-1.402,4.972-3.333C23.063,20.406,22.927,20.12,22.667,20.028z"/>
			<path d="M10.918,2C16.477,2,21,5.589,21,10c0,0.306-0.022,0.619-0.067,0.932c-0.039,0.273,0.151,0.526,0.424,0.565
				c0.273,0.038,0.527-0.15,0.566-0.425C21.974,10.714,22,10.353,22,10c0-4.963-4.971-9-11.082-9C4.898,1,0,5.037,0,10
				c0,2.391,0.998,4.507,2.89,6.143l-1.847,4.154C0.959,20.486,1,20.709,1.148,20.855C1.244,20.95,1.371,21,1.5,21
				c0.07,0,0.141-0.015,0.207-0.045l5.331-2.423c0.839,0.234,1.769,0.348,2.421,0.401c0.269,0.012,0.517-0.182,0.54-0.457
				c0.022-0.275-0.182-0.517-0.458-0.539c-0.934-0.077-1.762-0.221-2.394-0.415c-0.116-0.035-0.243-0.029-0.354,0.022L2.492,19.5
				l1.465-3.297c0.092-0.208,0.033-0.452-0.145-0.594C1.973,14.139,1,12.199,1,10C1,5.589,5.449,2,10.918,2z"/>
		</g>
	</g>
	<g id="New_icons_1_">
	</g>
</g>

</svg>
