<?xml version="1.0" encoding="utf-8"?>
<!-- Generator: Adobe Illustrator 16.0.3, SVG Export Plug-In . SVG Version: 6.00 Build 0)  -->
<!DOCTYPE svg PUBLIC "-//W3C//DTD SVG 1.1//EN" "http://www.w3.org/Graphics/SVG/1.1/DTD/svg11.dtd">
<svg version="1.1" xmlns="http://www.w3.org/2000/svg" xmlns:xlink="http://www.w3.org/1999/xlink" x="0px" y="0px" width="24px"
	 height="24px" viewBox="0 0 24 24" enable-background="new 0 0 24 24" xml:space="preserve">
<g id="Outline_Icons_1_">
	<g id="Outline_Icons">
		<g>
			<path d="M12,14h-0.5c-0.133,0-0.26,0.053-0.354,0.146L8,17.293V14.5C8,14.224,7.776,14,7.5,14H7c-3.309,0-6-2.691-6-6
				s2.691-6,6-6h8c3.309,0,6,2.691,6,6c0,0.797-0.156,1.572-0.464,2.307c-0.107,0.255,0.013,0.548,0.268,0.654
				c0.251,0.104,0.547-0.013,0.654-0.268C21.818,9.836,22,8.93,22,8c0-3.859-3.14-7-7-7H7C3.14,1,0,4.141,0,8s3.14,7,7,7v3.5
				c0,0.202,0.122,0.385,0.309,0.462C7.371,18.987,7.436,19,7.5,19c0.13,0,0.258-0.051,0.354-0.146L11.707,15H12
				c0.276,0,0.5-0.224,0.5-0.5S12.276,14,12,14z"/>
			<path d="M18.5,12c-3.033,0-5.5,2.468-5.5,5.5s2.467,5.5,5.5,5.5s5.5-2.468,5.5-5.5S21.533,12,18.5,12z M18.5,22
				c-2.481,0-4.5-2.019-4.5-4.5s2.019-4.5,4.5-4.5s4.5,2.019,4.5,4.5S20.981,22,18.5,22z"/>
			<path d="M21,17h-5c-0.276,0-0.5,0.224-0.5,0.5S15.724,18,16,18h5c0.276,0,0.5-0.224,0.5-0.5S21.276,17,21,17z"/>
		</g>
	</g>
	<g id="New_icons_1_">
	</g>
</g>

</svg>
