<?xml version="1.0" encoding="utf-8"?>
<!-- Generator: Adobe Illustrator 16.0.3, SVG Export Plug-In . SVG Version: 6.00 Build 0)  -->
<!DOCTYPE svg PUBLIC "-//W3C//DTD SVG 1.1//EN" "http://www.w3.org/Graphics/SVG/1.1/DTD/svg11.dtd">
<svg version="1.1" xmlns="http://www.w3.org/2000/svg" xmlns:xlink="http://www.w3.org/1999/xlink" x="0px" y="0px" width="24px"
	 height="24px" viewBox="0 0 24 24" enable-background="new 0 0 24 24" xml:space="preserve">
<g id="Outline_Icons_1_">
	<g id="Outline_Icons">
		<g>
			<path d="M23.5,15H22v-0.5c0-1.93-1.57-3.5-3.5-3.5S15,12.57,15,14.5V15h-1.5c-0.276,0-0.5,0.224-0.5,0.5v8
				c0,0.276,0.224,0.5,0.5,0.5h10c0.276,0,0.5-0.224,0.5-0.5v-8C24,15.224,23.776,15,23.5,15z M16,14.5c0-1.379,1.122-2.5,2.5-2.5
				s2.5,1.121,2.5,2.5V15h-5V14.5z M23,23h-9v-7h9V23z"/>
			<path d="M18.5,17.5c-0.551,0-1,0.448-1,1c0,0.365,0.207,0.672,0.5,0.847V21c0,0.276,0.224,0.5,0.5,0.5S19,21.276,19,21v-1.653
				c0.293-0.175,0.5-0.481,0.5-0.847C19.5,17.948,19.051,17.5,18.5,17.5z M18.5,18.5L18.5,18.5H19H18.5z"/>
			<path d="M10.918,1C16.477,1,21,4.589,21,9c0,0.312-0.022,0.625-0.067,0.93c-0.04,0.273,0.149,0.527,0.422,0.567
				c0.275,0.034,0.527-0.149,0.567-0.423C21.974,9.722,22,9.36,22,9c0-4.963-4.971-9-11.082-9C4.898,0,0,4.037,0,9
				c0,2.391,0.998,4.507,2.89,6.143l-1.847,4.154C0.959,19.486,1,19.709,1.148,19.855C1.244,19.95,1.371,20,1.5,20
				c0.07,0,0.141-0.015,0.207-0.045l5.331-2.423c0.843,0.233,1.771,0.348,2.42,0.401c0.283,0.01,0.517-0.182,0.54-0.456
				c0.023-0.275-0.181-0.518-0.457-0.54c-0.93-0.078-1.758-0.222-2.396-0.416c-0.117-0.036-0.243-0.028-0.353,0.023L2.492,18.5
				l1.465-3.297c0.092-0.208,0.033-0.452-0.145-0.594C1.973,13.139,1,11.199,1,9C1,4.589,5.449,1,10.918,1z"/>
		</g>
	</g>
	<g id="New_icons_1_">
	</g>
</g>

</svg>
