<?xml version="1.0" encoding="utf-8"?>
<!-- Generator: Adobe Illustrator 16.0.3, SVG Export Plug-In . SVG Version: 6.00 Build 0)  -->
<!DOCTYPE svg PUBLIC "-//W3C//DTD SVG 1.1//EN" "http://www.w3.org/Graphics/SVG/1.1/DTD/svg11.dtd">
<svg version="1.1" xmlns="http://www.w3.org/2000/svg" xmlns:xlink="http://www.w3.org/1999/xlink" x="0px" y="0px" width="24px"
	 height="24px" viewBox="0 0 24 24" enable-background="new 0 0 24 24" xml:space="preserve">
<g id="Outline_Icons_1_">
	<g id="Outline_Icons">
		<g>
			<path d="M17.5,11c-3.584,0-6.5,2.916-6.5,6.5s2.916,6.5,6.5,6.5s6.5-2.916,6.5-6.5S21.084,11,17.5,11z M17.5,23
				c-3.033,0-5.5-2.468-5.5-5.5s2.467-5.5,5.5-5.5s5.5,2.468,5.5,5.5S20.533,23,17.5,23z"/>
			<path d="M20.354,14.646c-0.195-0.195-0.512-0.195-0.707,0L17.5,16.793l-2.146-2.146c-0.195-0.195-0.512-0.195-0.707,0
				s-0.195,0.512,0,0.707l2.146,2.146l-2.146,2.146c-0.195,0.195-0.195,0.512,0,0.707C14.744,20.451,14.872,20.5,15,20.5
				s0.256-0.049,0.354-0.146l2.146-2.146l2.146,2.146C19.744,20.451,19.872,20.5,20,20.5s0.256-0.049,0.354-0.146
				c0.195-0.195,0.195-0.512,0-0.707L18.207,17.5l2.146-2.146C20.549,15.158,20.549,14.842,20.354,14.646z"/>
			<path d="M10.918,1C16.477,1,21,4.589,21,9c0,0.312-0.022,0.625-0.067,0.93c-0.04,0.273,0.149,0.527,0.422,0.567
				c0.271,0.033,0.527-0.149,0.567-0.423C21.974,9.722,22,9.36,22,9c0-4.963-4.971-9-11.082-9C4.898,0,0,4.037,0,9
				c0,2.391,0.998,4.507,2.89,6.143l-1.847,4.154C0.959,19.486,1,19.709,1.148,19.855C1.244,19.95,1.371,20,1.5,20
				c0.07,0,0.141-0.015,0.207-0.045l5.331-2.423c0.843,0.233,1.771,0.348,2.42,0.401c0.279,0.02,0.517-0.181,0.54-0.456
				c0.023-0.275-0.181-0.518-0.457-0.54c-0.93-0.078-1.758-0.222-2.396-0.416c-0.116-0.036-0.243-0.028-0.353,0.023L2.492,18.5
				l1.465-3.297c0.092-0.208,0.033-0.452-0.145-0.594C1.973,13.139,1,11.198,1,9C1,4.589,5.449,1,10.918,1z"/>
		</g>
	</g>
	<g id="New_icons_1_">
	</g>
</g>

</svg>
