<?xml version="1.0" encoding="utf-8"?>
<!-- Generator: Adobe Illustrator 16.0.3, SVG Export Plug-In . SVG Version: 6.00 Build 0)  -->
<!DOCTYPE svg PUBLIC "-//W3C//DTD SVG 1.1//EN" "http://www.w3.org/Graphics/SVG/1.1/DTD/svg11.dtd">
<svg version="1.1" xmlns="http://www.w3.org/2000/svg" xmlns:xlink="http://www.w3.org/1999/xlink" x="0px" y="0px" width="24px"
	 height="24px" viewBox="0 0 24 24" enable-background="new 0 0 24 24" xml:space="preserve">
<g id="Outline_Icons_1_">
	<g id="Outline_Icons">
		<g>
			<path d="M21,14c0-0.152-0.069-0.296-0.188-0.391l-5-4c-0.15-0.121-0.356-0.145-0.529-0.06C15.11,9.633,15,9.808,15,10v1.51
				C5.116,11.884,5,23.382,5,23.5c0,0.257,0.194,0.472,0.45,0.497C5.467,23.999,5.484,24,5.5,24c0.235,0,0.442-0.166,0.49-0.401
				c0.058-0.283,1.473-6.812,9.01-7.09V18c0,0.192,0.11,0.367,0.283,0.45c0.174,0.084,0.379,0.061,0.529-0.06l5-4
				C20.931,14.296,21,14.152,21,14z M16,16.96V16c0-0.276-0.224-0.5-0.5-0.5c-4.935,0-7.628,2.456-9.045,4.63
				C7.252,16.893,9.45,12.5,15.5,12.5c0.276,0,0.5-0.224,0.5-0.5v-0.96L19.7,14L16,16.96z"/>
			<path d="M23.812,13.609l-5-4c-0.216-0.171-0.53-0.136-0.703,0.078c-0.172,0.216-0.137,0.53,0.078,0.703L22.7,14l-4.512,3.609
				c-0.215,0.173-0.25,0.487-0.078,0.703c0.099,0.123,0.244,0.188,0.391,0.188c0.109,0,0.22-0.036,0.312-0.109l5-4
				C23.931,14.296,24,14.152,24,14S23.931,13.704,23.812,13.609z"/>
			<path d="M5,14.5C5,14.224,4.776,14,4.5,14H1V1h20v7.5C21,8.776,21.224,9,21.5,9S22,8.776,22,8.5v-8C22,0.224,21.776,0,21.5,0h-21
				C0.224,0,0,0.224,0,0.5v14C0,14.776,0.224,15,0.5,15H4v2.5C4,17.776,4.224,18,4.5,18S5,17.776,5,17.5V14.5z"/>
		</g>
	</g>
	<g id="New_icons_1_">
	</g>
</g>

</svg>
