<?xml version="1.0" encoding="utf-8"?>
<!-- Generator: Adobe Illustrator 16.0.3, SVG Export Plug-In . SVG Version: 6.00 Build 0)  -->
<!DOCTYPE svg PUBLIC "-//W3C//DTD SVG 1.1//EN" "http://www.w3.org/Graphics/SVG/1.1/DTD/svg11.dtd">
<svg version="1.1" xmlns="http://www.w3.org/2000/svg" xmlns:xlink="http://www.w3.org/1999/xlink" x="0px" y="0px" width="24px"
	 height="24px" viewBox="0 0 24 24" enable-background="new 0 0 24 24" xml:space="preserve">
<g id="Outline_Icons_1_">
	<g id="Outline_Icons">
		<g>
			<g>
				<path d="M1.362,23.249c-0.132,0-0.262-0.053-0.358-0.151c-0.148-0.152-0.184-0.383-0.089-0.572l2.41-4.812
					C1.177,15.868,0,13.456,0,10.883C0,5.434,5.383,1,12,1s12,4.434,12,9.883s-5.383,9.883-12,9.883c-1.369,0-2.71-0.188-3.99-0.56
					l-6.437,2.996C1.506,23.233,1.434,23.249,1.362,23.249z M12,2C5.935,2,1,5.984,1,10.883c0,2.386,1.159,4.627,3.263,6.31
					c0.184,0.147,0.24,0.403,0.135,0.614L2.452,21.69L7.76,19.22c0.112-0.053,0.238-0.062,0.357-0.025
					c1.241,0.379,2.547,0.571,3.883,0.571c6.065,0,11-3.984,11-8.883S18.065,2,12,2z"/>
			</g>
		</g>
	</g>
	<g id="New_icons_1_">
	</g>
</g>

</svg>
