<?xml version="1.0" encoding="utf-8"?>
<!-- Generator: Adobe Illustrator 16.0.3, SVG Export Plug-In . SVG Version: 6.00 Build 0)  -->
<!DOCTYPE svg PUBLIC "-//W3C//DTD SVG 1.1//EN" "http://www.w3.org/Graphics/SVG/1.1/DTD/svg11.dtd">
<svg version="1.1" xmlns="http://www.w3.org/2000/svg" xmlns:xlink="http://www.w3.org/1999/xlink" x="0px" y="0px" width="24px"
	 height="24px" viewBox="0 0 24 24" enable-background="new 0 0 24 24" xml:space="preserve">
<g id="Outline_Icons">
	<g>
		<path d="M18.5,19h-0.507l0.002-0.269c0.015-1.667,0.022-3.753-0.441-5.342c-0.005-0.033-0.002-0.066-0.014-0.099
			c-0.006-0.016-0.018-0.027-0.026-0.043c-0.197-0.624-0.466-1.17-0.854-1.562C16.209,11.23,15.647,11,14.99,11H11.5H7.238
			c-0.952,0-1.809,0.529-2.235,1.381l-1.95,3.896c-0.089,0.178-0.064,0.391,0.063,0.544L4.932,19H4.5
			c-1.626,0-2.477,1.248-2.477,2.482C2.023,22.733,2.874,24,4.5,24h14c1.625,0,2.476-1.269,2.476-2.521
			C20.976,20.247,20.125,19,18.5,19z M10.006,19l6.97-2.453c0.027,0.766,0.024,1.523,0.019,2.176L16.993,19H10.006z M8,18.119
			l-1.324-1.588L8,15.207V18.119z M16.914,15.509L9,18.294v-1.441l7.713-2.738C16.807,14.549,16.872,15.019,16.914,15.509z
			 M16.417,13.159L9,15.792v-1.44l6.385-2.28c0.21,0.06,0.403,0.153,0.565,0.317C16.142,12.583,16.288,12.856,16.417,13.159z
			 M4.094,16.431l1.804-3.603C6.153,12.318,6.667,12,7.238,12h5.377l-4.283,1.529c-0.069,0.025-0.128,0.065-0.178,0.113
			c-0.002,0.002-0.005,0.002-0.007,0.004l-2.5,2.5c-0.183,0.183-0.196,0.475-0.031,0.674L7.432,19H6.234L4.094,16.431z
			 M3.023,21.482C3.023,20.744,3.48,20,4.5,20H6h9.005c-2.272,1.164-6.221,3-8.505,3h-2C3.48,23,3.023,22.237,3.023,21.482z
			 M18.5,23h-7.736c2.874-1.069,5.753-2.654,6.368-3h0.359h1.01c1.02,0,1.476,0.743,1.476,1.479C19.976,22.211,19.514,23,18.5,23z"
			/>
		<path d="M14.5,8c0-1.187-0.405-2.043-1.161-2.529C13.445,5.256,13.5,5.016,13.5,4.75c0-0.965-0.897-1.75-2-1.75s-2,0.785-2,1.75
			c0,0.269,0.054,0.511,0.156,0.724C8.903,5.962,8.5,6.816,8.5,8c0,1.958,1.742,3,3,3S14.5,9.958,14.5,8z M10.5,4.75
			c0-0.407,0.458-0.75,1-0.75s1,0.343,1,0.75c0,0.144-0.047,0.25-0.12,0.348C12.108,5.04,11.82,5,11.5,5
			c-0.325,0-0.616,0.041-0.892,0.101C10.542,5.007,10.5,4.902,10.5,4.75z M11.5,10c-0.676,0-2-0.604-2-2c0-1.383,0.617-2,2-2
			s2,0.617,2,2C13.5,9.396,12.176,10,11.5,10z"/>
		<path d="M11.5,2C11.776,2,12,1.776,12,1.5v-1C12,0.224,11.776,0,11.5,0S11,0.224,11,0.5v1C11,1.776,11.224,2,11.5,2z"/>
		<path d="M15.742,3.757c0.128,0,0.256-0.049,0.354-0.146l0.707-0.707c0.195-0.196,0.195-0.512,0-0.708s-0.512-0.195-0.707,0
			l-0.707,0.708c-0.195,0.195-0.195,0.511,0,0.707C15.486,3.708,15.614,3.757,15.742,3.757z"/>
		<path d="M17.5,8h1C18.776,8,19,7.776,19,7.5S18.776,7,18.5,7h-1C17.224,7,17,7.224,17,7.5S17.224,8,17.5,8z"/>
		<path d="M6.904,3.611C7.002,3.708,7.13,3.757,7.258,3.757s0.256-0.049,0.354-0.146c0.195-0.195,0.195-0.512,0-0.707L6.904,2.197
			c-0.195-0.195-0.512-0.195-0.707,0s-0.195,0.512,0,0.708L6.904,3.611z"/>
		<path d="M4.5,8h1C5.776,8,6,7.776,6,7.5S5.776,7,5.5,7h-1C4.224,7,4,7.224,4,7.5S4.224,8,4.5,8z"/>
	</g>
</g>

</svg>
