<?xml version="1.0" encoding="utf-8"?>
<!-- Generator: Adobe Illustrator 16.0.3, SVG Export Plug-In . SVG Version: 6.00 Build 0)  -->
<!DOCTYPE svg PUBLIC "-//W3C//DTD SVG 1.1//EN" "http://www.w3.org/Graphics/SVG/1.1/DTD/svg11.dtd">
<svg version="1.1" xmlns="http://www.w3.org/2000/svg" xmlns:xlink="http://www.w3.org/1999/xlink" x="0px" y="0px" width="24px"
	 height="24px" viewBox="0 0 24 24" enable-background="new 0 0 24 24" xml:space="preserve">
<g id="Outline_Icons">
	<g>
		<path d="M23.5,13H22V8h0.521H23.5C23.776,8,24,7.776,24,7.5S23.776,7,23.5,7h-0.672l-2.382-4.725C20.361,2.106,20.189,2,20,2h-2
			V0.5C18,0.224,17.776,0,17.5,0h-3C14.224,0,14,0.224,14,0.5V2h-4V0.5C10,0.224,9.776,0,9.5,0h-3C6.224,0,6,0.224,6,0.5V2H4
			C3.811,2,3.638,2.107,3.553,2.276L1.191,7h-0.65c-0.276,0-0.5,0.224-0.5,0.5S0.265,8,0.541,8H1.5H2v5H0.541
			c-0.276,0-0.5,0.224-0.5,0.5s0.224,0.5,0.5,0.5H2v9.5C2,23.776,2.224,24,2.5,24h19c0.276,0,0.5-0.224,0.5-0.5V14h1.5
			c0.276,0,0.5-0.224,0.5-0.5S23.776,13,23.5,13z M15,1h2v4h-2V1z M7,1h2v4H7V1z M4.309,3H6v2.5C6,5.776,6.224,6,6.5,6h3
			C9.776,6,10,5.776,10,5.5V3h4v2.5C14,5.776,14.224,6,14.5,6h3C17.776,6,18,5.776,18,5.5V3h1.692l2.017,4H21.5h-19H2.309L4.309,3z
			 M3,8h18v5H3V8z M10,23v-4h4v4H10z M21,23h-6v-4.5c0-0.276-0.224-0.5-0.5-0.5h-5C9.224,18,9,18.224,9,18.5V23H3v-9h18V23z"/>
		<path d="M19.5,9h-2C17.224,9,17,9.224,17,9.5v2c0,0.276,0.224,0.5,0.5,0.5h2c0.276,0,0.5-0.224,0.5-0.5v-2
			C20,9.224,19.776,9,19.5,9z M19,11h-1v-1h1V11z"/>
		<path d="M15.5,9h-2C13.224,9,13,9.224,13,9.5v2c0,0.276,0.224,0.5,0.5,0.5h2c0.276,0,0.5-0.224,0.5-0.5v-2
			C16,9.224,15.776,9,15.5,9z M15,11h-1v-1h1V11z"/>
		<path d="M10.5,9h-2C8.224,9,8,9.224,8,9.5v2C8,11.776,8.224,12,8.5,12h2c0.276,0,0.5-0.224,0.5-0.5v-2C11,9.224,10.776,9,10.5,9z
			 M10,11H9v-1h1V11z"/>
		<path d="M6.5,9h-2C4.224,9,4,9.224,4,9.5v2C4,11.776,4.224,12,4.5,12h2C6.776,12,7,11.776,7,11.5v-2C7,9.224,6.776,9,6.5,9z M6,11
			H5v-1h1V11z"/>
		<path d="M16.5,19h3c0.276,0,0.5-0.224,0.5-0.5v-3c0-0.276-0.224-0.5-0.5-0.5h-3c-0.276,0-0.5,0.224-0.5,0.5v3
			C16,18.776,16.224,19,16.5,19z M17,16h2v2h-2V16z"/>
		<path d="M4.5,19h3C7.776,19,8,18.776,8,18.5v-3C8,15.224,7.776,15,7.5,15h-3C4.224,15,4,15.224,4,15.5v3C4,18.776,4.224,19,4.5,19
			z M5,16h2v2H5V16z"/>
	</g>
</g>

</svg>
