<?xml version="1.0" encoding="utf-8"?>
<!-- Generator: Adobe Illustrator 16.0.3, SVG Export Plug-In . SVG Version: 6.00 Build 0)  -->
<!DOCTYPE svg PUBLIC "-//W3C//DTD SVG 1.1//EN" "http://www.w3.org/Graphics/SVG/1.1/DTD/svg11.dtd">
<svg version="1.1" xmlns="http://www.w3.org/2000/svg" xmlns:xlink="http://www.w3.org/1999/xlink" x="0px" y="0px" width="24px"
	 height="24px" viewBox="0 0 24 24" enable-background="new 0 0 24 24" xml:space="preserve">
<g id="Outline_Icons_1_">
	<g id="Outline_Icons">
	</g>
	<g id="New_icons_1_">
		<g>
			<path d="M6.5,8c2.206,0,4-1.794,4-4s-1.794-4-4-4s-4,1.794-4,4S4.294,8,6.5,8z M6.5,1c1.654,0,3,1.346,3,3s-1.346,3-3,3
				s-3-1.346-3-3S4.846,1,6.5,1z"/>
			<path d="M12,9H1C0.724,9,0.5,9.224,0.5,9.5c0,3.554,1.271,6.37,3.5,7.783V23.5C4,23.776,4.224,24,4.5,24h4
				C8.776,24,9,23.776,9,23.5v-6.217c2.229-1.414,3.5-4.23,3.5-7.783C12.5,9.224,12.276,9,12,9z M6.54,10l0.442,5.311L6.5,15.793
				l-0.482-0.482L6.46,10H6.54z M8.253,16.565C8.097,16.654,8,16.82,8,17v6H5v-6c0-0.18-0.097-0.346-0.253-0.435
				C2.789,15.452,1.623,13.075,1.509,10h3.948l-0.455,5.458c-0.012,0.146,0.041,0.292,0.145,0.395l1,1C6.244,16.951,6.372,17,6.5,17
				s0.256-0.049,0.354-0.146l1-1c0.104-0.104,0.157-0.249,0.145-0.395L7.543,10h3.948C11.377,13.074,10.211,15.451,8.253,16.565z"/>
			<path d="M23.729,5.403c-0.167-0.087-0.368-0.072-0.52,0.038c-0.676,0.482-1.905,1.08-2.4,0.825
				c-0.256-0.132-0.31-0.572-0.31-0.918c0-0.996-0.439-1.44-0.809-1.639c-1.39-0.743-3.966,0.887-4.469,1.223
				C15.12,5,15,5.17,15,5.348v6V23.5c0,0.276,0.224,0.5,0.5,0.5s0.5-0.224,0.5-0.5V11.625c1.034-0.644,2.626-1.353,3.22-1.034
				c0.186,0.1,0.28,0.354,0.28,0.757c0,0.928,0.296,1.57,0.882,1.91c0.302,0.175,0.646,0.243,0.998,0.243
				c1.072,0,2.206-0.625,2.368-0.718C23.904,12.693,24,12.527,24,12.348v-6.5C24,5.66,23.896,5.489,23.729,5.403z M23,12.045
				c-0.606,0.293-1.622,0.636-2.116,0.348c-0.255-0.148-0.384-0.499-0.384-1.045c0-0.996-0.439-1.44-0.809-1.639
				c-0.253-0.136-0.546-0.192-0.859-0.192c-0.947,0-2.074,0.521-2.832,0.943V5.621c1.034-0.643,2.628-1.347,3.22-1.03
				c0.186,0.1,0.28,0.354,0.28,0.757c0,0.908,0.287,1.516,0.852,1.807C21.155,7.568,22.25,7.147,23,6.744V12.045z"/>
		</g>
	</g>
</g>

</svg>
