<?xml version="1.0" encoding="utf-8"?>
<!-- Generator: Adobe Illustrator 16.0.3, SVG Export Plug-In . SVG Version: 6.00 Build 0)  -->
<!DOCTYPE svg PUBLIC "-//W3C//DTD SVG 1.1//EN" "http://www.w3.org/Graphics/SVG/1.1/DTD/svg11.dtd">
<svg version="1.1" xmlns="http://www.w3.org/2000/svg" xmlns:xlink="http://www.w3.org/1999/xlink" x="0px" y="0px" width="24px"
	 height="24px" viewBox="0 0 24 24" enable-background="new 0 0 24 24" xml:space="preserve">
<g id="Outline_Icons_1_">
	<g id="Outline_Icons">
	</g>
	<g id="New_icons_1_">
		<g>
			<path d="M18.5,0C15.467,0,13,2.467,13,5.5c0,3.033,2.467,5.5,5.5,5.5S24,8.533,24,5.5C24,2.467,21.533,0,18.5,0z M18.5,10
				C16.019,10,14,7.981,14,5.5S16.019,1,18.5,1S23,3.019,23,5.5S20.981,10,18.5,10z"/>
			<path d="M18.5,3.623c0.363,0,0.659,0.295,0.659,0.658c0,0.276,0.224,0.5,0.5,0.5s0.5-0.224,0.5-0.5
				c0-0.739-0.489-1.359-1.159-1.573V2.35c0-0.276-0.224-0.5-0.5-0.5S18,2.073,18,2.35v0.359c-0.67,0.213-1.159,0.833-1.159,1.573
				c0,0.916,0.744,1.66,1.659,1.66c0.363,0,0.659,0.295,0.659,0.658c0,0.364-0.296,0.66-0.659,0.66s-0.659-0.296-0.659-0.66
				c0-0.276-0.224-0.5-0.5-0.5s-0.5,0.224-0.5,0.5c0,0.74,0.489,1.361,1.159,1.575v0.356c0,0.276,0.224,0.5,0.5,0.5
				s0.5-0.224,0.5-0.5V8.175c0.67-0.214,1.159-0.835,1.159-1.575c0-0.914-0.744-1.658-1.659-1.658c-0.363,0-0.659-0.296-0.659-0.66
				C17.841,3.918,18.137,3.623,18.5,3.623z"/>
			<path d="M6.5,8c2.206,0,4-1.794,4-4s-1.794-4-4-4s-4,1.794-4,4S4.294,8,6.5,8z M6.5,1c1.654,0,3,1.346,3,3s-1.346,3-3,3
				s-3-1.346-3-3S4.846,1,6.5,1z"/>
			<path d="M6.5,8.5c-3.252,0-6,4.58-6,10C0.5,18.776,0.724,19,1,19h3v4.5C4,23.776,4.224,24,4.5,24h4C8.776,24,9,23.776,9,23.5V19
				h3c0.276,0,0.5-0.224,0.5-0.5C12.5,13.08,9.752,8.5,6.5,8.5z M8.291,10.149L6.5,12.644l-1.791-2.494
				C5.271,9.734,5.876,9.5,6.5,9.5S7.729,9.734,8.291,10.149z M5,23v-4h3v4H5z M1.508,18c0.1-2.962,1.085-5.639,2.461-7.167
				l2.125,2.959C6.188,13.922,6.339,14,6.5,14s0.312-0.078,0.406-0.208l2.125-2.958c1.376,1.528,2.36,4.204,2.46,7.166H1.508z"/>
		</g>
	</g>
</g>

</svg>
