<?xml version="1.0" encoding="utf-8"?>
<!-- Generator: Adobe Illustrator 16.0.3, SVG Export Plug-In . SVG Version: 6.00 Build 0)  -->
<!DOCTYPE svg PUBLIC "-//W3C//DTD SVG 1.1//EN" "http://www.w3.org/Graphics/SVG/1.1/DTD/svg11.dtd">
<svg version="1.1" xmlns="http://www.w3.org/2000/svg" xmlns:xlink="http://www.w3.org/1999/xlink" x="0px" y="0px" width="24px"
	 height="24px" viewBox="0 0 24 24" enable-background="new 0 0 24 24" xml:space="preserve">
<g id="Outline_Icons_1_">
	<g id="Outline_Icons">
	</g>
	<g id="New_icons_1_">
		<g>
			<path d="M6.5,8c2.206,0,4-1.794,4-4s-1.794-4-4-4s-4,1.794-4,4S4.294,8,6.5,8z M6.5,1c1.654,0,3,1.346,3,3s-1.346,3-3,3
				s-3-1.346-3-3S4.846,1,6.5,1z"/>
			<path d="M12,9H1C0.724,9,0.5,9.224,0.5,9.5c0,3.554,1.271,6.37,3.5,7.783V23.5C4,23.776,4.224,24,4.5,24h4
				C8.776,24,9,23.776,9,23.5v-6.217c2.229-1.414,3.5-4.23,3.5-7.783C12.5,9.224,12.276,9,12,9z M6.54,10l0.442,5.311L6.5,15.793
				l-0.482-0.482L6.46,10H6.54z M8.253,16.565C8.097,16.654,8,16.82,8,17v6H5v-6c0-0.18-0.097-0.346-0.253-0.435
				C2.789,15.452,1.623,13.075,1.509,10h3.948l-0.455,5.458c-0.012,0.146,0.041,0.292,0.145,0.395l1,1C6.244,16.951,6.372,17,6.5,17
				s0.256-0.049,0.354-0.146l1-1c0.104-0.104,0.157-0.249,0.145-0.395L7.543,10h3.948C11.377,13.074,10.211,15.451,8.253,16.565z"/>
			<path d="M22,0h-7c-1.103,0-2,0.897-2,2v4c0,1.103,0.897,2,2,2h7c1.103,0,2-0.897,2-2V2C24,0.897,23.103,0,22,0z M23,6
				c0,0.551-0.449,1-1,1h-7c-0.551,0-1-0.449-1-1V2c0-0.551,0.449-1,1-1h7c0.551,0,1,0.449,1,1V6z"/>
			<path d="M20.604,3.897l1.216-1.013c0.212-0.177,0.241-0.493,0.064-0.705c-0.177-0.212-0.491-0.241-0.705-0.064L18.5,4.35
				l-2.68-2.234c-0.213-0.177-0.528-0.148-0.705,0.064c-0.177,0.212-0.148,0.528,0.064,0.705l1.216,1.013l-1.249,1.249
				c-0.195,0.195-0.195,0.512,0,0.707C15.244,5.951,15.372,6,15.5,6s0.256-0.049,0.354-0.146l1.313-1.313l1.013,0.844
				C18.272,5.461,18.386,5.5,18.5,5.5s0.228-0.039,0.32-0.115l1.013-0.844l1.313,1.313C21.244,5.951,21.372,6,21.5,6
				s0.256-0.049,0.354-0.146c0.195-0.195,0.195-0.512,0-0.707L20.604,3.897z"/>
		</g>
	</g>
</g>

</svg>
