<?xml version="1.0" encoding="utf-8"?>
<!-- Generator: Adobe Illustrator 16.0.3, SVG Export Plug-In . SVG Version: 6.00 Build 0)  -->
<!DOCTYPE svg PUBLIC "-//W3C//DTD SVG 1.1//EN" "http://www.w3.org/Graphics/SVG/1.1/DTD/svg11.dtd">
<svg version="1.1" xmlns="http://www.w3.org/2000/svg" xmlns:xlink="http://www.w3.org/1999/xlink" x="0px" y="0px" width="24px"
	 height="24px" viewBox="0 0 24 24" enable-background="new 0 0 24 24" xml:space="preserve">
<g id="Outline_Icons_1_">
	<g id="Outline_Icons">
		<g>
			<path d="M6.531,8c2.206,0,4-1.794,4-4s-1.794-4-4-4s-4,1.794-4,4S4.326,8,6.531,8z M6.531,1c1.654,0,3,1.346,3,3s-1.346,3-3,3
				s-3-1.346-3-3S4.877,1,6.531,1z"/>
			<path d="M12.031,9h-11c-0.276,0-0.5,0.224-0.5,0.5c0,3.554,1.271,6.37,3.5,7.783V23.5c0,0.276,0.224,0.5,0.5,0.5h4
				c0.276,0,0.5-0.224,0.5-0.5v-6.217c2.229-1.414,3.5-4.23,3.5-7.783C12.531,9.224,12.308,9,12.031,9z M6.571,10l0.442,5.311
				l-0.482,0.482l-0.482-0.482L6.491,10H6.571z M8.284,16.565C8.128,16.654,8.031,16.82,8.031,17v6h-3v-6
				c0-0.18-0.097-0.346-0.253-0.435C2.82,15.451,1.654,13.075,1.541,10h3.947l-0.455,5.458c-0.012,0.146,0.041,0.292,0.145,0.395
				l1,1C6.275,16.951,6.403,17,6.531,17s0.256-0.049,0.354-0.146l1-1c0.104-0.104,0.157-0.249,0.145-0.395L7.574,10h3.948
				C11.409,13.074,10.243,15.451,8.284,16.565z"/>
			<path d="M23.5,1H13c-0.276,0-0.5,0.224-0.5,0.5S12.724,2,13,2h10v13h-9c-0.276,0-0.5,0.224-0.5,0.5S13.724,16,14,16h9.5
				c0.276,0,0.5-0.224,0.5-0.5v-14C24,1.224,23.776,1,23.5,1z"/>
			<path d="M15.888,11.691L16.521,10h2.987l0.633,1.691c0.075,0.201,0.266,0.325,0.468,0.325c0.058,0,0.118-0.01,0.175-0.031
				c0.259-0.097,0.39-0.385,0.293-0.644l-2.595-6.933c-0.146-0.39-0.79-0.39-0.937,0l-2.595,6.933
				c-0.097,0.259,0.034,0.546,0.293,0.644C15.503,12.081,15.792,11.949,15.888,11.691z M18.015,6.009L19.134,9h-2.238L18.015,6.009z
				"/>
		</g>
	</g>
	<g id="New_icons_1_">
	</g>
</g>

</svg>
