<?xml version="1.0" encoding="utf-8"?>
<!-- Generator: Adobe Illustrator 16.0.3, SVG Export Plug-In . SVG Version: 6.00 Build 0)  -->
<!DOCTYPE svg PUBLIC "-//W3C//DTD SVG 1.1//EN" "http://www.w3.org/Graphics/SVG/1.1/DTD/svg11.dtd">
<svg version="1.1" xmlns="http://www.w3.org/2000/svg" xmlns:xlink="http://www.w3.org/1999/xlink" x="0px" y="0px" width="24px"
	 height="24px" viewBox="0 0 24 24" enable-background="new 0 0 24 24" xml:space="preserve">
<g id="Outline_Icons_1_">
	<g id="Outline_Icons">
	</g>
	<g id="New_icons_1_">
		<g>
			<path d="M22.777,19.467c-0.276-0.608-0.772-1.073-1.397-1.306c-0.625-0.235-1.304-0.213-1.912,0.062
				c-0.454,0.205-0.827,0.534-1.085,0.947l-3.422-1.282c0.055-0.348,0.066-0.58-0.056-1.033l3.627-1.813
				c0.495,0.634,1.241,0.96,1.97,0.96c1.015,0,2.011-0.637,2.369-1.71c0.211-0.634,0.164-1.312-0.135-1.909
				c-0.614-1.232-2.112-1.739-3.354-1.12c-1.08,0.54-1.599,1.761-1.298,2.884l-3.629,1.815C13.998,15.381,13.296,15,12.5,15
				c-1.378,0-2.5,1.122-2.5,2.5s1.122,2.5,2.5,2.5c0.891,0,1.668-0.471,2.111-1.174l3.42,1.281C17.791,21.617,18.96,23,20.497,23
				c1.012,0,1.967-0.619,2.344-1.621C23.075,20.755,23.053,20.076,22.777,19.467z M20.499,12c0.547,0,1.078,0.299,1.343,0.83v0
				c0.179,0.357,0.208,0.765,0.081,1.145c-0.259,0.779-1.102,1.213-1.897,0.948c-0.378-0.126-0.684-0.392-0.863-0.747
				c-0.001-0.002-0.001-0.004-0.002-0.007c-0.001-0.002-0.004-0.004-0.005-0.006C18.663,13.162,19.4,12,20.499,12z M12.5,19
				c-0.827,0-1.5-0.673-1.5-1.5s0.673-1.5,1.5-1.5s1.5,0.673,1.5,1.5S13.327,19,12.5,19z M21.904,21.028
				c-0.291,0.774-1.157,1.167-1.932,0.877c-0.773-0.292-1.167-1.157-0.876-1.931c0,0,0.001-0.001,0.001-0.002l0-0.001
				c0.228-0.607,0.802-0.971,1.4-0.971c0.562,0,1.113,0.319,1.368,0.881C22.032,20.246,22.045,20.653,21.904,21.028z"/>
			<path d="M8.5,18H1V8h19v1.5c0,0.276,0.224,0.5,0.5,0.5S21,9.776,21,9.5v-7C21,2.224,20.776,2,20.5,2H17V0.5
				C17,0.224,16.776,0,16.5,0h-3C13.224,0,13,0.224,13,0.5V2H8V0.5C8,0.224,7.776,0,7.5,0h-3C4.224,0,4,0.224,4,0.5V2H0.5
				C0.224,2,0,2.224,0,2.5v16C0,18.776,0.224,19,0.5,19h8C8.776,19,9,18.776,9,18.5S8.776,18,8.5,18z M14,1h2v3h-2V1z M5,1h2v3H5V1z
				 M4,3v1.5C4,4.776,4.224,5,4.5,5h3C7.776,5,8,4.776,8,4.5V3h5v1.5C13,4.776,13.224,5,13.5,5h3C16.776,5,17,4.776,17,4.5V3h3v4H1
				V3H4z"/>
		</g>
	</g>
</g>

</svg>
