<?xml version="1.0" encoding="utf-8"?>
<!-- Generator: Adobe Illustrator 16.0.3, SVG Export Plug-In . SVG Version: 6.00 Build 0)  -->
<!DOCTYPE svg PUBLIC "-//W3C//DTD SVG 1.1//EN" "http://www.w3.org/Graphics/SVG/1.1/DTD/svg11.dtd">
<svg version="1.1" xmlns="http://www.w3.org/2000/svg" xmlns:xlink="http://www.w3.org/1999/xlink" x="0px" y="0px" width="24px"
	 height="24px" viewBox="0 0 24 24" enable-background="new 0 0 24 24" xml:space="preserve">
<g id="Outline_Icons_1_">
	<g id="Outline_Icons">
	</g>
	<g id="New_icons_1_">
		<g>
			<path d="M23.947,23.276l-6-12c-0.17-0.339-0.725-0.339-0.895,0l-6,12c-0.078,0.155-0.069,0.339,0.022,0.486
				C11.166,23.911,11.327,24,11.5,24h12c0.173,0,0.334-0.089,0.425-0.237C24.017,23.615,24.025,23.431,23.947,23.276z M12.309,23
				L17.5,12.619L22.691,23H12.309z"/>
			<path d="M17,16.5V20c0,0.276,0.224,0.5,0.5,0.5S18,20.276,18,20v-3.5c0-0.276-0.224-0.5-0.5-0.5S17,16.224,17,16.5z"/>
			<circle cx="17.5" cy="21.5" r="0.5"/>
			<path d="M12,18.5c0-0.276-0.224-0.5-0.5-0.5H1V8h19v4c0,0.276,0.224,0.5,0.5,0.5S21,12.276,21,12V2.5C21,2.224,20.776,2,20.5,2
				H17V0.5C17,0.224,16.776,0,16.5,0h-3C13.224,0,13,0.224,13,0.5V2H8V0.5C8,0.224,7.776,0,7.5,0h-3C4.224,0,4,0.224,4,0.5V2H0.5
				C0.224,2,0,2.224,0,2.5v16C0,18.776,0.224,19,0.5,19h11C11.776,19,12,18.776,12,18.5z M14,1h2v3h-2V1z M5,1h2v3H5V1z M4,3v1.5
				C4,4.776,4.224,5,4.5,5h3C7.776,5,8,4.776,8,4.5V3h5v1.5C13,4.776,13.224,5,13.5,5h3C16.776,5,17,4.776,17,4.5V3h3v4H1V3H4z"/>
		</g>
	</g>
</g>

</svg>
