<?xml version="1.0" encoding="utf-8"?>
<!-- Generator: Adobe Illustrator 16.0.3, SVG Export Plug-In . SVG Version: 6.00 Build 0)  -->
<!DOCTYPE svg PUBLIC "-//W3C//DTD SVG 1.1//EN" "http://www.w3.org/Graphics/SVG/1.1/DTD/svg11.dtd">
<svg version="1.1" xmlns="http://www.w3.org/2000/svg" xmlns:xlink="http://www.w3.org/1999/xlink" x="0px" y="0px" width="24px"
	 height="24px" viewBox="0 0 24 24" enable-background="new 0 0 24 24" xml:space="preserve">
<g id="Outline_Icons_1_">
	<g id="Outline_Icons">
	</g>
	<g id="New_icons_1_">
		<g>
			<path d="M23.5,2H20V0.5C20,0.224,19.776,0,19.5,0h-3C16.224,0,16,0.224,16,0.5V2H8V0.5C8,0.224,7.776,0,7.5,0h-3
				C4.224,0,4,0.224,4,0.5V2H0.5C0.224,2,0,2.224,0,2.5v21C0,23.776,0.224,24,0.5,24h23c0.276,0,0.5-0.224,0.5-0.5v-21
				C24,2.224,23.776,2,23.5,2z M17,1h2v3h-2V1z M5,1h2v3H5V1z M4,3v1.5C4,4.776,4.224,5,4.5,5h3C7.776,5,8,4.776,8,4.5V3h8v1.5
				C16,4.776,16.224,5,16.5,5h3C19.776,5,20,4.776,20,4.5V3h3v4H1V3H4z M1,23V8h22v15H1z"/>
			<path d="M18.428,11.001c-0.428-0.178-0.9-0.178-1.328,0c-0.003,0.001-0.005,0.002-0.008,0.003l-2.581,1.123l-3.915-1.616
				c-0.122-0.049-0.26-0.05-0.382,0l-2.282,0.946c-0.187,0.078-0.309,0.26-0.309,0.462c0,0.203,0.122,0.385,0.309,0.462l3.073,1.271
				l-2.138,0.93l-1.644-0.822c-0.131-0.065-0.285-0.069-0.42-0.012l-2.161,0.926C4.49,14.74,4.38,14.877,4.349,15.04
				c-0.031,0.163,0.021,0.331,0.138,0.449l2.778,2.778c0.142,0.141,0.354,0.184,0.539,0.111l3.58-1.433l-1.454,3.879
				c-0.072,0.192-0.019,0.409,0.134,0.547c0.094,0.084,0.213,0.128,0.334,0.128c0.076,0,0.153-0.017,0.224-0.053l2.47-1.235
				c0.097-0.048,0.175-0.126,0.224-0.224l2.382-4.763l2.732-1.019c0.428-0.178,0.762-0.511,0.939-0.939
				c0.177-0.428,0.177-0.9,0-1.328C19.19,11.512,18.856,11.179,18.428,11.001z M9.431,11.919l0.976-0.404l2.829,1.168l-0.955,0.416
				L9.431,11.919z M18.444,12.885c-0.075,0.182-0.217,0.323-0.381,0.391l-2.9,1.081c-0.119,0.045-0.216,0.132-0.273,0.245
				l-2.395,4.791l-1.182,0.59l1.405-3.747c0.069-0.186,0.023-0.395-0.119-0.533c-0.095-0.093-0.221-0.143-0.35-0.143
				c-0.062,0-0.125,0.012-0.186,0.036l-4.325,1.73l-2.023-2.024l1.27-0.544l1.645,0.823c0.133,0.066,0.288,0.071,0.423,0.011
				l8.434-3.668c0.181-0.074,0.378-0.074,0.559,0.001c0.181,0.075,0.322,0.216,0.397,0.398
				C18.519,12.504,18.519,12.704,18.444,12.885z"/>
		</g>
	</g>
</g>

</svg>
