<?xml version="1.0" encoding="utf-8"?>
<!-- Generator: Adobe Illustrator 16.0.3, SVG Export Plug-In . SVG Version: 6.00 Build 0)  -->
<!DOCTYPE svg PUBLIC "-//W3C//DTD SVG 1.1//EN" "http://www.w3.org/Graphics/SVG/1.1/DTD/svg11.dtd">
<svg version="1.1" xmlns="http://www.w3.org/2000/svg" xmlns:xlink="http://www.w3.org/1999/xlink" x="0px" y="0px" width="24px"
	 height="24px" viewBox="0 0 24 24" enable-background="new 0 0 24 24" xml:space="preserve">
<g id="Outline_Icons">
	<path d="M19.939,6.28C19.855,6.108,19.681,6,19.49,6h-4.056l3.482-5.223c0.102-0.153,0.112-0.351,0.025-0.513S18.685,0,18.5,0h-5
		c-0.182,0-0.35,0.099-0.438,0.259l-5.5,10c-0.085,0.155-0.083,0.343,0.008,0.495C7.66,10.907,7.823,11,8,11h3.171l-3.369,6.383
		l-2.088-0.988c-0.163-0.077-0.356-0.06-0.504,0.045c-0.147,0.105-0.227,0.283-0.207,0.462l0.727,6.562
		c0.018,0.158,0.11,0.299,0.248,0.378c0.077,0.044,0.163,0.066,0.25,0.066c0.069,0,0.138-0.014,0.202-0.042l6.839-3.025
		c0.172-0.076,0.287-0.242,0.297-0.429c0.011-0.187-0.085-0.365-0.247-0.46l-2.492-1.453l9.06-11.692
		C20.002,6.655,20.023,6.451,19.939,6.28z M9.686,18.338c-0.088,0.113-0.123,0.26-0.096,0.401c0.027,0.142,0.114,0.264,0.239,0.337
		l2.139,1.247l-5.319,2.354l-0.553-4.994l1.711,0.81c0.241,0.113,0.531,0.018,0.656-0.218l3.979-7.54
		c0.082-0.155,0.076-0.342-0.014-0.492C12.338,10.092,12.175,10,12,10H8.846l4.95-9h3.771l-3.482,5.223
		c-0.103,0.153-0.112,0.35-0.025,0.513C14.146,6.898,14.315,7,14.5,7h3.97L9.686,18.338z"/>
</g>

</svg>
