<?xml version="1.0" encoding="utf-8"?>
<!-- Generator: Adobe Illustrator 16.0.3, SVG Export Plug-In . SVG Version: 6.00 Build 0)  -->
<!DOCTYPE svg PUBLIC "-//W3C//DTD SVG 1.1//EN" "http://www.w3.org/Graphics/SVG/1.1/DTD/svg11.dtd">
<svg version="1.1" xmlns="http://www.w3.org/2000/svg" xmlns:xlink="http://www.w3.org/1999/xlink" x="0px" y="0px" width="24px"
	 height="24px" viewBox="0 0 24 24" enable-background="new 0 0 24 24" xml:space="preserve">
<g id="Outline_Icons">
	<g>
		<path d="M21.5,23h-19C1.122,23,0,21.878,0,20.5v-17C0,2.122,1.122,1,2.5,1h19C22.878,1,24,2.122,24,3.5v17
			C24,21.878,22.878,23,21.5,23z M2.5,2C1.673,2,1,2.673,1,3.5v17C1,21.327,1.673,22,2.5,22h19c0.827,0,1.5-0.673,1.5-1.5v-17
			C23,2.673,22.327,2,21.5,2H2.5z"/>
		<path d="M8.5,16h-2C5.122,16,4,14.878,4,13.5v-3C4,9.122,5.122,8,6.5,8h2C9.878,8,11,9.122,11,10.5c0,0.276-0.224,0.516-0.5,0.516
			S10,10.808,10,10.531V10.5C10,9.673,9.327,9,8.5,9h-2C5.673,9,5,9.673,5,10.5v3C5,14.327,5.673,15,6.5,15h2
			c0.827,0,1.5-0.673,1.5-1.5c0-0.276,0.224-0.511,0.5-0.511s0.5,0.213,0.5,0.489C11,14.878,9.878,16,8.5,16z"/>
		<path d="M17.5,16h-2c-1.378,0-2.5-1.122-2.5-2.5v-3C13,9.122,14.122,8,15.5,8h2c1.378,0,2.5,1.122,2.5,2.5
			c0,0.276-0.224,0.516-0.5,0.516S19,10.808,19,10.531V10.5C19,9.673,18.327,9,17.5,9h-2C14.673,9,14,9.673,14,10.5v3
			c0,0.827,0.673,1.5,1.5,1.5h2c0.827,0,1.5-0.673,1.5-1.5c0-0.276,0.224-0.511,0.5-0.511s0.5,0.213,0.5,0.489
			C20,14.878,18.878,16,17.5,16z"/>
	</g>
</g>

</svg>
