<?xml version="1.0" encoding="utf-8"?>
<!-- Generator: Adobe Illustrator 16.0.3, SVG Export Plug-In . SVG Version: 6.00 Build 0)  -->
<!DOCTYPE svg PUBLIC "-//W3C//DTD SVG 1.1//EN" "http://www.w3.org/Graphics/SVG/1.1/DTD/svg11.dtd">
<svg version="1.1" xmlns="http://www.w3.org/2000/svg" xmlns:xlink="http://www.w3.org/1999/xlink" x="0px" y="0px" width="24px"
	 height="24px" viewBox="0 0 24 24" enable-background="new 0 0 24 24" xml:space="preserve">
<g id="Outline_Icons">
	<g>
		<path d="M22.5,19h-21C1.224,19,1,18.776,1,18.5v-14C1,4.224,1.224,4,1.5,4h21C22.776,4,23,4.224,23,4.5v14
			C23,18.776,22.776,19,22.5,19z M2,18h20V5H2V18z"/>
		<path d="M4.5,12C4.224,12,4,11.776,4,11.5v-4C4,7.224,4.224,7,4.5,7h3.984c0.276,0,0.5,0.224,0.5,0.5S8.761,8,8.484,8H5v3.5
			C5,11.776,4.776,12,4.5,12z"/>
		<path d="M19.5,16h-4c-0.276,0-0.5-0.224-0.5-0.5s0.224-0.5,0.5-0.5H19v-3.5c0-0.276,0.224-0.5,0.5-0.5s0.5,0.224,0.5,0.5v4
			C20,15.776,19.776,16,19.5,16z"/>
	</g>
</g>

</svg>
