<?xml version="1.0" encoding="utf-8"?>
<!-- Generator: Adobe Illustrator 16.0.3, SVG Export Plug-In . SVG Version: 6.00 Build 0)  -->
<!DOCTYPE svg PUBLIC "-//W3C//DTD SVG 1.1//EN" "http://www.w3.org/Graphics/SVG/1.1/DTD/svg11.dtd">
<svg version="1.1" xmlns="http://www.w3.org/2000/svg" xmlns:xlink="http://www.w3.org/1999/xlink" x="0px" y="0px" width="24px"
	 height="24px" viewBox="0 0 24 24" enable-background="new 0 0 24 24" xml:space="preserve">
<g id="Outline_Icons">
	<g>
		<path d="M20.894,0.192C20.799,0.071,20.654,0,20.5,0h-18C2.346,0,2.201,0.071,2.106,0.192C2.011,0.313,1.978,0.472,2.015,0.621
			l2,8C4.071,8.844,4.271,9,4.5,9H6v12.5C6,21.776,6.224,22,6.5,22H8v1.5C8,23.776,8.224,24,8.5,24h6c0.276,0,0.5-0.224,0.5-0.5V22
			h1.5c0.276,0,0.5-0.224,0.5-0.5V9h1.5c0.229,0,0.429-0.156,0.485-0.379l2-8C21.022,0.472,20.989,0.313,20.894,0.192z M16,18H7v-6
			h9V18z M14,23H9v-1h5V23z M7,21v-2h9v2H7z M16,11H7V9h9V11z M18.109,8H4.891l-1.75-7h16.719L18.109,8z"/>
		<path d="M8.5,17C8.776,17,9,16.776,9,16.5v-3C9,13.224,8.776,13,8.5,13S8,13.224,8,13.5v3C8,16.776,8.224,17,8.5,17z"/>
		<path d="M10.5,17c0.276,0,0.5-0.224,0.5-0.5v-3c0-0.276-0.224-0.5-0.5-0.5S10,13.224,10,13.5v3C10,16.776,10.224,17,10.5,17z"/>
		<path d="M12.5,17c0.276,0,0.5-0.224,0.5-0.5v-3c0-0.276-0.224-0.5-0.5-0.5S12,13.224,12,13.5v3C12,16.776,12.224,17,12.5,17z"/>
		<path d="M14.5,17c0.276,0,0.5-0.224,0.5-0.5v-3c0-0.276-0.224-0.5-0.5-0.5S14,13.224,14,13.5v3C14,16.776,14.224,17,14.5,17z"/>
	</g>
</g>

</svg>
