<?xml version="1.0" encoding="utf-8"?>
<!-- Generator: Adobe Illustrator 16.0.3, SVG Export Plug-In . SVG Version: 6.00 Build 0)  -->
<!DOCTYPE svg PUBLIC "-//W3C//DTD SVG 1.1//EN" "http://www.w3.org/Graphics/SVG/1.1/DTD/svg11.dtd">
<svg version="1.1" xmlns="http://www.w3.org/2000/svg" xmlns:xlink="http://www.w3.org/1999/xlink" x="0px" y="0px" width="24px"
	 height="24px" viewBox="0 0 24 24" enable-background="new 0 0 24 24" xml:space="preserve">
<g id="Outline_Icons">
	<g>
		<path d="M21.262,19.627L16,17.686v-3.411c1.498-1.445,2.401-3.622,2.401-6.012c0-0.492-0.043-0.972-0.117-1.439
			c-0.001-0.007,0.002-0.014,0.001-0.021c-0.001-0.008-0.006-0.015-0.007-0.023C17.691,3.207,15.033,0.5,11.849,0.5
			c-2.318,0-4.485,1.471-5.657,3.84C6.069,4.587,6.17,4.887,6.418,5.01s0.548,0.021,0.67-0.227C8.09,2.758,9.914,1.5,11.849,1.5
			c2.54,0,4.682,2.09,5.34,4.93c-1.421,0.166-2.675,0.17-3.98-2.116c-0.091-0.159-0.25-0.245-0.444-0.252
			c-0.183,0.003-0.349,0.107-0.434,0.269c-0.204,0.393-0.587,0.78-1.107,1.123c-0.23,0.152-0.294,0.462-0.142,0.693
			c0.152,0.23,0.461,0.294,0.693,0.143c0.383-0.253,0.711-0.533,0.975-0.829c1.166,1.676,2.415,2.03,3.564,2.03
			c0.359,0,0.705-0.037,1.039-0.076c0.029,0.279,0.049,0.561,0.049,0.848c0,2.786-1.438,5.327-3.578,6.322
			c-0.25,0.117-0.359,0.414-0.243,0.665c0.085,0.182,0.266,0.289,0.454,0.289c0.07,0,0.142-0.015,0.21-0.046
			c0.264-0.123,0.512-0.273,0.755-0.431v2.973c0,0.209,0.13,0.396,0.327,0.469l5.594,2.065c1.083,0.387,1.856,1.331,2.038,2.433
			H1.041c0.182-1.103,0.955-2.047,2.042-2.434l5.591-2.063C8.87,18.43,9,18.243,9,18.033V17.5C9,17.224,8.776,17,8.5,17
			S8,17.224,8,17.5v0.185l-5.259,1.941C1.102,20.21,0,21.768,0,23.5C0,23.776,0.224,24,0.5,24h23c0.276,0,0.5-0.224,0.5-0.5
			C24,21.768,22.897,20.211,21.262,19.627z"/>
		<path d="M1.5,16h10c0.827,0,1.5-0.673,1.5-1.5v-6C13,7.673,12.327,7,11.5,7h-1.191c-0.248-0.482-0.592-1-1.427-1H6.618
			c-0.835,0-1.18,0.518-1.427,1H3V6.5C3,6.224,2.776,6,2.5,6H2C1.724,6,1.5,6.224,1.5,6.5V7C0.673,7,0,7.673,0,8.5v6
			C0,15.327,0.673,16,1.5,16z M1,8.5C1,8.224,1.224,8,1.5,8H2h0.5h3c0.189,0,0.362-0.107,0.447-0.276l0.055-0.111
			C6.271,7.069,6.34,7,6.618,7h2.264C9.16,7,9.229,7.069,9.498,7.612l0.055,0.111C9.638,7.893,9.811,8,10,8h1.5
			C11.776,8,12,8.224,12,8.5v6c0,0.276-0.224,0.5-0.5,0.5h-10C1.224,15,1,14.776,1,14.5V8.5z"/>
		<path d="M7.5,13.5c1.378,0,2.5-1.122,2.5-2.5S8.878,8.5,7.5,8.5S5,9.622,5,11S6.122,13.5,7.5,13.5z M7.5,9.5
			C8.327,9.5,9,10.173,9,11s-0.673,1.5-1.5,1.5S6,11.827,6,11S6.673,9.5,7.5,9.5z"/>
	</g>
</g>

</svg>
