<?xml version="1.0" encoding="utf-8"?>
<!-- Generator: Adobe Illustrator 16.0.3, SVG Export Plug-In . SVG Version: 6.00 Build 0)  -->
<!DOCTYPE svg PUBLIC "-//W3C//DTD SVG 1.1//EN" "http://www.w3.org/Graphics/SVG/1.1/DTD/svg11.dtd">
<svg version="1.1" xmlns="http://www.w3.org/2000/svg" xmlns:xlink="http://www.w3.org/1999/xlink" x="0px" y="0px" width="24px"
	 height="24px" viewBox="0 0 24 24" enable-background="new 0 0 24 24" xml:space="preserve">
<g id="Outline_Icons">
	<g>
		<path d="M22.5,5h-15V4.5C7.5,3.673,6.827,3,6,3H4C3.173,3,2.5,3.673,2.5,4.5V5h-1C0.673,5,0,5.673,0,6.5v12
			C0,19.327,0.673,20,1.5,20h21c0.827,0,1.5-0.673,1.5-1.5v-12C24,5.673,23.327,5,22.5,5z M3.5,4.5C3.5,4.224,3.724,4,4,4h2
			c0.276,0,0.5,0.224,0.5,0.5V5h-3V4.5z M23,18.5c0,0.276-0.224,0.5-0.5,0.5h-21C1.224,19,1,18.776,1,18.5V15h7
			c0.276,0,0.5-0.224,0.5-0.5S8.276,14,8,14H1v-1h7c0.276,0,0.5-0.224,0.5-0.5S8.276,12,8,12H1v-1h7c0.276,0,0.5-0.224,0.5-0.5
			S8.276,10,8,10H1V6.5C1,6.224,1.224,6,1.5,6h21C22.776,6,23,6.224,23,6.5V18.5z"/>
		<path d="M16.5,7C13.467,7,11,9.467,11,12.5s2.467,5.5,5.5,5.5s5.5-2.467,5.5-5.5S19.533,7,16.5,7z M16.5,17
			c-2.481,0-4.5-2.018-4.5-4.5c0-2.481,2.019-4.5,4.5-4.5s4.5,2.019,4.5,4.5C21,14.982,18.981,17,16.5,17z"/>
		<path d="M18.5,10h-4c-0.276,0-0.5,0.224-0.5,0.5v4c0,0.276,0.224,0.5,0.5,0.5h4c0.276,0,0.5-0.224,0.5-0.5v-4
			C19,10.224,18.776,10,18.5,10z M18,14h-3v-3h3V14z"/>
	</g>
</g>

</svg>
