<?xml version="1.0" encoding="utf-8"?>
<!-- Generator: Adobe Illustrator 16.0.3, SVG Export Plug-In . SVG Version: 6.00 Build 0)  -->
<!DOCTYPE svg PUBLIC "-//W3C//DTD SVG 1.1//EN" "http://www.w3.org/Graphics/SVG/1.1/DTD/svg11.dtd">
<svg version="1.1" xmlns="http://www.w3.org/2000/svg" xmlns:xlink="http://www.w3.org/1999/xlink" x="0px" y="0px" width="24px"
	 height="24px" viewBox="0 0 24 24" enable-background="new 0 0 24 24" xml:space="preserve">
<g id="Outline_Icons">
	<g>
		<path d="M24,14.5v-2c0-0.276-0.224-0.5-0.5-0.5h-3c-0.104,0-0.195,0.039-0.275,0.094l-1.25-3.752C18.906,8.138,18.715,8,18.5,8
			h-13C5.284,8,5.093,8.138,5.025,8.342l-1.25,3.752C3.695,12.039,3.604,12,3.5,12h-3C0.223,12,0,12.224,0,12.5v2
			C0,14.776,0.223,15,0.5,15h1.793l-2.146,2.146c-0.046,0.045-0.083,0.1-0.108,0.161C0.013,17.368,0,17.434,0,17.5v4
			C0,21.776,0.223,22,0.5,22H1v1.5C1,23.776,1.223,24,1.5,24h3C4.776,24,5,23.776,5,23.5V22h3v0.5C8,22.776,8.223,23,8.5,23h7
			c0.276,0,0.5-0.224,0.5-0.5V22h3v1.5c0,0.276,0.224,0.5,0.5,0.5h3c0.276,0,0.5-0.224,0.5-0.5V22h0.5c0.276,0,0.5-0.224,0.5-0.5v-4
			c0-0.066-0.014-0.132-0.039-0.192c-0.025-0.062-0.062-0.116-0.108-0.161L21.707,15H23.5C23.776,15,24,14.776,24,14.5z M5.86,9
			h12.279l1.667,5H4.193L5.86,9z M1,13h2v1H1V13z M4,18v1H1v-1H4z M4,23H2v-1h2V23z M15,22H9v-2h6V22z M22,23h-2v-1h2V23z M16,21
			v-1.5c0-0.276-0.224-0.5-0.5-0.5h-7C8.223,19,8,19.224,8,19.5V21H1v-1h3.5C4.776,20,5,19.776,5,19.5v-2C5,17.224,4.776,17,4.5,17
			H1.707l2-2h16.586l2,2H19.5c-0.276,0-0.5,0.224-0.5,0.5v2c0,0.276,0.224,0.5,0.5,0.5H23v1H16z M23,19h-3v-1h3V19z M23,14h-2v-1h2
			V14z"/>
		<path d="M12,16c-0.276,0-0.5,0.224-0.5,0.5v1c0,0.276,0.224,0.5,0.5,0.5s0.5-0.224,0.5-0.5v-1C12.5,16.224,12.276,16,12,16z"/>
	</g>
</g>

</svg>
