<?xml version="1.0" encoding="utf-8"?>
<!-- Generator: Adobe Illustrator 16.0.3, SVG Export Plug-In . SVG Version: 6.00 Build 0)  -->
<!DOCTYPE svg PUBLIC "-//W3C//DTD SVG 1.1//EN" "http://www.w3.org/Graphics/SVG/1.1/DTD/svg11.dtd">
<svg version="1.1" xmlns="http://www.w3.org/2000/svg" xmlns:xlink="http://www.w3.org/1999/xlink" x="0px" y="0px" width="24px"
	 height="24px" viewBox="0 0 24 24" enable-background="new 0 0 24 24" xml:space="preserve">
<g id="Outline_Icons">
	<g>
		<path d="M23.965,5.955c-0.098-0.258-0.388-0.392-0.644-0.292l-4.409,1.654c-0.221-0.275-0.462-0.53-0.701-0.788l4.032-4.073
			c0.194-0.196,0.192-0.513-0.004-0.707s-0.513-0.192-0.707,0.004L17.505,5.82c-0.266-0.248-0.53-0.496-0.815-0.725l1.609-4.334
			c0.096-0.259-0.036-0.547-0.295-0.643c-0.261-0.097-0.546,0.035-0.643,0.295l-1.513,4.074c-0.212-0.146-0.412-0.307-0.633-0.443
			c-0.868-0.534-2.091-0.302-2.698,0.517L0.363,21.085c-0.547,0.734-0.475,1.738,0.172,2.386c0.345,0.345,0.804,0.535,1.291,0.535
			c0.396,0,0.775-0.126,1.092-0.362l16.53-12.157c0.849-0.635,1.067-1.795,0.509-2.701c-0.136-0.219-0.295-0.417-0.44-0.627
			l4.156-1.56C23.932,6.502,24.062,6.214,23.965,5.955z M18.853,10.684l-4.402,3.238l-2.906-2.89
			c-0.196-0.194-0.513-0.194-0.707,0.002s-0.194,0.513,0.002,0.707l2.796,2.779l-3.274,2.408l-1.643-1.652
			c-0.194-0.196-0.511-0.196-0.707-0.002c-0.195,0.194-0.196,0.511-0.002,0.707l1.537,1.546L2.323,22.84
			c-0.324,0.242-0.798,0.207-1.081-0.076c-0.292-0.293-0.324-0.748-0.075-1.084L11.876,7.121l2.852,2.852
			c0.098,0.098,0.226,0.146,0.354,0.146s0.256-0.049,0.354-0.146c0.195-0.195,0.195-0.512,0-0.707l-2.959-2.959l0.846-1.15
			c0.195-0.264,0.497-0.415,0.826-0.415c0.191,0,0.379,0.054,0.542,0.154c1.811,1.124,3.297,2.609,4.417,4.416
			C19.391,9.772,19.28,10.363,18.853,10.684z"/>
	</g>
</g>

</svg>
