<?xml version="1.0" encoding="utf-8"?>
<!-- Generator: Adobe Illustrator 16.0.3, SVG Export Plug-In . SVG Version: 6.00 Build 0)  -->
<!DOCTYPE svg PUBLIC "-//W3C//DTD SVG 1.1//EN" "http://www.w3.org/Graphics/SVG/1.1/DTD/svg11.dtd">
<svg version="1.1" xmlns="http://www.w3.org/2000/svg" xmlns:xlink="http://www.w3.org/1999/xlink" x="0px" y="0px" width="24px"
	 height="24px" viewBox="0 0 24 24" enable-background="new 0 0 24 24" xml:space="preserve">
<g id="Outline_Icons">
	<g>
		<path d="M24,7.5C24,4.467,21.533,2,18.5,2S13,4.467,13,7.5c0,0.521,0.077,1.022,0.213,1.5h-2.426C10.923,8.522,11,8.021,11,7.5
			C11,4.467,8.533,2,5.5,2S0,4.467,0,7.5c0,2.132,1.222,3.98,3,4.893V19.5C3,20.878,4.122,22,5.5,22h3h7h3
			c1.378,0,2.5-1.122,2.5-2.5v-7.107C22.778,11.48,24,9.632,24,7.5z M1,7.5C1,5.019,3.019,3,5.5,3S10,5.019,10,7.5S7.981,12,5.5,12
			S1,9.981,1,7.5z M9,21v-1h6v1H9z M20,19.5c0,0.827-0.673,1.5-1.5,1.5H16v-1.5c0-0.276-0.224-0.5-0.5-0.5h-7
			C8.224,19,8,19.224,8,19.5V21H5.5C4.673,21,4,20.327,4,19.5v-6.713C4.478,12.923,4.979,13,5.5,13c2.132,0,3.98-1.222,4.893-3
			h3.215c0.912,1.778,2.761,3,4.893,3c0.521,0,1.022-0.077,1.5-0.213V19.5z M18.5,12C16.019,12,14,9.981,14,7.5S16.019,3,18.5,3
			S23,5.019,23,7.5S20.981,12,18.5,12z"/>
		<circle cx="6" cy="17.5" r="1"/>
		<circle cx="18" cy="17.5" r="1"/>
		<path d="M14,13c-0.827,0-1.5,0.673-1.5,1.5S13.173,16,14,16s1.5-0.673,1.5-1.5S14.827,13,14,13z M14,15
			c-0.276,0-0.5-0.224-0.5-0.5c0-0.276,0.224-0.5,0.5-0.5s0.5,0.224,0.5,0.5C14.5,14.776,14.276,15,14,15z"/>
		<path d="M10,13c-0.827,0-1.5,0.673-1.5,1.5S9.173,16,10,16s1.5-0.673,1.5-1.5S10.827,13,10,13z M10,15c-0.276,0-0.5-0.224-0.5-0.5
			c0-0.276,0.224-0.5,0.5-0.5s0.5,0.224,0.5,0.5C10.5,14.776,10.276,15,10,15z"/>
		<path d="M6,6V4.5C6,4.224,5.776,4,5.5,4S5,4.224,5,4.5V6c0,0.276,0.224,0.5,0.5,0.5S6,6.276,6,6z"/>
		<path d="M18.5,4C18.224,4,18,4.224,18,4.5V6c0,0.276,0.224,0.5,0.5,0.5S19,6.276,19,6V4.5C19,4.224,18.776,4,18.5,4z"/>
		<path d="M16.951,7.817l-1.299,0.75c-0.239,0.138-0.321,0.444-0.183,0.683c0.093,0.16,0.261,0.25,0.434,0.25
			c0.085,0,0.171-0.021,0.25-0.066l1.299-0.75C17.69,8.545,17.772,8.239,17.634,8C17.496,7.76,17.189,7.679,16.951,7.817z"/>
		<path d="M21.347,8.567l-1.298-0.75C19.81,7.679,19.504,7.76,19.366,8c-0.138,0.239-0.056,0.545,0.183,0.684l1.298,0.75
			c0.079,0.045,0.165,0.066,0.25,0.066c0.173,0,0.341-0.09,0.434-0.25C21.668,9.011,21.586,8.705,21.347,8.567z"/>
		<path d="M3.951,7.817l-1.299,0.75C2.413,8.705,2.331,9.011,2.469,9.25C2.562,9.41,2.73,9.5,2.903,9.5
			c0.085,0,0.171-0.021,0.25-0.066l1.299-0.75C4.69,8.545,4.772,8.239,4.634,8C4.496,7.76,4.188,7.679,3.951,7.817z"/>
		<path d="M6.549,8.684l1.298,0.75C7.925,9.479,8.011,9.5,8.096,9.5c0.173,0,0.341-0.09,0.434-0.25
			c0.138-0.239,0.056-0.545-0.183-0.683l-1.298-0.75C6.81,7.679,6.503,7.76,6.366,8C6.228,8.239,6.31,8.545,6.549,8.684z"/>
	</g>
</g>

</svg>
