<?xml version="1.0" encoding="utf-8"?>
<!-- Generator: Adobe Illustrator 16.0.3, SVG Export Plug-In . SVG Version: 6.00 Build 0)  -->
<!DOCTYPE svg PUBLIC "-//W3C//DTD SVG 1.1//EN" "http://www.w3.org/Graphics/SVG/1.1/DTD/svg11.dtd">
<svg version="1.1" xmlns="http://www.w3.org/2000/svg" xmlns:xlink="http://www.w3.org/1999/xlink" x="0px" y="0px" width="24px"
	 height="24px" viewBox="0 0 24 24" enable-background="new 0 0 24 24" xml:space="preserve">
<g id="Outline_Icons">
	<path d="M21.5,14c0.276,0,0.5-0.224,0.5-0.5v-2c0-0.276-0.224-0.5-0.5-0.5h-9.497c0.05-0.43,0.765-5.398,6.997-7.789v2.381
		C18.419,5.799,18,6.349,18,7c0,0.827,0.673,1.5,1.5,1.5S21,7.827,21,7c0-0.651-0.419-1.201-1-1.408V2.501
		c0-0.161-0.077-0.312-0.208-0.405c-0.131-0.095-0.3-0.119-0.451-0.069C15.115,3.436,13.031,5.896,12,7.882V4h1.5
		C13.776,4,14,3.776,14,3.5v-2C14,1.224,13.776,1,13.5,1h-9C4.223,1,4,1.224,4,1.5v2C4,3.776,4.223,4,4.5,4H6v7H1.5
		C1.223,11,1,11.224,1,11.5v2C1,13.776,1.223,14,1.5,14H3v7H1.5C1.223,21,1,21.224,1,21.5v2C1,23.776,1.223,24,1.5,24h20
		c0.276,0,0.5-0.224,0.5-0.5v-2c0-0.276-0.224-0.5-0.5-0.5H20v-7H21.5z M19.5,7.5C19.224,7.5,19,7.275,19,7s0.224-0.5,0.5-0.5
		S20,6.725,20,7S19.775,7.5,19.5,7.5z M7,6h4v1H7V6z M7,8h4v1H7V8z M5,2h8v1H5V2z M11,4v1H7V4H11z M7,10h4v1H7V10z M2,12h19v1H2V12z
		 M19,19h-4v-1h4V19z M19,17h-4v-1h4V17z M14,21H9v-7h5V21z M4,16h4v1H4V16z M4,18h4v1H4V18z M8,14v1H4v-1H8z M4,20h4v1H4V20z
		 M21,23H2v-1h19V23z M15,21v-1h4v1H15z M19,15h-4v-1h4V15z"/>
</g>

</svg>
