<?xml version="1.0" encoding="utf-8"?>
<!-- Generator: Adobe Illustrator 16.0.3, SVG Export Plug-In . SVG Version: 6.00 Build 0)  -->
<!DOCTYPE svg PUBLIC "-//W3C//DTD SVG 1.1//EN" "http://www.w3.org/Graphics/SVG/1.1/DTD/svg11.dtd">
<svg version="1.1" xmlns="http://www.w3.org/2000/svg" xmlns:xlink="http://www.w3.org/1999/xlink" x="0px" y="0px" width="24px"
	 height="24px" viewBox="0 0 24 24" enable-background="new 0 0 24 24" xml:space="preserve">
<g id="Outline_Icons">
	<g>
		<path d="M23.5,2H7C5.346,2,4,3.346,4,5v4.5C4,9.776,4.224,10,4.5,10h0.543c0.203,1.15,1.206,2,2.457,2h12
			c0.276,0,0.5-0.224,0.5-0.5V6.734l2.638-0.753c0.158-0.045,0.284-0.167,0.337-0.322l1-3C24.025,2.506,24,2.338,23.905,2.208
			C23.812,2.077,23.661,2,23.5,2z M19,11H7.5c-0.696,0-1.246-0.41-1.43-1h9.43c0.276,0,0.5-0.224,0.5-0.5V7.877l3-0.857V11z
			 M22.109,5.092l-6.747,1.927C15.148,7.081,15,7.277,15,7.5V9H5V5c0-1.103,0.897-2,2-2h15.807L22.109,5.092z"/>
		<path d="M21.5,7.5C21.224,7.5,21,7.724,21,8v2c0,0.276,0.224,0.5,0.5,0.5S22,10.276,22,10V8C22,7.724,21.776,7.5,21.5,7.5z"/>
		<path d="M12.5,13h-4C8.224,13,8,13.224,8,13.5S8.224,14,8.5,14H10v4.09l-9,1.8V18.5C1,18.224,0.776,18,0.5,18S0,18.224,0,18.5v4
			C0,22.776,0.224,23,0.5,23S1,22.776,1,22.5v-1.59l9.598-1.919C10.832,18.943,11,18.738,11,18.5V14h1.5c0.276,0,0.5-0.224,0.5-0.5
			S12.776,13,12.5,13z"/>
	</g>
</g>

</svg>
