<?xml version="1.0" encoding="utf-8"?>
<!-- Generator: Adobe Illustrator 16.0.3, SVG Export Plug-In . SVG Version: 6.00 Build 0)  -->
<!DOCTYPE svg PUBLIC "-//W3C//DTD SVG 1.1//EN" "http://www.w3.org/Graphics/SVG/1.1/DTD/svg11.dtd">
<svg version="1.1" xmlns="http://www.w3.org/2000/svg" xmlns:xlink="http://www.w3.org/1999/xlink" x="0px" y="0px" width="24px"
	 height="24px" viewBox="0 0 24 24" enable-background="new 0 0 24 24" xml:space="preserve">
<g id="Outline_Icons">
	<g>
		<path d="M23.5,1h-23C0.224,1,0,1.224,0,1.5v20C0,21.776,0.224,22,0.5,22h23c0.276,0,0.5-0.224,0.5-0.5v-20
			C24,1.224,23.776,1,23.5,1z M1,2h2v19H1V2z M23,21H4V2h19V21z"/>
		<path d="M13.5,20c4.687,0,8.5-3.813,8.5-8.5S18.187,3,13.5,3S5,6.813,5,11.5S8.813,20,13.5,20z M13.5,4c4.136,0,7.5,3.364,7.5,7.5
			S17.636,19,13.5,19S6,15.636,6,11.5S9.364,4,13.5,4z"/>
		<path d="M13.5,14c1.378,0,2.5-1.121,2.5-2.5S14.878,9,13.5,9S11,10.121,11,11.5S12.122,14,13.5,14z M13.5,10
			c0.827,0,1.5,0.673,1.5,1.5S14.327,13,13.5,13S12,12.327,12,11.5S12.673,10,13.5,10z"/>
		<circle cx="13.5" cy="11.5" r="0.5"/>
	</g>
</g>

</svg>
