<?xml version="1.0" encoding="utf-8"?>
<!-- Generator: Adobe Illustrator 16.0.3, SVG Export Plug-In . SVG Version: 6.00 Build 0)  -->
<!DOCTYPE svg PUBLIC "-//W3C//DTD SVG 1.1//EN" "http://www.w3.org/Graphics/SVG/1.1/DTD/svg11.dtd">
<svg version="1.1" xmlns="http://www.w3.org/2000/svg" xmlns:xlink="http://www.w3.org/1999/xlink" x="0px" y="0px" width="24px"
	 height="24px" viewBox="0 0 24 24" enable-background="new 0 0 24 24" xml:space="preserve">
<g id="Outline_Icons">
	<g>
		<path d="M11.583,0C6.292,0,0.261,6.268,0.261,11.766c0,2.119,0.905,3.894,2.617,5.133c1.839,1.331,4.575,2.028,8.122,2.09V23H5
			c-0.276,0-0.5,0.224-0.5,0.5S4.724,24,5,24h13c0.276,0,0.5-0.224,0.5-0.5S18.276,23,18,23h-6v-4.011
			c3.49-0.061,6.177-0.74,7.972-2.035c1.674-1.207,2.558-2.945,2.558-5.027C22.529,6.465,16.596,0,11.583,0z M19.387,16.144
			C17.68,17.376,15.025,18,11.5,18c-3.581,0-6.284-0.643-8.035-1.911c-1.463-1.058-2.204-2.513-2.204-4.323
			C1.261,6.835,6.856,1,11.583,1c4.462,0,9.946,6.026,9.946,10.927C21.529,13.699,20.809,15.118,19.387,16.144z"/>
		<path d="M11.537,2.916c-2.73,0-7.687,4.126-8.194,7.556c-0.078,0.524-0.077,1.232,0.234,1.954
			c0.016,0.085,0.056,0.162,0.112,0.229c0.462,0.88,1.417,1.755,3.297,2.323C7.033,14.993,7.082,15,7.131,15h8.721
			c0.05,0,0.1-0.007,0.146-0.022c3.333-1.022,3.772-2.967,3.555-4.418C19.025,7.042,13.866,2.916,11.537,2.916z M4.332,10.619
			c0.456-3.085,5.099-6.703,7.205-6.703c1.743,0,6.553,3.625,7.027,6.791c0.048,0.318,0.033,0.613-0.02,0.894
			c-2.34-0.826-9.171-0.851-12.305-0.45c-0.92,0.118-1.499,0.257-1.884,0.405C4.299,11.261,4.283,10.952,4.332,10.619z M15.775,14
			H7.206c-1.19-0.37-2.004-0.892-2.464-1.548c1.893-0.791,11.324-0.758,13.43,0.03C17.727,13.123,16.936,13.635,15.775,14z"/>
	</g>
</g>

</svg>
