<?xml version="1.0" encoding="utf-8"?>
<!-- Generator: Adobe Illustrator 16.0.3, SVG Export Plug-In . SVG Version: 6.00 Build 0)  -->
<!DOCTYPE svg PUBLIC "-//W3C//DTD SVG 1.1//EN" "http://www.w3.org/Graphics/SVG/1.1/DTD/svg11.dtd">
<svg version="1.1" xmlns="http://www.w3.org/2000/svg" xmlns:xlink="http://www.w3.org/1999/xlink" x="0px" y="0px" width="24px"
	 height="24px" viewBox="0 0 24 24" enable-background="new 0 0 24 24" xml:space="preserve">
<g id="Outline_Icons_1_">
	<g id="Outline_Icons">
		<g>
			<path d="M9.147,15.854c0.19,0.19,0.497,0.196,0.695,0.012l7.5-7c0.202-0.188,0.212-0.505,0.024-0.707
				c-0.189-0.202-0.504-0.212-0.707-0.024l-7.146,6.67l-2.159-2.158c-0.195-0.195-0.512-0.195-0.707,0s-0.195,0.512,0,0.707
				L9.147,15.854z"/>
			<path d="M23.5,0h-23C0.224,0,0,0.224,0,0.5v23C0,23.776,0.224,24,0.5,24h23c0.276,0,0.5-0.224,0.5-0.5v-23
				C24,0.224,23.776,0,23.5,0z M23,23H1V1h22V23z"/>
		</g>
	</g>
</g>

</svg>
