<?xml version="1.0" encoding="utf-8"?>
<!-- Generator: Adobe Illustrator 16.0.3, SVG Export Plug-In . SVG Version: 6.00 Build 0)  -->
<!DOCTYPE svg PUBLIC "-//W3C//DTD SVG 1.1//EN" "http://www.w3.org/Graphics/SVG/1.1/DTD/svg11.dtd">
<svg version="1.1" xmlns="http://www.w3.org/2000/svg" xmlns:xlink="http://www.w3.org/1999/xlink" x="0px" y="0px" width="24px"
	 height="24px" viewBox="0 0 24 24" enable-background="new 0 0 24 24" xml:space="preserve">
<g id="Outline_Icons_1_">
	<g id="Outline_Icons">
		<g>
			<g>
				<path d="M6.646,23.854l-6.5-6.5c-0.195-0.195-0.195-0.512,0-0.707s0.512-0.195,0.707,0l6.083,6.083L23.094,0.208
					c0.161-0.225,0.472-0.277,0.698-0.115c0.224,0.161,0.276,0.473,0.115,0.698l-16.5,23C7.226,24.043,6.864,24.071,6.646,23.854z"
					/>
			</g>
		</g>
	</g>
</g>

</svg>
