<?xml version="1.0" encoding="utf-8"?>
<!-- Generator: Adobe Illustrator 16.0.3, SVG Export Plug-In . SVG Version: 6.00 Build 0)  -->
<!DOCTYPE svg PUBLIC "-//W3C//DTD SVG 1.1//EN" "http://www.w3.org/Graphics/SVG/1.1/DTD/svg11.dtd">
<svg version="1.1" xmlns="http://www.w3.org/2000/svg" xmlns:xlink="http://www.w3.org/1999/xlink" x="0px" y="0px" width="24px"
	 height="24px" viewBox="0 0 24 24" enable-background="new 0 0 24 24" xml:space="preserve">
<g id="Outline_Icons">
	<g>
		<path d="M13.479,5.559c0-0.526-0.213-1.042-0.586-1.414c-0.749-0.749-2.075-0.751-2.829,0L9.008,5.2V2.529c0-1.103-0.897-2-2-2
			s-2,0.897-2,2v2.672L3.983,4.176c-0.749-0.749-2.077-0.75-2.828,0C0.777,4.554,0.569,5.056,0.569,5.59
			c0,0.526,0.213,1.042,0.586,1.414l3.854,3.854v3.672c0,1.103,0.897,2,2,2s2-0.897,2-2v-3.672l3.885-3.885
			C13.266,6.601,13.479,6.085,13.479,5.559z M12.186,6.266l-4.031,4.031c-0.094,0.094-0.146,0.221-0.146,0.354v3.879
			c0,0.552-0.449,1-1,1s-1-0.448-1-1V10.65c0-0.133-0.053-0.26-0.146-0.354l-4-4C1.676,6.11,1.569,5.853,1.569,5.59
			c0-0.267,0.104-0.518,0.293-0.707C2.051,4.694,2.302,4.59,2.569,4.59c0.263,0,0.521,0.106,0.707,0.293l1.879,1.879
			C5.298,6.905,5.514,6.947,5.7,6.87c0.187-0.077,0.309-0.26,0.309-0.462V2.529c0-0.552,0.449-1,1-1s1,0.448,1,1v3.879
			c0,0.202,0.122,0.385,0.309,0.462c0.187,0.076,0.402,0.034,0.545-0.108l1.909-1.909c0.376-0.377,1.041-0.378,1.416-0.001
			c0.186,0.187,0.293,0.444,0.293,0.707S12.372,6.079,12.186,6.266z"/>
		<path d="M23.83,13.956c-0.212-0.481-0.615-0.867-1.105-1.057c-0.492-0.191-1.048-0.18-1.531,0.031l-1.368,0.602l0.969-2.489
			c0.194-0.498,0.183-1.041-0.032-1.53c-0.215-0.488-0.608-0.865-1.105-1.059c-1.013-0.394-2.198,0.132-2.59,1.138l-0.969,2.488
			l-0.583-1.326c-0.215-0.49-0.608-0.866-1.105-1.059c-0.49-0.191-1.047-0.181-1.53,0.032c-0.482,0.213-0.869,0.615-1.059,1.105
			c-0.192,0.491-0.181,1.05,0.032,1.53l2.193,4.989l-1.332,3.421c-0.4,1.027,0.11,2.189,1.139,2.59
			c0.232,0.091,0.477,0.137,0.725,0.137c0.831,0,1.563-0.5,1.864-1.274l1.332-3.422l5.029-2.21c0.49-0.216,0.866-0.608,1.06-1.105
			S24.045,14.447,23.83,13.956z M22.931,15.125c-0.097,0.249-0.285,0.445-0.53,0.553l-5.219,2.294
			c-0.122,0.054-0.217,0.153-0.265,0.276l-1.407,3.614c-0.151,0.388-0.517,0.638-0.932,0.638h0c-0.124,0-0.246-0.023-0.362-0.068
			c-0.514-0.2-0.769-0.781-0.569-1.295l1.407-3.614c0.048-0.124,0.045-0.262-0.008-0.383l-2.276-5.18
			c-0.105-0.239-0.111-0.518-0.015-0.765c0.095-0.245,0.288-0.446,0.529-0.552c0.127-0.057,0.263-0.085,0.402-0.085
			c0.125,0,0.246,0.023,0.364,0.069c0.248,0.096,0.444,0.283,0.552,0.528l1.069,2.432c0.081,0.185,0.273,0.307,0.468,0.299
			c0.202-0.005,0.382-0.13,0.455-0.318L18,9.955c0.196-0.504,0.786-0.771,1.295-0.569c0.25,0.097,0.446,0.285,0.553,0.529
			s0.113,0.516,0.016,0.765l-1.407,3.615c-0.074,0.188-0.026,0.403,0.12,0.543c0.146,0.14,0.363,0.178,0.547,0.097l2.473-1.088
			c0.242-0.105,0.518-0.112,0.767-0.016c0.245,0.096,0.446,0.288,0.552,0.528C23.022,14.604,23.028,14.876,22.931,15.125z"/>
	</g>
</g>

</svg>
