<?xml version="1.0" encoding="utf-8"?>
<!-- Generator: Adobe Illustrator 16.0.3, SVG Export Plug-In . SVG Version: 6.00 Build 0)  -->
<!DOCTYPE svg PUBLIC "-//W3C//DTD SVG 1.1//EN" "http://www.w3.org/Graphics/SVG/1.1/DTD/svg11.dtd">
<svg version="1.1" xmlns="http://www.w3.org/2000/svg" xmlns:xlink="http://www.w3.org/1999/xlink" x="0px" y="0px" width="24px"
	 height="24px" viewBox="0 0 24 24" enable-background="new 0 0 24 24" xml:space="preserve">
<g id="Outline_Icons">
	<g>
		<path d="M22.857,0.806c-0.221-0.169-0.534-0.124-0.7,0.095l-3.169,4.165c-2.5-1.185-5.104,2.019-5.666,2.769
			c-2.053,0.511-3.707,3.895-5.172,6.9c-0.719,1.476-1.398,2.869-1.99,3.631c-1.515,1.947-3.36,1.783-4.531,1.722
			c-0.347-0.018-0.632-0.032-0.868-0.007c-0.306,0.033-0.57,0.229-0.689,0.507c-0.123,0.28-0.085,0.606,0.1,0.853
			c0.716,0.953,2.804,2.566,6.085,2.566c3.093,0,6.77-2.956,9.179-5.724c1.762-2.022,3.53-4.802,3.431-6.721
			c0.408-0.567,1.915-2.814,1.596-4.636c-0.089-0.507-0.312-0.935-0.653-1.287l3.145-4.133C23.12,1.286,23.077,0.973,22.857,0.806z
			 M14.681,17.626c-2.846,3.269-6.153,5.38-8.425,5.38c-2.619,0-4.366-1.162-5.092-1.938c0.126,0.003,0.264,0.011,0.413,0.019
			c0.254,0.013,0.537,0.027,0.841,0.027c0.795,0,1.83-0.1,2.864-0.678L5.58,21.33c0.07,0.209,0.266,0.342,0.475,0.342
			c0.053,0,0.105-0.008,0.158-0.025c0.262-0.088,0.403-0.371,0.316-0.633l-0.396-1.187c0.183-0.159,0.361-0.339,0.538-0.537
			l1.659,0.829c0.072,0.036,0.148,0.053,0.224,0.053c0.183,0,0.359-0.102,0.447-0.276c0.123-0.247,0.023-0.547-0.224-0.671
			l-1.49-0.745c0.558-0.855,1.145-2.041,1.761-3.307c1.34-2.749,3.007-6.17,4.64-6.402c2.56-0.36,3.876,0.47,4.186,2.69
			C18.053,12.749,16.77,15.227,14.681,17.626z M18.576,10.161c-0.578-1.636-1.848-2.472-3.837-2.467
			c0.939-1.034,2.64-2.517,4.045-1.617c0.389,0.249,0.614,0.582,0.691,1.02C19.641,8.032,19.094,9.269,18.576,10.161z"/>
	</g>
</g>

</svg>
