<?xml version="1.0" encoding="utf-8"?>
<!-- Generator: Adobe Illustrator 16.0.3, SVG Export Plug-In . SVG Version: 6.00 Build 0)  -->
<!DOCTYPE svg PUBLIC "-//W3C//DTD SVG 1.1//EN" "http://www.w3.org/Graphics/SVG/1.1/DTD/svg11.dtd">
<svg version="1.1" xmlns="http://www.w3.org/2000/svg" xmlns:xlink="http://www.w3.org/1999/xlink" x="0px" y="0px" width="24px"
	 height="24px" viewBox="0 0 24 24" enable-background="new 0 0 24 24" xml:space="preserve">
<g id="Outline_Icons">
	<path d="M22.854,4.146L21.707,3l2.146-2.146c0.195-0.195,0.195-0.512,0-0.707s-0.512-0.195-0.707,0L21,2.293l-1.146-1.146l-1-1
		c-0.195-0.195-0.512-0.195-0.707,0s-0.195,0.512,0,0.707l0.621,0.621l-5.08,4.425C13.354,5.652,12.946,5.5,12.5,5.5
		c-1.103,0-2,0.896-2,2c0,0.348,0.097,0.67,0.254,0.955L9.678,9.392C9.347,9.148,8.941,9,8.5,9c-1.103,0-2,0.896-2,2
		c0,0.343,0.095,0.661,0.247,0.943l-2.724,2.373l-0.17-0.17c-0.398-0.398-0.889-0.609-1.42-0.609c-0.913,0-1.85,0.661-2.227,1.571
		c-0.331,0.799-0.167,1.639,0.439,2.245l6,6c0.398,0.398,0.889,0.609,1.42,0.609c0.913,0,1.85-0.661,2.227-1.571
		c0.331-0.799,0.167-1.639-0.439-2.245l-0.17-0.17L22.525,5.232l0.621,0.621C23.244,5.951,23.372,6,23.5,6s0.256-0.049,0.354-0.146
		c0.195-0.195,0.195-0.512,0-0.707L22.854,4.146z M12.5,6.5c0.551,0,1,0.449,1,1c0,0.551-0.449,1-1,1s-1-0.449-1-1
		C11.5,6.949,11.949,6.5,12.5,6.5z M8.5,10c0.551,0,1,0.449,1,1c0,0.551-0.449,1-1,1s-1-0.449-1-1C7.5,10.449,7.949,10,8.5,10z
		 M9.369,22.009c-0.34,0.82-1.394,1.26-2.016,0.638l-6-6c-0.41-0.41-0.347-0.854-0.223-1.155c0.225-0.544,0.785-0.954,1.303-0.954
		c0.263,0,0.503,0.106,0.713,0.316l0.5,0.5l5,5l0.5,0.5C9.556,21.264,9.494,21.708,9.369,22.009z M8.975,19.268l-4.242-4.242
		l2.691-2.345C7.735,12.88,8.103,13,8.5,13c1.103,0,2-0.897,2-2c0-0.299-0.07-0.58-0.188-0.835l1.124-0.979
		C11.744,9.383,12.108,9.5,12.5,9.5c1.103,0,2-0.897,2-2c0-0.294-0.067-0.572-0.182-0.823l5.159-4.493l2.34,2.34L8.975,19.268z"/>
</g>

</svg>
