<?xml version="1.0" encoding="utf-8"?>
<!-- Generator: Adobe Illustrator 16.0.3, SVG Export Plug-In . SVG Version: 6.00 Build 0)  -->
<!DOCTYPE svg PUBLIC "-//W3C//DTD SVG 1.1//EN" "http://www.w3.org/Graphics/SVG/1.1/DTD/svg11.dtd">
<svg version="1.1" xmlns="http://www.w3.org/2000/svg" xmlns:xlink="http://www.w3.org/1999/xlink" x="0px" y="0px" width="24px"
	 height="24px" viewBox="0 0 24 24" enable-background="new 0 0 24 24" xml:space="preserve">
<g id="Outline_Icons_1_">
	<g id="Outline_Icons">
		<g>
			<path d="M18.854,6.334c-1.24-2.34-3.7-3.834-6.354-3.834c-3.617,0-6.647,2.694-7.121,6.228C3.01,8.567,1,10.428,1,12.805
				c0,2.628,1.957,4.087,4.314,4.087c0.009,0,0.016,0,0.02,0c0.275-0.004,0.496-0.231,0.492-0.508
				c-0.004-0.273-0.228-0.492-0.5-0.492c-0.002,0-0.005,0-0.008,0C3.356,15.803,2,14.824,2,12.805c0-1.955,1.794-3.422,3.724-3.021
				c0.301,0.062,0.583-0.155,0.602-0.46C6.518,6.058,9.23,3.5,12.5,3.5c2.377,0,4.572,1.394,5.594,3.55
				c0.086,0.18,0.258,0.285,0.471,0.286C20.947,7.232,23,9.148,23,11.608c0,3.09-2.527,3.994-3.614,4.24
				c-0.27,0.061-0.438,0.328-0.377,0.598c0.06,0.269,0.326,0.441,0.598,0.377C20.637,16.591,24,15.526,24,11.608
				C24,8.727,21.705,6.399,18.854,6.334z"/>
			<path d="M12.5,11C9.468,11,7,13.468,7,16.5S9.468,22,12.5,22s5.5-2.468,5.5-5.5S15.532,11,12.5,11z M12.5,12
				c1.061,0,2.023,0.384,2.794,1L9,19.293c-0.616-0.77-1-1.732-1-2.793C8,14.019,10.019,12,12.5,12z M12.5,21
				c-1.061,0-2.023-0.384-2.793-1l6.294-6.293C16.616,14.478,17,15.439,17,16.5C17,18.981,14.981,21,12.5,21z"/>
		</g>
	</g>
	<g id="New_icons_1_">
	</g>
</g>

</svg>
