<?xml version="1.0" encoding="utf-8"?>
<!-- Generator: Adobe Illustrator 16.0.3, SVG Export Plug-In . SVG Version: 6.00 Build 0)  -->
<!DOCTYPE svg PUBLIC "-//W3C//DTD SVG 1.1//EN" "http://www.w3.org/Graphics/SVG/1.1/DTD/svg11.dtd">
<svg version="1.1" xmlns="http://www.w3.org/2000/svg" xmlns:xlink="http://www.w3.org/1999/xlink" x="0px" y="0px" width="24px"
	 height="24px" viewBox="0 0 24 24" enable-background="new 0 0 24 24" xml:space="preserve">
<g id="Outline_Icons_1_">
	<g id="Outline_Icons">
		<g>
			<path d="M18.853,6.588C17.607,4.23,15.202,2.78,12.5,2.78c-3.618,0-6.648,2.699-7.123,6.238C3.015,8.838,1,10.632,1,13.005
				c0,2.809,2.012,3.639,3.211,3.884c0.266,0.057,0.534-0.12,0.59-0.391c0.055-0.271-0.12-0.534-0.391-0.59
				C2.811,15.582,2,14.605,2,13.005c0-1.982,1.821-3.327,3.722-2.93c0.313,0.061,0.584-0.163,0.602-0.46
				C6.517,6.344,9.229,3.78,12.5,3.78c2.42,0,4.563,1.351,5.593,3.523c0.086,0.18,0.224,0.288,0.471,0.286
				C20.951,7.491,23,9.358,23,11.815c0,3.712-3.702,4.17-3.859,4.188c-0.273,0.031-0.472,0.277-0.441,0.552
				c0.028,0.269,0.27,0.472,0.55,0.442C19.296,16.992,24,16.433,24,11.815C24,8.949,21.721,6.65,18.853,6.588z"/>
			<path d="M8.5,12h-2C6.224,12,6,12.224,6,12.5v7C6,20.327,6.673,21,7.5,21H15c1.103,0,2-0.897,2-2v-3.5c0-0.276-0.224-0.5-0.5-0.5
				H16v-1.5c0-0.276-0.224-0.5-0.5-0.5H9v-0.5C9,12.224,8.776,12,8.5,12z M16,16v3c0,0.552-0.448,1-1,1H8.914
				C8.97,19.844,9,19.675,9,19.5V16H16z M15,14v1H8.5C8.224,15,8,15.224,8,15.5v4C8,19.775,7.775,20,7.5,20S7,19.775,7,19.5V13h1
				v0.5C8,13.776,8.224,14,8.5,14H15z"/>
		</g>
	</g>
	<g id="New_icons_1_">
	</g>
</g>

</svg>
