<?xml version="1.0" encoding="utf-8"?>
<!-- Generator: Adobe Illustrator 16.0.3, SVG Export Plug-In . SVG Version: 6.00 Build 0)  -->
<!DOCTYPE svg PUBLIC "-//W3C//DTD SVG 1.1//EN" "http://www.w3.org/Graphics/SVG/1.1/DTD/svg11.dtd">
<svg version="1.1" xmlns="http://www.w3.org/2000/svg" xmlns:xlink="http://www.w3.org/1999/xlink" x="0px" y="0px" width="24px"
	 height="24px" viewBox="0 0 24 24" enable-background="new 0 0 24 24" xml:space="preserve">
<g id="Outline_Icons_1_">
	<g id="Outline_Icons">
		<g>
			<path d="M18.853,5.088C17.607,2.73,15.202,1.28,12.5,1.28c-3.617,0-6.647,2.699-7.123,6.237C2.986,7.349,1,9.148,1,11.505
				c0,2.808,2.012,3.639,3.21,3.885c0.265,0.054,0.534-0.119,0.591-0.39c0.055-0.271-0.119-0.535-0.39-0.591
				C2.812,14.082,2,13.104,2,11.505c0-1.981,1.818-3.325,3.722-2.93c0.307,0.062,0.583-0.158,0.602-0.46
				C6.518,4.844,9.23,2.28,12.5,2.28c2.42,0,4.563,1.351,5.593,3.523c0.086,0.18,0.229,0.275,0.471,0.286
				C20.971,5.996,23,7.871,23,10.315c0,3.712-3.702,4.17-3.859,4.188c-0.273,0.031-0.472,0.277-0.441,0.552
				c0.028,0.269,0.27,0.472,0.55,0.442C19.296,15.492,24,14.933,24,10.315C24,7.449,21.721,5.15,18.853,5.088z"/>
			<circle cx="10" cy="15" r="1"/>
			<path d="M17.5,24c0.276,0,0.5-0.224,0.5-0.5v-11c0-0.276-0.224-0.5-0.5-0.5h-11C6.224,12,6,12.224,6,12.5v11
				C6,23.776,6.224,24,6.5,24H17.5z M7.303,23l1.852-3.776l1.651,2.316c0.229,0.323,0.674,0.25,0.842-0.042l2.874-5.044L16.797,23
				H7.303z M17,13v7.537l-1.895-5.451c-0.142-0.407-0.697-0.45-0.907-0.084l-3.032,5.32L9.482,17.96
				c-0.216-0.304-0.687-0.274-0.856,0.07L7,21.346V13H17z"/>
		</g>
	</g>
	<g id="New_icons_1_">
	</g>
</g>

</svg>
