<?xml version="1.0" encoding="utf-8"?>
<!-- Generator: Adobe Illustrator 16.0.3, SVG Export Plug-In . SVG Version: 6.00 Build 0)  -->
<!DOCTYPE svg PUBLIC "-//W3C//DTD SVG 1.1//EN" "http://www.w3.org/Graphics/SVG/1.1/DTD/svg11.dtd">
<svg version="1.1" xmlns="http://www.w3.org/2000/svg" xmlns:xlink="http://www.w3.org/1999/xlink" x="0px" y="0px" width="24px"
	 height="24px" viewBox="0 0 24 24" enable-background="new 0 0 24 24" xml:space="preserve">
<g id="Outline_Icons_1_">
	<g id="Outline_Icons">
		<g>
			<path d="M18.853,5.089c-1.245-2.357-3.65-3.808-6.353-3.808c-3.617,0-6.647,2.698-7.123,6.236C2.981,7.348,1,9.152,1,11.505
				c0,2.806,2.011,3.639,3.21,3.885c0.267,0.061,0.535-0.117,0.59-0.389c0.057-0.271-0.118-0.534-0.389-0.59
				C2.812,14.081,2,13.104,2,11.505c0-1.982,1.82-3.325,3.722-2.93c0.307,0.062,0.583-0.158,0.602-0.46
				C6.518,4.844,9.23,2.281,12.5,2.281c2.42,0,4.563,1.351,5.593,3.523c0.086,0.18,0.26,0.274,0.471,0.286
				C21.077,6.01,23,7.959,23,10.316c0,3.711-3.702,4.169-3.859,4.187c-0.273,0.031-0.472,0.277-0.441,0.552
				c0.027,0.256,0.244,0.445,0.495,0.445c0.019,0,0.036-0.001,0.055-0.003C19.296,15.492,24,14.933,24,10.316
				C24,7.437,21.706,5.149,18.853,5.089z"/>
			<path d="M14,16c-1.103,0-2,0.897-2,2s0.897,2,2,2c1.065,0,2-0.935,2-2v-7.496c0-0.362-0.376-0.606-0.71-0.454l-6,2.779
				C9.113,12.911,9,13.089,9,13.283V19H8c-1.103,0-2,0.897-2,2s0.897,2,2,2c1.065,0,2-0.935,2-2v-7.397l5-2.316V16H14z M9,21
				c0,0.463-0.437,1-1,1c-0.552,0-1-0.448-1-1s0.448-1,1-1h1V21z M15,18c0,0.463-0.437,1-1,1c-0.552,0-1-0.448-1-1s0.448-1,1-1h1V18
				z"/>
		</g>
	</g>
	<g id="New_icons_1_">
	</g>
</g>

</svg>
