<?xml version="1.0" encoding="utf-8"?>
<!-- Generator: Adobe Illustrator 16.0.3, SVG Export Plug-In . SVG Version: 6.00 Build 0)  -->
<!DOCTYPE svg PUBLIC "-//W3C//DTD SVG 1.1//EN" "http://www.w3.org/Graphics/SVG/1.1/DTD/svg11.dtd">
<svg version="1.1" xmlns="http://www.w3.org/2000/svg" xmlns:xlink="http://www.w3.org/1999/xlink" x="0px" y="0px" width="24px"
	 height="24px" viewBox="0 0 24 24" enable-background="new 0 0 24 24" xml:space="preserve">
<g id="Outline_Icons">
	<path d="M11.878,0.172c-0.19-0.219-0.565-0.219-0.756,0C10.77,0.579,2.5,10.175,2.5,15c0,4.962,4.038,9,9,9s9-4.038,9-9
		C20.5,10.175,12.23,0.579,11.878,0.172z M12,1.88c0.285,0.348,0.622,0.769,1,1.25v19.723c-0.326,0.062-0.661,0.1-1,0.121V1.88z
		 M14,4.433c0.325,0.433,0.661,0.892,1,1.367v16.382c-0.322,0.158-0.655,0.298-1,0.412V4.433z M16,7.241
		c0.344,0.514,0.678,1.035,1,1.559v11.994c-0.312,0.296-0.644,0.571-1,0.815V7.241z M18,10.533c0.89,1.673,1.5,3.26,1.5,4.467
		c0,1.733-0.56,3.334-1.5,4.646V10.533z M3.5,15c0-3.582,5.356-10.496,7.5-13.12v21.094C6.822,22.714,3.5,19.243,3.5,15z"/>
</g>

</svg>
