<?xml version="1.0" encoding="utf-8"?>
<!-- Generator: Adobe Illustrator 16.0.3, SVG Export Plug-In . SVG Version: 6.00 Build 0)  -->
<!DOCTYPE svg PUBLIC "-//W3C//DTD SVG 1.1//EN" "http://www.w3.org/Graphics/SVG/1.1/DTD/svg11.dtd">
<svg version="1.1" xmlns="http://www.w3.org/2000/svg" xmlns:xlink="http://www.w3.org/1999/xlink" x="0px" y="0px" width="24px"
	 height="24px" viewBox="0 0 24 24" enable-background="new 0 0 24 24" xml:space="preserve">
<g id="Outline_Icons">
	<g>
		<path d="M22,2H2C0.897,2,0,2.938,0,4.089v14.822C0,20.062,0.897,21,2,21h9v1H5c-0.276,0-0.5,0.224-0.5,0.5S4.724,23,5,23h14
			c0.276,0,0.5-0.224,0.5-0.5S19.276,22,19,22h-7v-1h10c1.103,0,2-0.938,2-2.089V4.089C24,2.938,23.103,2,22,2z M2,3h20
			c0.552,0,1,0.488,1,1.089V16H1V4.089C1,3.488,1.448,3,2,3z M22,20H2c-0.552,0-1-0.488-1-1.089V17h22v1.911
			C23,19.512,22.552,20,22,20z"/>
		<circle cx="12" cy="18.5" r="1"/>
		<path d="M9.26,13.438C9.335,13.479,9.417,13.5,9.5,13.5c0.094,0,0.187-0.026,0.269-0.078l5.5-3.5C15.413,9.83,15.5,9.671,15.5,9.5
			s-0.087-0.33-0.231-0.422l-5.5-3.5C9.614,5.481,9.42,5.475,9.26,5.562C9.1,5.649,9,5.817,9,6v7C9,13.183,9.1,13.351,9.26,13.438z
			 M10,6.911L14.068,9.5L10,12.089V6.911z"/>
	</g>
</g>

</svg>
