<?xml version="1.0" encoding="utf-8"?>
<!-- Generator: Adobe Illustrator 16.0.3, SVG Export Plug-In . SVG Version: 6.00 Build 0)  -->
<!DOCTYPE svg PUBLIC "-//W3C//DTD SVG 1.1//EN" "http://www.w3.org/Graphics/SVG/1.1/DTD/svg11.dtd">
<svg version="1.1" xmlns="http://www.w3.org/2000/svg" xmlns:xlink="http://www.w3.org/1999/xlink" x="0px" y="0px" width="24px"
	 height="24px" viewBox="0 0 24 24" enable-background="new 0 0 24 24" xml:space="preserve">
<g id="Outline_Icons_1_">
	<g id="Outline_Icons">
		<g>
			<path d="M12.5,7h-11C0.673,7,0,7.673,0,8.5v8C0,17.327,0.673,18,1.5,18H5v2H4c-0.276,0-0.5,0.224-0.5,0.5S3.724,21,4,21h6
				c0.276,0,0.5-0.224,0.5-0.5S10.276,20,10,20H9v-2h3.5c0.827,0,1.5-0.673,1.5-1.5v-8C14,7.673,13.327,7,12.5,7z M8,20H6v-2h2V20z
				 M13,16.5c0,0.275-0.224,0.5-0.5,0.5h-11C1.224,17,1,16.775,1,16.5v-8C1,8.225,1.224,8,1.5,8h11C12.776,8,13,8.225,13,8.5V16.5z"
				/>
			<path d="M11.5,9h-9C2.224,9,2,9.224,2,9.5v6C2,15.776,2.224,16,2.5,16h9c0.276,0,0.5-0.224,0.5-0.5v-6C12,9.224,11.776,9,11.5,9z
				 M11,15H3v-5h8V15z"/>
			<path d="M23.9,5.2l-1.497-2c-0.095-0.126-0.243-0.2-0.4-0.2h-5.063c-0.161,0-0.312,0.077-0.406,0.208l-1.439,2
				C15.033,5.293,15,5.396,15,5.5v15c0,0.276,0.224,0.5,0.5,0.5h8c0.276,0,0.5-0.224,0.5-0.5v-15C24,5.392,23.965,5.287,23.9,5.2z
				 M23,20h-7V5.661L17.196,4h4.557L23,5.666V20z"/>
			<path d="M17.5,5C17.224,5,17,5.224,17,5.5v2C17,7.776,17.224,8,17.5,8h4C21.776,8,22,7.776,22,7.5v-2C22,5.224,21.776,5,21.5,5
				H17.5z M21,7h-3V6h3V7z"/>
			<path d="M21,13c0-0.827-0.673-1.5-1.5-1.5S18,12.173,18,13s0.673,1.5,1.5,1.5S21,13.827,21,13z M19,13c0-0.275,0.224-0.5,0.5-0.5
				S20,12.725,20,13s-0.224,0.5-0.5,0.5S19,13.275,19,13z"/>
			<rect x="17" y="16" width="5" height="1"/>
			<rect x="17" y="18" width="5" height="1"/>
		</g>
	</g>
	<g id="New_icons_1_">
	</g>
</g>

</svg>
