<?xml version="1.0" encoding="utf-8"?>
<!-- Generator: Adobe Illustrator 16.0.3, SVG Export Plug-In . SVG Version: 6.00 Build 0)  -->
<!DOCTYPE svg PUBLIC "-//W3C//DTD SVG 1.1//EN" "http://www.w3.org/Graphics/SVG/1.1/DTD/svg11.dtd">
<svg version="1.1" xmlns="http://www.w3.org/2000/svg" xmlns:xlink="http://www.w3.org/1999/xlink" x="0px" y="0px" width="24px"
	 height="24px" viewBox="0 0 24 24" enable-background="new 0 0 24 24" xml:space="preserve">
<g id="Outline_Icons_1_">
	<g id="Outline_Icons">
		<g>
			<path d="M23.954,8.296c-0.001-0.003,0-0.006-0.001-0.009l-3.285-7C20.585,1.112,20.409,1,20.215,1H3.785
				c-0.194,0-0.37,0.112-0.453,0.287l-3.285,7c-0.001,0.003,0,0.006-0.001,0.009C0.018,8.358,0,8.427,0,8.5v15
				C0,23.776,0.224,24,0.5,24h23c0.276,0,0.5-0.224,0.5-0.5v-15C24,8.427,23.982,8.358,23.954,8.296z M4.103,2h15.794l2.816,6H1.287
				L4.103,2z M23,23H1V9h22V23z"/>
			<path d="M7.5,21.5c3.033,0,5.5-2.468,5.5-5.5s-2.467-5.5-5.5-5.5S2,12.968,2,16S4.467,21.5,7.5,21.5z M7,20.449
				c-0.863-0.097-1.647-0.433-2.293-0.949L7,17.207V20.449z M8,17.207l2.293,2.293C9.647,20.017,8.863,20.353,8,20.449V17.207z
				 M8.707,16.5h3.242c-0.097,0.863-0.433,1.647-0.949,2.293L8.707,16.5z M8.707,15.5L11,13.207c0.517,0.646,0.853,1.43,0.949,2.293
				H8.707z M8,14.793v-3.242c0.863,0.097,1.647,0.433,2.293,0.949L8,14.793z M7,14.793L4.707,12.5
				c0.646-0.517,1.43-0.853,2.293-0.949V14.793z M6.293,15.5H3.051C3.147,14.637,3.483,13.853,4,13.207L6.293,15.5z M6.293,16.5
				L4,18.793c-0.517-0.646-0.853-1.43-0.949-2.293H6.293z"/>
			<path d="M15.5,15h6c0.276,0,0.5-0.224,0.5-0.5v-4c0-0.276-0.224-0.5-0.5-0.5h-6c-0.276,0-0.5,0.224-0.5,0.5v4
				C15,14.776,15.224,15,15.5,15z M16,11h5v3h-5V11z"/>
			<path d="M15.5,22h6c0.276,0,0.5-0.224,0.5-0.5v-4c0-0.276-0.224-0.5-0.5-0.5h-6c-0.276,0-0.5,0.224-0.5,0.5v4
				C15,21.776,15.224,22,15.5,22z M16,18h5v3h-5V18z"/>
			<circle cx="17.5" cy="12.5" r="0.5"/>
			<circle cx="19.5" cy="12.5" r="0.5"/>
			<circle cx="17.5" cy="19.5" r="0.5"/>
			<circle cx="19.5" cy="19.5" r="0.5"/>
		</g>
	</g>
	<g id="New_icons_1_">
	</g>
</g>

</svg>
