<?xml version="1.0" encoding="utf-8"?>
<!-- Generator: Adobe Illustrator 16.0.3, SVG Export Plug-In . SVG Version: 6.00 Build 0)  -->
<!DOCTYPE svg PUBLIC "-//W3C//DTD SVG 1.1//EN" "http://www.w3.org/Graphics/SVG/1.1/DTD/svg11.dtd">
<svg version="1.1" xmlns="http://www.w3.org/2000/svg" xmlns:xlink="http://www.w3.org/1999/xlink" x="0px" y="0px" width="24px"
	 height="24px" viewBox="0 0 24 24" enable-background="new 0 0 24 24" xml:space="preserve">
<g id="Outline_Icons">
	<g>
		<path d="M11.365,14.866c0.044,0.013,0.089,0.019,0.135,0.019s0.091-0.006,0.135-0.019c3.65-1.024,4.32-3.32,4.348-3.417
			C15.994,11.406,16,11.361,16,11.316V5.392c0-0.187-0.104-0.357-0.269-0.443c-0.167-0.087-0.365-0.073-0.518,0.033
			c-1.289,0.9-2.575,0.839-3.317-0.106c-0.189-0.242-0.604-0.242-0.794,0C10.36,5.821,9.078,5.886,7.787,4.981
			c-0.153-0.106-0.353-0.12-0.519-0.033C7.104,5.034,7,5.205,7,5.392v5.925c0,0.045,0.006,0.09,0.018,0.133
			C7.045,11.546,7.715,13.842,11.365,14.866z M8,6.262c1.276,0.604,2.589,0.456,3.5-0.354c0.913,0.808,2.227,0.955,3.5,0.354v4.975
			c-0.117,0.316-0.808,1.83-3.5,2.629c-2.7-0.801-3.387-2.321-3.5-2.628V6.262z"/>
		<path d="M9.516,10H11v1.5c0,0.276,0.224,0.5,0.5,0.5s0.5-0.224,0.5-0.5V10h1.5c0.276,0,0.5-0.224,0.5-0.5S13.776,9,13.5,9H12V7.5
			C12,7.224,11.776,7,11.5,7S11,7.224,11,7.5V9H9.516c-0.276,0-0.5,0.224-0.5,0.5S9.239,10,9.516,10z"/>
		<path d="M22,2H2C0.897,2,0,2.938,0,4.089v14.822C0,20.062,0.897,21,2,21h9v1H5c-0.276,0-0.5,0.224-0.5,0.5S4.724,23,5,23h14
			c0.276,0,0.5-0.224,0.5-0.5S19.276,22,19,22h-7v-1h10c1.103,0,2-0.938,2-2.089V4.089C24,2.938,23.103,2,22,2z M2,3h20
			c0.552,0,1,0.488,1,1.089V16H1V4.089C1,3.488,1.448,3,2,3z M22,20H2c-0.552,0-1-0.488-1-1.089V17h22v1.911
			C23,19.512,22.552,20,22,20z"/>
		<circle cx="12" cy="18.5" r="1"/>
	</g>
</g>

</svg>
