<?xml version="1.0" encoding="utf-8"?>
<!-- Generator: Adobe Illustrator 16.0.3, SVG Export Plug-In . SVG Version: 6.00 Build 0)  -->
<!DOCTYPE svg PUBLIC "-//W3C//DTD SVG 1.1//EN" "http://www.w3.org/Graphics/SVG/1.1/DTD/svg11.dtd">
<svg version="1.1" xmlns="http://www.w3.org/2000/svg" xmlns:xlink="http://www.w3.org/1999/xlink" x="0px" y="0px" width="24px"
	 height="24px" viewBox="0 0 24 24" enable-background="new 0 0 24 24" xml:space="preserve">
<g id="Outline_Icons_1_">
	<g id="Outline_Icons">
		<g>
			<path d="M22.5,2h-21C0.673,2,0,2.673,0,3.5v13C0,17.327,0.673,18,1.5,18H10v1.592c-2.238,0.196-4.295,0.711-5.732,1.465
				c-0.244,0.128-0.339,0.43-0.21,0.675c0.128,0.244,0.429,0.338,0.675,0.21C6.454,21.039,9.171,20.5,12,20.5
				s5.546,0.539,7.268,1.441c0.074,0.039,0.154,0.058,0.232,0.058c0.18,0,0.354-0.098,0.443-0.268
				c0.128-0.245,0.034-0.547-0.21-0.675c-1.438-0.754-3.495-1.269-5.732-1.465V18h8.5c0.827,0,1.5-0.673,1.5-1.5v-13
				C24,2.673,23.327,2,22.5,2z M13,19.524c-0.332-0.015-0.665-0.024-1-0.024s-0.668,0.01-1,0.024V18h2V19.524z M23,16.5
				c0,0.275-0.224,0.5-0.5,0.5h-21C1.224,17,1,16.775,1,16.5v-13C1,3.225,1.224,3,1.5,3h21C22.776,3,23,3.225,23,3.5V16.5z"/>
			<path d="M21.5,4h-19C2.224,4,2,4.224,2,4.5v11C2,15.776,2.224,16,2.5,16h19c0.276,0,0.5-0.224,0.5-0.5v-11
				C22,4.224,21.776,4,21.5,4z M21,15H3V5h18V15z"/>
		</g>
	</g>
	<g id="New_icons_1_">
	</g>
</g>

</svg>
