<?xml version="1.0" encoding="utf-8"?>
<!-- Generator: Adobe Illustrator 16.0.3, SVG Export Plug-In . SVG Version: 6.00 Build 0)  -->
<!DOCTYPE svg PUBLIC "-//W3C//DTD SVG 1.1//EN" "http://www.w3.org/Graphics/SVG/1.1/DTD/svg11.dtd">
<svg version="1.1" xmlns="http://www.w3.org/2000/svg" xmlns:xlink="http://www.w3.org/1999/xlink" x="0px" y="0px" width="24px"
	 height="24px" viewBox="0 0 24 24" enable-background="new 0 0 24 24" xml:space="preserve">
<g id="Outline_Icons_1_">
	<g id="Outline_Icons">
	</g>
	<g id="New_icons_1_">
		<g>
			<path d="M23.5,12c0.276,0,0.5-0.224,0.5-0.5S23.776,11,23.5,11H20V8h3.5C23.776,8,24,7.776,24,7.5S23.776,7,23.5,7H20V5.5
				C20,4.673,19.327,4,18.5,4H17V0.5C17,0.224,16.776,0,16.5,0S16,0.224,16,0.5V4h-4V0.5C12,0.224,11.776,0,11.5,0S11,0.224,11,0.5
				V4H8V0.5C8,0.224,7.776,0,7.5,0S7,0.224,7,0.5V4H5.5C4.673,4,4,4.673,4,5.5V7H0.5C0.224,7,0,7.224,0,7.5S0.224,8,0.5,8H4v4H0.5
				C0.224,12,0,12.224,0,12.5S0.224,13,0.5,13H4v3H0.5C0.224,16,0,16.224,0,16.5S0.224,17,0.5,17H4v1.5C4,19.327,4.673,20,5.5,20H7
				v3.5C7,23.776,7.224,24,7.5,24S8,23.776,8,23.5V20h4v3.5c0,0.276,0.224,0.5,0.5,0.5s0.5-0.224,0.5-0.5V20h3v3.5
				c0,0.276,0.224,0.5,0.5,0.5s0.5-0.224,0.5-0.5V20h1.5c0.827,0,1.5-0.673,1.5-1.5V17h3.5c0.276,0,0.5-0.224,0.5-0.5
				S23.776,16,23.5,16H20v-4H23.5z M19,18.5c0,0.271-0.229,0.5-0.5,0.5h-13C5.229,19,5,18.771,5,18.5v-13C5,5.225,5.224,5,5.5,5h13
				C18.776,5,19,5.225,19,5.5V18.5z"/>
			<path d="M15.5,6h-7C7.122,6,6,7.121,6,8.5v7C6,16.879,7.122,18,8.5,18h7c1.378,0,2.5-1.121,2.5-2.5v-7C18,7.121,16.878,6,15.5,6z
				 M17,15.5c0,0.827-0.673,1.5-1.5,1.5h-7C7.673,17,7,16.327,7,15.5v-7C7,7.673,7.673,7,8.5,7h7C16.327,7,17,7.673,17,8.5V15.5z"/>
			<path d="M14,10.5c0-1.103-0.897-2-2-2s-2,0.897-2,2c0,0.6,0.271,1.133,0.691,1.5C10.271,12.367,10,12.9,10,13.5
				c0,1.103,0.897,2,2,2s2-0.897,2-2c0-0.6-0.271-1.133-0.691-1.5C13.729,11.633,14,11.1,14,10.5z M13,13.5c0,0.552-0.449,1-1,1
				s-1-0.448-1-1s0.449-1,1-1S13,12.948,13,13.5z M11,10.5c0-0.552,0.449-1,1-1s1,0.448,1,1s-0.449,1-1,1S11,11.052,11,10.5z"/>
		</g>
	</g>
</g>

</svg>
