<?xml version="1.0" encoding="utf-8"?>
<!-- Generator: Adobe Illustrator 16.0.3, SVG Export Plug-In . SVG Version: 6.00 Build 0)  -->
<!DOCTYPE svg PUBLIC "-//W3C//DTD SVG 1.1//EN" "http://www.w3.org/Graphics/SVG/1.1/DTD/svg11.dtd">
<svg version="1.1" xmlns="http://www.w3.org/2000/svg" xmlns:xlink="http://www.w3.org/1999/xlink" x="0px" y="0px" width="24px"
	 height="24px" viewBox="0 0 24 24" enable-background="new 0 0 24 24" xml:space="preserve">
<g id="Outline_Icons">
	<g>
		<path d="M20.961,6.308c-0.025-0.062-0.062-0.116-0.108-0.162l-5.999-5.998c-0.046-0.046-0.101-0.083-0.162-0.108
			C14.632,0.014,14.566,0,14.5,0h-11C3.223,0,3,0.224,3,0.5v23C3,23.776,3.223,24,3.5,24h17c0.276,0,0.5-0.224,0.5-0.5v-17
			C21,6.434,20.986,6.368,20.961,6.308z M15,1.707L19.292,6H15V1.707z M4,23V1h10v5.5C14,6.776,14.223,7,14.5,7H20v16H4z"/>
		<path d="M14.521,13.5c-0.276,0-0.5,0.224-0.5,0.5v4h-5v-4c0-0.276-0.224-0.5-0.5-0.5s-0.5,0.224-0.5,0.5v4.5
			c0,0.276,0.224,0.5,0.5,0.5h6c0.276,0,0.5-0.224,0.5-0.5V14C15.021,13.724,14.797,13.5,14.521,13.5z"/>
		<path d="M11.891,9.07c-0.191-0.177-0.484-0.176-0.676-0.002l-4.99,4.562c-0.204,0.187-0.218,0.503-0.032,0.706
			c0.187,0.205,0.503,0.219,0.707,0.032l4.651-4.253l4.61,4.251c0.096,0.089,0.218,0.133,0.339,0.133
			c0.135,0,0.269-0.054,0.368-0.161c0.187-0.203,0.174-0.52-0.029-0.706L11.891,9.07z"/>
	</g>
</g>

</svg>
