<?xml version="1.0" encoding="utf-8"?>
<!-- Generator: Adobe Illustrator 16.0.3, SVG Export Plug-In . SVG Version: 6.00 Build 0)  -->
<!DOCTYPE svg PUBLIC "-//W3C//DTD SVG 1.1//EN" "http://www.w3.org/Graphics/SVG/1.1/DTD/svg11.dtd">
<svg version="1.1" xmlns="http://www.w3.org/2000/svg" xmlns:xlink="http://www.w3.org/1999/xlink" x="0px" y="0px" width="24px"
	 height="24px" viewBox="0 0 24 24" enable-background="new 0 0 24 24" xml:space="preserve">
<g id="Outline_Icons">
	<g>
		<path d="M0.06,10.264c-0.104,0.194-0.069,0.434,0.087,0.59l1.458,1.458l5.409,8.886C7.969,22.769,10.159,24,12,24h1.5
			c0.007,0.001,0.015,0.001,0.02,0c0.005,0,0.009-0.002,0.013-0.003c0.994-0.014,2.157-0.683,2.659-1.535l3.35-5.694
			c0.545-0.927,0.896-2.49,0.798-3.559l-0.341-3.754c-0.021-0.223-0.186-0.405-0.405-0.446c-0.224-0.044-0.44,0.067-0.54,0.268
			l-1.464,2.928l-0.672,0.672l-0.686-8.917c-0.106-1.587-1.094-2.915-2.456-3.551c-0.038-0.025-0.076-0.048-0.121-0.062
			C13.144,0.127,12.586,0,12,0c-0.587,0-1.145,0.127-1.655,0.346c-0.043,0.015-0.081,0.036-0.119,0.062
			C8.862,1.043,7.875,2.37,7.77,3.954l-0.674,8.761l-0.584-0.739c-0.41-0.521-1.242-1.031-1.894-1.161l-4.02-0.805
			C0.378,9.967,0.163,10.07,0.06,10.264z M18.354,12.854c0.038-0.038,0.069-0.082,0.094-0.13l0.714-1.428l0.182,2.004
			c0.079,0.859-0.226,2.215-0.663,2.96l-3.35,5.694c-0.265,0.45-0.869,0.841-1.434,0.979l-0.406-2.031
			c-0.016-0.078-0.049-0.15-0.098-0.212l-1.269-1.607l1.729-1.729l0.002-0.001L18.354,12.854z M10,5v3H8.461l0.23-3H10z M15.848,12
			H14V9h1.617L15.848,12z M15.309,5l0.231,3H14V5H15.309z M13,8h-2V5h2V8z M8.384,9H10v3H8.152L8.384,9z M11,9h2v3h-2V9z M13,13
			v3.793l-1.5,1.5L11,17.66V13H13z M14,15.793V13h1.925l0.062,0.807L14,15.793z M15.229,4H14V1.713
			C14.688,2.258,15.158,3.066,15.229,4z M13,1.173V4h-2V1.173C11.317,1.068,11.65,1,12,1S12.683,1.068,13,1.173z M10,1.712V4H8.771
			C8.841,3.067,9.312,2.258,10,1.712z M8.075,13H10v3.394l-1.991-2.522L8.075,13z M4.422,11.795c0.419,0.084,1.041,0.465,1.305,0.8
			l6.807,8.621L12.89,23H12c-1.475,0-3.367-1.063-4.133-2.322l-5.44-8.938c-0.021-0.034-0.045-0.065-0.073-0.094l-0.332-0.332
			L4.422,11.795z"/>
	</g>
</g>

</svg>
