<?xml version="1.0" encoding="utf-8"?>
<!-- Generator: Adobe Illustrator 16.0.3, SVG Export Plug-In . SVG Version: 6.00 Build 0)  -->
<!DOCTYPE svg PUBLIC "-//W3C//DTD SVG 1.1//EN" "http://www.w3.org/Graphics/SVG/1.1/DTD/svg11.dtd">
<svg version="1.1" xmlns="http://www.w3.org/2000/svg" xmlns:xlink="http://www.w3.org/1999/xlink" x="0px" y="0px" width="24px"
	 height="24px" viewBox="0 0 24 24" enable-background="new 0 0 24 24" xml:space="preserve">
<g id="Outline_Icons">
	<g>
		<path d="M23.5,9.5C23.776,9.5,24,9.276,24,9V4.5C24,4.224,23.776,4,23.5,4h-23C0.224,4,0,4.224,0,4.5V9c0,0.276,0.224,0.5,0.5,0.5
			C1.879,9.5,3,10.622,3,12s-1.121,2.5-2.5,2.5C0.224,14.5,0,14.724,0,15v4.5C0,19.776,0.224,20,0.5,20h23
			c0.276,0,0.5-0.224,0.5-0.5V15c0-0.276-0.224-0.5-0.5-0.5c-1.379,0-2.5-1.122-2.5-2.5S22.121,9.5,23.5,9.5z M23,15.464V19H1
			v-3.536C2.694,15.221,4,13.761,4,12c0-1.76-1.306-3.221-3-3.464V5h22v3.536C21.306,8.779,20,10.24,20,12
			C20,13.761,21.306,15.221,23,15.464z"/>
		<rect x="18" y="6" width="1" height="1"/>
		<rect x="18" y="8" width="1" height="1"/>
		<rect x="18" y="10" width="1" height="1"/>
		<rect x="18" y="13" width="1" height="1"/>
		<rect x="18" y="15" width="1" height="1"/>
		<rect x="18" y="17" width="1" height="1"/>
		<path d="M15.354,7.646c-0.195-0.195-0.512-0.195-0.707,0l-8,8c-0.195,0.195-0.195,0.512,0,0.707C6.744,16.451,6.872,16.5,7,16.5
			s0.256-0.049,0.354-0.146l8-8C15.549,8.159,15.549,7.842,15.354,7.646z"/>
		<path d="M8,11c1.103,0,2-0.897,2-2c0-1.103-0.897-2-2-2S6,7.897,6,9C6,10.103,6.897,11,8,11z M8,8c0.552,0,1,0.449,1,1
			s-0.448,1-1,1S7,9.551,7,9S7.448,8,8,8z"/>
		<path d="M14,13c-1.103,0-2,0.897-2,2c0,1.103,0.897,2,2,2s2-0.897,2-2C16,13.897,15.103,13,14,13z M14,16c-0.552,0-1-0.449-1-1
			s0.448-1,1-1s1,0.449,1,1S14.552,16,14,16z"/>
	</g>
</g>

</svg>
