<?xml version="1.0" encoding="utf-8"?>
<!-- Generator: Adobe Illustrator 16.0.3, SVG Export Plug-In . SVG Version: 6.00 Build 0)  -->
<!DOCTYPE svg PUBLIC "-//W3C//DTD SVG 1.1//EN" "http://www.w3.org/Graphics/SVG/1.1/DTD/svg11.dtd">
<svg version="1.1" xmlns="http://www.w3.org/2000/svg" xmlns:xlink="http://www.w3.org/1999/xlink" x="0px" y="0px" width="24px"
	 height="24px" viewBox="0 0 24 24" enable-background="new 0 0 24 24" xml:space="preserve">
<g id="Outline_Icons">
	<g>
		<path d="M22,0H2C1.724,0,1.5,0.224,1.5,0.5S1.724,1,2,1h1v20.5C3,21.776,3.224,22,3.5,22H6v1.5C6,23.776,6.224,24,6.5,24
			S7,23.776,7,23.5V22h10v1.5c0,0.276,0.224,0.5,0.5,0.5s0.5-0.224,0.5-0.5V22h2.5c0.276,0,0.5-0.224,0.5-0.5V1h1
			c0.276,0,0.5-0.224,0.5-0.5S22.276,0,22,0z M20,21H4V1h16V21z"/>
		<path d="M5.5,20h5c0.276,0,0.5-0.224,0.5-0.5v-5c0-0.276-0.224-0.5-0.5-0.5h-5C5.224,14,5,14.224,5,14.5v5
			C5,19.776,5.224,20,5.5,20z M6,15h4v4H6V15z"/>
		<path d="M18.5,14h-5c-0.276,0-0.5,0.224-0.5,0.5v5c0,0.276,0.224,0.5,0.5,0.5h5c0.276,0,0.5-0.224,0.5-0.5v-5
			C19,14.224,18.776,14,18.5,14z M18,19h-4v-4h4V19z"/>
		<path d="M5.5,7h13C18.776,7,19,6.776,19,6.5v-4C19,2.224,18.776,2,18.5,2h-13C5.224,2,5,2.224,5,2.5v4C5,6.776,5.224,7,5.5,7z
			 M6,3h12v3H6V3z"/>
		<path d="M5.5,13h13c0.276,0,0.5-0.224,0.5-0.5v-4C19,8.224,18.776,8,18.5,8h-13C5.224,8,5,8.224,5,8.5v4C5,12.776,5.224,13,5.5,13
			z M6,9h12v3H6V9z"/>
		<circle cx="16" cy="17" r="0.5"/>
		<circle cx="8" cy="17" r="0.5"/>
	</g>
</g>

</svg>
