<?xml version="1.0" encoding="utf-8"?>
<!-- Generator: Adobe Illustrator 16.0.3, SVG Export Plug-In . SVG Version: 6.00 Build 0)  -->
<!DOCTYPE svg PUBLIC "-//W3C//DTD SVG 1.1//EN" "http://www.w3.org/Graphics/SVG/1.1/DTD/svg11.dtd">
<svg version="1.1" xmlns="http://www.w3.org/2000/svg" xmlns:xlink="http://www.w3.org/1999/xlink" x="0px" y="0px" width="24px"
	 height="24px" viewBox="0 0 24 24" enable-background="new 0 0 24 24" xml:space="preserve">
<g id="Outline_Icons_1_">
	<g id="Outline_Icons">
		<g>
			<path d="M11,5c-4.963,0-9,4.038-9,9s4.037,9,9,9s9-4.038,9-9S15.963,5,11,5z M11,22c-4.411,0-8-3.589-8-8s3.589-8,8-8
				s8,3.589,8,8S15.411,22,11,22z"/>
			<path d="M22.854,1.146c-0.109-0.108-0.26-0.162-0.412-0.143l-8.5,1c-0.22,0.026-0.396,0.193-0.434,0.411
				c-0.038,0.218,0.071,0.435,0.27,0.534c3.859,1.917,5.625,3.68,7.269,7.26c0.082,0.18,0.261,0.292,0.454,0.292
				c0.025,0,0.052-0.002,0.078-0.006c0.222-0.035,0.393-0.213,0.418-0.435l1-8.5C23.015,1.407,22.962,1.255,22.854,1.146z
				 M21.198,8.288c-1.343-2.416-2.946-3.994-5.548-5.479l6.279-0.739L21.198,8.288z"/>
			<path d="M10.5,8.5c-1.654,0-3,1.346-3,3C7.5,11.776,7.724,12,8,12s0.5-0.224,0.5-0.5c0-1.103,0.897-2,2-2s2,0.897,2,2
				c0,1.103-0.897,2-2,2c-0.276,0-0.5,0.224-0.5,0.5v2.5c0,0.276,0.224,0.5,0.5,0.5s0.5-0.224,0.5-0.5v-2.042
				c1.417-0.239,2.5-1.475,2.5-2.958C13.5,9.846,12.154,8.5,10.5,8.5z"/>
			<circle cx="10.5" cy="18.5" r="0.5"/>
		</g>
	</g>
	<g id="New_icons_1_">
	</g>
</g>

</svg>
