<?xml version="1.0" encoding="utf-8"?>
<!-- Generator: Adobe Illustrator 16.0.3, SVG Export Plug-In . SVG Version: 6.00 Build 0)  -->
<!DOCTYPE svg PUBLIC "-//W3C//DTD SVG 1.1//EN" "http://www.w3.org/Graphics/SVG/1.1/DTD/svg11.dtd">
<svg version="1.1" xmlns="http://www.w3.org/2000/svg" xmlns:xlink="http://www.w3.org/1999/xlink" x="0px" y="0px" width="24px"
	 height="24px" viewBox="0 0 24 24" enable-background="new 0 0 24 24" xml:space="preserve">
<g id="Outline_Icons_1_">
	<g id="Outline_Icons">
		<path d="M18,6.5c-0.366,0-0.705,0.106-1,0.278V5.5c0-1.103-0.897-2-2-2c-0.366,0-0.705,0.106-1,0.278V3.5c0-1.103-0.897-2-2-2
			s-2,0.897-2,2v0.278C9.705,3.606,9.366,3.5,9,3.5c-1.103,0-2,0.897-2,2v8.65l-1.831-2.132c-0.671-0.573-1.686-0.535-2.309,0.089
			c-0.586,0.587-0.664,1.504-0.229,2.109c0.088,0.183,2.171,4.527,3.889,7.23C7.537,23.046,9.273,24,11.165,24H14.5
			c3.032,0,5.5-2.467,5.5-5.5v-4V12V8.5C20,7.397,19.103,6.5,18,6.5z M19,18.5c0,2.482-2.019,4.5-4.5,4.5h-3.335
			c-1.548,0-2.969-0.781-3.801-2.089c-1.686-2.653-3.809-7.082-3.873-7.199c-0.196-0.278-0.165-0.656,0.076-0.897
			c0.256-0.257,0.674-0.273,0.896-0.091l2.656,3.102c0.137,0.16,0.358,0.216,0.554,0.144C7.87,15.896,8,15.71,8,15.5v-10
			c0-0.551,0.448-1,1-1s1,0.449,1,1v4v2c0,0.276,0.224,0.5,0.5,0.5s0.5-0.224,0.5-0.5v-2v-4v-2c0-0.551,0.448-1,1-1s1,0.449,1,1v2v4
			v2c0,0.276,0.224,0.5,0.5,0.5s0.5-0.224,0.5-0.5v-2v-4c0-0.551,0.448-1,1-1s1,0.449,1,1v3v3V13c0,0.276,0.224,0.5,0.5,0.5
			S17,13.276,17,13v-1.5v-3c0-0.551,0.448-1,1-1s1,0.449,1,1V12v2.5V18.5z"/>
	</g>
	<g id="New_icons_1_">
	</g>
</g>

</svg>
