<?xml version="1.0" encoding="utf-8"?>
<!-- Generator: Adobe Illustrator 16.0.3, SVG Export Plug-In . SVG Version: 6.00 Build 0)  -->
<!DOCTYPE svg PUBLIC "-//W3C//DTD SVG 1.1//EN" "http://www.w3.org/Graphics/SVG/1.1/DTD/svg11.dtd">
<svg version="1.1" xmlns="http://www.w3.org/2000/svg" xmlns:xlink="http://www.w3.org/1999/xlink" x="0px" y="0px" width="24px"
	 height="24px" viewBox="0 0 24 24" enable-background="new 0 0 24 24" xml:space="preserve">
<g id="Outline_Icons_1_">
	<g id="Outline_Icons">
		<g>
			<path d="M14.5,12c0-1.378-1.121-2.5-2.5-2.5S9.5,10.622,9.5,12s1.121,2.5,2.5,2.5S14.5,13.378,14.5,12z M10.5,12
				c0-0.827,0.673-1.5,1.5-1.5s1.5,0.673,1.5,1.5s-0.673,1.5-1.5,1.5S10.5,12.827,10.5,12z"/>
			<path d="M23.854,11.646l-4.5-4.5c-0.195-0.195-0.512-0.195-0.707,0s-0.195,0.512,0,0.707L22.793,12l-4.146,4.146
				c-0.195,0.195-0.195,0.512,0,0.707C18.744,16.951,18.872,17,19,17s0.256-0.049,0.354-0.146l4.5-4.5
				C24.049,12.159,24.049,11.842,23.854,11.646z"/>
			<path d="M5.354,7.146c-0.195-0.195-0.512-0.195-0.707,0l-4.5,4.5c-0.195,0.195-0.195,0.512,0,0.707l4.5,4.5
				C4.744,16.951,4.872,17,5,17s0.256-0.049,0.354-0.146c0.195-0.195,0.195-0.512,0-0.707L1.207,12l4.146-4.146
				C5.549,7.659,5.549,7.342,5.354,7.146z"/>
			<path d="M12.354,0.146c-0.195-0.195-0.512-0.195-0.707,0l-4.5,4.5c-0.195,0.195-0.195,0.512,0,0.707
				c0.195,0.195,0.512,0.195,0.707,0L12,1.207l4.146,4.147C16.244,5.451,16.372,5.5,16.5,5.5s0.256-0.049,0.354-0.146
				c0.195-0.195,0.195-0.512,0-0.707L12.354,0.146z"/>
			<path d="M16.146,18.646L12,22.793l-4.146-4.146c-0.195-0.195-0.512-0.195-0.707,0s-0.195,0.512,0,0.707l4.5,4.5
				C11.744,23.951,11.872,24,12,24s0.256-0.049,0.354-0.146l4.5-4.5c0.195-0.195,0.195-0.512,0-0.707S16.342,18.451,16.146,18.646z"
				/>
		</g>
	</g>
	<g id="New_icons_1_">
	</g>
</g>

</svg>
