<?xml version="1.0" encoding="utf-8"?>
<!-- Generator: Adobe Illustrator 16.0.3, SVG Export Plug-In . SVG Version: 6.00 Build 0)  -->
<!DOCTYPE svg PUBLIC "-//W3C//DTD SVG 1.1//EN" "http://www.w3.org/Graphics/SVG/1.1/DTD/svg11.dtd">
<svg version="1.1" xmlns="http://www.w3.org/2000/svg" xmlns:xlink="http://www.w3.org/1999/xlink" x="0px" y="0px" width="24px"
	 height="24px" viewBox="0 0 24 24" enable-background="new 0 0 24 24" xml:space="preserve">
<g id="Outline_Icons_1_">
	<g id="Outline_Icons">
		<g>
			<path d="M23.557,16.219L10.224,9.553C10.03,9.456,9.798,9.494,9.646,9.646c-0.152,0.152-0.19,0.385-0.094,0.577l6.667,13.333
				c0.085,0.17,0.26,0.276,0.447,0.276c0.018,0,0.036-0.001,0.055-0.003c0.208-0.023,0.38-0.173,0.431-0.376l1.26-5.042l5.042-1.261
				c0.203-0.05,0.354-0.222,0.376-0.43S23.744,16.313,23.557,16.219z M17.879,17.515c-0.18,0.044-0.319,0.185-0.364,0.364
				L16.51,21.9l-5.392-10.781L21.9,16.509L17.879,17.515z"/>
			<path d="M11.449,18.885C10.969,18.961,10.48,19,10,19c-4.963,0-9-4.038-9-9s4.037-9,9-9s9,4.038,9,9
				c0,0.499-0.041,0.998-0.122,1.484c-0.046,0.272,0.139,0.529,0.411,0.575c0.266,0.049,0.529-0.139,0.575-0.412
				C19.954,11.108,20,10.553,20,10c0-5.514-4.486-10-10-10S0,4.486,0,10c0,5.515,4.486,10,10,10c0.533,0,1.074-0.043,1.607-0.128
				c0.272-0.043,0.458-0.299,0.415-0.573C11.978,19.026,11.725,18.84,11.449,18.885z"/>
			<path d="M10,5c2.757,0,5,2.243,5,5c0,0.276,0.224,0.5,0.5,0.5S16,10.276,16,10c0-3.309-2.691-6-6-6s-6,2.691-6,6
				c0,3.309,2.691,6,6,6c0.276,0,0.5-0.224,0.5-0.5S10.276,15,10,15c-2.757,0-5-2.243-5-5S7.243,5,10,5z"/>
		</g>
	</g>
	<g id="New_icons_1_">
	</g>
</g>

</svg>
