<?xml version="1.0" encoding="utf-8"?>
<!-- Generator: Adobe Illustrator 16.0.3, SVG Export Plug-In . SVG Version: 6.00 Build 0)  -->
<!DOCTYPE svg PUBLIC "-//W3C//DTD SVG 1.1//EN" "http://www.w3.org/Graphics/SVG/1.1/DTD/svg11.dtd">
<svg version="1.1" xmlns="http://www.w3.org/2000/svg" xmlns:xlink="http://www.w3.org/1999/xlink" x="0px" y="0px" width="24px"
	 height="24px" viewBox="0 0 24 24" enable-background="new 0 0 24 24" xml:space="preserve">
<g id="Outline_Icons">
	<path d="M20.178,0.994c-0.195-0.195-0.512-0.195-0.707,0L7.096,13.368l-6.363,6.364c-0.975,0.975-0.975,2.561,0,3.535
		C1.198,23.733,1.842,24,2.5,24c0.668,0,1.295-0.26,1.768-0.732l6.01-6.011L11.32,18.3c0.001,0.001,0.002,0.001,0.002,0.001
		l1.432,1.432c0.098,0.098,0.226,0.146,0.354,0.146s0.256-0.049,0.354-0.146C19.48,13.712,23.72,4.536,20.178,0.994z M18.314,3.565
		c0.175,3.527-2.513,9.102-6.655,13.659l-3.503-3.503L18.314,3.565z M3.561,22.561c-0.562,0.563-1.558,0.563-2.121,0
		c-0.585-0.585-0.585-1.536,0-2.121l6.01-6.011L9.57,16.55L3.561,22.561z M13.104,18.669l-0.741-0.741
		c4.717-5.17,7.533-11.453,6.843-15.254l0.586-0.587C21.866,5.092,18.792,12.798,13.104,18.669z"/>
</g>

</svg>
