<?xml version="1.0" encoding="utf-8"?>
<!-- Generator: Adobe Illustrator 16.0.3, SVG Export Plug-In . SVG Version: 6.00 Build 0)  -->
<!DOCTYPE svg PUBLIC "-//W3C//DTD SVG 1.1//EN" "http://www.w3.org/Graphics/SVG/1.1/DTD/svg11.dtd">
<svg version="1.1" xmlns="http://www.w3.org/2000/svg" xmlns:xlink="http://www.w3.org/1999/xlink" x="0px" y="0px" width="24px"
	 height="24px" viewBox="0 0 24 24" enable-background="new 0 0 24 24" xml:space="preserve">
<g id="Outline_Icons">
	<g>
		<path d="M5,20c-1.103,0-2,0.897-2,2s0.897,2,2,2s2-0.897,2-2S6.103,20,5,20z M5,23c-0.552,0-1-0.449-1-1s0.448-1,1-1s1,0.449,1,1
			S5.552,23,5,23z"/>
		<path d="M11.5,7H10C9.767,7,9.564,7.162,9.513,7.389L7.101,18H0.5C0.224,18,0,18.224,0,18.5S0.224,19,0.5,19h7
			c0.233,0,0.436-0.162,0.487-0.389L10.399,8H11.5C11.776,8,12,7.776,12,7.5S11.776,7,11.5,7z"/>
		<path d="M0.5,17h5C5.776,17,6,16.776,6,16.5v-7C6,9.224,5.776,9,5.5,9h-5C0.224,9,0,9.224,0,9.5v7C0,16.776,0.224,17,0.5,17z
			 M1,10h4v6H1V10z"/>
		<path d="M23.5,8h-10C13.224,8,13,8.224,13,8.5c0,3.432,1.246,6.625,3,7.784V23.5c0,0.276,0.224,0.5,0.5,0.5h4
			c0.276,0,0.5-0.224,0.5-0.5v-7.216c1.754-1.159,3-4.352,3-7.784C24,8.224,23.776,8,23.5,8z M20.267,15.558
			C20.103,15.645,20,15.814,20,16v7h-3v-7c0-0.186-0.103-0.355-0.267-0.442C15.257,14.778,14.124,12.012,14.01,9h8.98
			C22.876,12.012,21.743,14.778,20.267,15.558z"/>
		<path d="M13.5,4h1.551c0.245,1.691,1.69,3,3.449,3C20.43,7,22,5.43,22,3.5S20.43,0,18.5,0c-1.759,0-3.204,1.309-3.449,3H13.5
			C13.224,3,13,3.224,13,3.5S13.224,4,13.5,4z M18.5,6c-1.208,0-2.217-0.86-2.449-2h4.898C20.717,5.14,19.708,6,18.5,6z M18.5,1
			c1.208,0,2.217,0.86,2.449,2h-4.898C16.283,1.86,17.292,1,18.5,1z"/>
	</g>
</g>

</svg>
