<?xml version="1.0" encoding="utf-8"?>
<!-- Generator: Adobe Illustrator 16.0.3, SVG Export Plug-In . SVG Version: 6.00 Build 0)  -->
<!DOCTYPE svg PUBLIC "-//W3C//DTD SVG 1.1//EN" "http://www.w3.org/Graphics/SVG/1.1/DTD/svg11.dtd">
<svg version="1.1" xmlns="http://www.w3.org/2000/svg" xmlns:xlink="http://www.w3.org/1999/xlink" x="0px" y="0px" width="24px"
	 height="24px" viewBox="0 0 24 24" enable-background="new 0 0 24 24" xml:space="preserve">
<g id="Outline_Icons">
	<g>
		<path d="M22.5,1h-12C9.673,1,9,1.673,9,2.5V8H1.5C0.673,8,0,8.673,0,9.5v12C0,22.327,0.673,23,1.5,23h12
			c0.827,0,1.5-0.673,1.5-1.5V16h7.5c0.827,0,1.5-0.673,1.5-1.5v-12C24,1.673,23.327,1,22.5,1z M14,21.5c0,0.275-0.225,0.5-0.5,0.5
			h-12C1.225,22,1,21.775,1,21.5v-12C1,9.225,1.225,9,1.5,9h12C13.775,9,14,9.225,14,9.5V21.5z M23,14.5c0,0.275-0.225,0.5-0.5,0.5
			H15V9.5C15,8.673,14.327,8,13.5,8H10V2.5C10,2.225,10.225,2,10.5,2h12C22.775,2,23,2.225,23,2.5V14.5z"/>
		<circle cx="14" cy="5" r="1"/>
		<circle cx="19" cy="5" r="1"/>
		<circle cx="19" cy="12" r="1"/>
		<circle cx="11" cy="13" r="1"/>
		<circle cx="11" cy="18" r="1"/>
		<circle cx="7.5" cy="18" r="1"/>
		<circle cx="7.5" cy="13" r="1"/>
		<circle cx="4" cy="13" r="1"/>
		<circle cx="4" cy="18" r="1"/>
	</g>
</g>
<g id="invisble_shape">
	<rect fill="none" width="24" height="24"/>
</g>
</svg>
