<?xml version="1.0" encoding="utf-8"?>
<!-- Generator: Adobe Illustrator 16.0.3, SVG Export Plug-In . SVG Version: 6.00 Build 0)  -->
<!DOCTYPE svg PUBLIC "-//W3C//DTD SVG 1.1//EN" "http://www.w3.org/Graphics/SVG/1.1/DTD/svg11.dtd">
<svg version="1.1" xmlns="http://www.w3.org/2000/svg" xmlns:xlink="http://www.w3.org/1999/xlink" x="0px" y="0px" width="24px"
	 height="24px" viewBox="0 0 24 24" enable-background="new 0 0 24 24" xml:space="preserve">
<g id="Outline_Icons">
	<g>
		<path d="M20.719,1.5H20.5C20.224,1.5,20,1.724,20,2v20.5c0,0.276,0.224,0.5,0.5,0.5s0.5-0.224,0.5-0.5V16h2.5
			c0.276,0,0.5-0.224,0.5-0.5C24,8.543,22.873,1.5,20.719,1.5z M21,15V2.691C21.745,3.602,22.945,7.762,22.998,15H21z"/>
		<path d="M3,10.45V22.5C3,22.776,3.224,23,3.5,23S4,22.776,4,22.5V10.45C5.691,10.204,7,8.759,7,7V3c0-0.276-0.224-0.5-0.5-0.5
			S6,2.724,6,3v4c0,1.207-0.86,2.217-2,2.45V3c0-0.276-0.224-0.5-0.5-0.5S3,2.724,3,3v6.45C1.86,9.217,1,8.207,1,7V3
			c0-0.276-0.224-0.5-0.5-0.5S0,2.724,0,3v4C0,8.759,1.309,10.204,3,10.45z"/>
		<path d="M12,23c3.859,0,7-3.14,7-7c0-3.86-3.141-7-7-7s-7,3.14-7,7C5,19.86,8.141,23,12,23z M12,10c3.309,0,6,2.691,6,6
			s-2.691,6-6,6s-6-2.691-6-6S8.691,10,12,10z"/>
		<path d="M11.708,19.89c0.087,0.063,0.189,0.094,0.292,0.094s0.205-0.031,0.292-0.094c0.366-0.264,3.578-2.634,3.578-4.63
			c0-1.466-1.103-2.342-2.168-2.342c-0.571,0-1.231,0.256-1.702,0.913c-0.471-0.657-1.131-0.913-1.702-0.913
			c-1.065,0-2.168,0.876-2.168,2.342C8.13,17.256,11.342,19.626,11.708,19.89z M10.298,13.918c0.571,0,1.025,0.469,1.216,1.253
			c0.109,0.448,0.863,0.448,0.973,0c0.19-0.784,0.645-1.253,1.216-1.253c0.566,0,1.168,0.47,1.168,1.342
			c0,1.035-1.654,2.663-2.87,3.601c-1.216-0.938-2.87-2.565-2.87-3.601C9.13,14.388,9.731,13.918,10.298,13.918z"/>
	</g>
</g>

</svg>
