<?xml version="1.0" encoding="utf-8"?>
<!-- Generator: Adobe Illustrator 16.0.3, SVG Export Plug-In . SVG Version: 6.00 Build 0)  -->
<!DOCTYPE svg PUBLIC "-//W3C//DTD SVG 1.1//EN" "http://www.w3.org/Graphics/SVG/1.1/DTD/svg11.dtd">
<svg version="1.1" xmlns="http://www.w3.org/2000/svg" xmlns:xlink="http://www.w3.org/1999/xlink" x="0px" y="0px" width="24px"
	 height="24px" viewBox="0 0 24 24" enable-background="new 0 0 24 24" xml:space="preserve">
<g id="Outline_Icons_1_">
	<g id="Outline_Icons">
		<g>
			<path d="M21.5,7h-3C17.673,7,17,6.327,17,5.5v-3C17,1.122,15.879,0,14.5,0h-5C8.121,0,7,1.122,7,2.5v3C7,6.327,6.327,7,5.5,7h-3
				C1.121,7,0,8.122,0,9.5v5C0,15.878,1.121,17,2.5,17h3C6.327,17,7,17.673,7,18.5v3C7,22.878,8.121,24,9.5,24h5
				c1.379,0,2.5-1.122,2.5-2.5v-3c0-0.827,0.673-1.5,1.5-1.5h3c1.379,0,2.5-1.122,2.5-2.5v-5C24,8.122,22.879,7,21.5,7z M23,14.5
				c0,0.827-0.673,1.5-1.5,1.5h-3c-1.379,0-2.5,1.122-2.5,2.5v3c0,0.827-0.673,1.5-1.5,1.5h-5C8.673,23,8,22.327,8,21.5v-3
				C8,17.122,6.879,16,5.5,16h-3C1.673,16,1,15.327,1,14.5v-5C1,8.673,1.673,8,2.5,8h3C6.879,8,8,6.878,8,5.5v-3
				C8,1.673,8.673,1,9.5,1h5C15.327,1,16,1.673,16,2.5v3C16,6.878,17.121,8,18.5,8h3C22.327,8,23,8.673,23,9.5V14.5z"/>
			<path d="M12.354,3.146c-0.195-0.195-0.512-0.195-0.707,0L9.188,5.604c-0.195,0.195-0.195,0.512,0,0.707
				c0.195,0.196,0.512,0.196,0.707,0L12,4.207l2.105,2.104c0.098,0.098,0.226,0.147,0.354,0.147s0.256-0.049,0.354-0.147
				c0.195-0.195,0.195-0.512,0-0.707L12.354,3.146z"/>
			<path d="M18.395,9.188c-0.195-0.195-0.512-0.195-0.707,0c-0.195,0.196-0.195,0.512,0,0.707L19.793,12l-2.105,2.104
				c-0.195,0.195-0.195,0.512,0,0.707c0.098,0.098,0.226,0.147,0.354,0.147s0.256-0.049,0.354-0.147l2.459-2.457
				C20.947,12.26,21,12.133,21,12s-0.053-0.26-0.146-0.354L18.395,9.188z"/>
			<path d="M14.105,17.688L12,19.793l-2.105-2.104c-0.195-0.195-0.512-0.195-0.707,0c-0.195,0.196-0.195,0.512,0,0.707l2.459,2.458
				C11.744,20.951,11.872,21,12,21s0.256-0.049,0.354-0.146l2.459-2.458c0.195-0.195,0.195-0.511,0-0.707
				C14.617,17.493,14.301,17.493,14.105,17.688z"/>
			<path d="M6.312,9.188c-0.195-0.195-0.512-0.195-0.707,0l-2.459,2.458C3.053,11.74,3,11.867,3,12s0.053,0.26,0.146,0.354
				l2.459,2.457c0.098,0.098,0.226,0.147,0.354,0.147s0.256-0.049,0.354-0.147c0.195-0.195,0.195-0.512,0-0.707L4.207,12
				l2.105-2.104C6.508,9.7,6.508,9.384,6.312,9.188z"/>
		</g>
	</g>
	<g id="New_icons_1_">
	</g>
</g>

</svg>
