<?xml version="1.0" encoding="utf-8"?>
<!-- Generator: Adobe Illustrator 16.0.3, SVG Export Plug-In . SVG Version: 6.00 Build 0)  -->
<!DOCTYPE svg PUBLIC "-//W3C//DTD SVG 1.1//EN" "http://www.w3.org/Graphics/SVG/1.1/DTD/svg11.dtd">
<svg version="1.1" xmlns="http://www.w3.org/2000/svg" xmlns:xlink="http://www.w3.org/1999/xlink" x="0px" y="0px" width="24px"
	 height="24px" viewBox="0 0 24 24" enable-background="new 0 0 24 24" xml:space="preserve">
<g id="Outline_Icons">
	<path d="M21.974,20.842c-0.087-0.262-0.369-0.404-0.632-0.315c-0.478,0.159-1.198,0.37-1.609,0.446
		c-0.12-0.344-0.279-1.071-0.401-1.628C18.809,16.96,18.44,15.5,17.5,15.5c-0.896,0-6.263,1.047-8.073,1.405l-0.533-4.089
		l5.23-1.332c0.268-0.068,0.429-0.341,0.361-0.608c-0.068-0.268-0.341-0.43-0.608-0.361l-5.113,1.303L8.048,6.336
		c1.381-0.366,2.408-1.614,2.408-3.109C10.456,1.448,9.008,0,7.228,0S4,1.448,4,3.228c0,1.72,1.356,3.116,3.053,3.21l0.734,5.629
		l-0.022,0.006c-0.005,0.001-0.008,0.005-0.013,0.006C5.128,12.56,3,15.201,3,18c0,3.309,2.647,6,5.901,6c3.306,0,6.1-2.748,6.1-6
		v-1.13c1.158-0.204,2.077-0.349,2.43-0.368c0.329,0.342,0.729,2.165,0.925,3.056C18.745,21.335,18.891,22,19.5,22
		c0.553,0,1.895-0.438,2.158-0.526C21.92,21.387,22.062,21.104,21.974,20.842z M5,3.228C5,2,6,1,7.228,1s2.228,1,2.228,2.228
		c0,1.229-0.999,2.228-2.228,2.228S5,4.456,5,3.228z M14,18c0,2.664-2.383,5-5.1,5C6.199,23,4,20.757,4,18
		c0-2.528,2.015-4.575,3.917-4.935l0.587,4.5c0.018,0.138,0.092,0.261,0.204,0.342c0.113,0.081,0.252,0.11,0.39,0.084
		c1.449-0.29,3.299-0.647,4.902-0.94V18z"/>
</g>

</svg>
