<?xml version="1.0" encoding="utf-8"?>
<!-- Generator: Adobe Illustrator 16.0.3, SVG Export Plug-In . SVG Version: 6.00 Build 0)  -->
<!DOCTYPE svg PUBLIC "-//W3C//DTD SVG 1.1//EN" "http://www.w3.org/Graphics/SVG/1.1/DTD/svg11.dtd">
<svg version="1.1" xmlns="http://www.w3.org/2000/svg" xmlns:xlink="http://www.w3.org/1999/xlink" x="0px" y="0px" width="24px"
	 height="24px" viewBox="0 0 24 24" enable-background="new 0 0 24 24" xml:space="preserve">
<g id="Outline_Icons">
	<g>
		<path d="M12,4.517V0h-1v4.517c-4.178,0.261-7.5,3.732-7.5,7.975c0,4.411,3.589,8,8,8s8-3.589,8-8
			C19.5,8.249,16.178,4.777,12,4.517z M18.006,9.924c-0.756-0.527-1.683-0.951-2.729-1.25c-0.294-1.03-0.708-1.944-1.223-2.693
			C15.855,6.69,17.292,8.123,18.006,9.924z M18.374,13.383c-0.618,0.745-1.62,1.354-2.843,1.775c0.133-0.688,0.213-1.411,0.24-2.158
			h2.703c-0.008,0.109-0.017,0.218-0.029,0.325C18.422,13.345,18.395,13.358,18.374,13.383z M12.281,19.445
			c-0.093,0.01-0.188,0.014-0.281,0.021v-2.688c0.736-0.024,1.449-0.098,2.129-0.224c-0.419,1.184-1.017,2.155-1.743,2.761
			C12.341,19.352,12.31,19.397,12.281,19.445z M10.617,19.319c-0.73-0.605-1.332-1.578-1.752-2.769
			c0.681,0.128,1.396,0.202,2.135,0.227v2.688c-0.094-0.007-0.188-0.011-0.281-0.021C10.69,19.399,10.66,19.355,10.617,19.319z
			 M4.555,13.327C4.542,13.219,4.533,13.109,4.525,13h2.698c0.027,0.746,0.107,1.469,0.239,2.156
			c-1.216-0.421-2.214-1.027-2.832-1.769C4.609,13.361,4.58,13.348,4.555,13.327z M4.564,11.649c0.61-0.778,1.63-1.411,2.885-1.847
			C7.318,10.504,7.242,11.24,7.219,12H4.525c0.008-0.115,0.016-0.229,0.029-0.342C4.558,11.654,4.562,11.652,4.564,11.649z
			 M10.632,5.551C10.754,5.535,10.876,5.525,11,5.517v2.661c-0.743,0.026-1.467,0.104-2.158,0.236
			c0.42-1.219,1.027-2.219,1.77-2.838C10.62,5.568,10.624,5.559,10.632,5.551z M12.441,5.626c0.713,0.618,1.301,1.597,1.71,2.781
			C13.465,8.278,12.744,8.202,12,8.178V5.517c0.13,0.01,0.258,0.021,0.386,0.037C12.404,5.578,12.417,5.605,12.441,5.626z M12,9.178
			c0.858,0.031,1.688,0.137,2.458,0.316c0.183,0.787,0.29,1.633,0.318,2.506H12V9.178z M11,9.178V12H8.219
			c0.029-0.875,0.136-1.721,0.318-2.506C9.308,9.315,10.138,9.209,11,9.178z M8.224,13H11v2.777
			c-0.855-0.031-1.682-0.136-2.45-0.314C8.366,14.692,8.258,13.86,8.224,13z M12,15.777V13h2.771
			c-0.034,0.86-0.143,1.692-0.327,2.464C13.678,15.642,12.854,15.747,12,15.777z M18.475,12h-2.698
			c-0.022-0.76-0.101-1.496-0.232-2.198c1.213,0.42,2.207,1.026,2.824,1.766c0.021,0.024,0.049,0.038,0.072,0.059
			C18.456,11.749,18.467,11.875,18.475,12z M8.934,5.985c-0.515,0.75-0.927,1.667-1.221,2.698c-1.039,0.301-1.967,0.72-2.718,1.239
			C5.706,8.127,7.138,6.696,8.934,5.985z M4.98,15.021c0.761,0.535,1.697,0.963,2.756,1.265c0.309,1.059,0.746,1.991,1.289,2.745
			C7.175,18.328,5.699,16.865,4.98,15.021z M13.968,19.033c0.544-0.754,0.98-1.686,1.29-2.744c1.061-0.302,1.998-0.729,2.76-1.264
			C17.299,16.869,15.82,18.332,13.968,19.033z"/>
		<path d="M16.568,5.104c0.158,0,0.314-0.075,0.411-0.216l1.137-1.646c0.157-0.228,0.101-0.539-0.127-0.695
			c-0.227-0.158-0.538-0.102-0.695,0.127L16.157,4.32C16,4.548,16.057,4.859,16.284,5.016C16.371,5.076,16.47,5.104,16.568,5.104z"
			/>
		<path d="M22.315,10.442l-1.991,0.193c-0.275,0.027-0.477,0.271-0.45,0.546c0.025,0.259,0.243,0.452,0.497,0.452
			c0.017,0,0.033-0.001,0.049-0.002l1.991-0.193c0.275-0.027,0.477-0.271,0.45-0.546C22.835,10.617,22.574,10.426,22.315,10.442z"/>
		<path d="M17.677,19.435c-0.183-0.207-0.497-0.23-0.706-0.05c-0.208,0.182-0.23,0.497-0.05,0.706l1.312,1.51
			c0.1,0.113,0.238,0.172,0.378,0.172c0.116,0,0.233-0.04,0.328-0.122c0.208-0.182,0.23-0.497,0.05-0.706L17.677,19.435z"/>
		<path d="M5.167,19.4l-1.31,1.512c-0.181,0.208-0.158,0.524,0.051,0.705c0.095,0.082,0.211,0.122,0.327,0.122
			c0.14,0,0.279-0.059,0.378-0.173l1.31-1.512c0.181-0.208,0.158-0.524-0.051-0.705C5.664,19.169,5.348,19.191,5.167,19.4z"/>
		<path d="M2.566,10.581L0.575,10.39c-0.271-0.013-0.519,0.175-0.546,0.45c-0.026,0.274,0.176,0.52,0.45,0.546l1.991,0.191
			c0.017,0.001,0.032,0.002,0.049,0.002c0.254,0,0.472-0.193,0.497-0.452C3.043,10.853,2.841,10.607,2.566,10.581z"/>
		<path d="M6.191,4.689c0.095,0.148,0.256,0.229,0.42,0.229c0.093,0,0.187-0.025,0.271-0.08c0.232-0.149,0.3-0.458,0.149-0.69
			L5.948,2.467c-0.149-0.232-0.459-0.302-0.69-0.149c-0.232,0.149-0.3,0.458-0.149,0.69L6.191,4.689z"/>
	</g>
</g>
<g id="invisble_shape">
	<rect fill="none" width="24" height="24"/>
</g>
</svg>
