<?xml version="1.0" encoding="utf-8"?>
<!-- Generator: Adobe Illustrator 16.0.3, SVG Export Plug-In . SVG Version: 6.00 Build 0)  -->
<!DOCTYPE svg PUBLIC "-//W3C//DTD SVG 1.1//EN" "http://www.w3.org/Graphics/SVG/1.1/DTD/svg11.dtd">
<svg version="1.1" xmlns="http://www.w3.org/2000/svg" xmlns:xlink="http://www.w3.org/1999/xlink" x="0px" y="0px" width="24px"
	 height="24px" viewBox="0 0 24 24" enable-background="new 0 0 24 24" xml:space="preserve">
<g id="Outline_Icons">
	<path d="M18.5,5H17V0.5C17,0.224,16.776,0,16.5,0h-10C6.224,0,6,0.224,6,0.5V5H4.5C3.122,5,2,6.122,2,7.5v3v12
		C2,22.776,2.224,23,2.5,23H4v0.5C4,23.776,4.224,24,4.5,24S5,23.776,5,23.5V23h13v0.5c0,0.276,0.224,0.5,0.5,0.5s0.5-0.224,0.5-0.5
		V23h1.5c0.276,0,0.5-0.224,0.5-0.5v-12v-3C21,6.122,19.878,5,18.5,5z M7,1h9v7H7V1z M3,7.5C3,6.673,3.673,6,4.5,6H6v2H5.5
		C5.224,8,5,8.224,5,8.5S5.224,9,5.5,9h1h10h1C17.776,9,18,8.776,18,8.5S17.776,8,17.5,8H17V6h1.5C19.327,6,20,6.673,20,7.5V10H3
		V7.5z M20,22H3V11h4.002l0,0.136c0.012,2.19,0.022,4.081-1.28,4.949c-0.23,0.153-0.292,0.464-0.139,0.693
		C5.68,16.922,5.839,17,6,17c0.095,0,0.191-0.027,0.277-0.084c1.75-1.167,1.738-3.41,1.725-5.786l0-0.13h1.015
		c0.079,2.788-0.196,5.885-0.817,6.35c-0.221,0.166-0.266,0.479-0.1,0.7c0.098,0.131,0.248,0.2,0.4,0.2
		c0.104,0,0.209-0.033,0.299-0.1c1.257-0.942,1.265-5.402,1.217-7.15H11v7c0,0.276,0.224,0.5,0.5,0.5S12,18.276,12,18v-7h0.997
		l0,0.033c-0.035,3.705,0.157,6.333,1.204,7.117c0.09,0.067,0.195,0.1,0.299,0.1c0.152,0,0.302-0.069,0.4-0.2
		c0.166-0.221,0.121-0.534-0.1-0.7c-0.856-0.643-0.816-4.907-0.803-6.308l0-0.042h1.001l0,0.133
		c-0.013,2.374-0.025,4.616,1.725,5.783C16.808,16.973,16.904,17,17,17c0.162,0,0.32-0.078,0.417-0.223
		c0.153-0.229,0.091-0.54-0.139-0.693c-1.302-0.868-1.292-2.757-1.28-4.946l0-0.139H20V22z"/>
</g>

</svg>
