<?xml version="1.0" encoding="utf-8"?>
<!-- Generator: Adobe Illustrator 16.0.3, SVG Export Plug-In . SVG Version: 6.00 Build 0)  -->
<!DOCTYPE svg PUBLIC "-//W3C//DTD SVG 1.1//EN" "http://www.w3.org/Graphics/SVG/1.1/DTD/svg11.dtd">
<svg version="1.1" xmlns="http://www.w3.org/2000/svg" xmlns:xlink="http://www.w3.org/1999/xlink" x="0px" y="0px" width="24px"
	 height="24px" viewBox="0 0 24 24" enable-background="new 0 0 24 24" xml:space="preserve">
<g id="Outline_Icons">
	<g>
		<path d="M9.054,15.573c0.13,0,0.259-0.05,0.357-0.15c0.193-0.197,0.189-0.514-0.008-0.707c-2.361-2.314-3.048-5.666-1.79-8.747
			C8.865,2.904,11.695,1,15,1c3.286,0,6.11,1.889,7.37,4.929c1.268,3.06,0.611,6.404-1.713,8.728c-0.195,0.195-0.195,0.512,0,0.707
			s0.512,0.195,0.707,0c2.615-2.616,3.354-6.377,1.93-9.817C21.877,2.126,18.698,0,15,0c-3.719,0-6.904,2.143-8.312,5.592
			c-1.414,3.464-0.642,7.234,2.017,9.839C8.801,15.526,8.928,15.573,9.054,15.573z"/>
		<path d="M15,6.102c0.662,0,1.2,0.538,1.2,1.199c0,0.276,0.224,0.5,0.5,0.5s0.5-0.224,0.5-0.5c0-1.04-0.729-1.909-1.7-2.137V4.467
			c0-0.276-0.224-0.5-0.5-0.5s-0.5,0.224-0.5,0.5v0.697c-0.972,0.228-1.699,1.097-1.699,2.137C12.801,8.514,13.787,9.5,15,9.5
			c0.662,0,1.2,0.539,1.2,1.201c0,0.661-0.538,1.199-1.2,1.199c-0.661,0-1.199-0.538-1.199-1.199c0-0.276-0.224-0.5-0.5-0.5
			s-0.5,0.224-0.5,0.5c0,1.04,0.728,1.909,1.699,2.137v0.695c0,0.276,0.224,0.5,0.5,0.5s0.5-0.224,0.5-0.5v-0.695
			c0.972-0.228,1.7-1.097,1.7-2.137C17.2,9.487,16.213,8.5,15,8.5c-0.661,0-1.199-0.538-1.199-1.199S14.339,6.102,15,6.102z"/>
		<path d="M23.984,23.577C23.988,23.551,24,23.527,24,23.5v-3.977c0-0.276-0.224-0.5-0.5-0.5s-0.5,0.224-0.5,0.5v2.826l-6.659-6.215
			c-0.181-0.169-0.459-0.181-0.653-0.025l-4.671,3.737l-8.685-7.72c-0.206-0.184-0.523-0.167-0.706,0.042
			c-0.184,0.206-0.164,0.522,0.042,0.706l9,8c0.183,0.161,0.454,0.169,0.645,0.017l4.662-3.729L22.231,23H19.5
			c-0.276,0-0.5,0.224-0.5,0.5s0.224,0.5,0.5,0.5h4c0.069,0,0.136-0.015,0.195-0.04c0.003-0.001,0.005-0.003,0.008-0.005
			c0.059-0.026,0.111-0.063,0.156-0.109c0.002-0.002,0.004-0.002,0.006-0.004c0.016-0.016,0.021-0.038,0.034-0.056
			c0.024-0.033,0.049-0.064,0.063-0.104C23.977,23.647,23.979,23.612,23.984,23.577z"/>
	</g>
</g>

</svg>
