<?xml version="1.0" encoding="utf-8"?>
<!-- Generator: Adobe Illustrator 16.0.3, SVG Export Plug-In . SVG Version: 6.00 Build 0)  -->
<!DOCTYPE svg PUBLIC "-//W3C//DTD SVG 1.1//EN" "http://www.w3.org/Graphics/SVG/1.1/DTD/svg11.dtd">
<svg version="1.1" xmlns="http://www.w3.org/2000/svg" xmlns:xlink="http://www.w3.org/1999/xlink" x="0px" y="0px" width="24px"
	 height="24px" viewBox="0 0 24 24" enable-background="new 0 0 24 24" xml:space="preserve">
<g id="Outline_Icons">
	<g>
		<path d="M4.775,16.95c0.075,0.04,0.155,0.059,0.235,0.059c0.179,0,0.352-0.096,0.441-0.265c0.13-0.244,0.037-0.546-0.206-0.676
			c-4.058-2.162-4.68-6.207-3.979-9.014C1.966,4.261,4.409,1,9,1c3.042,0,5.693,1.615,7.092,4.319
			c1.405,2.719,1.197,5.821-0.558,8.298c-0.159,0.225-0.106,0.537,0.119,0.696c0.225,0.159,0.537,0.108,0.697-0.119
			c1.945-2.746,2.187-6.323,0.629-9.334C15.406,1.817,12.423,0,9,0C4.747,0,1.331,2.674,0.298,6.812
			C-0.74,10.969,1.018,14.948,4.775,16.95z"/>
		<path d="M9,6.102c0.662,0,1.2,0.538,1.2,1.199c0,0.276,0.224,0.5,0.5,0.5s0.5-0.224,0.5-0.5c0-1.04-0.729-1.909-1.7-2.137V4.467
			c0-0.276-0.224-0.5-0.5-0.5s-0.5,0.224-0.5,0.5v0.697C7.528,5.392,6.801,6.261,6.801,7.301C6.801,8.514,7.787,9.5,9,9.5
			c0.662,0,1.2,0.539,1.2,1.201c0,0.661-0.538,1.199-1.2,1.199c-0.661,0-1.199-0.538-1.199-1.199c0-0.276-0.224-0.5-0.5-0.5
			s-0.5,0.224-0.5,0.5c0,1.04,0.728,1.909,1.699,2.137v0.695c0,0.276,0.224,0.5,0.5,0.5s0.5-0.224,0.5-0.5v-0.695
			c0.972-0.228,1.7-1.097,1.7-2.137C11.2,9.487,10.213,8.5,9,8.5c-0.661,0-1.199-0.538-1.199-1.199S8.339,6.102,9,6.102z"/>
		<path d="M23.984,12.423c-0.006-0.036-0.008-0.071-0.021-0.105c-0.015-0.039-0.039-0.07-0.063-0.104
			c-0.013-0.019-0.019-0.04-0.034-0.056c-0.002-0.002-0.005-0.003-0.006-0.005c-0.03-0.031-0.068-0.053-0.105-0.075
			c-0.02-0.012-0.035-0.028-0.055-0.037c-0.022-0.009-0.048-0.01-0.071-0.016c-0.04-0.011-0.079-0.024-0.12-0.024
			C23.505,12.002,23.503,12,23.5,12h-4c-0.276,0-0.5,0.224-0.5,0.5s0.224,0.5,0.5,0.5h2.731l-6.257,5.839l-4.662-3.73
			c-0.191-0.153-0.463-0.145-0.645,0.017l-9,8c-0.206,0.183-0.226,0.5-0.042,0.706C1.725,23.943,1.862,24,2,24
			c0.118,0,0.237-0.042,0.332-0.126l8.685-7.72l4.671,3.737c0.194,0.155,0.472,0.145,0.653-0.025L23,13.65v2.85
			c0,0.276,0.224,0.5,0.5,0.5s0.5-0.224,0.5-0.5v-4C24,12.473,23.988,12.449,23.984,12.423z"/>
	</g>
</g>

</svg>
