<?xml version="1.0" encoding="utf-8"?>
<!-- Generator: Adobe Illustrator 16.0.3, SVG Export Plug-In . SVG Version: 6.00 Build 0)  -->
<!DOCTYPE svg PUBLIC "-//W3C//DTD SVG 1.1//EN" "http://www.w3.org/Graphics/SVG/1.1/DTD/svg11.dtd">
<svg version="1.1" xmlns="http://www.w3.org/2000/svg" xmlns:xlink="http://www.w3.org/1999/xlink" x="0px" y="0px" width="24px"
	 height="24px" viewBox="0 0 24 24" enable-background="new 0 0 24 24" xml:space="preserve">
<g id="Outline_Icons">
	<g>
		<path d="M11.5,9.5c0.552,0,1,0.449,1,1c0,0.276,0.224,0.5,0.5,0.5s0.5-0.224,0.5-0.5c0-0.929-0.64-1.705-1.5-1.929V8
			c0-0.276-0.224-0.5-0.5-0.5S11,7.724,11,8v0.571c-0.86,0.224-1.5,1-1.5,1.929c0,1.103,0.897,2,2,2c0.552,0,1,0.449,1,1
			c0,0.551-0.448,1-1,1s-1-0.449-1-1c0-0.276-0.224-0.5-0.5-0.5s-0.5,0.224-0.5,0.5c0,0.929,0.64,1.705,1.5,1.929V16
			c0,0.276,0.224,0.5,0.5,0.5S12,16.276,12,16v-0.571c0.86-0.224,1.5-1,1.5-1.929c0-1.104-0.897-2-2-2c-0.552,0-1-0.449-1-1
			C10.5,9.949,10.948,9.5,11.5,9.5z"/>
		<path d="M21,7.422V5.5C21,5.224,20.776,5,20.5,5h-17C3.224,5,3,5.224,3,5.5v1.922C1.191,8.213,0,10.01,0,12
			c0,1.991,1.191,3.788,3,4.579V18.5C3,18.776,3.224,19,3.5,19h17c0.276,0,0.5-0.224,0.5-0.5v-1.921c1.809-0.79,3-2.588,3-4.579
			C24,10.009,22.809,8.212,21,7.422z M20.333,15.768C20.134,15.839,20,16.027,20,16.239V18H4v-1.761c0-0.212-0.134-0.4-0.333-0.471
			C2.072,15.202,1,13.688,1,12s1.072-3.201,2.667-3.767C3.866,8.162,4,7.974,4,7.762V6h16v1.762c0,0.212,0.134,0.4,0.333,0.471
			C21.928,8.799,23,10.312,23,12S21.928,15.202,20.333,15.768z"/>
	</g>
</g>

</svg>
