<?xml version="1.0" encoding="utf-8"?>
<!-- Generator: Adobe Illustrator 16.0.3, SVG Export Plug-In . SVG Version: 6.00 Build 0)  -->
<!DOCTYPE svg PUBLIC "-//W3C//DTD SVG 1.1//EN" "http://www.w3.org/Graphics/SVG/1.1/DTD/svg11.dtd">
<svg version="1.1" xmlns="http://www.w3.org/2000/svg" xmlns:xlink="http://www.w3.org/1999/xlink" x="0px" y="0px" width="24px"
	 height="24px" viewBox="0 0 24 24" enable-background="new 0 0 24 24" xml:space="preserve">
<g id="Outline_Icons_1_">
	<g id="Outline_Icons">
	</g>
	<g id="New_icons_1_">
		<g>
			<path d="M17.5,19.5c-0.276,0-0.5,0.224-0.5,0.5v1h-7V3h7v2c0,0.276,0.224,0.5,0.5,0.5S18,5.276,18,5V2.5
				C18,2.224,17.776,2,17.5,2H10V0.5c0-0.152-0.069-0.295-0.187-0.39C9.694,0.015,9.54-0.019,9.392,0.012l-9,2
				C0.163,2.062,0,2.266,0,2.5v19c0,0.234,0.163,0.438,0.392,0.488l9,2c0.147,0.032,0.301-0.002,0.421-0.098
				C9.931,23.795,10,23.652,10,23.5V22h7.5c0.276,0,0.5-0.224,0.5-0.5V20C18,19.724,17.776,19.5,17.5,19.5z M9,22.876l-8-1.777
				V2.901l8-1.777V22.876z"/>
			<path d="M6,10.5c-1.103,0-2,0.897-2,2s0.897,2,2,2s2-0.897,2-2S7.103,10.5,6,10.5z M6,13.5c-0.551,0-1-0.449-1-1s0.449-1,1-1
				s1,0.449,1,1S6.551,13.5,6,13.5z"/>
			<path d="M23.5,12.008H13.199l3.155-3.155c0.195-0.195,0.195-0.512,0-0.707s-0.512-0.195-0.707,0l-4,4
				c-0.099,0.099-0.146,0.229-0.146,0.358c0,0.002-0.001,0.002-0.001,0.004c0,0.149,0.068,0.28,0.173,0.371l3.974,3.974
				C15.744,16.951,15.872,17,16,17s0.256-0.049,0.354-0.146c0.195-0.195,0.195-0.512,0-0.707l-3.138-3.138H23.5
				c0.276,0,0.5-0.224,0.5-0.5S23.776,12.008,23.5,12.008z"/>
		</g>
	</g>
</g>

</svg>
