<?xml version="1.0" encoding="utf-8"?>
<!-- Generator: Adobe Illustrator 16.0.3, SVG Export Plug-In . SVG Version: 6.00 Build 0)  -->
<!DOCTYPE svg PUBLIC "-//W3C//DTD SVG 1.1//EN" "http://www.w3.org/Graphics/SVG/1.1/DTD/svg11.dtd">
<svg version="1.1" xmlns="http://www.w3.org/2000/svg" xmlns:xlink="http://www.w3.org/1999/xlink" x="0px" y="0px" width="24px"
	 height="24px" viewBox="0 0 24 24" enable-background="new 0 0 24 24" xml:space="preserve">
<g id="Outline_Icons_1_">
	<g id="Outline_Icons">
		<g>
			<path d="M12.354,13.854l8-8C20.668,5.539,20.445,5,20,5H4C3.555,5,3.332,5.539,3.646,5.854l8,8
				C11.842,14.049,12.158,14.049,12.354,13.854z M18.793,6L12,12.793L5.207,6H18.793z"/>
			<path d="M23.5,18h-23C0.224,18,0,18.224,0,18.5S0.224,19,0.5,19h23c0.276,0,0.5-0.224,0.5-0.5S23.776,18,23.5,18z"/>
		</g>
	</g>
	<g id="New_icons_1_">
	</g>
</g>

</svg>
