<?xml version="1.0" encoding="utf-8"?>
<!-- Generator: Adobe Illustrator 16.0.3, SVG Export Plug-In . SVG Version: 6.00 Build 0)  -->
<!DOCTYPE svg PUBLIC "-//W3C//DTD SVG 1.1//EN" "http://www.w3.org/Graphics/SVG/1.1/DTD/svg11.dtd">
<svg version="1.1" xmlns="http://www.w3.org/2000/svg" xmlns:xlink="http://www.w3.org/1999/xlink" x="0px" y="0px" width="24px"
	 height="24px" viewBox="0 0 24 24" enable-background="new 0 0 24 24" xml:space="preserve">
<g id="Outline_Icons_1_">
	<g id="Outline_Icons">
		<g>
			<path d="M11.5,23C17.841,23,23,17.841,23,11.5C23,5.159,17.841,0,11.5,0S0,5.159,0,11.5C0,17.841,5.159,23,11.5,23z M11.5,1
				C17.29,1,22,5.71,22,11.5S17.29,22,11.5,22S1,17.29,1,11.5S5.71,1,11.5,1z"/>
			<path d="M11.146,18.353c0.194,0.195,0.514,0.196,0.709,0l5.499-5.499c0.195-0.195,0.195-0.512,0-0.707s-0.512-0.195-0.707,0
				L12,16.793V5c0-0.276-0.224-0.5-0.5-0.5S11,4.724,11,5v11.793l-4.646-4.646c-0.195-0.195-0.512-0.195-0.707,0
				s-0.195,0.512,0,0.707L11.146,18.353z"/>
		</g>
	</g>
	<g id="New_icons_1_">
	</g>
</g>

</svg>
