<?xml version="1.0" encoding="utf-8"?>
<!-- Generator: Adobe Illustrator 16.0.3, SVG Export Plug-In . SVG Version: 6.00 Build 0)  -->
<!DOCTYPE svg PUBLIC "-//W3C//DTD SVG 1.1//EN" "http://www.w3.org/Graphics/SVG/1.1/DTD/svg11.dtd">
<svg version="1.1" xmlns="http://www.w3.org/2000/svg" xmlns:xlink="http://www.w3.org/1999/xlink" x="0px" y="0px" width="24px"
	 height="24px" viewBox="0 0 24 24" enable-background="new 0 0 24 24" xml:space="preserve">
<g id="Outline_Icons">
	<g>
		<path d="M19.5,11H12V3.5c0-1.103,0.897-2,2-2s2,0.897,2,2v2h1v-2c0-1.654-1.346-3-3-3s-3,1.346-3,3V11H4.5
			C4.224,11,4,11.224,4,11.5v1c0,1.958,1.054,3.783,2.75,4.763C8.138,18.066,9,19.56,9,21.161V23.5C9,23.776,9.224,24,9.5,24h5
			c0.276,0,0.5-0.224,0.5-0.5v-2.339c0-1.601,0.862-3.095,2.25-3.897C18.946,16.283,20,14.458,20,12.5v-1
			C20,11.224,19.776,11,19.5,11z M19,12.5c0,1.602-0.862,3.095-2.25,3.898C15.054,17.379,14,19.205,14,21.161V23h-4v-1.839
			c0-1.957-1.054-3.782-2.75-4.763C5.862,15.595,5,14.102,5,12.5V12h14V12.5z"/>
		<path d="M16.109,6.688c-0.318,0.398-1.324,1.768-0.89,2.672C15.36,9.651,15.697,10,16.5,10s1.14-0.349,1.28-0.641
			c0.435-0.904-0.571-2.273-0.89-2.672C16.701,6.451,16.299,6.451,16.109,6.688z M16.879,8.926C16.873,8.938,16.779,9,16.5,9
			s-0.373-0.062-0.379-0.074c-0.069-0.145,0.102-0.587,0.379-1.05C16.778,8.338,16.948,8.781,16.879,8.926z"/>
	</g>
</g>

</svg>
