<?xml version="1.0" encoding="utf-8"?>
<!-- Generator: Adobe Illustrator 16.0.3, SVG Export Plug-In . SVG Version: 6.00 Build 0)  -->
<!DOCTYPE svg PUBLIC "-//W3C//DTD SVG 1.1//EN" "http://www.w3.org/Graphics/SVG/1.1/DTD/svg11.dtd">
<svg version="1.1" xmlns="http://www.w3.org/2000/svg" xmlns:xlink="http://www.w3.org/1999/xlink" x="0px" y="0px" width="24px"
	 height="24px" viewBox="0 0 24 24" enable-background="new 0 0 24 24" xml:space="preserve">
<g id="Outline_Icons">
	<path d="M23.5,16.503H23v-2c0-0.827-0.673-1.5-1.5-1.5H20v-1.5c0-0.827-0.673-1.5-1.5-1.5h-3c-0.827,0-1.5,0.673-1.5,1.5v5.5h-4
		v-5.5c0-0.827-0.673-1.5-1.5-1.5h-3c-0.827,0-1.5,0.673-1.5,1.5v1.5H2.5c-0.827,0-1.5,0.673-1.5,1.5v2H0.5
		c-0.276,0-0.5,0.224-0.5,0.5s0.224,0.5,0.5,0.5H1v2c0,0.827,0.673,1.5,1.5,1.5H4v1.5c0,0.827,0.673,1.5,1.5,1.5h3
		c0.827,0,1.5-0.673,1.5-1.5v-4.5h4v4.5c0,0.827,0.673,1.5,1.5,1.5h3c0.827,0,1.5-0.673,1.5-1.5v-1.5h1.5c0.827,0,1.5-0.673,1.5-1.5
		v-2h0.5c0.276,0,0.5-0.224,0.5-0.5S23.776,16.503,23.5,16.503z M2.5,20.003c-0.276,0-0.5-0.225-0.5-0.5v-5
		c0-0.275,0.224-0.5,0.5-0.5H4v6H2.5z M9,22.503c0,0.275-0.224,0.5-0.5,0.5h-3c-0.276,0-0.5-0.225-0.5-0.5v-2v-7v-2
		c0-0.275,0.224-0.5,0.5-0.5h3c0.276,0,0.5,0.225,0.5,0.5V22.503z M19,22.503c0,0.275-0.224,0.5-0.5,0.5h-3
		c-0.276,0-0.5-0.225-0.5-0.5v-11c0-0.275,0.224-0.5,0.5-0.5h3c0.276,0,0.5,0.225,0.5,0.5v2v7V22.503z M22,19.503
		c0,0.275-0.224,0.5-0.5,0.5H20v-6h1.5c0.276,0,0.5,0.225,0.5,0.5V19.503z"/>
</g>

</svg>
