<?xml version="1.0" encoding="utf-8"?>
<!-- Generator: Adobe Illustrator 16.0.3, SVG Export Plug-In . SVG Version: 6.00 Build 0)  -->
<!DOCTYPE svg PUBLIC "-//W3C//DTD SVG 1.1//EN" "http://www.w3.org/Graphics/SVG/1.1/DTD/svg11.dtd">
<svg version="1.1" xmlns="http://www.w3.org/2000/svg" xmlns:xlink="http://www.w3.org/1999/xlink" x="0px" y="0px" width="24px"
	 height="24px" viewBox="0 0 24 24" enable-background="new 0 0 24 24" xml:space="preserve">
<g id="Outline_Icons">
	<g>
		<path d="M21.5,9.021h-5.041c0.553-0.9,1.041-2.094,1.041-3.5c0-4.035-3.289-5.5-5.5-5.5s-5.5,1.465-5.5,5.5
			c0,1.406,0.488,2.6,1.041,3.5H2.5c-0.276,0-0.5,0.224-0.5,0.5v3c0,0.276,0.224,0.5,0.5,0.5H10v10.5c0,0.276,0.224,0.5,0.5,0.5h3
			c0.276,0,0.5-0.224,0.5-0.5v-10.5h7.5c0.276,0,0.5-0.224,0.5-0.5v-3C22,9.244,21.776,9.021,21.5,9.021z M21,12.021h-7.5
			c-0.276,0-0.5,0.224-0.5,0.5v10.5h-2v-10.5c0-0.276-0.224-0.5-0.5-0.5H3v-2h5.5c0.192,0,0.367-0.109,0.45-0.282
			S9.011,9.36,8.892,9.21C8.257,8.407,7.5,7.115,7.5,5.521c0-3.56,2.943-4.5,4.5-4.5s4.5,0.94,4.5,4.5
			c0,1.595-0.757,2.887-1.392,3.689c-0.119,0.15-0.142,0.355-0.058,0.528s0.258,0.282,0.45,0.282H21V12.021z"/>
		<path d="M12,3.021c-1.589,0-2.5,0.911-2.5,2.5c0,1.701,1.975,3.231,2.2,3.4c0.089,0.066,0.194,0.1,0.3,0.1s0.211-0.033,0.3-0.1
			c0.226-0.169,2.2-1.699,2.2-3.4C14.5,3.932,13.589,3.021,12,3.021z M12,7.874c-0.59-0.519-1.5-1.499-1.5-2.354
			c0-1.037,0.462-1.5,1.5-1.5s1.5,0.463,1.5,1.5C13.5,6.375,12.59,7.355,12,7.874z"/>
	</g>
</g>

</svg>
