<?xml version="1.0" encoding="utf-8"?>
<!-- Generator: Adobe Illustrator 16.0.3, SVG Export Plug-In . SVG Version: 6.00 Build 0)  -->
<!DOCTYPE svg PUBLIC "-//W3C//DTD SVG 1.1//EN" "http://www.w3.org/Graphics/SVG/1.1/DTD/svg11.dtd">
<svg version="1.1" xmlns="http://www.w3.org/2000/svg" xmlns:xlink="http://www.w3.org/1999/xlink" x="0px" y="0px" width="24px"
	 height="24px" viewBox="0 0 24 24" enable-background="new 0 0 24 24" xml:space="preserve">
<g id="Outline_Icons">
	<g>
		<path d="M7,16.932V21.5C7,21.776,7.224,22,7.5,22h3c0.276,0,0.5-0.224,0.5-0.5v-4.568c0.663-0.202,0.999-0.849,1-1.932v-2.5
			c0-0.276-0.224-0.5-0.5-0.5H9H6.5C6.224,12,6,12.224,6,12.5V15C6,16.083,6.336,16.73,7,16.932z M7,13h4v2c-0.001,1-0.278,1-0.5,1
			c-0.276,0-0.5,0.224-0.5,0.5V21H8v-4.5C8,16.224,7.777,16,7.5,16C7.278,16,7,16,7,15V13z"/>
		<path d="M11,10c0-1.104-0.897-2-2-2s-2,0.896-2,2c0,1.103,0.897,2,2,2S11,11.103,11,10z M9,11c-0.551,0-1-0.449-1-1
			c0-0.551,0.449-1,1-1s1,0.449,1,1C10,10.551,9.552,11,9,11z"/>
		<path d="M14,16.932V21.5c0,0.276,0.224,0.5,0.5,0.5h3c0.276,0,0.5-0.224,0.5-0.5v-4.568c0.663-0.202,0.999-0.849,1-1.932v-2.5
			c0-0.276-0.224-0.5-0.5-0.5H16h-2.5c-0.276,0-0.5,0.224-0.5,0.5V15C13,16.083,13.336,16.73,14,16.932z M14,13h4v2
			c-0.001,1-0.278,1-0.5,1c-0.276,0-0.5,0.224-0.5,0.5V21h-2v-4.5c0-0.276-0.224-0.5-0.5-0.5c-0.223,0-0.5,0-0.5-1V13z"/>
		<path d="M18,10c0-1.104-0.897-2-2-2s-2,0.896-2,2c0,1.103,0.897,2,2,2S18,11.103,18,10z M16,11c-0.551,0-1-0.449-1-1
			c0-0.551,0.449-1,1-1s1,0.449,1,1C17,10.551,16.552,11,16,11z"/>
		<path d="M21.5,6h-18C3.224,6,3,6.224,3,6.5v17C3,23.776,3.224,24,3.5,24h18c0.276,0,0.5-0.224,0.5-0.5v-17
			C22,6.224,21.777,6,21.5,6z M21,23H4V7h17V23z"/>
		<path d="M5.854,2.854L7,1.707V4.5C7,4.776,7.224,5,7.5,5S8,4.776,8,4.5V1.707l1.146,1.146C9.245,2.951,9.373,3,9.5,3
			s0.256-0.049,0.354-0.146c0.195-0.195,0.195-0.512,0-0.707l-2-2C7.809,0.101,7.753,0.063,7.691,0.039
			c-0.122-0.05-0.26-0.05-0.382,0C7.248,0.063,7.192,0.101,7.146,0.146l-2,2c-0.195,0.195-0.195,0.512,0,0.707
			S5.659,3.049,5.854,2.854z"/>
		<path d="M17.146,4.853c0.046,0.047,0.102,0.083,0.163,0.109C17.371,4.987,17.436,5,17.5,5s0.13-0.013,0.191-0.038
			c0.062-0.026,0.117-0.062,0.163-0.109l2-1.999c0.195-0.195,0.195-0.512,0-0.707s-0.512-0.195-0.707,0L18,3.293V0.5
			C18,0.224,17.777,0,17.5,0S17,0.224,17,0.5v2.793l-1.146-1.146c-0.195-0.195-0.512-0.195-0.707,0s-0.195,0.512,0,0.707
			L17.146,4.853z"/>
	</g>
</g>

</svg>
