<?xml version="1.0" encoding="utf-8"?>
<!-- Generator: Adobe Illustrator 16.0.3, SVG Export Plug-In . SVG Version: 6.00 Build 0)  -->
<!DOCTYPE svg PUBLIC "-//W3C//DTD SVG 1.1//EN" "http://www.w3.org/Graphics/SVG/1.1/DTD/svg11.dtd">
<svg version="1.1" xmlns="http://www.w3.org/2000/svg" xmlns:xlink="http://www.w3.org/1999/xlink" x="0px" y="0px" width="24px"
	 height="24px" viewBox="0 0 24 24" enable-background="new 0 0 24 24" xml:space="preserve">
<g id="Outline_Icons_1_">
	<g id="Outline_Icons">
		<g>
			<path d="M23.786,9.59l-11.5-8c-0.172-0.119-0.399-0.119-0.571,0l-11.5,8C0.081,9.683,0,9.866,0,10v11c0,1.103,0.897,2,2,2h20
				c1.103,0,2-0.897,2-2V10C24,9.872,23.922,9.684,23.786,9.59z M22,22H2c-0.551,0-1-0.449-1-1V10.935l5.223,3.481
				C6.308,14.473,6.404,14.5,6.5,14.5c0.162,0,0.32-0.078,0.417-0.223c0.153-0.23,0.091-0.54-0.139-0.693L1.388,9.991L12,2.609
				l10.612,7.382l-5.389,3.593c-0.23,0.153-0.292,0.463-0.139,0.693C17.18,14.422,17.339,14.5,17.5,14.5
				c0.095,0,0.191-0.027,0.277-0.084L23,10.935V21C23,21.551,22.551,22,22,22z"/>
			<path d="M15.787,15.091C15.703,15.032,15.603,15,15.5,15h-7c-0.103,0-0.203,0.032-0.287,0.091l-5,3.5
				c-0.227,0.158-0.281,0.47-0.123,0.695c0.159,0.228,0.471,0.282,0.696,0.124L8.658,16h6.685l4.871,3.41
				c0.227,0.159,0.539,0.103,0.696-0.124c0.158-0.226,0.104-0.538-0.123-0.695L15.787,15.091z"/>
		</g>
	</g>
	<g id="New_icons_1_">
	</g>
</g>

</svg>
