<?xml version="1.0" encoding="utf-8"?>
<!-- Generator: Adobe Illustrator 16.0.3, SVG Export Plug-In . SVG Version: 6.00 Build 0)  -->
<!DOCTYPE svg PUBLIC "-//W3C//DTD SVG 1.1//EN" "http://www.w3.org/Graphics/SVG/1.1/DTD/svg11.dtd">
<svg version="1.1" xmlns="http://www.w3.org/2000/svg" xmlns:xlink="http://www.w3.org/1999/xlink" x="0px" y="0px" width="24px"
	 height="24px" viewBox="0 0 24 24" enable-background="new 0 0 24 24" xml:space="preserve">
<g id="Outline_Icons_1_">
	<g id="Outline_Icons">
		<g>
			<path d="M19.646,15.646L18,17.293V12.5c0-0.276-0.224-0.5-0.5-0.5S17,12.224,17,12.5v4.793l-1.646-1.646
				c-0.195-0.195-0.512-0.195-0.707,0s-0.195,0.512,0,0.707l2.5,2.499c0.193,0.194,0.512,0.197,0.708,0l2.5-2.499
				c0.195-0.195,0.195-0.512,0-0.707S19.842,15.451,19.646,15.646z"/>
			<path d="M17.5,9c-3.584,0-6.5,2.916-6.5,6.5s2.916,6.5,6.5,6.5s6.5-2.916,6.5-6.5S21.084,9,17.5,9z M17.5,21
				c-3.033,0-5.5-2.467-5.5-5.5c0-3.033,2.467-5.5,5.5-5.5s5.5,2.467,5.5,5.5C23,18.533,20.533,21,17.5,21z"/>
			<path d="M1.06,2.703l9.628,7.688C10.779,10.463,10.89,10.5,11,10.5s0.221-0.037,0.312-0.109l9.628-7.685
				C20.97,2.801,21,2.896,21,3v4.5C21,7.776,21.224,8,21.5,8S22,7.776,22,7.5V3c0-1.104-0.897-2-2-2H2C0.894,1,0,1.912,0,3v11
				c0,1.103,0.897,2,2,2h7.5c0.276,0,0.5-0.224,0.5-0.5S9.776,15,9.5,15H2c-0.551,0-1-0.449-1-1V3C1,2.895,1.03,2.799,1.06,2.703z
				 M20,2c0.062,0,0.117,0.025,0.177,0.036L11,9.36L1.826,2.035C1.885,2.024,1.938,2,2,2H20z"/>
		</g>
	</g>
	<g id="New_icons_1_">
	</g>
</g>

</svg>
