<?xml version="1.0" encoding="utf-8"?>
<!-- Generator: Adobe Illustrator 16.0.3, SVG Export Plug-In . SVG Version: 6.00 Build 0)  -->
<!DOCTYPE svg PUBLIC "-//W3C//DTD SVG 1.1//EN" "http://www.w3.org/Graphics/SVG/1.1/DTD/svg11.dtd">
<svg version="1.1" xmlns="http://www.w3.org/2000/svg" xmlns:xlink="http://www.w3.org/1999/xlink" x="0px" y="0px" width="24px"
	 height="24px" viewBox="0 0 24 24" enable-background="new 0 0 24 24" xml:space="preserve">
<g id="Outline_Icons_1_">
	<g id="Outline_Icons">
		<g>
			<path d="M17.5,9c-3.584,0-6.5,2.916-6.5,6.5s2.916,6.5,6.5,6.5s6.5-2.916,6.5-6.5S21.084,9,17.5,9z M17.5,10
				c1.337,0,2.562,0.48,3.517,1.276l-7.741,7.74C12.48,18.062,12,16.836,12,15.5C12,12.467,14.467,10,17.5,10z M17.5,21
				c-1.337,0-2.563-0.48-3.518-1.276l7.741-7.741C22.52,12.938,23,14.163,23,15.5C23,18.533,20.533,21,17.5,21z"/>
			<path d="M1.062,2.691l9.625,7.7C10.779,10.463,10.89,10.5,11,10.5s0.221-0.037,0.312-0.109l9.625-7.7C20.97,2.79,21,2.891,21,3
				v4.5C21,7.776,21.224,8,21.5,8S22,7.776,22,7.5V3c0-1.104-0.897-2-2-2H2C0.897,1,0,1.896,0,3v11c0,1.103,0.897,2,2,2h7.5
				c0.276,0,0.5-0.224,0.5-0.5S9.776,15,9.5,15H2c-0.551,0-1-0.449-1-1V3C1,2.891,1.03,2.79,1.062,2.691z M20,2
				c0.057,0,0.105,0.023,0.159,0.032L11,9.36L1.841,2.032C1.895,2.023,1.943,2,2,2H20z"/>
		</g>
	</g>
	<g id="New_icons_1_">
	</g>
</g>

</svg>
