<?xml version="1.0" encoding="utf-8"?>
<!-- Generator: Adobe Illustrator 16.0.3, SVG Export Plug-In . SVG Version: 6.00 Build 0)  -->
<!DOCTYPE svg PUBLIC "-//W3C//DTD SVG 1.1//EN" "http://www.w3.org/Graphics/SVG/1.1/DTD/svg11.dtd">
<svg version="1.1" xmlns="http://www.w3.org/2000/svg" xmlns:xlink="http://www.w3.org/1999/xlink" x="0px" y="0px" width="24px"
	 height="24px" viewBox="0 0 24 24" enable-background="new 0 0 24 24" xml:space="preserve">
<g id="Outline_Icons">
	<g>
		<path d="M23.5,2H20V0.5C20,0.224,19.776,0,19.5,0h-3C16.224,0,16,0.224,16,0.5V2H8V0.5C8,0.224,7.776,0,7.5,0h-3
			C4.224,0,4,0.224,4,0.5V2H0.5C0.224,2,0,2.224,0,2.5v21C0,23.776,0.224,24,0.5,24h23c0.276,0,0.5-0.224,0.5-0.5v-21
			C24,2.224,23.776,2,23.5,2z M17,1h2v3h-2V1z M5,1h2v3H5V1z M4,3v1.5C4,4.776,4.224,5,4.5,5h3C7.776,5,8,4.776,8,4.5V3h8v1.5
			C16,4.776,16.224,5,16.5,5h3C19.776,5,20,4.776,20,4.5V3h3v4H1V3H4z M1,23V8h22v15H1z"/>
		<path d="M13.777,13.369l1.081-1.112c0.164-0.168,0.188-0.428,0.059-0.624l-0.929-1.408C13.896,10.084,13.739,10,13.571,10h-3.096
			c-0.168,0-0.325,0.084-0.417,0.225L9.13,11.633C9,11.829,9.024,12.089,9.188,12.257l1.065,1.096C8.638,14.036,7.5,15.637,7.5,17.5
			c0,2.481,2.019,4.5,4.5,4.5s4.5-2.019,4.5-4.5C16.5,15.65,15.377,14.06,13.777,13.369z M11.306,13l-1.12-1.152L10.745,11h2.557
			l0.56,0.848L12.741,13H11.306z M12,21c-1.93,0-3.5-1.57-3.5-3.5S10.07,14,12,14s3.5,1.57,3.5,3.5S13.93,21,12,21z"/>
		<path d="M12,15c-1.379,0-2.5,1.121-2.5,2.5S10.621,20,12,20s2.5-1.121,2.5-2.5S13.379,15,12,15z M12,19
			c-0.827,0-1.5-0.673-1.5-1.5S11.173,16,12,16s1.5,0.673,1.5,1.5S12.827,19,12,19z"/>
	</g>
</g>

</svg>
