<?xml version="1.0" encoding="utf-8"?>
<!-- Generator: Adobe Illustrator 16.0.3, SVG Export Plug-In . SVG Version: 6.00 Build 0)  -->
<!DOCTYPE svg PUBLIC "-//W3C//DTD SVG 1.1//EN" "http://www.w3.org/Graphics/SVG/1.1/DTD/svg11.dtd">
<svg version="1.1" xmlns="http://www.w3.org/2000/svg" xmlns:xlink="http://www.w3.org/1999/xlink" x="0px" y="0px" width="24px"
	 height="24px" viewBox="0 0 24 24" enable-background="new 0 0 24 24" xml:space="preserve">
<g id="Outline_Icons">
	<g>
		<path d="M23.984,12.423c-0.006-0.036-0.008-0.071-0.021-0.105c-0.015-0.039-0.039-0.07-0.063-0.104
			c-0.013-0.019-0.019-0.04-0.034-0.056c-0.002-0.002-0.005-0.003-0.006-0.005c-0.03-0.03-0.067-0.052-0.104-0.074
			c-0.02-0.012-0.036-0.029-0.057-0.038c-0.021-0.009-0.046-0.01-0.069-0.016c-0.04-0.011-0.08-0.024-0.122-0.024
			C23.505,12.002,23.503,12,23.5,12h-4c-0.276,0-0.5,0.224-0.5,0.5s0.224,0.5,0.5,0.5h2.731l-6.257,5.839l-4.662-3.73
			c-0.191-0.153-0.463-0.146-0.645,0.017l-9,8c-0.206,0.183-0.226,0.5-0.042,0.706C1.725,23.943,1.862,24,2,24
			c0.118,0,0.237-0.042,0.332-0.126l8.685-7.72l4.671,3.737c0.194,0.155,0.472,0.144,0.653-0.025L23,13.65v2.85
			c0,0.276,0.224,0.5,0.5,0.5s0.5-0.224,0.5-0.5v-4C24,12.473,23.988,12.449,23.984,12.423z"/>
		<path d="M4.775,16.949c0.075,0.04,0.155,0.059,0.235,0.059c0.179,0,0.352-0.096,0.441-0.265c0.13-0.244,0.037-0.547-0.206-0.677
			c-4.058-2.159-4.68-6.204-3.979-9.01C1.965,4.263,4.408,1,9,1c3.042,0,5.692,1.614,7.091,4.318
			c1.406,2.719,1.198,5.821-0.557,8.299c-0.159,0.226-0.106,0.538,0.119,0.697c0.225,0.159,0.537,0.107,0.697-0.119
			c1.945-2.747,2.187-6.325,0.629-9.337C15.405,1.816,12.423,0,9,0C4.746,0,1.33,2.675,0.297,6.813
			C-0.74,10.971,1.018,14.949,4.775,16.949z"/>
		<path d="M11.354,4.962c0.276,0,0.5-0.224,0.5-0.5s-0.224-0.5-0.5-0.5c-2.432,0-4.462,1.739-4.92,4.038H5
			C4.724,8,4.5,8.224,4.5,8.5S4.724,9,5,9h1.337c0.001,0.343,0.036,0.677,0.103,1H5c-0.276,0-0.5,0.224-0.5,0.5S4.724,11,5,11h1.767
			c0.779,1.763,2.539,3,4.588,3c0.276,0,0.5-0.224,0.5-0.5s-0.224-0.5-0.5-0.5c-1.478,0-2.757-0.81-3.455-2H10
			c0.276,0,0.5-0.224,0.5-0.5S10.276,10,10,10H7.482C7.397,9.679,7.339,9.348,7.337,9H10c0.276,0,0.5-0.224,0.5-0.5S10.276,8,10,8
			H7.471C7.911,6.259,9.479,4.962,11.354,4.962z"/>
	</g>
</g>

</svg>
