<?xml version="1.0" encoding="utf-8"?>
<!-- Generator: Adobe Illustrator 16.0.3, SVG Export Plug-In . SVG Version: 6.00 Build 0)  -->
<!DOCTYPE svg PUBLIC "-//W3C//DTD SVG 1.1//EN" "http://www.w3.org/Graphics/SVG/1.1/DTD/svg11.dtd">
<svg version="1.1" xmlns="http://www.w3.org/2000/svg" xmlns:xlink="http://www.w3.org/1999/xlink" x="0px" y="0px" width="24px"
	 height="24px" viewBox="0 0 24 24" enable-background="new 0 0 24 24" xml:space="preserve">
<g id="Outline_Icons_1_">
	<path d="M23.5,6C23.776,6,24,5.776,24,5.5v-5C24,0.224,23.776,0,23.5,0h-5C18.224,0,18,0.224,18,0.5S18.224,1,18.5,1h3.793
		L12,11.293L1.707,1H5.5C5.776,1,6,0.776,6,0.5S5.776,0,5.5,0h-5C0.224,0,0,0.224,0,0.5v5C0,5.776,0.224,6,0.5,6S1,5.776,1,5.5
		V1.707L11.293,12L1,22.293V18.5C1,18.224,0.776,18,0.5,18S0,18.224,0,18.5v5C0,23.776,0.224,24,0.5,24h5C5.776,24,6,23.776,6,23.5
		S5.776,23,5.5,23H1.707L12,12.707L22.293,23H18.5c-0.276,0-0.5,0.224-0.5,0.5s0.224,0.5,0.5,0.5h5c0.276,0,0.5-0.224,0.5-0.5v-5
		c0-0.276-0.224-0.5-0.5-0.5S23,18.224,23,18.5v3.793L12.707,12L23,1.707V5.5C23,5.776,23.224,6,23.5,6z"/>
</g>

</svg>
