<?xml version="1.0" encoding="utf-8"?>
<!-- Generator: Adobe Illustrator 16.0.3, SVG Export Plug-In . SVG Version: 6.00 Build 0)  -->
<!DOCTYPE svg PUBLIC "-//W3C//DTD SVG 1.1//EN" "http://www.w3.org/Graphics/SVG/1.1/DTD/svg11.dtd">
<svg version="1.1" xmlns="http://www.w3.org/2000/svg" xmlns:xlink="http://www.w3.org/1999/xlink" x="0px" y="0px" width="24px"
	 height="24px" viewBox="0 0 24 24" enable-background="new 0 0 24 24" xml:space="preserve">
<g id="Outline_Icons_1_">
	<g>
		<path d="M11.5,7.5C11.224,7.5,11,7.724,11,8v9c0,0.276,0.224,0.5,0.5,0.5S12,17.276,12,17V8C12,7.724,11.776,7.5,11.5,7.5z"/>
		<path d="M23.854,12.146l-3-3c-0.195-0.195-0.512-0.195-0.707,0s-0.195,0.512,0,0.707L22.293,12H14.5c-0.276,0-0.5,0.224-0.5,0.5
			s0.224,0.5,0.5,0.5h7.793l-2.146,2.146c-0.195,0.195-0.195,0.512,0,0.707s0.512,0.195,0.707,0l3-3
			C24.049,12.658,24.049,12.342,23.854,12.146z"/>
		<path d="M8.5,12H1.707l2.146-2.146c0.195-0.195,0.195-0.512,0-0.707s-0.512-0.195-0.707,0l-3,3c-0.195,0.195-0.195,0.512,0,0.707
			l3,3c0.195,0.195,0.512,0.195,0.707,0s0.195-0.512,0-0.707L1.707,13H8.5C8.776,13,9,12.776,9,12.5S8.776,12,8.5,12z"/>
	</g>
</g>

</svg>
