<?xml version="1.0" encoding="utf-8"?>
<!-- Generator: Adobe Illustrator 16.0.3, SVG Export Plug-In . SVG Version: 6.00 Build 0)  -->
<!DOCTYPE svg PUBLIC "-//W3C//DTD SVG 1.1//EN" "http://www.w3.org/Graphics/SVG/1.1/DTD/svg11.dtd">
<svg version="1.1" xmlns="http://www.w3.org/2000/svg" xmlns:xlink="http://www.w3.org/1999/xlink" x="0px" y="0px" width="24px"
	 height="24px" viewBox="0 0 24 24" enable-background="new 0 0 24 24" xml:space="preserve">
<g id="Outline_Icons">
	<g>
		<path d="M12,0C5.383,0,0,5.383,0,12c0,6.617,5.383,12,12,12s12-5.383,12-12C24,5.383,18.617,0,12,0z M12,23
			C5.935,23,1,18.065,1,12S5.935,1,12,1s11,4.935,11,11S18.065,23,12,23z"/>
		<path d="M12,3c-4.962,0-9,4.038-9,9s4.038,9,9,9s9-4.038,9-9S16.962,3,12,3z M13.732,15h-3.465l-1.731-3l1.732-3h3.464l1.731,3
			L13.732,15z M14.887,9h4.524C19.788,9.928,20,10.938,20,12c0,1.454-0.396,2.814-1.077,3.991L14.887,9z M18.917,8h-8.072
			l2.261-3.914C15.59,4.432,17.708,5.917,18.917,8z M12,4L12,4l-4.042,7L5.7,7.087C7.165,5.212,9.441,4,12,4z M5.077,8.009L9.113,15
			H4.589C4.212,14.072,4,13.061,4,12C4,10.546,4.396,9.186,5.077,8.009z M5.083,16h8.072l-2.26,3.915
			C8.411,19.569,6.292,18.083,5.083,16z M12,20l4.041-7l2.259,3.913C16.835,18.788,14.559,20,12,20z"/>
	</g>
</g>

</svg>
