<?xml version="1.0" encoding="utf-8"?>
<!-- Generator: Adobe Illustrator 16.0.3, SVG Export Plug-In . SVG Version: 6.00 Build 0)  -->
<!DOCTYPE svg PUBLIC "-//W3C//DTD SVG 1.1//EN" "http://www.w3.org/Graphics/SVG/1.1/DTD/svg11.dtd">
<svg version="1.1" xmlns="http://www.w3.org/2000/svg" xmlns:xlink="http://www.w3.org/1999/xlink" x="0px" y="0px" width="24px"
	 height="24px" viewBox="0 0 24 24" enable-background="new 0 0 24 24" xml:space="preserve">
<g id="Outline_Icons_1_">
	<g id="Outline_Icons">
	</g>
	<g id="New_icons_1_">
		<g>
			<path d="M16.978,16.786c-0.433-0.181-0.883-0.376-1.329-0.567c0.289-0.288,0.559-0.633,0.801-1.04
				c0.787,0.465,1.836,0.622,2.833,0.622c1.355,0,2.585-0.259,2.826-0.312c0.19-0.043,0.339-0.192,0.38-0.383
				c0.041-0.191-0.033-0.389-0.188-0.505c-0.325-0.244-0.567-1.453-0.801-2.622c-0.527-2.631-1.249-6.234-4.022-8.339
				c-0.222-0.168-0.534-0.124-0.701,0.097c-0.167,0.22-0.124,0.533,0.096,0.7c2.472,1.875,3.151,5.264,3.646,7.738
				c0.206,1.028,0.375,1.873,0.638,2.471c-1.268,0.19-3.268,0.299-4.272-0.365c0.311-0.788,0.523-1.763,0.589-2.97
				c0.326,0.117,0.669,0.189,1.027,0.189c0.276,0,0.5-0.224,0.5-0.5s-0.224-0.5-0.5-0.5c-1.721,0-3-2.297-3-3
				C15.5,7.224,15.276,7,15,7s-0.5,0.224-0.5,0.5c0,0.898,0.786,2.397,1.991,3.283c-0.09,4.869-2.656,5.645-4.204,6.105
				c-0.101,0.029-0.197,0.059-0.287,0.086c-0.09-0.027-0.187-0.057-0.287-0.086c-1.548-0.461-4.114-1.236-4.204-6.105
				C8.714,9.897,9.5,8.398,9.5,7.5C9.5,7.224,9.276,7,9,7S8.5,7.224,8.5,7.5c0,0.703-1.279,3-3,3C5.224,10.5,5,10.724,5,11
				s0.224,0.5,0.5,0.5c0.358,0,0.701-0.072,1.027-0.189c0.065,1.207,0.278,2.182,0.589,2.97c-1.005,0.664-3.004,0.556-4.272,0.365
				c0.263-0.598,0.432-1.442,0.638-2.471C3.977,9.7,4.656,6.312,7.128,4.437c0.22-0.167,0.263-0.48,0.096-0.7
				C7.057,3.516,6.744,3.472,6.523,3.64C3.75,5.744,3.028,9.348,2.501,11.979c-0.234,1.169-0.477,2.378-0.801,2.622
				c-0.156,0.116-0.229,0.313-0.188,0.505c0.041,0.19,0.189,0.34,0.38,0.383c0.24,0.054,1.471,0.312,2.826,0.312
				c0.997,0,2.046-0.157,2.833-0.622c0.242,0.407,0.512,0.752,0.801,1.04c-0.446,0.191-0.896,0.387-1.329,0.567
				C3.254,18.359,0,19.717,0,23v0.5C0,23.776,0.224,24,0.5,24h23c0.276,0,0.5-0.224,0.5-0.5V23
				C24,19.717,20.746,18.359,16.978,16.786z M12,21c2.628,0,4.697-1.356,4.95-3.142c0.338,0.142,0.67,0.281,0.991,0.419L17.083,23
				H6.917l-0.858-4.723C6.38,18.14,6.712,18,7.05,17.858C7.303,19.644,9.372,21,12,21z M11.428,17.847
				c0.15,0.045,0.29,0.086,0.414,0.128C11.893,17.991,11.947,18,12,18s0.107-0.009,0.158-0.025c0.125-0.042,0.264-0.083,0.414-0.128
				c0.612-0.183,1.411-0.425,2.188-0.919c0.419,0.183,0.83,0.356,1.24,0.529V17.5c0,1.355-1.832,2.5-4,2.5s-4-1.145-4-2.5v-0.043
				c0.41-0.173,0.821-0.347,1.24-0.529C10.017,17.422,10.815,17.664,11.428,17.847z M5.119,18.696L5.901,23H1
				C1,20.977,2.695,19.812,5.119,18.696z M18.099,23l0.783-4.304C21.305,19.812,23,20.977,23,23H18.099z"/>
			<path d="M10,10.002l-0.129-0.001c-0.398,0.004-0.809-0.006-1.105,0.288C8.589,10.464,8.5,10.704,8.5,11.002
				c0,0.276,0.226,0.473,0.502,0.473c0.254,0,0.467-0.214,0.498-0.464c0.094-0.013,0.251-0.01,0.363-0.01L10,11.002l0.137-0.001
				c0.112,0,0.269-0.003,0.363,0.01c0.004,0.271,0.227,0.491,0.5,0.491c0.276,0,0.5-0.224,0.5-0.5c0-0.298-0.089-0.538-0.266-0.713
				c-0.296-0.294-0.711-0.287-1.105-0.288L10,10.002z"/>
			<path d="M12.766,10.289c-0.176,0.175-0.266,0.415-0.266,0.713c0,0.276,0.226,0.473,0.502,0.473c0.254,0,0.467-0.214,0.498-0.464
				c0.094-0.013,0.25-0.01,0.363-0.01L14,11.002l0.137-0.001c0.113,0,0.269-0.003,0.363,0.01c0.004,0.271,0.227,0.491,0.5,0.491
				c0.276,0,0.5-0.224,0.5-0.5c0-0.298-0.089-0.538-0.266-0.713c-0.296-0.294-0.708-0.287-1.105-0.288L14,10.002l-0.129-0.001
				C13.472,10.005,13.062,9.995,12.766,10.289z"/>
			<path d="M8.271,5.944c0.166,0.085,0.367,0.07,0.52-0.037L12,3.614l3.209,2.293C15.296,5.969,15.397,6,15.5,6
				c0.078,0,0.157-0.019,0.229-0.056C15.896,5.858,16,5.688,16,5.5v-5c0-0.188-0.104-0.358-0.271-0.444
				c-0.168-0.087-0.368-0.071-0.52,0.037L12,2.386L8.791,0.093c-0.153-0.108-0.354-0.124-0.52-0.037C8.104,0.142,8,0.312,8,0.5v5
				C8,5.688,8.104,5.858,8.271,5.944z M15,1.472v3.057L12.86,3L15,1.472z M9,1.472L11.14,3L9,4.528V1.472z"/>
		</g>
	</g>
</g>

</svg>
