<?xml version="1.0" encoding="utf-8"?>
<!-- Generator: Adobe Illustrator 16.0.3, SVG Export Plug-In . SVG Version: 6.00 Build 0)  -->
<!DOCTYPE svg PUBLIC "-//W3C//DTD SVG 1.1//EN" "http://www.w3.org/Graphics/SVG/1.1/DTD/svg11.dtd">
<svg version="1.1" xmlns="http://www.w3.org/2000/svg" xmlns:xlink="http://www.w3.org/1999/xlink" x="0px" y="0px" width="24px"
	 height="24px" viewBox="0 0 24 24" enable-background="new 0 0 24 24" xml:space="preserve">
<g id="Outline_Icons">
	<g>
		<path d="M8.5,14.75C8.5,13.785,7.715,13,6.75,13H5.5C5.224,13,5,13.224,5,13.5v4.999c0,0.276,0.224,0.5,0.5,0.5s0.5-0.224,0.5-0.5
			V16.5h0.433l1.12,2.225C7.641,18.899,7.817,19,8,19c0.076,0,0.152-0.018,0.225-0.054c0.247-0.124,0.346-0.425,0.222-0.671
			L7.472,16.34C8.077,16.063,8.5,15.457,8.5,14.75z M6.75,15.5H6V14h0.75c0.414,0,0.75,0.337,0.75,0.75S7.164,15.5,6.75,15.5z"/>
		<path d="M12.479,13.356c-0.127-0.424-0.831-0.424-0.958,0l-1.5,5c-0.079,0.265,0.071,0.543,0.335,0.622
			c0.265,0.081,0.543-0.07,0.623-0.335L11.172,18h1.656l0.193,0.644C13.086,18.86,13.285,19,13.5,19
			c0.047,0,0.096-0.007,0.144-0.021c0.265-0.079,0.415-0.357,0.335-0.622L12.479,13.356z M11.472,17L12,15.24L12.528,17H11.472z"/>
		<path d="M18.5,14.75c0-0.965-0.785-1.75-1.75-1.75H15.5c-0.276,0-0.5,0.224-0.5,0.5v4.999c0,0.276,0.224,0.5,0.5,0.5
			s0.5-0.224,0.5-0.5V16.5h0.433l1.12,2.225C17.641,18.899,17.817,19,18,19c0.076,0,0.152-0.018,0.225-0.054
			c0.247-0.124,0.346-0.425,0.222-0.671l-0.975-1.936C18.077,16.063,18.5,15.457,18.5,14.75z M16.75,15.5H16V14h0.75
			c0.414,0,0.75,0.337,0.75,0.75S17.164,15.5,16.75,15.5z"/>
		<path d="M21.961,6.307c-0.025-0.061-0.062-0.115-0.108-0.162l-5.999-5.999c-0.046-0.046-0.101-0.082-0.162-0.108
			c-0.061-0.024-0.125-0.038-0.192-0.038h-13c-0.276,0-0.5,0.224-0.5,0.5v23c0,0.276,0.224,0.5,0.5,0.5h19
			c0.276,0,0.5-0.224,0.5-0.5v-17C22,6.432,21.986,6.367,21.961,6.307z M16,1.706l4.293,4.293H16V1.706z M3,22.999v-22h12v5.5
			c0,0.276,0.224,0.5,0.5,0.5H21v16H3z"/>
	</g>
</g>

</svg>
