<?xml version="1.0" encoding="utf-8"?>
<!-- Generator: Adobe Illustrator 16.0.3, SVG Export Plug-In . SVG Version: 6.00 Build 0)  -->
<!DOCTYPE svg PUBLIC "-//W3C//DTD SVG 1.1//EN" "http://www.w3.org/Graphics/SVG/1.1/DTD/svg11.dtd">
<svg version="1.1" xmlns="http://www.w3.org/2000/svg" xmlns:xlink="http://www.w3.org/1999/xlink" x="0px" y="0px" width="24px"
	 height="24px" viewBox="0 0 24 24" enable-background="new 0 0 24 24" xml:space="preserve">
<g id="Outline_Icons">
	<g>
		<path d="M23.855,14.644l-2.5-2.5c-0.188-0.187-0.52-0.187-0.707,0l-7.502,7.503c-0.058,0.057-0.093,0.126-0.116,0.198
			c-0.002,0.007-0.009,0.011-0.011,0.018l-1,3.5c-0.05,0.174-0.002,0.362,0.127,0.491C12.241,23.949,12.369,24,12.5,24
			c0.046,0,0.092-0.006,0.138-0.019l3.5-1c0.008-0.002,0.013-0.009,0.02-0.012c0.071-0.023,0.14-0.059,0.196-0.116l7.502-7.502
			C24.051,15.156,24.051,14.839,23.855,14.644z M16,21.793L14.207,20l4.795-4.795l1.793,1.792L16,21.793z M13.747,20.954
			l1.299,1.298l-1.818,0.52L13.747,20.954z M21.502,16.291l-1.793-1.793l1.293-1.292l1.793,1.792L21.502,16.291z"/>
		<path d="M3,7c0,1.103,0.897,2,2,2s2-0.897,2-2c0-1.103-0.897-2-2-2S3,5.897,3,7z M6,7c0,0.551-0.448,1-1,1S4,7.551,4,7
			s0.448-1,1-1S6,6.449,6,7z"/>
		<path d="M10.5,21H1V1h10v4.5C11,5.776,11.224,6,11.5,6H16v7.5c0,0.276,0.224,0.5,0.5,0.5s0.5-0.224,0.5-0.5v-8
			c0-0.067-0.014-0.132-0.039-0.192c-0.025-0.061-0.062-0.116-0.108-0.162l-4.998-4.999c-0.046-0.045-0.101-0.083-0.162-0.107
			C11.632,0.014,11.566,0,11.5,0h-11C0.224,0,0,0.224,0,0.5v21C0,21.776,0.224,22,0.5,22h10c0.276,0,0.5-0.224,0.5-0.5
			S10.776,21,10.5,21z M12,1.707L15.293,5H12V1.707z"/>
		<path d="M12.658,13.47c0.259-0.096,0.391-0.384,0.295-0.643l-1.484-4c-0.068-0.184-0.237-0.311-0.433-0.325
			c-0.217-0.016-0.381,0.087-0.475,0.259l-2.681,4.913l-1.527-1.527c-0.113-0.114-0.275-0.166-0.434-0.14s-0.295,0.126-0.367,0.27
			l-2.5,5c-0.077,0.155-0.069,0.339,0.021,0.486C3.166,17.911,3.327,18,3.5,18h5.46c0.276,0,0.5-0.224,0.5-0.5S9.236,17,8.96,17
			H4.309l1.828-3.656l1.51,1.509c0.111,0.111,0.271,0.165,0.425,0.142c0.156-0.022,0.292-0.117,0.367-0.256l2.475-4.536l1.103,2.971
			C12.112,13.434,12.398,13.566,12.658,13.47z"/>
	</g>
</g>

</svg>
