<?xml version="1.0" encoding="utf-8"?>
<!-- Generator: Adobe Illustrator 16.0.3, SVG Export Plug-In . SVG Version: 6.00 Build 0)  -->
<!DOCTYPE svg PUBLIC "-//W3C//DTD SVG 1.1//EN" "http://www.w3.org/Graphics/SVG/1.1/DTD/svg11.dtd">
<svg version="1.1" xmlns="http://www.w3.org/2000/svg" xmlns:xlink="http://www.w3.org/1999/xlink" x="0px" y="0px" width="24px"
	 height="24px" viewBox="0 0 24 24" enable-background="new 0 0 24 24" xml:space="preserve">
<g id="Outline_Icons">
	<g>
		<path d="M17.5,11c-3.584,0-6.5,2.916-6.5,6.5c0,3.584,2.916,6.5,6.5,6.5s6.5-2.916,6.5-6.5C24,13.916,21.084,11,17.5,11z M17.5,23
			c-3.033,0-5.5-2.467-5.5-5.5s2.467-5.5,5.5-5.5s5.5,2.467,5.5,5.5S20.533,23,17.5,23z"/>
		<path d="M20,17h-5c-0.276,0-0.5,0.224-0.5,0.5S14.724,18,15,18h5c0.276,0,0.5-0.224,0.5-0.5S20.276,17,20,17z"/>
		<path d="M10.5,21H1V1h10v4.5C11,5.776,11.224,6,11.5,6H16v3.5c0,0.276,0.224,0.5,0.5,0.5S17,9.776,17,9.5V5.502l0,0
			C17,5.5,17,5.5,17,5.5c0-0.054-0.015-0.103-0.03-0.151c-0.004-0.013-0.003-0.027-0.008-0.039
			c-0.026-0.064-0.066-0.121-0.115-0.169l-4.993-4.995c-0.046-0.045-0.101-0.083-0.162-0.107C11.632,0.014,11.567,0,11.5,0h-11
			C0.224,0,0,0.224,0,0.5v21C0,21.776,0.224,22,0.5,22h10c0.276,0,0.5-0.224,0.5-0.5S10.776,21,10.5,21z M12,1.708L15.291,5H12
			V1.708z"/>
	</g>
</g>

</svg>
