<?xml version="1.0" encoding="utf-8"?>
<!-- Generator: Adobe Illustrator 16.0.3, SVG Export Plug-In . SVG Version: 6.00 Build 0)  -->
<!DOCTYPE svg PUBLIC "-//W3C//DTD SVG 1.1//EN" "http://www.w3.org/Graphics/SVG/1.1/DTD/svg11.dtd">
<svg version="1.1" xmlns="http://www.w3.org/2000/svg" xmlns:xlink="http://www.w3.org/1999/xlink" x="0px" y="0px" width="24px"
	 height="24px" viewBox="0 0 24 24" enable-background="new 0 0 24 24" xml:space="preserve">
<g id="Outline_Icons">
	<g>
		<path d="M23.5,6h-23C0.224,6,0,6.224,0,6.5v12C0,18.776,0.224,19,0.5,19h23c0.276,0,0.5-0.224,0.5-0.5v-12
			C24,6.224,23.776,6,23.5,6z M23,18H1V7h22V18z"/>
		<path d="M5.276,15.947C5.349,15.983,5.425,16,5.5,16c0.183,0,0.359-0.102,0.447-0.276L7,13.618l1.053,2.105
			C8.141,15.898,8.317,16,8.5,16c0.075,0,0.151-0.017,0.224-0.053c0.247-0.124,0.347-0.424,0.224-0.671L7.56,12.5l1.388-2.776
			C9.07,9.477,8.971,9.177,8.724,9.053C8.478,8.931,8.177,9.029,8.053,9.276L7,11.382L5.947,9.276
			C5.823,9.029,5.523,8.93,5.276,9.053C5.029,9.177,4.93,9.477,5.053,9.724L6.441,12.5l-1.389,2.776
			C4.93,15.523,5.029,15.823,5.276,15.947z"/>
		<path d="M10.5,16c0.276,0,0.5-0.224,0.5-0.5v-4.349l1.084,1.626c0.186,0.277,0.646,0.277,0.832,0L14,11.151V15.5
			c0,0.276,0.224,0.5,0.5,0.5s0.5-0.224,0.5-0.5v-6c0-0.221-0.145-0.415-0.355-0.479c-0.214-0.065-0.438,0.019-0.561,0.201
			L12.5,11.599l-1.584-2.376c-0.122-0.183-0.348-0.266-0.561-0.201C10.145,9.085,10,9.279,10,9.5v6C10,15.776,10.224,16,10.5,16z"/>
		<path d="M16.52,16H19c0.276,0,0.5-0.224,0.5-0.5S19.276,15,19,15h-1.98V9.5c0-0.276-0.224-0.5-0.5-0.5s-0.5,0.224-0.5,0.5v6
			C16.02,15.776,16.243,16,16.52,16z"/>
	</g>
</g>

</svg>
