<?xml version="1.0" encoding="utf-8"?>
<!-- Generator: Adobe Illustrator 16.0.3, SVG Export Plug-In . SVG Version: 6.00 Build 0)  -->
<!DOCTYPE svg PUBLIC "-//W3C//DTD SVG 1.1//EN" "http://www.w3.org/Graphics/SVG/1.1/DTD/svg11.dtd">
<svg version="1.1" xmlns="http://www.w3.org/2000/svg" xmlns:xlink="http://www.w3.org/1999/xlink" x="0px" y="0px" width="24px"
	 height="24px" viewBox="0 0 24 24" enable-background="new 0 0 24 24" xml:space="preserve">
<g id="Outline_Icons">
	<g>
		<path d="M23.73,11.725c-0.164-0.086-0.363-0.074-0.518,0.033c-1.772,1.242-3.305,1.224-4.315-0.066
			c-0.189-0.242-0.605-0.242-0.795,0c-1.011,1.292-2.537,1.311-4.315,0.066c-0.153-0.107-0.354-0.119-0.518-0.033
			C13.104,11.811,13,11.982,13,12.168V19.5c0,0.044,0.006,0.089,0.018,0.132c0.034,0.125,0.895,3.102,5.348,4.35
			C18.409,23.994,18.455,24,18.5,24s0.091-0.006,0.135-0.018c4.453-1.248,5.313-4.224,5.348-4.35C23.994,19.589,24,19.544,24,19.5
			v-7.332C24,11.982,23.896,11.811,23.73,11.725z M23,19.423c-0.129,0.371-1.02,2.533-4.5,3.557c-3.491-1.026-4.369-3.175-4.5-3.557
			v-6.359c1.719,0.921,3.343,0.788,4.5-0.324c1.157,1.109,2.787,1.242,4.5,0.324V19.423z"/>
		<path d="M19,15c0-0.276-0.224-0.5-0.5-0.5S18,14.724,18,15v2h-2c-0.276,0-0.5,0.224-0.5,0.5S15.724,18,16,18h2v2
			c0,0.276,0.224,0.5,0.5,0.5S19,20.276,19,20v-2h2c0.276,0,0.5-0.224,0.5-0.5S21.276,17,21,17h-2V15z"/>
		<path d="M10.5,21L1,21V1h10v4.5C11,5.776,11.224,6,11.5,6H16v3.5c0,0.276,0.224,0.5,0.5,0.5S17,9.776,17,9.5v-4
			c0-0.067-0.014-0.132-0.039-0.192c-0.025-0.061-0.062-0.116-0.108-0.162l-4.998-4.999c-0.046-0.045-0.101-0.083-0.162-0.107
			C11.632,0.014,11.566,0,11.5,0h-11C0.224,0,0,0.224,0,0.5v21C0,21.776,0.224,22,0.5,22l10,0c0.276,0,0.5-0.224,0.5-0.5
			C11,21.225,10.776,21,10.5,21z M12,1.707L15.293,5H12V1.707z"/>
		<path d="M8.82,6.112c-0.149-0.124-0.356-0.15-0.532-0.068C8.112,6.125,8,6.303,8,6.496v5.559C7.472,11.712,6.779,11.5,6,11.5
			c-1.683,0-3,0.96-3,2.187c0,1.227,1.317,2.187,3,2.187s3-0.96,3-2.187c0-0.039-0.013-0.074-0.015-0.112
			C8.989,13.549,9,13.526,9,13.5V7.564l2.18,1.82c0.212,0.176,0.527,0.149,0.704-0.064c0.177-0.212,0.148-0.527-0.063-0.704
			L8.82,6.112z M6,14.874c-1.084,0-2-0.543-2-1.187C4,13.044,4.916,12.5,6,12.5s2,0.544,2,1.187C8,14.33,7.084,14.874,6,14.874z"/>
	</g>
</g>

</svg>
