<?xml version="1.0" encoding="utf-8"?>
<!-- Generator: Adobe Illustrator 16.0.3, SVG Export Plug-In . SVG Version: 6.00 Build 0)  -->
<!DOCTYPE svg PUBLIC "-//W3C//DTD SVG 1.1//EN" "http://www.w3.org/Graphics/SVG/1.1/DTD/svg11.dtd">
<svg version="1.1" xmlns="http://www.w3.org/2000/svg" xmlns:xlink="http://www.w3.org/1999/xlink" x="0px" y="0px" width="24px"
	 height="24px" viewBox="0 0 24 24" enable-background="new 0 0 24 24" xml:space="preserve">
<g id="Outline_Icons">
	<g>
		<path d="M17.5,11c-3.584,0-6.5,2.916-6.5,6.5s2.916,6.5,6.5,6.5s6.5-2.916,6.5-6.5S21.084,11,17.5,11z M17.5,23
			c-3.032,0-5.5-2.468-5.5-5.5c0-3.031,2.468-5.5,5.5-5.5s5.5,2.469,5.5,5.5C23,20.532,20.532,23,17.5,23z"/>
		<path d="M17.5,16.5c-0.276,0-0.5,0.224-0.5,0.5v4c0,0.276,0.224,0.5,0.5,0.5S18,21.276,18,21v-4C18,16.724,17.776,16.5,17.5,16.5z
			"/>
		<path d="M17.5,14c-0.413,0-0.75,0.337-0.75,0.75s0.337,0.75,0.75,0.75s0.75-0.337,0.75-0.75S17.913,14,17.5,14z M17.25,14.75
			c0-0.138,0.112-0.25,0.25-0.25s0.25,0.112,0.25,0.25C17.75,15.025,17.25,15.025,17.25,14.75z"/>
		<path d="M10.5,21H1V1h10v4.5C11,5.776,11.224,6,11.5,6H16v3.5c0,0.276,0.224,0.5,0.5,0.5S17,9.776,17,9.5v-4
			c0-0.066-0.014-0.132-0.039-0.192c-0.025-0.062-0.062-0.116-0.108-0.161l-4.998-5c-0.046-0.045-0.101-0.082-0.162-0.107
			C11.632,0.014,11.566,0,11.5,0h-11C0.224,0,0,0.224,0,0.5v21C0,21.776,0.224,22,0.5,22h10c0.276,0,0.5-0.224,0.5-0.5
			S10.776,21,10.5,21z M12,1.707L15.293,5H12V1.707z"/>
		<path d="M7.5,7h-2C5.224,7,5,7.224,5,7.5V12H3.5C3.224,12,3,12.224,3,12.5V16H2.5C2.224,16,2,16.224,2,16.5S2.224,17,2.5,17h1h2h2
			h2c0.276,0,0.5-0.224,0.5-0.5v-6c0-0.276-0.224-0.5-0.5-0.5H8V7.5C8,7.224,7.776,7,7.5,7z M4,13h1v3H4V13z M6,12.5V8h1v2.5V16H6
			V12.5z M9,11v5H8v-5H9z"/>
	</g>
</g>

</svg>
