<?xml version="1.0" encoding="utf-8"?>
<!-- Generator: Adobe Illustrator 16.0.3, SVG Export Plug-In . SVG Version: 6.00 Build 0)  -->
<!DOCTYPE svg PUBLIC "-//W3C//DTD SVG 1.1//EN" "http://www.w3.org/Graphics/SVG/1.1/DTD/svg11.dtd">
<svg version="1.1" xmlns="http://www.w3.org/2000/svg" xmlns:xlink="http://www.w3.org/1999/xlink" x="0px" y="0px" width="24px"
	 height="24px" viewBox="0 0 24 24" enable-background="new 0 0 24 24" xml:space="preserve">
<g id="Outline_Icons">
	<g>
		<path d="M24,15c0-0.276-0.224-0.5-0.5-0.5S23,14.724,23,15v0.77C22.013,14.695,20.538,14,19,14c-2.198,0-4.289,1.402-4.972,3.333
			c-0.092,0.26,0.045,0.546,0.305,0.638c0.262,0.089,0.546-0.044,0.639-0.305C15.509,16.146,17.24,15,19,15
			c1.49,0,2.951,0.826,3.692,2H21c-0.276,0-0.5,0.224-0.5,0.5S20.724,18,21,18h2.5c0.056,0,0.111-0.009,0.167-0.028
			c0.005-0.002,0.009-0.006,0.014-0.007c0.033-0.014,0.062-0.036,0.091-0.056c0.024-0.016,0.052-0.029,0.072-0.048
			c0.023-0.022,0.039-0.051,0.058-0.077s0.04-0.049,0.053-0.078c0.012-0.026,0.014-0.055,0.021-0.083
			c0.009-0.036,0.021-0.07,0.021-0.108c0-0.005,0.003-0.01,0.003-0.015V15z"/>
		<path d="M23.667,20.028c-0.261-0.089-0.547,0.045-0.639,0.305C22.491,21.854,20.76,23,19,23c-1.489,0-2.951-0.826-3.692-2H17
			c0.276,0,0.5-0.224,0.5-0.5S17.276,20,17,20h-2.5c-0.028,0-0.053,0.012-0.079,0.016c-0.029,0.004-0.059,0.002-0.088,0.012
			c-0.005,0.002-0.009,0.006-0.014,0.008c-0.033,0.014-0.062,0.035-0.091,0.055c-0.024,0.016-0.052,0.029-0.072,0.049
			c-0.023,0.022-0.039,0.05-0.058,0.077s-0.039,0.049-0.053,0.079c-0.012,0.025-0.014,0.054-0.021,0.082
			c-0.009,0.036-0.021,0.071-0.021,0.109c0,0.005-0.003,0.009-0.003,0.014V23c0,0.276,0.224,0.5,0.5,0.5S15,23.276,15,23v-0.77
			c0.987,1.074,2.462,1.77,4,1.77c2.198,0,4.289-1.402,4.972-3.333C24.063,20.407,23.927,20.121,23.667,20.028z"/>
		<path d="M11.5,21H1V1h10v4.5C11,5.776,11.224,6,11.5,6H16v5.5c0,0.276,0.224,0.5,0.5,0.5s0.5-0.224,0.5-0.5v-6
			c0-0.067-0.014-0.132-0.039-0.192c-0.025-0.061-0.062-0.116-0.108-0.162l-4.998-4.999c-0.046-0.045-0.101-0.083-0.162-0.107
			C11.632,0.014,11.566,0,11.5,0h-11C0.224,0,0,0.224,0,0.5v21C0,21.776,0.224,22,0.5,22h11c0.276,0,0.5-0.224,0.5-0.5
			S11.776,21,11.5,21z M12,1.707L15.293,5H12V1.707z"/>
		<path d="M9,7.564l2.18,1.82c0.212,0.176,0.527,0.149,0.704-0.064c0.177-0.212,0.148-0.527-0.063-0.704l-3-2.504
			c-0.149-0.124-0.356-0.15-0.532-0.068C8.112,6.125,8,6.303,8,6.496v5.559C7.472,11.712,6.779,11.5,6,11.5c-1.683,0-3,0.96-3,2.187
			c0,1.227,1.317,2.187,3,2.187s3-0.96,3-2.187c0-0.039-0.013-0.074-0.015-0.112C8.989,13.549,9,13.526,9,13.5V7.564z M6,14.874
			c-1.084,0-2-0.543-2-1.187C4,13.044,4.916,12.5,6,12.5s2,0.544,2,1.187C8,14.33,7.084,14.874,6,14.874z"/>
	</g>
</g>

</svg>
