<?xml version="1.0" encoding="utf-8"?>
<!-- Generator: Adobe Illustrator 16.0.3, SVG Export Plug-In . SVG Version: 6.00 Build 0)  -->
<!DOCTYPE svg PUBLIC "-//W3C//DTD SVG 1.1//EN" "http://www.w3.org/Graphics/SVG/1.1/DTD/svg11.dtd">
<svg version="1.1" xmlns="http://www.w3.org/2000/svg" xmlns:xlink="http://www.w3.org/1999/xlink" x="0px" y="0px" width="24px"
	 height="24px" viewBox="0 0 24 24" enable-background="new 0 0 24 24" xml:space="preserve">
<g id="Outline_Icons">
	<g>
		<path d="M23.5,6h-23C0.224,6,0,6.224,0,6.5v12C0,18.776,0.224,19,0.5,19h23c0.276,0,0.5-0.224,0.5-0.5v-12
			C24,6.224,23.776,6,23.5,6z M23,18H1V7h22V18z"/>
		<path d="M7,15c-0.552,0-1-0.449-1-1c0-0.276-0.224-0.5-0.5-0.5S5,13.724,5,14c0,1.103,0.897,2,2,2s2-0.897,2-2
			c0-0.6-0.271-1.133-0.691-1.5C8.729,12.133,9,11.6,9,11c0-1.103-0.897-2-2-2s-2,0.897-2,2c0,0.276,0.224,0.5,0.5,0.5
			S6,11.276,6,11c0-0.551,0.448-1,1-1s1,0.449,1,1s-0.448,1-1,1c-0.276,0-0.5,0.224-0.5,0.5S6.724,13,7,13c0.552,0,1,0.449,1,1
			S7.552,15,7,15z"/>
		<path d="M10.5,16h1.438C13.829,16,15,14.183,15,12.5c0-1.682-1.171-3.499-3.062-3.499H10.5c-0.276,0-0.5,0.224-0.5,0.5V15.5
			C10,15.776,10.224,16,10.5,16z M11,10.001h0.938c1.233,0,2.062,1.292,2.062,2.499c0,1.208-0.829,2.5-2.062,2.5H11V10.001z"/>
		<path d="M17.586,12.824c0.111,0.046,0.895,0.563,0.895,1.349c0,0.457-0.332,0.827-0.74,0.827c-0.39,0-0.716-0.339-0.741-0.771
			c-0.017-0.275-0.263-0.487-0.528-0.469c-0.276,0.016-0.486,0.253-0.47,0.529C16.058,15.248,16.821,16,17.74,16
			c0.96,0,1.74-0.819,1.74-1.827c0-1.297-1.146-2.175-1.597-2.303C17.793,11.843,17,11.587,17,10.825C17,10.37,17.333,10,17.742,10
			c0.389,0,0.714,0.338,0.739,0.771c0.017,0.275,0.243,0.478,0.528,0.469c0.276-0.016,0.486-0.253,0.47-0.529
			C19.423,9.752,18.659,9,17.742,9C16.781,9,16,9.819,16,10.825C16,11.956,16.862,12.611,17.586,12.824z"/>
	</g>
</g>

</svg>
