<?xml version="1.0" encoding="utf-8"?>
<!-- Generator: Adobe Illustrator 16.0.3, SVG Export Plug-In . SVG Version: 6.00 Build 0)  -->
<!DOCTYPE svg PUBLIC "-//W3C//DTD SVG 1.1//EN" "http://www.w3.org/Graphics/SVG/1.1/DTD/svg11.dtd">
<svg version="1.1" xmlns="http://www.w3.org/2000/svg" xmlns:xlink="http://www.w3.org/1999/xlink" x="0px" y="0px" width="24px"
	 height="24px" viewBox="0 0 24 24" enable-background="new 0 0 24 24" xml:space="preserve">
<g id="Outline_Icons">
	<g>
		<path d="M23.5,6h-23C0.224,6,0,6.224,0,6.5v12C0,18.776,0.224,19,0.5,19h23c0.276,0,0.5-0.224,0.5-0.5v-12
			C24,6.224,23.776,6,23.5,6z M23,18H1V7h22V18z"/>
		<path d="M5,10h1v5.5C6,15.776,6.224,16,6.5,16S7,15.776,7,15.5V10h1c0.276,0,0.5-0.224,0.5-0.5S8.276,9,8,9H5
			C4.724,9,4.5,9.224,4.5,9.5S4.724,10,5,10z"/>
		<path d="M16.02,10H17v5.5c0,0.276,0.224,0.5,0.5,0.5s0.5-0.224,0.5-0.5V10h1c0.276,0,0.5-0.224,0.5-0.5S19.276,9,19,9h-2.98
			c-0.276,0-0.5,0.224-0.5,0.5S15.743,10,16.02,10z"/>
		<path d="M10.276,15.947C10.348,15.983,10.424,16,10.5,16c0.184,0,0.36-0.102,0.448-0.276L12,13.619l1.053,2.104
			C13.141,15.898,13.317,16,13.5,16c0.075,0,0.151-0.017,0.223-0.053c0.247-0.124,0.347-0.424,0.224-0.671L12.559,12.5l1.388-2.776
			c0.124-0.247,0.023-0.547-0.224-0.671c-0.247-0.124-0.547-0.023-0.671,0.224L12,11.382l-1.053-2.105
			c-0.124-0.247-0.424-0.348-0.671-0.224c-0.247,0.124-0.347,0.424-0.224,0.671l1.388,2.776l-1.388,2.776
			C9.929,15.523,10.029,15.823,10.276,15.947z"/>
	</g>
</g>

</svg>
