<?xml version="1.0" encoding="utf-8"?>
<!-- Generator: Adobe Illustrator 16.0.3, SVG Export Plug-In . SVG Version: 6.00 Build 0)  -->
<!DOCTYPE svg PUBLIC "-//W3C//DTD SVG 1.1//EN" "http://www.w3.org/Graphics/SVG/1.1/DTD/svg11.dtd">
<svg version="1.1" xmlns="http://www.w3.org/2000/svg" xmlns:xlink="http://www.w3.org/1999/xlink" x="0px" y="0px" width="24px"
	 height="24px" viewBox="0 0 24 24" enable-background="new 0 0 24 24" xml:space="preserve">
<g id="Outline_Icons">
	<g>
		<path d="M12,13c-0.502,0-0.978,0.104-1.421,0.273L7.9,9.7C7.798,9.564,7.637,9.492,7.463,9.502
			C7.293,9.515,7.141,9.613,7.06,9.763l-3.5,6.5c-0.083,0.155-0.079,0.343,0.011,0.493C3.661,16.908,3.824,17,4,17h4
			c0,2.206,1.794,4,4,4s4-1.794,4-4S14.206,13,12,13z M4.837,16l2.732-5.074l2.117,2.823C8.933,14.287,8.381,15.079,8.142,16H4.837z
			 M12,20c-1.654,0-3-1.346-3-3s1.346-3,3-3s3,1.346,3,3S13.654,20,12,20z"/>
		<path d="M19.961,6.308c-0.025-0.061-0.062-0.116-0.108-0.162l-5.998-5.999c-0.046-0.045-0.101-0.083-0.162-0.107
			C13.632,0.014,13.566,0,13.5,0h-13C0.224,0,0,0.224,0,0.5v23C0,23.776,0.224,24,0.5,24h19c0.276,0,0.5-0.224,0.5-0.5v-17
			C20,6.433,19.986,6.368,19.961,6.308z M14,1.707L18.293,6H14V1.707z M1,23V1h12v5.5C13,6.776,13.224,7,13.5,7H19v16H1z"/>
	</g>
</g>

</svg>
