<?xml version="1.0" encoding="utf-8"?>
<!-- Generator: Adobe Illustrator 16.0.3, SVG Export Plug-In . SVG Version: 6.00 Build 0)  -->
<!DOCTYPE svg PUBLIC "-//W3C//DTD SVG 1.1//EN" "http://www.w3.org/Graphics/SVG/1.1/DTD/svg11.dtd">
<svg version="1.1" xmlns="http://www.w3.org/2000/svg" xmlns:xlink="http://www.w3.org/1999/xlink" x="0px" y="0px" width="24px"
	 height="24px" viewBox="0 0 24 24" enable-background="new 0 0 24 24" xml:space="preserve">
<g id="Outline_Icons">
	<g>
		<path d="M23.5,6h-23C0.224,6,0,6.224,0,6.5v12C0,18.776,0.224,19,0.5,19h23c0.276,0,0.5-0.224,0.5-0.5v-12
			C24,6.224,23.776,6,23.5,6z M23,18H1V7h22V18z"/>
		<path d="M15.276,15.947C15.349,15.983,15.425,16,15.5,16c0.183,0,0.359-0.101,0.447-0.276L17,13.619l1.053,2.105
			C18.141,15.899,18.317,16,18.5,16c0.075,0,0.151-0.017,0.224-0.053c0.247-0.124,0.347-0.424,0.224-0.671L17.56,12.5l1.388-2.776
			c0.123-0.247,0.023-0.547-0.224-0.671c-0.247-0.122-0.546-0.023-0.671,0.224L17,11.382l-1.053-2.105
			c-0.124-0.248-0.423-0.347-0.671-0.224c-0.247,0.124-0.347,0.424-0.224,0.671l1.389,2.776l-1.389,2.776
			C14.93,15.523,15.029,15.824,15.276,15.947z"/>
		<path d="M4.5,16C4.776,16,5,15.776,5,15.5v-4.349l1.084,1.626c0.186,0.278,0.646,0.278,0.832,0L8,11.151V15.5
			C8,15.776,8.224,16,8.5,16S9,15.776,9,15.5v-6c0-0.22-0.145-0.414-0.355-0.478C8.432,8.956,8.206,9.04,8.084,9.223L6.5,11.599
			L4.916,9.223C4.794,9.04,4.569,8.958,4.355,9.022C4.145,9.086,4,9.28,4,9.5v6C4,15.776,4.224,16,4.5,16z"/>
		<path d="M10.379,15.985c0.271,0.065,0.539-0.096,0.606-0.364l0.279-1.118h1.471l0.279,1.118C13.071,15.849,13.275,16,13.5,16
			c0.04,0,0.081-0.005,0.121-0.015c0.269-0.067,0.431-0.338,0.364-0.606l-1.5-6c-0.111-0.445-0.859-0.445-0.971,0l-1.5,6
			C9.948,15.646,10.11,15.918,10.379,15.985z M12,11.562l0.485,1.941h-0.971L12,11.562z"/>
	</g>
</g>

</svg>
