<?xml version="1.0" encoding="utf-8"?>
<!-- Generator: Adobe Illustrator 16.0.3, SVG Export Plug-In . SVG Version: 6.00 Build 0)  -->
<!DOCTYPE svg PUBLIC "-//W3C//DTD SVG 1.1//EN" "http://www.w3.org/Graphics/SVG/1.1/DTD/svg11.dtd">
<svg version="1.1" xmlns="http://www.w3.org/2000/svg" xmlns:xlink="http://www.w3.org/1999/xlink" x="0px" y="0px" width="24px"
	 height="24px" viewBox="0 0 24 24" enable-background="new 0 0 24 24" xml:space="preserve">
<g id="Outline_Icons">
	<g>
		<path d="M13.5,13h-2c-0.276,0-0.5,0.224-0.5,0.5s0.224,0.5,0.5,0.5H12v4.5c0,0.276,0.224,0.5,0.5,0.5s0.5-0.224,0.5-0.5V14h0.5
			c0.276,0,0.5-0.224,0.5-0.5S13.776,13,13.5,13z"/>
		<path d="M18,13h-2.5c-0.276,0-0.5,0.224-0.5,0.5v5c0,0.276,0.224,0.5,0.5,0.5s0.5-0.224,0.5-0.5V16h1c0.276,0,0.5-0.224,0.5-0.5
			S17.276,15,17,15h-1v-1h2c0.276,0,0.5-0.224,0.5-0.5S18.276,13,18,13z"/>
		<path d="M21.961,6.308c-0.025-0.061-0.062-0.116-0.108-0.162l-5.998-5.999c-0.046-0.045-0.101-0.083-0.162-0.107
			C15.632,0.014,15.566,0,15.5,0h-13C2.224,0,2,0.224,2,0.5v23C2,23.776,2.224,24,2.5,24h19c0.276,0,0.5-0.224,0.5-0.5v-17
			C22,6.433,21.986,6.368,21.961,6.308z M16,1.707L20.293,6H16V1.707z M3,23V1h12v5.5C15,6.776,15.224,7,15.5,7H21v16H3z"/>
		<path d="M8,13c-2,0-2,2.102-2,3s0,3,2,3s2-2.102,2-3S10,13,8,13z M8,18c-0.547,0-1-0.15-1-2s0.453-2,1-2s1,0.15,1,2S8.547,18,8,18
			z"/>
	</g>
</g>

</svg>
