<?xml version="1.0" encoding="utf-8"?>
<!-- Generator: Adobe Illustrator 16.0.3, SVG Export Plug-In . SVG Version: 6.00 Build 0)  -->
<!DOCTYPE svg PUBLIC "-//W3C//DTD SVG 1.1//EN" "http://www.w3.org/Graphics/SVG/1.1/DTD/svg11.dtd">
<svg version="1.1" xmlns="http://www.w3.org/2000/svg" xmlns:xlink="http://www.w3.org/1999/xlink" x="0px" y="0px" width="24px"
	 height="24px" viewBox="0 0 24 24" enable-background="new 0 0 24 24" xml:space="preserve">
<g id="Outline_Icons">
	<g>
		<path d="M17.5,11c-3.584,0-6.5,2.916-6.5,6.5c0,3.584,2.916,6.5,6.5,6.5s6.5-2.916,6.5-6.5C24,13.916,21.084,11,17.5,11z M17.5,23
			c-3.033,0-5.5-2.467-5.5-5.5s2.467-5.5,5.5-5.5s5.5,2.467,5.5,5.5S20.533,23,17.5,23z"/>
		<path d="M20.146,15.146L16.5,18.793l-1.646-1.646c-0.195-0.195-0.512-0.195-0.707,0s-0.195,0.512,0,0.707l2,2
			C16.244,19.951,16.372,20,16.5,20s0.256-0.049,0.354-0.146l4-4c0.195-0.195,0.195-0.512,0-0.707S20.342,14.951,20.146,15.146z"/>
		<path d="M3.5,7H8c0.276,0,0.5-0.224,0.5-0.5S8.276,6,8,6H3.5C3.224,6,3,6.224,3,6.5S3.224,7,3.5,7z"/>
		<path d="M12,9.5C12,9.224,11.776,9,11.5,9h-8C3.224,9,3,9.224,3,9.5S3.224,10,3.5,10h8C11.776,10,12,9.776,12,9.5z"/>
		<path d="M10,12.5c0-0.276-0.224-0.5-0.5-0.5h-6C3.224,12,3,12.224,3,12.5S3.224,13,3.5,13h6C9.776,13,10,12.776,10,12.5z"/>
		<path d="M3.5,15C3.224,15,3,15.224,3,15.5S3.224,16,3.5,16h5C8.776,16,9,15.776,9,15.5S8.776,15,8.5,15H3.5z"/>
		<path d="M10.5,21H1V1h10v4.5C11,5.776,11.224,6,11.5,6H16v3.5c0,0.276,0.224,0.5,0.5,0.5S17,9.776,17,9.5v-4
			c0-0.067-0.014-0.132-0.039-0.192c-0.025-0.061-0.062-0.116-0.108-0.162l-4.999-4.999c-0.046-0.045-0.101-0.083-0.162-0.107
			C11.632,0.014,11.567,0,11.5,0h-11C0.224,0,0,0.224,0,0.5v21C0,21.776,0.224,22,0.5,22h10c0.276,0,0.5-0.224,0.5-0.5
			S10.776,21,10.5,21z M12,1.707L15.293,5H12V1.707z"/>
	</g>
</g>

</svg>
