<?xml version="1.0" encoding="utf-8"?>
<!-- Generator: Adobe Illustrator 16.0.3, SVG Export Plug-In . SVG Version: 6.00 Build 0)  -->
<!DOCTYPE svg PUBLIC "-//W3C//DTD SVG 1.1//EN" "http://www.w3.org/Graphics/SVG/1.1/DTD/svg11.dtd">
<svg version="1.1" xmlns="http://www.w3.org/2000/svg" xmlns:xlink="http://www.w3.org/1999/xlink" x="0px" y="0px" width="24px"
	 height="24px" viewBox="0 0 24 24" enable-background="new 0 0 24 24" xml:space="preserve">
<g id="Outline_Icons">
	<g>
		<path d="M23.961,9.308c-0.025-0.061-0.062-0.116-0.108-0.162l-5.999-5.999c-0.046-0.045-0.101-0.083-0.162-0.107
			C17.632,3.014,17.567,3,17.5,3h-17C0.224,3,0,3.224,0,3.5v17C0,20.776,0.224,21,0.5,21h23c0.276,0,0.5-0.224,0.5-0.5v-11
			C24,9.433,23.986,9.368,23.961,9.308z M18,4.707L22.293,9H18V4.707z M1,20V4h16v5.5c0,0.276,0.224,0.5,0.5,0.5H23v10H1z"/>
		<path d="M5.5,8h7C12.776,8,13,7.776,13,7.5S12.776,7,12.5,7h-7C5.224,7,5,7.224,5,7.5S5.224,8,5.5,8z"/>
		<path d="M5.5,11h7c0.276,0,0.5-0.224,0.5-0.5S12.776,10,12.5,10h-7C5.224,10,5,10.224,5,10.5S5.224,11,5.5,11z"/>
		<path d="M18.5,16h-13C5.224,16,5,16.224,5,16.5S5.224,17,5.5,17h13c0.276,0,0.5-0.224,0.5-0.5S18.776,16,18.5,16z"/>
		<path d="M18.5,13h-13C5.224,13,5,13.224,5,13.5S5.224,14,5.5,14h13c0.276,0,0.5-0.224,0.5-0.5S18.776,13,18.5,13z"/>
	</g>
</g>

</svg>
