<?xml version="1.0" encoding="utf-8"?>
<!-- Generator: Adobe Illustrator 16.0.3, SVG Export Plug-In . SVG Version: 6.00 Build 0)  -->
<!DOCTYPE svg PUBLIC "-//W3C//DTD SVG 1.1//EN" "http://www.w3.org/Graphics/SVG/1.1/DTD/svg11.dtd">
<svg version="1.1" xmlns="http://www.w3.org/2000/svg" xmlns:xlink="http://www.w3.org/1999/xlink" x="0px" y="0px" width="24px"
	 height="24px" viewBox="0 0 24 24" enable-background="new 0 0 24 24" xml:space="preserve">
<g id="Outline_Icons">
	<g>
		<path d="M23.195,18.768l-0.763-0.44c0.09-0.562,0.09-1.092,0-1.654l0.765-0.441c0.115-0.066,0.198-0.176,0.233-0.304
			c0.034-0.128,0.016-0.265-0.051-0.379l-1.5-2.598c-0.138-0.24-0.443-0.321-0.683-0.183l-0.775,0.447
			C19.996,12.875,19.52,12.603,19,12.4v-0.9c0-0.276-0.224-0.5-0.5-0.5h-3c-0.276,0-0.5,0.224-0.5,0.5v0.9
			c-0.52,0.202-0.996,0.475-1.422,0.814l-0.775-0.447c-0.237-0.137-0.545-0.056-0.683,0.183l-1.5,2.598
			c-0.066,0.115-0.085,0.251-0.051,0.379c0.035,0.128,0.118,0.237,0.233,0.304l0.765,0.441c-0.09,0.562-0.09,1.093,0,1.654
			l-0.763,0.44c-0.239,0.139-0.321,0.444-0.183,0.683l1.5,2.598c0.137,0.24,0.443,0.32,0.683,0.183l0.773-0.446
			c0.427,0.339,0.903,0.612,1.422,0.813v0.9c0,0.276,0.224,0.5,0.5,0.5h3c0.276,0,0.5-0.224,0.5-0.5v-0.9
			c0.519-0.202,0.995-0.474,1.422-0.813l0.773,0.446c0.239,0.137,0.546,0.057,0.683-0.183l1.5-2.598
			C23.517,19.212,23.435,18.907,23.195,18.768z M21.387,18.474c-0.047,0.212,0.049,0.433,0.238,0.542l0.638,0.369l-1.001,1.732
			l-0.646-0.373c-0.188-0.108-0.427-0.083-0.587,0.064c-0.478,0.436-1.043,0.76-1.681,0.962C18.142,21.835,18,22.028,18,22.246V23
			h-2v-0.754c0-0.218-0.142-0.411-0.349-0.477c-0.638-0.202-1.203-0.526-1.681-0.962c-0.16-0.147-0.397-0.172-0.587-0.064
			l-0.646,0.373l-1.001-1.732l0.638-0.369c0.189-0.109,0.285-0.329,0.238-0.542c-0.149-0.673-0.149-1.274,0-1.948
			c0.047-0.212-0.049-0.432-0.238-0.542l-0.64-0.369l1.001-1.731l0.647,0.373c0.189,0.109,0.427,0.083,0.588-0.064
			c0.475-0.435,1.04-0.759,1.68-0.962C15.859,13.164,16,12.972,16,12.754V12h2v0.754c0,0.218,0.141,0.41,0.349,0.477
			c0.64,0.204,1.205,0.527,1.68,0.962c0.161,0.148,0.399,0.174,0.588,0.064l0.647-0.373l1.001,1.731l-0.64,0.369
			c-0.189,0.11-0.285,0.329-0.238,0.542C21.536,17.2,21.536,17.801,21.387,18.474z"/>
		<path d="M17,15c-1.379,0-2.5,1.122-2.5,2.5S15.621,20,17,20s2.5-1.122,2.5-2.5S18.379,15,17,15z M17,19
			c-0.827,0-1.5-0.673-1.5-1.5S16.173,16,17,16s1.5,0.673,1.5,1.5S17.827,19,17,19z"/>
		<path d="M7.646,14.854c0.111,0.111,0.271,0.165,0.425,0.142c0.156-0.022,0.292-0.117,0.367-0.256l2.498-4.58l0.463,1.122
			c0.105,0.256,0.397,0.376,0.652,0.272c0.255-0.105,0.377-0.397,0.271-0.653L11.462,8.81c-0.073-0.178-0.242-0.298-0.435-0.309
			c-0.213-0.019-0.374,0.091-0.466,0.26l-2.681,4.913l-1.527-1.527c-0.113-0.114-0.275-0.166-0.434-0.14s-0.295,0.126-0.367,0.27
			l-2.5,5c-0.077,0.155-0.069,0.339,0.021,0.486C3.166,17.911,3.327,18,3.5,18h5.459c0.276,0,0.5-0.224,0.5-0.5S9.235,17,8.959,17
			h-4.65l1.828-3.656L7.646,14.854z"/>
		<path d="M5,9c1.103,0,2-0.897,2-2c0-1.103-0.897-2-2-2S3,5.897,3,7C3,8.103,3.897,9,5,9z M5,6c0.552,0,1,0.449,1,1S5.552,8,5,8
			S4,7.551,4,7S4.448,6,5,6z"/>
		<path d="M9.5,21H1V1h10v4.5C11,5.776,11.224,6,11.5,6H16v3.5c0,0.276,0.224,0.5,0.5,0.5S17,9.776,17,9.5v-4
			c0-0.067-0.014-0.132-0.039-0.192c-0.025-0.061-0.062-0.116-0.108-0.162l-4.998-4.999c-0.046-0.045-0.101-0.083-0.162-0.107
			C11.632,0.014,11.566,0,11.5,0h-11C0.224,0,0,0.224,0,0.5v21C0,21.776,0.224,22,0.5,22h9c0.276,0,0.5-0.224,0.5-0.5
			S9.776,21,9.5,21z M12,1.707L15.293,5H12V1.707z"/>
	</g>
</g>

</svg>
