<?xml version="1.0" encoding="utf-8"?>
<!-- Generator: Adobe Illustrator 16.0.3, SVG Export Plug-In . SVG Version: 6.00 Build 0)  -->
<!DOCTYPE svg PUBLIC "-//W3C//DTD SVG 1.1//EN" "http://www.w3.org/Graphics/SVG/1.1/DTD/svg11.dtd">
<svg version="1.1" xmlns="http://www.w3.org/2000/svg" xmlns:xlink="http://www.w3.org/1999/xlink" x="0px" y="0px" width="24px"
	 height="24px" viewBox="0 0 24 24" enable-background="new 0 0 24 24" xml:space="preserve">
<g id="Outline_Icons">
	<g>
		<path d="M17.506,12.148c-0.313-0.208-0.722-0.234-1.143-0.058L14,13.21V12.5c0-0.827-0.673-1.5-1.5-1.5h-5
			C6.673,11,6,11.673,6,12.5v5C6,18.327,6.673,19,7.5,19h5c0.827,0,1.5-0.673,1.5-1.5v-0.71l2.385,1.13
			c0.175,0.073,0.352,0.109,0.521,0.109c0.218,0,0.424-0.059,0.6-0.177C17.82,17.644,18,17.275,18,16.843v-3.686
			C18,12.725,17.82,12.356,17.506,12.148z M13,17.5c0,0.276-0.225,0.5-0.5,0.5h-5C7.225,18,7,17.776,7,17.5v-5
			C7,12.224,7.225,12,7.5,12h5c0.275,0,0.5,0.224,0.5,0.5V17.5z M17,16.843c0,0.106-0.029,0.165-0.049,0.178
			s-0.083,0.018-0.16-0.013L14,15.684v-1.368l2.771-1.312c0.098-0.042,0.161-0.037,0.181-0.023C16.971,12.993,17,13.051,17,13.157
			V16.843z"/>
		<path d="M21.961,6.308c-0.025-0.061-0.062-0.116-0.108-0.162l-5.998-5.999c-0.046-0.046-0.101-0.083-0.162-0.107
			C15.632,0.014,15.566,0,15.5,0h-13C2.224,0,2,0.224,2,0.5v23C2,23.776,2.224,24,2.5,24h19c0.276,0,0.5-0.224,0.5-0.5v-17
			C22,6.433,21.986,6.368,21.961,6.308z M16,1.707L20.293,6H16V1.707z M3,23V1h12v5.5C15,6.776,15.224,7,15.5,7H21v16H3z"/>
	</g>
</g>

</svg>
