<?xml version="1.0" encoding="utf-8"?>
<!-- Generator: Adobe Illustrator 16.0.3, SVG Export Plug-In . SVG Version: 6.00 Build 0)  -->
<!DOCTYPE svg PUBLIC "-//W3C//DTD SVG 1.1//EN" "http://www.w3.org/Graphics/SVG/1.1/DTD/svg11.dtd">
<svg version="1.1" xmlns="http://www.w3.org/2000/svg" xmlns:xlink="http://www.w3.org/1999/xlink" x="0px" y="0px" width="24px"
	 height="24px" viewBox="0 0 24 24" enable-background="new 0 0 24 24" xml:space="preserve">
<g id="Outline_Icons">
	<g>
		<path d="M23.73,11.725c-0.165-0.087-0.364-0.074-0.518,0.034c-1.772,1.239-3.305,1.222-4.315-0.067
			c-0.189-0.242-0.605-0.242-0.795,0c-1.012,1.293-2.537,1.312-4.315,0.066c-0.153-0.106-0.354-0.12-0.518-0.033
			C13.104,11.811,13,11.982,13,12.168V19.5c0,0.045,0.006,0.089,0.018,0.133c0.034,0.125,0.895,3.102,5.348,4.35
			C18.409,23.994,18.455,24,18.5,24s0.091-0.006,0.135-0.018c4.453-1.248,5.313-4.225,5.348-4.35C23.994,19.589,24,19.545,24,19.5
			v-7.332C24,11.982,23.896,11.811,23.73,11.725z M23,19.423c-0.129,0.371-1.02,2.533-4.5,3.557c-3.491-1.025-4.369-3.175-4.5-3.556
			v-6.359c1.72,0.92,3.343,0.788,4.5-0.324c1.157,1.109,2.787,1.242,4.5,0.324V19.423z"/>
		<path d="M19,15c0-0.276-0.224-0.5-0.5-0.5S18,14.724,18,15v2h-2c-0.276,0-0.5,0.224-0.5,0.5S15.724,18,16,18h2v2
			c0,0.276,0.224,0.5,0.5,0.5S19,20.276,19,20v-2h2c0.276,0,0.5-0.224,0.5-0.5S21.276,17,21,17h-2V15z"/>
		<path d="M5.765,7.076C5.611,6.98,5.417,6.975,5.258,7.062S5,7.318,5,7.5v6.75c0,0.182,0.099,0.35,0.258,0.438
			C5.333,14.729,5.417,14.75,5.5,14.75c0.092,0,0.184-0.025,0.265-0.076l5.4-3.375c0.146-0.091,0.235-0.25,0.235-0.424
			c0-0.173-0.089-0.333-0.235-0.424L5.765,7.076z M6,13.348V8.402l3.957,2.473L6,13.348z"/>
		<path d="M16,9.5c0,0.276,0.224,0.5,0.5,0.5S17,9.776,17,9.5v-4c0-0.066-0.014-0.132-0.039-0.192
			c-0.025-0.062-0.062-0.116-0.108-0.161l-4.998-5c-0.046-0.045-0.101-0.082-0.162-0.107C11.632,0.014,11.566,0,11.5,0h-11
			C0.224,0,0,0.224,0,0.5v21C0,21.776,0.224,22,0.5,22h9c0.276,0,0.5-0.224,0.5-0.5S9.776,21,9.5,21H1V1h10v4.5
			C11,5.776,11.224,6,11.5,6H16V9.5z M12,1.707L15.293,5H12V1.707z"/>
	</g>
</g>

</svg>
