<?xml version="1.0" encoding="utf-8"?>
<!-- Generator: Adobe Illustrator 16.0.3, SVG Export Plug-In . SVG Version: 6.00 Build 0)  -->
<!DOCTYPE svg PUBLIC "-//W3C//DTD SVG 1.1//EN" "http://www.w3.org/Graphics/SVG/1.1/DTD/svg11.dtd">
<svg version="1.1" xmlns="http://www.w3.org/2000/svg" xmlns:xlink="http://www.w3.org/1999/xlink" x="0px" y="0px" width="24px"
	 height="24px" viewBox="0 0 24 24" enable-background="new 0 0 24 24" xml:space="preserve">
<g id="Outline_Icons">
	<g>
		<path d="M23.777,20.468c-0.276-0.608-0.772-1.073-1.397-1.307c-1.101-0.414-2.374,0.054-2.993,1.011l-3.426-1.283
			C15.981,18.761,16,18.633,16,18.5c0-0.224-0.039-0.437-0.095-0.644l3.645-1.822C20.018,16.632,20.72,17,21.502,17
			c0.39,0,0.765-0.089,1.115-0.264c1.233-0.616,1.735-2.121,1.119-3.354c-0.601-1.201-2.144-1.724-3.354-1.119
			c-1.08,0.541-1.599,1.761-1.297,2.885l-3.629,1.814C14.998,16.381,14.296,16,13.5,16c-1.378,0-2.5,1.122-2.5,2.5
			s1.122,2.5,2.5,2.5c0.891,0,1.668-0.472,2.111-1.174l3.42,1.281c-0.183,1.149,0.46,2.31,1.59,2.734
			c0.283,0.106,0.578,0.16,0.877,0.16c1.037,0,1.978-0.651,2.342-1.621C24.075,21.755,24.053,21.076,23.777,20.468z M20.83,13.159
			C21.04,13.053,21.265,13,21.498,13c0.573,0,1.088,0.318,1.344,0.83c0.37,0.74,0.068,1.643-0.672,2.013
			c-0.725,0.361-1.646,0.05-2.008-0.666c-0.001-0.002-0.001-0.004-0.002-0.007c-0.001-0.002-0.003-0.003-0.004-0.006
			C19.791,14.427,20.093,13.527,20.83,13.159z M13.5,20c-0.827,0-1.5-0.673-1.5-1.5s0.673-1.5,1.5-1.5s1.5,0.673,1.5,1.5
			S14.327,20,13.5,20z M22.904,22.028c-0.281,0.75-1.173,1.163-1.931,0.876c-0.773-0.29-1.167-1.157-0.877-1.931
			c0,0,0.001,0,0.001-0.001l0-0.001C20.316,20.39,20.879,20,21.499,20c0.18,0,0.357,0.032,0.528,0.097
			c0.375,0.141,0.673,0.42,0.839,0.784C23.032,21.246,23.045,21.653,22.904,22.028z"/>
		<path d="M3.483,7h4.5c0.276,0,0.5-0.224,0.5-0.5S8.26,6,7.983,6h-4.5c-0.276,0-0.5,0.224-0.5,0.5S3.207,7,3.483,7z"/>
		<path d="M11.983,9.5c0-0.276-0.224-0.5-0.5-0.5h-8c-0.276,0-0.5,0.224-0.5,0.5s0.224,0.5,0.5,0.5h8
			C11.76,10,11.983,9.776,11.983,9.5z"/>
		<path d="M9.983,12.5c0-0.276-0.224-0.5-0.5-0.5h-6c-0.276,0-0.5,0.224-0.5,0.5s0.224,0.5,0.5,0.5h6
			C9.76,13,9.983,12.776,9.983,12.5z"/>
		<path d="M3.483,15c-0.276,0-0.5,0.224-0.5,0.5s0.224,0.5,0.5,0.5h5c0.276,0,0.5-0.224,0.5-0.5S8.76,15,8.483,15H3.483z"/>
		<path d="M11,21H1V1h10v4.5C11,5.776,11.224,6,11.5,6H16v8c0,0.276,0.224,0.5,0.5,0.5S17,14.276,17,14V5.5
			c0-0.067-0.014-0.132-0.039-0.192c-0.025-0.061-0.062-0.116-0.108-0.162l-4.999-4.999c-0.046-0.045-0.101-0.083-0.162-0.107
			C11.632,0.014,11.567,0,11.5,0h-11C0.224,0,0,0.224,0,0.5v21C0,21.776,0.224,22,0.5,22H11c0.276,0,0.5-0.224,0.5-0.5
			S11.276,21,11,21z M12,1.707L15.293,5H12V1.707z"/>
	</g>
</g>

</svg>
