<?xml version="1.0" encoding="utf-8"?>
<!-- Generator: Adobe Illustrator 16.0.3, SVG Export Plug-In . SVG Version: 6.00 Build 0)  -->
<!DOCTYPE svg PUBLIC "-//W3C//DTD SVG 1.1//EN" "http://www.w3.org/Graphics/SVG/1.1/DTD/svg11.dtd">
<svg version="1.1" xmlns="http://www.w3.org/2000/svg" xmlns:xlink="http://www.w3.org/1999/xlink" x="0px" y="0px" width="24px"
	 height="24px" viewBox="0 0 24 24" enable-background="new 0 0 24 24" xml:space="preserve">
<g id="Outline_Icons">
	<g>
		<path d="M23.462,16.33c-0.071-0.197-0.259-0.33-0.47-0.33h-3.19l-1.854-3.723c-0.168-0.34-0.727-0.34-0.895,0L15.198,16h-3.206
			c-0.211,0-0.398,0.133-0.471,0.33c-0.071,0.198-0.011,0.42,0.151,0.555l2.752,2.281l-1.406,4.175
			c-0.068,0.203,0,0.429,0.172,0.558c0.172,0.131,0.407,0.135,0.584,0.015l3.725-2.546l3.71,2.545
			C21.295,23.971,21.394,24,21.492,24c0.106,0,0.212-0.033,0.301-0.101c0.172-0.129,0.241-0.354,0.174-0.558l-1.393-4.176
			l2.738-2.281C23.474,16.749,23.534,16.527,23.462,16.33z M19.672,18.616c-0.158,0.132-0.219,0.347-0.154,0.542l1.029,3.087
			l-2.764-1.896c-0.086-0.06-0.185-0.089-0.283-0.089s-0.197,0.029-0.282,0.087l-2.775,1.897l1.039-3.086
			c0.066-0.195,0.005-0.412-0.154-0.544L13.379,17h2.129c0.189,0,0.363-0.107,0.447-0.277l1.545-3.102l1.545,3.102
			C19.129,16.893,19.303,17,19.492,17h2.119L19.672,18.616z"/>
		<path d="M11.5,21H1V1h10v4.5C11,5.776,11.224,6,11.5,6H16v4.5c0,0.276,0.224,0.5,0.5,0.5s0.5-0.224,0.5-0.5v-5
			c0-0.066-0.014-0.132-0.039-0.192c-0.025-0.062-0.062-0.116-0.108-0.161l-4.998-5c-0.046-0.045-0.101-0.082-0.162-0.107
			C11.632,0.014,11.566,0,11.5,0h-11C0.224,0,0,0.224,0,0.5v21C0,21.776,0.224,22,0.5,22h11c0.276,0,0.5-0.224,0.5-0.5
			S11.776,21,11.5,21z M12,1.707L15.293,5H12V1.707z"/>
		<path d="M6.25,11.457l1.646,1.646c0.195,0.195,0.512,0.195,0.707,0l3.25-3.25c0.195-0.195,0.195-0.512,0-0.707
			s-0.512-0.195-0.707,0L8.25,12.043l-1.646-1.646c-0.195-0.195-0.512-0.195-0.707,0L4,12.293V7.5C4,7.224,3.776,7,3.5,7
			S3,7.224,3,7.5v10C3,17.776,3.224,18,3.5,18h6c0.276,0,0.5-0.224,0.5-0.5S9.776,17,9.5,17H4v-3.293L6.25,11.457z"/>
	</g>
</g>

</svg>
