<?xml version="1.0" encoding="utf-8"?>
<!-- Generator: Adobe Illustrator 16.0.3, SVG Export Plug-In . SVG Version: 6.00 Build 0)  -->
<!DOCTYPE svg PUBLIC "-//W3C//DTD SVG 1.1//EN" "http://www.w3.org/Graphics/SVG/1.1/DTD/svg11.dtd">
<svg version="1.1" xmlns="http://www.w3.org/2000/svg" xmlns:xlink="http://www.w3.org/1999/xlink" x="0px" y="0px" width="24px"
	 height="24px" viewBox="0 0 24 24" enable-background="new 0 0 24 24" xml:space="preserve">
<g id="Outline_Icons">
	<g>
		<path d="M23.5,6h-23C0.224,6,0,6.224,0,6.5v12C0,18.776,0.224,19,0.5,19h23c0.276,0,0.5-0.224,0.5-0.5v-12
			C24,6.224,23.776,6,23.5,6z M23,18H1V7h22V18z"/>
		<path d="M3.5,16C3.776,16,4,15.776,4,15.5v-6C4,9.224,3.776,9,3.5,9S3,9.224,3,9.5v6C3,15.776,3.224,16,3.5,16z"/>
		<path d="M10.5,16h1.438C13.829,16,15,14.183,15,12.5c0-1.682-1.171-3.499-3.062-3.499H10.5c-0.276,0-0.5,0.224-0.5,0.5V15.5
			C10,15.776,10.224,16,10.5,16z M11,10.001h0.938c1.233,0,2.062,1.292,2.062,2.499c0,1.208-0.829,2.5-2.062,2.5H11V10.001z"/>
		<path d="M16.5,16h1.438C19.829,16,21,14.183,21,12.5c0-1.682-1.171-3.499-3.062-3.499H16.5c-0.276,0-0.5,0.224-0.5,0.5V15.5
			C16,15.776,16.224,16,16.5,16z M17,10.001h0.938c1.233,0,2.062,1.292,2.062,2.499c0,1.208-0.829,2.5-2.062,2.5H17V10.001z"/>
		<path d="M5.5,16C5.776,16,6,15.776,6,15.5v-3.881l2.053,4.105C8.139,15.896,8.313,16,8.5,16c0.038,0,0.076-0.004,0.115-0.013
			C8.841,15.934,9,15.732,9,15.5v-6C9,9.224,8.776,9,8.5,9S8,9.224,8,9.5v3.882L5.947,9.276C5.844,9.069,5.614,8.96,5.385,9.013
			C5.159,9.066,5,9.268,5,9.5v6C5,15.776,5.224,16,5.5,16z"/>
	</g>
</g>

</svg>
