<?xml version="1.0" encoding="utf-8"?>
<!-- Generator: Adobe Illustrator 16.0.3, SVG Export Plug-In . SVG Version: 6.00 Build 0)  -->
<!DOCTYPE svg PUBLIC "-//W3C//DTD SVG 1.1//EN" "http://www.w3.org/Graphics/SVG/1.1/DTD/svg11.dtd">
<svg version="1.1" xmlns="http://www.w3.org/2000/svg" xmlns:xlink="http://www.w3.org/1999/xlink" x="0px" y="0px" width="24px"
	 height="24px" viewBox="0 0 24 24" enable-background="new 0 0 24 24" xml:space="preserve">
<g id="Outline_Icons">
	<g>
		<path d="M10,9c-1.332,0-2.559,0.441-3.556,1.178c-0.011,0.008-0.023,0.011-0.034,0.02c-0.005,0.004-0.007,0.011-0.012,0.016
			C4.945,11.309,4,13.044,4,15c0,3.309,2.691,6,6,6c1.638,0,3.124-0.661,4.207-1.729c0.006-0.004,0.014-0.006,0.02-0.011
			c0.008-0.007,0.011-0.017,0.019-0.023C15.329,18.149,16,16.652,16,15C16,11.691,13.309,9,10,9z M5,15
			c0-1.481,0.66-2.799,1.687-3.716l0.899,1.043c0.1,0.115,0.238,0.174,0.379,0.174c0.116,0,0.232-0.04,0.326-0.121
			c0.209-0.181,0.232-0.496,0.053-0.705L7.5,10.696C8.238,10.265,9.085,10,10,10c2.757,0,5,2.243,5,5
			c0,1.178-0.427,2.248-1.11,3.103l-1.218-1.411c-0.182-0.21-0.497-0.231-0.705-0.053c-0.21,0.181-0.232,0.496-0.053,0.705
			l1.273,1.477C12.319,19.546,11.217,20,10,20C7.243,20,5,17.757,5,15z"/>
		<path d="M10,13.301c0.331,0,0.6,0.269,0.6,0.6c0,0.276,0.224,0.5,0.5,0.5s0.5-0.224,0.5-0.5c0-0.706-0.463-1.301-1.1-1.512v-0.321
			c0-0.276-0.224-0.5-0.5-0.5s-0.5,0.224-0.5,0.5v0.321C8.863,12.6,8.4,13.194,8.4,13.9c0,0.882,0.718,1.6,1.6,1.6
			c0.331,0,0.6,0.27,0.6,0.601s-0.269,0.601-0.6,0.601s-0.6-0.27-0.6-0.601c0-0.276-0.224-0.5-0.5-0.5s-0.5,0.224-0.5,0.5
			c0,0.707,0.463,1.302,1.1,1.513v0.32c0,0.276,0.224,0.5,0.5,0.5s0.5-0.224,0.5-0.5v-0.32c0.637-0.211,1.1-0.806,1.1-1.513
			c0-0.883-0.718-1.601-1.6-1.601c-0.331,0-0.6-0.269-0.6-0.6S9.669,13.301,10,13.301z"/>
		<path d="M19.961,6.308c-0.025-0.062-0.062-0.115-0.108-0.162l-5.998-5.999c-0.046-0.045-0.101-0.082-0.162-0.107
			C13.632,0.014,13.566,0,13.5,0h-13C0.224,0,0,0.224,0,0.5v23C0,23.776,0.224,24,0.5,24h19c0.276,0,0.5-0.224,0.5-0.5v-17
			C20,6.434,19.986,6.368,19.961,6.308z M14,1.707L18.293,6H14V1.707z M1,23V1h12v5.5C13,6.776,13.224,7,13.5,7H19v16H1z"/>
	</g>
</g>

</svg>
