<?xml version="1.0" encoding="utf-8"?>
<!-- Generator: Adobe Illustrator 16.0.3, SVG Export Plug-In . SVG Version: 6.00 Build 0)  -->
<!DOCTYPE svg PUBLIC "-//W3C//DTD SVG 1.1//EN" "http://www.w3.org/Graphics/SVG/1.1/DTD/svg11.dtd">
<svg version="1.1" xmlns="http://www.w3.org/2000/svg" xmlns:xlink="http://www.w3.org/1999/xlink" x="0px" y="0px" width="24px"
	 height="24px" viewBox="0 0 24 24" enable-background="new 0 0 24 24" xml:space="preserve">
<g id="Outline_Icons">
	<g>
		<path d="M23.5,6h-23C0.224,6,0,6.224,0,6.5v12C0,18.776,0.224,19,0.5,19h23c0.276,0,0.5-0.224,0.5-0.5v-12
			C24,6.224,23.776,6,23.5,6z M23,18H1V7h22V18z"/>
		<path d="M5.5,15.999c0.276,0,0.5-0.224,0.5-0.5v-2.498h0.742c1.552,0,2.258-1.037,2.258-2C9,10.037,8.294,9,6.742,9H5.5
			C5.224,9,5,9.224,5,9.5v5.999C5,15.775,5.224,15.999,5.5,15.999z M6,10h0.742C7.909,10,8,10.766,8,11.001c0,0.234-0.091,1-1.258,1
			H6V10z"/>
		<path d="M10.5,16c0.276,0,0.5-0.224,0.5-0.5v-3.881l2.053,4.105C13.139,15.896,13.313,16,13.5,16c0.038,0,0.076-0.004,0.115-0.013
			C13.841,15.934,14,15.732,14,15.5v-6C14,9.224,13.776,9,13.5,9S13,9.224,13,9.5v3.882l-2.053-4.105
			c-0.104-0.208-0.332-0.315-0.562-0.263C10.159,9.066,10,9.268,10,9.5v6C10,15.776,10.224,16,10.5,16z"/>
		<path d="M17,16c2,0,2-2.022,2-3.5c0-0.276-0.224-0.5-0.5-0.5H17c-0.276,0-0.5,0.224-0.5,0.5S16.724,13,17,13h0.996
			c-0.03,1.489-0.222,2-0.996,2c-0.542,0-1-1.145-1-2.5c0-2.5,0.753-2.5,1-2.5c0.808,0,0.939,0.289,1.013,0.61
			c0.061,0.269,0.326,0.441,0.598,0.378c0.269-0.061,0.438-0.329,0.377-0.598C18.78,9.468,18.111,9,17,9c-1.327,0-2,1.178-2,3.5
			C15,14.186,15.626,16,17,16z"/>
	</g>
</g>

</svg>
