<?xml version="1.0" encoding="utf-8"?>
<!-- Generator: Adobe Illustrator 16.0.3, SVG Export Plug-In . SVG Version: 6.00 Build 0)  -->
<!DOCTYPE svg PUBLIC "-//W3C//DTD SVG 1.1//EN" "http://www.w3.org/Graphics/SVG/1.1/DTD/svg11.dtd">
<svg version="1.1" xmlns="http://www.w3.org/2000/svg" xmlns:xlink="http://www.w3.org/1999/xlink" x="0px" y="0px" width="24px"
	 height="24px" viewBox="0 0 24 24" enable-background="new 0 0 24 24" xml:space="preserve">
<g id="Outline_Icons">
	<g>
		<path d="M23.855,14.644l-2.5-2.5c-0.188-0.187-0.52-0.187-0.707,0l-7.502,7.503c-0.057,0.057-0.092,0.125-0.116,0.197
			c-0.002,0.007-0.009,0.013-0.011,0.02l-1,3.5c-0.05,0.174-0.001,0.362,0.127,0.491C12.242,23.949,12.369,24,12.5,24
			c0.046,0,0.092-0.006,0.137-0.019l3.5-1c0.007-0.002,0.012-0.009,0.02-0.011c0.072-0.024,0.14-0.059,0.197-0.116l7.502-7.502
			C24.051,15.156,24.051,14.839,23.855,14.644z M16,21.793L14.207,20l4.795-4.795l1.793,1.792L16,21.793z M13.747,20.955
			l1.299,1.298l-1.818,0.52L13.747,20.955z M21.502,16.291l-1.793-1.793l1.293-1.292l1.793,1.792L21.502,16.291z"/>
		<path d="M16,13c0,0.276,0.224,0.5,0.5,0.5S17,13.276,17,13V5.5c0-0.067-0.014-0.132-0.039-0.192
			c-0.025-0.061-0.062-0.116-0.108-0.162l-4.999-4.999c-0.046-0.045-0.101-0.083-0.162-0.107C11.632,0.014,11.567,0,11.5,0h-11
			C0.224,0,0,0.224,0,0.5v21C0,21.776,0.224,22,0.5,22h9c0.276,0,0.5-0.224,0.5-0.5S9.776,21,9.5,21H1V1h10v4.5
			C11,5.776,11.224,6,11.5,6H16V13z M12,1.707L15.293,5H12V1.707z"/>
	</g>
</g>

</svg>
