<?xml version="1.0" encoding="utf-8"?>
<!-- Generator: Adobe Illustrator 16.0.3, SVG Export Plug-In . SVG Version: 6.00 Build 0)  -->
<!DOCTYPE svg PUBLIC "-//W3C//DTD SVG 1.1//EN" "http://www.w3.org/Graphics/SVG/1.1/DTD/svg11.dtd">
<svg version="1.1" xmlns="http://www.w3.org/2000/svg" xmlns:xlink="http://www.w3.org/1999/xlink" x="0px" y="0px" width="24px"
	 height="24px" viewBox="0 0 24 24" enable-background="new 0 0 24 24" xml:space="preserve">
<g id="Outline_Icons">
	<g>
		<path d="M23.5,6h-23C0.224,6,0,6.224,0,6.5v12C0,18.776,0.224,19,0.5,19h23c0.276,0,0.5-0.224,0.5-0.5v-12
			C24,6.224,23.776,6,23.5,6z M23,18H1V7h22V18z"/>
		<path d="M4.5,16C4.776,16,5,15.776,5,15.5v-4.349l1.084,1.626c0.186,0.277,0.646,0.277,0.832,0L8,11.151V15.5
			C8,15.776,8.224,16,8.5,16S9,15.776,9,15.5v-6c0-0.221-0.145-0.415-0.355-0.479C8.433,8.955,8.206,9.039,8.084,9.223L6.5,11.599
			L4.916,9.223C4.794,9.04,4.567,8.956,4.355,9.021C4.145,9.085,4,9.279,4,9.5v6C4,15.776,4.224,16,4.5,16z"/>
		<path d="M11.5,15.999c0.276,0,0.5-0.224,0.5-0.5v-2.498h0.742c1.552,0,2.258-1.036,2.258-2S14.294,9,12.742,9H11.5
			C11.224,9,11,9.224,11,9.5v5.999C11,15.775,11.224,15.999,11.5,15.999z M12,10h0.742C13.909,10,14,10.767,14,11.001
			s-0.091,1-1.258,1H12V10z"/>
		<path d="M18,16c2,0,2-2.022,2-3.5c0-0.276-0.224-0.5-0.5-0.5H18c-0.276,0-0.5,0.224-0.5,0.5S17.724,13,18,13h0.996
			c-0.03,1.488-0.222,2-0.996,2c-0.542,0-1-1.145-1-2.5c0-2.5,0.753-2.5,1-2.5c0.808,0,0.939,0.288,1.013,0.609
			c0.06,0.269,0.332,0.443,0.597,0.378c0.27-0.061,0.439-0.328,0.378-0.597C19.78,9.469,19.111,9,18,9c-1.327,0-2,1.178-2,3.5
			C16,14.186,16.626,16,18,16z"/>
	</g>
</g>

</svg>
