<?xml version="1.0" encoding="utf-8"?>
<!-- Generator: Adobe Illustrator 16.0.3, SVG Export Plug-In . SVG Version: 6.00 Build 0)  -->
<!DOCTYPE svg PUBLIC "-//W3C//DTD SVG 1.1//EN" "http://www.w3.org/Graphics/SVG/1.1/DTD/svg11.dtd">
<svg version="1.1" xmlns="http://www.w3.org/2000/svg" xmlns:xlink="http://www.w3.org/1999/xlink" x="0px" y="0px" width="24px"
	 height="24px" viewBox="0 0 24 24" enable-background="new 0 0 24 24" xml:space="preserve">
<g id="Outline_Icons">
	<g>
		<path d="M13.965,13.082c-0.247-0.124-0.547-0.025-0.672,0.223L12.5,14.886l-0.794-1.581c-0.125-0.248-0.427-0.347-0.672-0.223
			c-0.247,0.124-0.346,0.425-0.223,0.672L12,16.119V18.5c0,0.276,0.224,0.5,0.5,0.5s0.5-0.224,0.5-0.5v-2.381l1.188-2.365
			C14.311,13.507,14.211,13.206,13.965,13.082z"/>
		<path d="M19.961,6.308c-0.025-0.062-0.062-0.115-0.108-0.162l-5.998-5.999c-0.046-0.045-0.101-0.082-0.162-0.107
			C13.632,0.014,13.566,0,13.5,0h-13C0.224,0,0,0.224,0,0.5v23C0,23.776,0.224,24,0.5,24h19c0.276,0,0.5-0.224,0.5-0.5v-17
			C20,6.434,19.986,6.368,19.961,6.308z M14,1.707L18.293,6H14V1.707z M1,23V1h12v5.5C13,6.776,13.224,7,13.5,7H19v16H1z"/>
		<path d="M7.75,13H6.5C6.224,13,6,13.224,6,13.5v4.999c0,0.276,0.224,0.5,0.5,0.5s0.5-0.224,0.5-0.5V16.5h0.75
			c0.965,0,1.75-0.785,1.75-1.75S8.715,13,7.75,13z M7.75,15.5H7V14h0.75c0.413,0,0.75,0.337,0.75,0.75S8.163,15.5,7.75,15.5z"/>
	</g>
</g>

</svg>
