<?xml version="1.0" encoding="utf-8"?>
<!-- Generator: Adobe Illustrator 16.0.3, SVG Export Plug-In . SVG Version: 6.00 Build 0)  -->
<!DOCTYPE svg PUBLIC "-//W3C//DTD SVG 1.1//EN" "http://www.w3.org/Graphics/SVG/1.1/DTD/svg11.dtd">
<svg version="1.1" xmlns="http://www.w3.org/2000/svg" xmlns:xlink="http://www.w3.org/1999/xlink" x="0px" y="0px" width="24px"
	 height="24px" viewBox="0 0 24 24" enable-background="new 0 0 24 24" xml:space="preserve">
<g id="Outline_Icons">
	<g>
		<path d="M23.776,20.468c-0.275-0.608-0.771-1.073-1.397-1.307c-1.1-0.416-2.373,0.054-2.991,1.011l-3.427-1.283
			C15.98,18.761,16,18.633,16,18.5c0-0.224-0.039-0.437-0.095-0.644l3.645-1.822C20.018,16.632,20.721,17,21.502,17
			c0.39,0,0.765-0.089,1.115-0.264c0.598-0.298,1.043-0.812,1.254-1.445s0.163-1.312-0.135-1.909
			c-0.6-1.202-2.144-1.723-3.354-1.119c-1.079,0.541-1.598,1.761-1.297,2.884l-3.629,1.815C14.998,16.381,14.296,16,13.5,16
			c-1.379,0-2.5,1.122-2.5,2.5s1.121,2.5,2.5,2.5c0.891,0,1.668-0.472,2.111-1.174l3.42,1.282c-0.183,1.149,0.46,2.309,1.59,2.734
			c0.282,0.106,0.578,0.16,0.878,0.16c1.036,0,1.978-0.651,2.341-1.621C24.075,21.755,24.053,21.076,23.776,20.468z M20.83,13.159
			C21.04,13.053,21.265,13,21.498,13c0.573,0,1.088,0.318,1.344,0.83c0.179,0.358,0.208,0.765,0.081,1.145
			c-0.127,0.38-0.395,0.688-0.753,0.867c-0.724,0.361-1.646,0.051-2.008-0.666c-0.001-0.002-0.001-0.004-0.002-0.007
			c-0.001-0.002-0.003-0.003-0.005-0.006C19.792,14.427,20.092,13.527,20.83,13.159z M13.5,20c-0.827,0-1.5-0.673-1.5-1.5
			s0.673-1.5,1.5-1.5s1.5,0.673,1.5,1.5S14.327,20,13.5,20z M22.904,22.028c-0.282,0.75-1.175,1.161-1.932,0.876
			c-0.774-0.29-1.167-1.157-0.877-1.931c0,0,0.001,0,0.001-0.001v-0.001c0.22-0.581,0.782-0.97,1.402-0.97
			c0.18,0,0.357,0.032,0.528,0.097c0.376,0.141,0.674,0.42,0.839,0.784C23.031,21.246,23.045,21.653,22.904,22.028z"/>
		<path d="M5,9c1.103,0,2-0.897,2-2c0-1.103-0.897-2-2-2S3,5.897,3,7C3,8.103,3.897,9,5,9z M5,6c0.552,0,1,0.449,1,1S5.552,8,5,8
			S4,7.551,4,7S4.448,6,5,6z"/>
		<path d="M10.5,21H1V1h10v4.5C11,5.776,11.224,6,11.5,6H16v7.5c0,0.276,0.224,0.5,0.5,0.5s0.5-0.224,0.5-0.5v-8
			c0-0.067-0.014-0.132-0.039-0.192c-0.025-0.061-0.062-0.116-0.108-0.162l-4.998-4.999c-0.046-0.045-0.101-0.083-0.162-0.107
			C11.632,0.014,11.566,0,11.5,0h-11C0.224,0,0,0.224,0,0.5v21C0,21.776,0.224,22,0.5,22h10c0.276,0,0.5-0.224,0.5-0.5
			S10.776,21,10.5,21z M12,1.707L15.293,5H12V1.707z"/>
		<path d="M7.646,14.854c0.111,0.111,0.269,0.165,0.425,0.142c0.156-0.022,0.292-0.117,0.367-0.256l2.475-4.536l1.103,2.971
			c0.097,0.259,0.382,0.394,0.643,0.295c0.259-0.096,0.391-0.384,0.295-0.643l-1.484-4c-0.068-0.184-0.237-0.311-0.433-0.325
			c-0.21-0.018-0.381,0.087-0.475,0.259l-2.681,4.913l-1.527-1.527c-0.113-0.114-0.275-0.166-0.434-0.14s-0.295,0.126-0.367,0.27
			l-2.5,5c-0.077,0.155-0.069,0.339,0.021,0.486C3.166,17.911,3.327,18,3.5,18h5.46c0.276,0,0.5-0.224,0.5-0.5S9.236,17,8.96,17
			H4.309l1.828-3.656L7.646,14.854z"/>
	</g>
</g>

</svg>
