<?xml version="1.0" encoding="utf-8"?>
<!-- Generator: Adobe Illustrator 16.0.3, SVG Export Plug-In . SVG Version: 6.00 Build 0)  -->
<!DOCTYPE svg PUBLIC "-//W3C//DTD SVG 1.1//EN" "http://www.w3.org/Graphics/SVG/1.1/DTD/svg11.dtd">
<svg version="1.1" xmlns="http://www.w3.org/2000/svg" xmlns:xlink="http://www.w3.org/1999/xlink" x="0px" y="0px" width="24px"
	 height="24px" viewBox="0 0 24 24" enable-background="new 0 0 24 24" xml:space="preserve">
<g id="Outline_Icons">
	<g>
		<path d="M20.777,13c-0.951,0-2.071,0.492-2.777,1.785C17.294,13.491,16.174,13,15.223,13C13.639,13,12,14.323,12,16.537
			c0,3.182,5.473,7.198,5.706,7.367C17.794,23.969,17.896,24,18,24s0.206-0.031,0.294-0.096C18.527,23.735,24,19.719,24,16.537
			C24,14.323,22.361,13,20.777,13z M18,22.876c-1.63-1.246-5-4.252-5-6.339C13,14.949,14.13,14,15.223,14
			c1.087,0,1.943,0.865,2.291,2.312c0.109,0.451,0.863,0.451,0.973,0C18.834,14.865,19.69,14,20.777,14
			C21.87,14,23,14.949,23,16.537C23,18.621,19.63,21.63,18,22.876z"/>
		<path d="M5.765,7.076C5.61,6.98,5.417,6.976,5.258,7.062C5.099,7.151,5,7.318,5,7.5v6.75c0,0.182,0.099,0.349,0.258,0.438
			C5.333,14.729,5.417,14.75,5.5,14.75c0.092,0,0.184-0.025,0.265-0.076l5.4-3.375c0.146-0.091,0.235-0.251,0.235-0.424
			s-0.089-0.333-0.235-0.424L5.765,7.076z M6,13.348V8.402l3.957,2.473L6,13.348z"/>
		<path d="M16,9.5c0,0.276,0.224,0.5,0.5,0.5S17,9.776,17,9.5v-4c0-0.067-0.014-0.132-0.039-0.192
			c-0.025-0.061-0.062-0.116-0.108-0.162l-4.998-4.999c-0.046-0.046-0.101-0.083-0.162-0.107C11.632,0.014,11.566,0,11.5,0h-11
			C0.224,0,0,0.224,0,0.5v21C0,21.776,0.224,22,0.5,22h9c0.276,0,0.5-0.224,0.5-0.5S9.776,21,9.5,21H1V1h10v4.5
			C11,5.776,11.224,6,11.5,6H16V9.5z M12,1.707L15.293,5H12V1.707z"/>
	</g>
</g>

</svg>
