<?xml version="1.0" encoding="utf-8"?>
<!-- Generator: Adobe Illustrator 16.0.3, SVG Export Plug-In . SVG Version: 6.00 Build 0)  -->
<!DOCTYPE svg PUBLIC "-//W3C//DTD SVG 1.1//EN" "http://www.w3.org/Graphics/SVG/1.1/DTD/svg11.dtd">
<svg version="1.1" xmlns="http://www.w3.org/2000/svg" xmlns:xlink="http://www.w3.org/1999/xlink" x="0px" y="0px" width="24px"
	 height="24px" viewBox="0 0 24 24" enable-background="new 0 0 24 24" xml:space="preserve">
<g id="Outline_Icons">
	<g>
		<path d="M17.5,11c-3.584,0-6.5,2.916-6.5,6.5s2.916,6.5,6.5,6.5s6.5-2.916,6.5-6.5S21.084,11,17.5,11z M17.5,23
			c-3.032,0-5.5-2.468-5.5-5.5c0-3.031,2.468-5.5,5.5-5.5s5.5,2.469,5.5,5.5C23,20.532,20.532,23,17.5,23z"/>
		<path d="M20,18h-2v-3c0-0.276-0.224-0.5-0.5-0.5S17,14.724,17,15v3.5c0,0.276,0.224,0.5,0.5,0.5H20c0.276,0,0.5-0.224,0.5-0.5
			S20.276,18,20,18z"/>
		<path d="M10.5,21H1V1h10v4.5C11,5.776,11.224,6,11.5,6H16v3.5c0,0.276,0.224,0.5,0.5,0.5S17,9.776,17,9.5v-4
			c0-0.066-0.014-0.132-0.039-0.192c-0.025-0.062-0.062-0.116-0.108-0.161l-4.998-5c-0.046-0.045-0.101-0.082-0.162-0.107
			C11.632,0.014,11.566,0,11.5,0h-11C0.224,0,0,0.224,0,0.5v21C0,21.776,0.224,22,0.5,22h10c0.276,0,0.5-0.224,0.5-0.5
			S10.776,21,10.5,21z M12,1.707L15.293,5H12V1.707z"/>
		<path d="M6.25,11.457l1.646,1.646c0.195,0.195,0.512,0.195,0.707,0l3.25-3.25c0.195-0.195,0.195-0.512,0-0.707
			s-0.512-0.195-0.707,0L8.25,12.043l-1.646-1.646c-0.195-0.195-0.512-0.195-0.707,0L4,12.293V7.5C4,7.224,3.776,7,3.5,7
			S3,7.224,3,7.5v10C3,17.776,3.224,18,3.5,18h6c0.276,0,0.5-0.224,0.5-0.5S9.776,17,9.5,17H4v-3.293L6.25,11.457z"/>
	</g>
</g>

</svg>
