<?xml version="1.0" encoding="utf-8"?>
<!-- Generator: Adobe Illustrator 16.0.3, SVG Export Plug-In . SVG Version: 6.00 Build 0)  -->
<!DOCTYPE svg PUBLIC "-//W3C//DTD SVG 1.1//EN" "http://www.w3.org/Graphics/SVG/1.1/DTD/svg11.dtd">
<svg version="1.1" xmlns="http://www.w3.org/2000/svg" xmlns:xlink="http://www.w3.org/1999/xlink" x="0px" y="0px" width="24px"
	 height="24px" viewBox="0 0 24 24" enable-background="new 0 0 24 24" xml:space="preserve">
<g id="Outline_Icons">
	<g>
		<path d="M23.73,11.725c-0.164-0.086-0.364-0.074-0.518,0.033c-1.772,1.242-3.305,1.224-4.315-0.066
			c-0.189-0.242-0.605-0.242-0.795,0c-1.012,1.292-2.537,1.311-4.315,0.066c-0.153-0.107-0.354-0.12-0.518-0.033
			C13.104,11.811,13,11.982,13,12.168V19.5c0,0.044,0.006,0.089,0.018,0.132c0.034,0.125,0.895,3.102,5.348,4.35
			C18.409,23.994,18.455,24,18.5,24s0.091-0.006,0.135-0.018c4.453-1.248,5.313-4.224,5.348-4.35C23.994,19.589,24,19.544,24,19.5
			v-7.332C24,11.982,23.896,11.811,23.73,11.725z M23,19.423c-0.129,0.371-1.02,2.533-4.5,3.557c-3.491-1.026-4.369-3.175-4.5-3.557
			v-6.359c1.72,0.92,3.343,0.787,4.5-0.324c1.157,1.111,2.788,1.243,4.5,0.324V19.423z"/>
		<path d="M19,15c0-0.276-0.224-0.5-0.5-0.5S18,14.724,18,15v2h-2c-0.276,0-0.5,0.224-0.5,0.5S15.724,18,16,18h2v2
			c0,0.276,0.224,0.5,0.5,0.5S19,20.276,19,20v-2h2c0.276,0,0.5-0.224,0.5-0.5S21.276,17,21,17h-2V15z"/>
		<path d="M11.462,8.81c-0.073-0.178-0.242-0.298-0.435-0.309c-0.215-0.019-0.374,0.091-0.466,0.26l-2.681,4.913l-1.527-1.527
			c-0.113-0.114-0.275-0.166-0.434-0.14s-0.295,0.126-0.367,0.27l-2.5,5c-0.077,0.155-0.069,0.339,0.021,0.486
			C3.166,17.911,3.327,18,3.5,18h5.459c0.276,0,0.5-0.224,0.5-0.5S9.235,17,8.959,17h-4.65l1.828-3.656l1.51,1.509
			c0.111,0.111,0.269,0.164,0.425,0.142s0.292-0.117,0.367-0.256l2.498-4.58l0.463,1.122c0.105,0.256,0.396,0.377,0.652,0.272
			c0.255-0.105,0.377-0.397,0.271-0.653L11.462,8.81z"/>
		<path d="M3,7c0,1.103,0.897,2,2,2s2-0.897,2-2c0-1.103-0.897-2-2-2S3,5.897,3,7z M6,7c0,0.551-0.448,1-1,1S4,7.551,4,7
			s0.448-1,1-1S6,6.449,6,7z"/>
		<path d="M10.5,21H1V1h10v4.5C11,5.776,11.224,6,11.5,6H16v3.5c0,0.276,0.224,0.5,0.5,0.5S17,9.776,17,9.5v-4
			c0-0.067-0.014-0.132-0.039-0.192c-0.025-0.061-0.062-0.116-0.108-0.162l-4.998-4.999c-0.046-0.045-0.101-0.083-0.162-0.107
			C11.632,0.014,11.566,0,11.5,0h-11C0.224,0,0,0.224,0,0.5v21C0,21.776,0.224,22,0.5,22h10c0.276,0,0.5-0.224,0.5-0.5
			S10.776,21,10.5,21z M12,1.707L15.293,5H12V1.707z"/>
	</g>
</g>

</svg>
