<?xml version="1.0" encoding="utf-8"?>
<!-- Generator: Adobe Illustrator 16.0.3, SVG Export Plug-In . SVG Version: 6.00 Build 0)  -->
<!DOCTYPE svg PUBLIC "-//W3C//DTD SVG 1.1//EN" "http://www.w3.org/Graphics/SVG/1.1/DTD/svg11.dtd">
<svg version="1.1" xmlns="http://www.w3.org/2000/svg" xmlns:xlink="http://www.w3.org/1999/xlink" x="0px" y="0px" width="24px"
	 height="24px" viewBox="0 0 24 24" enable-background="new 0 0 24 24" xml:space="preserve">
<g id="Outline_Icons">
	<g>
		<path d="M8.02,10H9v5.5C9,15.776,9.224,16,9.5,16s0.5-0.224,0.5-0.5V10h1c0.276,0,0.5-0.224,0.5-0.5S11.276,9,11,9H8.02
			c-0.276,0-0.5,0.224-0.5,0.5S7.743,10,8.02,10z"/>
		<path d="M23.5,6h-23C0.224,6,0,6.224,0,6.5v12C0,18.776,0.224,19,0.5,19h23c0.276,0,0.5-0.224,0.5-0.5v-12
			C24,6.224,23.776,6,23.5,6z M23,18H1V7h22V18z"/>
		<path d="M12.5,16c0.276,0,0.5-0.224,0.5-0.5v-4.349l1.084,1.626c0.186,0.277,0.646,0.277,0.832,0L16,11.151V15.5
			c0,0.276,0.224,0.5,0.5,0.5s0.5-0.224,0.5-0.5v-6c0-0.221-0.145-0.415-0.355-0.479c-0.212-0.066-0.438,0.018-0.561,0.201
			L14.5,11.599l-1.584-2.376c-0.122-0.183-0.349-0.266-0.561-0.201C12.145,9.085,12,9.279,12,9.5v6C12,15.776,12.224,16,12.5,16z"/>
		<path d="M18.5,16h2.48c0.276,0,0.5-0.224,0.5-0.5s-0.224-0.5-0.5-0.5H19V9.5C19,9.224,18.776,9,18.5,9S18,9.224,18,9.5v6
			C18,15.776,18.224,16,18.5,16z"/>
		<path d="M3.5,16C3.776,16,4,15.776,4,15.5V13h2v2.5C6,15.776,6.224,16,6.5,16S7,15.776,7,15.5v-6C7,9.224,6.776,9,6.5,9
			S6,9.224,6,9.5V12H4V9.5C4,9.224,3.776,9,3.5,9S3,9.224,3,9.5v6C3,15.776,3.224,16,3.5,16z"/>
	</g>
</g>

</svg>
