<?xml version="1.0" encoding="utf-8"?>
<!-- Generator: Adobe Illustrator 16.0.3, SVG Export Plug-In . SVG Version: 6.00 Build 0)  -->
<!DOCTYPE svg PUBLIC "-//W3C//DTD SVG 1.1//EN" "http://www.w3.org/Graphics/SVG/1.1/DTD/svg11.dtd">
<svg version="1.1" xmlns="http://www.w3.org/2000/svg" xmlns:xlink="http://www.w3.org/1999/xlink" x="0px" y="0px" width="24px"
	 height="24px" viewBox="0 0 24 24" enable-background="new 0 0 24 24" xml:space="preserve">
<g id="Outline_Icons">
	<g>
		<path d="M23.462,16.33c-0.072-0.197-0.26-0.33-0.47-0.33h-3.19l-1.854-3.723c-0.17-0.339-0.726-0.339-0.896,0L15.198,16h-3.206
			c-0.211,0-0.399,0.132-0.47,0.331c-0.072,0.198-0.011,0.42,0.151,0.554l2.751,2.281l-1.406,4.175
			c-0.069,0.204,0,0.428,0.172,0.558c0.171,0.131,0.406,0.137,0.584,0.015l3.725-2.546l3.71,2.545
			C21.295,23.971,21.394,24,21.492,24c0.106,0,0.212-0.034,0.301-0.101c0.172-0.129,0.242-0.354,0.173-0.558l-1.392-4.176
			l2.738-2.281C23.474,16.75,23.534,16.528,23.462,16.33z M19.672,18.616c-0.158,0.132-0.219,0.347-0.154,0.543l1.029,3.086
			l-2.764-1.896c-0.085-0.059-0.184-0.088-0.283-0.088s-0.197,0.029-0.282,0.087l-2.775,1.897l1.039-3.085
			c0.066-0.196,0.005-0.412-0.154-0.544L13.379,17h2.129c0.189,0,0.363-0.107,0.448-0.277l1.544-3.102l1.544,3.102
			C19.129,16.893,19.303,17,19.492,17h2.119L19.672,18.616z"/>
		<path d="M3.494,7h4.5c0.276,0,0.5-0.224,0.5-0.5S8.271,6,7.994,6h-4.5c-0.276,0-0.5,0.224-0.5,0.5S3.218,7,3.494,7z"/>
		<path d="M11.994,9.5c0-0.276-0.224-0.5-0.5-0.5h-8c-0.276,0-0.5,0.224-0.5,0.5s0.224,0.5,0.5,0.5h8
			C11.771,10,11.994,9.776,11.994,9.5z"/>
		<path d="M9.994,12.5c0-0.276-0.224-0.5-0.5-0.5h-6c-0.276,0-0.5,0.224-0.5,0.5s0.224,0.5,0.5,0.5h6
			C9.771,13,9.994,12.776,9.994,12.5z"/>
		<path d="M3.494,15c-0.276,0-0.5,0.224-0.5,0.5s0.224,0.5,0.5,0.5h5c0.276,0,0.5-0.224,0.5-0.5S8.771,15,8.494,15H3.494z"/>
		<path d="M12,21H1V1h10v4.5C11,5.776,11.224,6,11.5,6H16v5c0,0.276,0.224,0.5,0.5,0.5S17,11.276,17,11V5.5
			c0-0.067-0.014-0.132-0.039-0.192c-0.025-0.061-0.062-0.116-0.108-0.162l-4.999-4.999c-0.046-0.045-0.101-0.083-0.162-0.107
			C11.632,0.014,11.567,0,11.5,0h-11C0.224,0,0,0.224,0,0.5v21C0,21.776,0.224,22,0.5,22H12c0.276,0,0.5-0.224,0.5-0.5
			S12.276,21,12,21z M12,1.707L15.293,5H12V1.707z"/>
	</g>
</g>

</svg>
