<?xml version="1.0" encoding="utf-8"?>
<!-- Generator: Adobe Illustrator 16.0.3, SVG Export Plug-In . SVG Version: 6.00 Build 0)  -->
<!DOCTYPE svg PUBLIC "-//W3C//DTD SVG 1.1//EN" "http://www.w3.org/Graphics/SVG/1.1/DTD/svg11.dtd">
<svg version="1.1" xmlns="http://www.w3.org/2000/svg" xmlns:xlink="http://www.w3.org/1999/xlink" x="0px" y="0px" width="24px"
	 height="24px" viewBox="0 0 24 24" enable-background="new 0 0 24 24" xml:space="preserve">
<g id="Outline_Icons">
	<g>
		<path d="M23.5,6h-23C0.224,6,0,6.224,0,6.5v12C0,18.776,0.224,19,0.5,19h23c0.276,0,0.5-0.224,0.5-0.5v-12
			C24,6.224,23.776,6,23.5,6z M23,18H1V7h22V18z"/>
		<path d="M5.379,15.985c0.271,0.066,0.539-0.096,0.606-0.364l0.279-1.118h1.471l0.279,1.118C8.071,15.849,8.275,16,8.5,16
			c0.04,0,0.081-0.005,0.121-0.015c0.269-0.067,0.431-0.338,0.364-0.606l-1.5-6c-0.111-0.445-0.859-0.445-0.971,0l-1.5,6
			C4.948,15.646,5.11,15.918,5.379,15.985z M7,11.562l0.485,1.941H6.515L7,11.562z"/>
		<path d="M10.379,15.985c0.271,0.066,0.539-0.096,0.606-0.364l0.279-1.118h1.471l0.279,1.118C13.071,15.849,13.275,16,13.5,16
			c0.04,0,0.081-0.005,0.121-0.015c0.269-0.067,0.431-0.338,0.364-0.606l-1.5-6c-0.111-0.445-0.859-0.445-0.971,0l-1.5,6
			C9.948,15.646,10.11,15.918,10.379,15.985z M12,11.562l0.485,1.941h-0.971L12,11.562z"/>
		<path d="M17.5,16c0.054,0,1.316-0.014,1.947-1.276c0.123-0.247,0.023-0.547-0.224-0.671c-0.246-0.122-0.547-0.024-0.671,0.224
			C18.203,14.975,17.523,15,17.5,15c-0.884,0-1.5-1.317-1.5-2.5c0-1.182,0.616-2.5,1.5-2.5c0.007,0,0.695,0.008,1.053,0.724
			c0.124,0.247,0.424,0.346,0.671,0.224c0.247-0.124,0.347-0.424,0.224-0.671C18.816,9.015,17.554,9,17.5,9
			c-1.544,0-2.5,1.817-2.5,3.5S15.956,16,17.5,16z"/>
	</g>
</g>

</svg>
