<?xml version="1.0" encoding="utf-8"?>
<!-- Generator: Adobe Illustrator 16.0.3, SVG Export Plug-In . SVG Version: 6.00 Build 0)  -->
<!DOCTYPE svg PUBLIC "-//W3C//DTD SVG 1.1//EN" "http://www.w3.org/Graphics/SVG/1.1/DTD/svg11.dtd">
<svg version="1.1" xmlns="http://www.w3.org/2000/svg" xmlns:xlink="http://www.w3.org/1999/xlink" x="0px" y="0px" width="24px"
	 height="24px" viewBox="0 0 24 24" enable-background="new 0 0 24 24" xml:space="preserve">
<g id="Outline_Icons">
	<g>
		<path d="M23.855,14.645l-2.5-2.5c-0.195-0.195-0.512-0.195-0.707,0l-7.502,7.502c-0.057,0.057-0.092,0.125-0.116,0.196
			c-0.002,0.007-0.009,0.013-0.012,0.02l-1,3.5c-0.05,0.175-0.001,0.363,0.127,0.491C12.242,23.948,12.369,24,12.5,24
			c0.046,0,0.092-0.006,0.137-0.02l3.5-1c0.007-0.002,0.011-0.008,0.018-0.011c0.072-0.023,0.141-0.06,0.198-0.116l7.502-7.502
			C24.051,15.156,24.051,14.84,23.855,14.645z M16,21.793L14.207,20l4.795-4.795l1.793,1.793L16,21.793z M13.748,20.955l1.298,1.298
			l-1.818,0.52L13.748,20.955z M21.502,16.291l-1.793-1.793l1.293-1.293l1.793,1.793L21.502,16.291z"/>
		<path d="M13,10H9c-0.276,0-0.5,0.224-0.5,0.5S8.724,11,9,11h4c0.276,0,0.5-0.224,0.5-0.5S13.276,10,13,10z"/>
		<path d="M13,14H9c-0.276,0-0.5,0.224-0.5,0.5S8.724,15,9,15h4c0.276,0,0.5-0.224,0.5-0.5S13.276,14,13,14z"/>
		<path d="M7.854,8.146c-0.195-0.195-0.512-0.195-0.707,0L5,10.293L3.854,9.146c-0.195-0.195-0.512-0.195-0.707,0
			s-0.195,0.512,0,0.707l1.5,1.5C4.744,11.451,4.872,11.5,5,11.5s0.256-0.049,0.354-0.146l2.5-2.5
			C8.049,8.658,8.049,8.342,7.854,8.146z"/>
		<path d="M7.146,12.161L5,14.308l-1.146-1.146c-0.195-0.195-0.512-0.195-0.707,0s-0.195,0.512,0,0.707l1.5,1.5
			C4.744,15.466,4.872,15.515,5,15.515s0.256-0.049,0.354-0.146l2.5-2.5c0.195-0.195,0.195-0.512,0-0.707S7.342,11.966,7.146,12.161
			z"/>
		<path d="M9,21H1V1h9.999L11,5.5C11,5.776,11.224,6,11.5,6H16v7c0,0.276,0.224,0.5,0.5,0.5S17,13.276,17,13V5.5
			c0-0.066-0.014-0.132-0.039-0.192c-0.025-0.062-0.062-0.116-0.108-0.161l-5-5c-0.046-0.045-0.101-0.082-0.161-0.107
			C11.631,0.014,11.566,0,11.499,0H0.5C0.224,0,0,0.224,0,0.5v21C0,21.776,0.224,22,0.5,22H9c0.276,0,0.5-0.224,0.5-0.5
			S9.276,21,9,21z M11.999,1.707L15.293,5H12L11.999,1.707z"/>
	</g>
</g>

</svg>
