<?xml version="1.0" encoding="utf-8"?>
<!-- Generator: Adobe Illustrator 16.0.3, SVG Export Plug-In . SVG Version: 6.00 Build 0)  -->
<!DOCTYPE svg PUBLIC "-//W3C//DTD SVG 1.1//EN" "http://www.w3.org/Graphics/SVG/1.1/DTD/svg11.dtd">
<svg version="1.1" xmlns="http://www.w3.org/2000/svg" xmlns:xlink="http://www.w3.org/1999/xlink" x="0px" y="0px" width="24px"
	 height="24px" viewBox="0 0 24 24" enable-background="new 0 0 24 24" xml:space="preserve">
<g id="Outline_Icons">
	<g>
		<path d="M17.5,11c-3.584,0-6.5,2.916-6.5,6.5s2.916,6.5,6.5,6.5s6.5-2.916,6.5-6.5S21.084,11,17.5,11z M17.5,23
			c-3.032,0-5.5-2.467-5.5-5.5s2.468-5.5,5.5-5.5s5.5,2.467,5.5,5.5S20.532,23,17.5,23z"/>
		<path d="M17.5,16.5c-0.276,0-0.5,0.224-0.5,0.5v4c0,0.276,0.224,0.5,0.5,0.5S18,21.276,18,21v-4C18,16.724,17.776,16.5,17.5,16.5z
			"/>
		<path d="M17.5,14c-0.413,0-0.75,0.336-0.75,0.75s0.337,0.75,0.75,0.75s0.75-0.336,0.75-0.75S17.913,14,17.5,14z M17.25,14.75
			c0-0.138,0.112-0.25,0.25-0.25s0.25,0.112,0.25,0.25C17.75,15.026,17.25,15.026,17.25,14.75z"/>
		<path d="M9.5,21H1V1h10v4.5C11,5.776,11.224,6,11.5,6H16v3.5c0,0.276,0.224,0.5,0.5,0.5S17,9.776,17,9.5v-4
			c0-0.067-0.014-0.132-0.039-0.192c-0.025-0.061-0.062-0.116-0.108-0.162l-4.998-4.999c-0.046-0.045-0.101-0.083-0.162-0.107
			C11.632,0.014,11.566,0,11.5,0h-11C0.224,0,0,0.224,0,0.5v21C0,21.776,0.224,22,0.5,22h9c0.276,0,0.5-0.224,0.5-0.5
			S9.776,21,9.5,21z M12,1.707L15.293,5H12V1.707z"/>
		<path d="M9,7.564l2.18,1.82c0.212,0.176,0.528,0.149,0.704-0.064c0.177-0.212,0.148-0.527-0.063-0.704l-3-2.504
			c-0.149-0.124-0.356-0.15-0.532-0.068C8.112,6.125,8,6.303,8,6.496v5.559C7.472,11.712,6.779,11.5,6,11.5c-1.683,0-3,0.96-3,2.187
			c0,1.227,1.317,2.187,3,2.187s3-0.96,3-2.187c0-0.039-0.013-0.074-0.015-0.112C8.989,13.549,9,13.526,9,13.5V7.564z M6,14.874
			c-1.084,0-2-0.543-2-1.187C4,13.044,4.916,12.5,6,12.5s2,0.544,2,1.187C8,14.33,7.084,14.874,6,14.874z"/>
	</g>
</g>

</svg>
