<?xml version="1.0" encoding="utf-8"?>
<!-- Generator: Adobe Illustrator 16.0.3, SVG Export Plug-In . SVG Version: 6.00 Build 0)  -->
<!DOCTYPE svg PUBLIC "-//W3C//DTD SVG 1.1//EN" "http://www.w3.org/Graphics/SVG/1.1/DTD/svg11.dtd">
<svg version="1.1" xmlns="http://www.w3.org/2000/svg" xmlns:xlink="http://www.w3.org/1999/xlink" x="0px" y="0px" width="24px"
	 height="24px" viewBox="0 0 24 24" enable-background="new 0 0 24 24" xml:space="preserve">
<g id="Outline_Icons">
	<g>
		<path d="M5.642,15.521c-0.04-0.012-0.099-0.023-0.172-0.038c-0.482-0.09-0.712-0.212-0.712-0.658C4.758,14.37,5.091,14,5.5,14
			c0.389,0,0.714,0.338,0.739,0.771c0.017,0.276,0.253,0.486,0.528,0.469c0.276-0.016,0.486-0.253,0.47-0.529
			C7.181,13.752,6.417,13,5.5,13c-0.961,0-1.742,0.819-1.742,1.825c0,0.899,0.515,1.451,1.604,1.656
			c0.038,0.011,0.094,0.022,0.163,0.035c0.484,0.088,0.715,0.209,0.715,0.658C6.24,17.63,5.908,18,5.5,18
			c-0.39,0-0.716-0.339-0.741-0.771c-0.017-0.275-0.255-0.487-0.528-0.469c-0.276,0.016-0.486,0.253-0.47,0.529
			C3.817,18.248,4.581,19,5.5,19c0.96,0,1.74-0.819,1.74-1.827C7.24,16.27,6.724,15.717,5.642,15.521z"/>
		<path d="M16.5,16H15c-0.276,0-0.5,0.224-0.5,0.5S14.724,17,15,17h0.932c-0.2,1-0.7,1-0.932,1c-0.547,0-1-0.15-1-2s0.453-2,1-2
			c0.633,0,0.767,0.145,0.872,0.61c0.061,0.269,0.325,0.438,0.598,0.378c0.269-0.061,0.438-0.329,0.377-0.598
			C16.631,13.429,16.061,13,15,13c-2,0-2,2.102-2,3s0,3,2,3c0.831,0,1.854-0.427,1.999-2.464c0.01-0.139-0.038-0.275-0.133-0.376
			S16.639,16,16.5,16z"/>
		<path d="M11.644,13.021c-0.262-0.078-0.543,0.071-0.622,0.335L10,16.76l-1.021-3.404c-0.079-0.265-0.358-0.414-0.622-0.335
			c-0.265,0.08-0.415,0.358-0.335,0.623l1.5,5C9.585,18.855,9.779,19,10,19s0.415-0.145,0.479-0.356l1.5-5
			C12.059,13.379,11.908,13.101,11.644,13.021z"/>
		<path d="M19.961,6.308c-0.025-0.061-0.062-0.116-0.108-0.162l-5.998-5.999c-0.046-0.045-0.101-0.083-0.162-0.107
			C13.632,0.014,13.566,0,13.5,0h-13C0.224,0,0,0.224,0,0.5v23C0,23.776,0.224,24,0.5,24h19c0.276,0,0.5-0.224,0.5-0.5v-17
			C20,6.433,19.986,6.368,19.961,6.308z M14,1.707L18.293,6H14V1.707z M1,23V1h12v5.5C13,6.776,13.224,7,13.5,7H19v16H1z"/>
	</g>
</g>

</svg>
