<?xml version="1.0" encoding="utf-8"?>
<!-- Generator: Adobe Illustrator 16.0.3, SVG Export Plug-In . SVG Version: 6.00 Build 0)  -->
<!DOCTYPE svg PUBLIC "-//W3C//DTD SVG 1.1//EN" "http://www.w3.org/Graphics/SVG/1.1/DTD/svg11.dtd">
<svg version="1.1" xmlns="http://www.w3.org/2000/svg" xmlns:xlink="http://www.w3.org/1999/xlink" x="0px" y="0px" width="24px"
	 height="24px" viewBox="0 0 24 24" enable-background="new 0 0 24 24" xml:space="preserve">
<g id="Outline_Icons">
	<g>
		<path d="M6.945,12.782C7.619,13.154,8,13.402,8,14.174C8,14.629,7.668,15,7.26,15c-0.39,0-0.716-0.339-0.741-0.771
			c-0.017-0.275-0.261-0.495-0.528-0.47c-0.276,0.017-0.486,0.253-0.47,0.528C5.577,15.248,6.341,16,7.26,16
			C8.22,16,9,15.181,9,14.174c0-1.398-0.908-1.9-1.57-2.267c-0.615-0.34-0.91-0.528-0.91-1.082C6.52,10.37,6.853,10,7.262,10
			c0.389,0,0.714,0.338,0.739,0.77c0.017,0.275,0.246,0.485,0.528,0.47c0.276-0.017,0.486-0.253,0.47-0.528
			C8.942,9.751,8.179,9,7.262,9C6.301,9,5.52,9.818,5.52,10.825C5.52,11.993,6.311,12.431,6.945,12.782z"/>
		<path d="M23.5,6h-23C0.224,6,0,6.224,0,6.5v12C0,18.776,0.224,19,0.5,19h23c0.276,0,0.5-0.224,0.5-0.5v-12
			C24,6.224,23.776,6,23.5,6z M23,18H1V7h22V18z"/>
		<path d="M16.52,16H19c0.276,0,0.5-0.224,0.5-0.5S19.276,15,19,15h-1.98V9.5c0-0.276-0.224-0.5-0.5-0.5s-0.5,0.224-0.5,0.5v6
			C16.02,15.776,16.243,16,16.52,16z"/>
		<path d="M12.043,15.931c-0.026,0.159,0.011,0.326,0.136,0.442c0.201,0.189,0.505,0.185,0.692-0.016
			c0.084-0.021,0.323,0.066,0.469,0.115c0.223,0.074,0.507,0.171,0.795,0.171c0.249,0,0.501-0.072,0.719-0.29
			c0.195-0.195,0.2-0.514,0.005-0.709c-0.196-0.196-0.509-0.198-0.703-0.003c-0.06,0.021-0.249-0.036-0.398-0.085
			C14.565,14.922,15,13.691,15,12.5c0-1.696-0.864-3.5-2.467-3.5C10.947,9,10,10.779,10,12.5C10,14.034,10.756,15.605,12.043,15.931
			z M12.533,10C13.439,10,14,11.298,14,12.5S13.439,15,12.533,15C11.616,15,11,13.707,11,12.5S11.616,10,12.533,10z"/>
	</g>
</g>

</svg>
