<?xml version="1.0" encoding="utf-8"?>
<!-- Generator: Adobe Illustrator 16.0.3, SVG Export Plug-In . SVG Version: 6.00 Build 0)  -->
<!DOCTYPE svg PUBLIC "-//W3C//DTD SVG 1.1//EN" "http://www.w3.org/Graphics/SVG/1.1/DTD/svg11.dtd">
<svg version="1.1" xmlns="http://www.w3.org/2000/svg" xmlns:xlink="http://www.w3.org/1999/xlink" x="0px" y="0px" width="24px"
	 height="24px" viewBox="0 0 24 24" enable-background="new 0 0 24 24" xml:space="preserve">
<g id="Outline_Icons_1_">
	<g id="Outline_Icons">
		<g>
			<path d="M23.5,0h-20C3.224,0,3,0.224,3,0.5V4H0.5C0.224,4,0,4.224,0,4.5v19C0,23.776,0.224,24,0.5,24h19
				c0.276,0,0.5-0.224,0.5-0.5V21h3.5c0.276,0,0.5-0.224,0.5-0.5v-20C24,0.224,23.776,0,23.5,0z M19,23H1V5h2v15.5
				C3,20.776,3.224,21,3.5,21H19V23z M23,20H4V1h19V20z"/>
			<path d="M13.5,15.841c2.212,0,3-1.721,3-3.331c0-1.61-0.788-3.33-3-3.33c-0.883,0-1.53,0.281-2,0.713V9.836
				c0-1.106,0.311-3.678,3.191-3.678c0.276,0,0.5-0.223,0.5-0.5c0-0.276-0.224-0.5-0.5-0.5c-3.09,0-4.191,2.417-4.191,4.678v2.673
				C10.5,14.12,11.288,15.841,13.5,15.841z M13.5,10.18c1.74,0,2,1.459,2,2.33c0,0.871-0.26,2.331-2,2.331s-2-1.46-2-2.331
				C11.5,11.64,11.76,10.18,13.5,10.18z"/>
		</g>
	</g>
	<g id="New_icons_1_">
	</g>
</g>

</svg>
