<?xml version="1.0" encoding="utf-8"?>
<!-- Generator: Adobe Illustrator 16.0.3, SVG Export Plug-In . SVG Version: 6.00 Build 0)  -->
<!DOCTYPE svg PUBLIC "-//W3C//DTD SVG 1.1//EN" "http://www.w3.org/Graphics/SVG/1.1/DTD/svg11.dtd">
<svg version="1.1" xmlns="http://www.w3.org/2000/svg" xmlns:xlink="http://www.w3.org/1999/xlink" x="0px" y="0px" width="24px"
	 height="24px" viewBox="0 0 24 24" enable-background="new 0 0 24 24" xml:space="preserve">
<g id="Outline_Icons">
	<g>
		<path d="M11.5,19c4.136,0,7.5-3.364,7.5-7.5c0-2.963-1.724-5.757-4.289-6.953c-0.143-0.067-0.31-0.062-0.448,0.013
			s-0.234,0.211-0.258,0.367c-0.123,0.838-0.519,1.739-1.011,2.351C12.373,6.542,12,5.519,12,4.5c0-1.513,1.171-2.913,2.259-3.572
			c0.205-0.125,0.293-0.377,0.21-0.601c-0.083-0.225-0.316-0.356-0.551-0.32C8.356,0.937,4,5.986,4,11.5C4,15.636,7.364,19,11.5,19z
			 M12.135,1.518C11.478,2.356,11,3.399,11,4.5c0,1.469,0.639,2.953,1.667,3.873c0.189,0.169,0.478,0.17,0.667-0.001
			c0.663-0.595,1.23-1.592,1.516-2.619C16.756,6.911,18,9.142,18,11.5c0,3.584-2.916,6.5-6.5,6.5S5,15.084,5,11.5
			C5,7.124,8.009,3.067,12.135,1.518z"/>
		<path d="M23.988,18.394c-0.059-0.27-0.32-0.442-0.595-0.382l-23,5c-0.27,0.059-0.44,0.325-0.382,0.595C0.062,23.84,0.27,24,0.5,24
			c0.035,0,0.07-0.003,0.106-0.011l23-5C23.876,18.93,24.047,18.664,23.988,18.394z"/>
		<path d="M0.394,18.989l6.998,1.522c0.036,0.007,0.071,0.011,0.106,0.011c0.23,0,0.438-0.16,0.488-0.394
			c0.059-0.27-0.112-0.536-0.382-0.595l-6.998-1.522c-0.273-0.06-0.536,0.113-0.595,0.382C-0.047,18.664,0.124,18.93,0.394,18.989z"
			/>
		<path d="M23.606,23.011l-7-1.521c-0.266-0.056-0.536,0.112-0.595,0.383c-0.059,0.269,0.112,0.536,0.382,0.594l7,1.521
			C23.43,23.997,23.465,24,23.501,24c0.229,0,0.437-0.16,0.487-0.394C24.047,23.336,23.876,23.07,23.606,23.011z"/>
	</g>
</g>

</svg>
