<?xml version="1.0" encoding="utf-8"?>
<!-- Generator: Adobe Illustrator 16.0.3, SVG Export Plug-In . SVG Version: 6.00 Build 0)  -->
<!DOCTYPE svg PUBLIC "-//W3C//DTD SVG 1.1//EN" "http://www.w3.org/Graphics/SVG/1.1/DTD/svg11.dtd">
<svg version="1.1" xmlns="http://www.w3.org/2000/svg" xmlns:xlink="http://www.w3.org/1999/xlink" x="0px" y="0px" width="24px"
	 height="24px" viewBox="0 0 24 24" enable-background="new 0 0 24 24" xml:space="preserve">
<g id="Outline_Icons">
	<path d="M23.5,11h-3.07c0.61-1.096,0.774-2.272,0.444-3.391c-0.419-1.418-1.591-2.542-3.216-3.084
		c-0.179-0.057-0.377-0.014-0.512,0.121c-0.134,0.134-0.181,0.332-0.121,0.512c0.19,0.569,0.02,0.731-0.436,1.163
		c-0.034,0.032-0.069,0.065-0.104,0.1c-0.217-1.609-1.048-2.44-1.694-3.087c-0.777-0.777-1.167-1.168-0.356-2.586
		c0.096-0.168,0.086-0.376-0.024-0.534s-0.297-0.241-0.493-0.207C11.824,0.357,10.2,1.331,9.221,2.822
		c-0.73,1.11-1.068,2.483-0.996,3.976C7.992,6.613,7.76,6.454,7.545,6.307c-0.877-0.602-1.256-0.9-1.06-1.686
		c0.047-0.187-0.019-0.384-0.167-0.507C6.169,3.992,5.965,3.966,5.789,4.047c-1.41,0.657-2.472,2.118-2.771,3.812
		C2.815,9.008,2.991,10.105,3.5,11h-3C0.224,11,0,11.224,0,11.5v12C0,23.776,0.224,24,0.5,24h23c0.276,0,0.5-0.224,0.5-0.5v-12
		C24,11.224,23.776,11,23.5,11z M18,12v2H9v-2H18z M12.065,8.334c0.212,0.65,0.656,1.096,1.019,1.457
		c0.501,0.502,0.696,0.765,0.565,1.209h-2.303C11.076,10.096,11.568,9.068,12.065,8.334z M15,17v-2h8v2H15z M14,15v2H5v-2H14z M4,17
		H1v-2h3V17z M1,18h7v2H1V18z M14,21v2H5v-2H14z M9,20v-2h9v2H9z M19,18h4v2h-4V18z M23,14h-4v-2h0.5H23V14z M4.003,8.032
		c0.187-1.057,0.729-1.997,1.476-2.613c0.181,0.806,0.871,1.28,1.5,1.712C7.565,7.533,8.172,7.95,8.524,8.648
		c0.113,0.228,0.384,0.333,0.62,0.243C9.383,8.803,9.518,8.55,9.456,8.303c-0.473-1.909-0.265-3.614,0.601-4.932
		c0.671-1.022,1.723-1.758,3.071-2.159c-0.458,1.415,0.259,2.132,0.956,2.829c0.771,0.771,1.645,1.645,1.419,3.909
		c-0.025,0.254,0.144,0.485,0.393,0.539c0.251,0.047,0.498-0.091,0.579-0.331c0.17-0.51,0.478-0.802,0.804-1.111
		c0.331-0.314,0.719-0.682,0.805-1.258c0.92,0.484,1.572,1.224,1.832,2.104c0.299,1.014,0.064,2.109-0.662,3.107h-1.506
		c0.225-0.291,0.407-0.624,0.436-0.969c0.028-0.336-0.086-0.642-0.329-0.885c-0.195-0.195-0.512-0.195-0.707,0s-0.195,0.512,0,0.707
		c0.041,0.041,0.042,0.063,0.04,0.096c-0.023,0.278-0.482,0.752-0.861,1.051h-1.647c0.131-0.881-0.418-1.447-0.887-1.916
		c-0.535-0.536-0.998-0.998-0.801-1.986c0.043-0.216-0.06-0.435-0.254-0.538c-0.197-0.105-0.436-0.067-0.59,0.087
		C12.046,6.747,9.932,8.901,10.318,11H7.862C7.482,10.704,7.023,10.23,7,9.949C6.998,9.917,6.999,9.895,7.04,9.854
		c0.195-0.195,0.195-0.512,0-0.707s-0.512-0.195-0.707,0C6.09,9.39,5.976,9.695,6.004,10.031C6.032,10.376,6.215,10.709,6.439,11
		H4.717C4.061,10.248,3.801,9.179,4.003,8.032z M4.5,12H8v2H1v-2H4.5z M1,21h3v2H1V21z M15,23v-2h8v2H15z"/>
</g>

</svg>
