<?xml version="1.0" encoding="utf-8"?>
<!-- Generator: Adobe Illustrator 16.0.3, SVG Export Plug-In . SVG Version: 6.00 Build 0)  -->
<!DOCTYPE svg PUBLIC "-//W3C//DTD SVG 1.1//EN" "http://www.w3.org/Graphics/SVG/1.1/DTD/svg11.dtd">
<svg version="1.1" xmlns="http://www.w3.org/2000/svg" xmlns:xlink="http://www.w3.org/1999/xlink" x="0px" y="0px" width="24px"
	 height="24px" viewBox="0 0 24 24" enable-background="new 0 0 24 24" xml:space="preserve">
<g id="Outline_Icons">
	<g>
		<path d="M22.434,0.004l-7.5,1C14.686,1.038,14.5,1.25,14.5,1.5V2H13h-1.894L6.703,0.043C6.45-0.069,6.155,0.044,6.043,0.297
			c-0.112,0.252,0.002,0.548,0.254,0.66L9.23,2.261C6.784,3.01,5,5.29,5,7.979V20.5C5,20.776,5.224,21,5.5,21S6,20.776,6,20.5V7.979
			c0-2.575,1.972-4.675,4.5-4.928v1.244C9.011,4.898,8,6.371,8,8v15.5C8,23.777,8.224,24,8.5,24h7c0.276,0,0.5-0.224,0.5-0.5V8
			c0-1.628-1.011-3.101-2.5-3.706V3h1v0.5c0,0.25,0.186,0.462,0.434,0.496l7.5,1C22.456,4.999,22.479,5,22.5,5
			c0.12,0,0.237-0.043,0.329-0.124C22.938,4.781,23,4.644,23,4.5v-4c0-0.144-0.062-0.281-0.171-0.376S22.582-0.014,22.434,0.004z
			 M15,20h-2V10h2V20z M15,8v1h-2.5C12.224,9,12,9.224,12,9.5v11c0,0.276,0.224,0.5,0.5,0.5H15v2H9V8
			c0-1.316,0.881-2.498,2.143-2.872C11.354,5.065,11.5,4.87,11.5,4.648V3h1v1.648c0,0.221,0.146,0.416,0.357,0.479
			C14.119,5.503,15,6.684,15,8z M22,3.929l-6.5-0.867V1.938L22,1.071V3.929z"/>
	</g>
</g>

</svg>
