<?xml version="1.0" encoding="utf-8"?>
<!-- Generator: Adobe Illustrator 16.0.3, SVG Export Plug-In . SVG Version: 6.00 Build 0)  -->
<!DOCTYPE svg PUBLIC "-//W3C//DTD SVG 1.1//EN" "http://www.w3.org/Graphics/SVG/1.1/DTD/svg11.dtd">
<svg version="1.1" xmlns="http://www.w3.org/2000/svg" xmlns:xlink="http://www.w3.org/1999/xlink" x="0px" y="0px" width="24px"
	 height="24px" viewBox="0 0 24 24" enable-background="new 0 0 24 24" xml:space="preserve">
<g id="Outline_Icons">
	<g>
		<path d="M18.394,13.191C18.259,13.021,15.063,9,11,9c-3.272,0-5.98,2.606-6.981,3.711L0.895,8.693
			c-0.13-0.168-0.353-0.236-0.557-0.166C0.136,8.597,0,8.786,0,9v9c0,0.214,0.136,0.403,0.338,0.473
			C0.391,18.491,0.446,18.5,0.5,18.5c0.151,0,0.298-0.069,0.395-0.193l3.125-4.018C5.02,15.394,7.727,18,11,18
			c4.062,0,7.259-4.021,7.394-4.191C18.536,13.627,18.536,13.373,18.394,13.191z M1,16.543v-6.086L3.367,13.5L1,16.543z M11,17
			c-2.962,0-5.535-2.594-6.343-3.5C5.464,12.593,8.031,10,11,10c2.962,0,5.535,2.594,6.343,3.5C16.536,14.407,13.969,17,11,17z"/>
		<path d="M23.562,16.003c0-0.952-0.669-1.747-1.562-1.948l0-14.052h-1l0,14.091c-0.828,0.244-1.438,1.003-1.438,1.909
			s0.61,1.665,1.438,1.909V22c0,0.553-0.449,1.003-1,1.003c-0.551,0-1-0.45-1-1.003v-1c0-0.276-0.224-0.5-0.5-0.5S18,20.724,18,21v1
			c0,1.104,0.897,2.003,2,2.003c1.103,0,2-0.898,2-2.003v-4.049C22.893,17.75,23.562,16.955,23.562,16.003z M21.562,17.003
			c-0.551,0-1-0.448-1-1s0.449-1,1-1s1,0.448,1,1S22.113,17.003,21.562,17.003z"/>
		<circle cx="13" cy="13" r="1"/>
	</g>
</g>

</svg>
