<?xml version="1.0" encoding="utf-8"?>
<!-- Generator: Adobe Illustrator 16.0.3, SVG Export Plug-In . SVG Version: 6.00 Build 0)  -->
<!DOCTYPE svg PUBLIC "-//W3C//DTD SVG 1.1//EN" "http://www.w3.org/Graphics/SVG/1.1/DTD/svg11.dtd">
<svg version="1.1" xmlns="http://www.w3.org/2000/svg" xmlns:xlink="http://www.w3.org/1999/xlink" x="0px" y="0px" width="24px"
	 height="24px" viewBox="0 0 24 24" enable-background="new 0 0 24 24" xml:space="preserve">
<g id="Outline_Icons_1_">
	<g id="Outline_Icons">
		<g>
			<path d="M0.5,0C0.224,0,0,0.224,0,0.5v23C0,23.776,0.224,24,0.5,24S1,23.776,1,23.5v-23C1,0.224,0.776,0,0.5,0z"/>
			<path d="M22.761,2.768c-0.147-0.092-0.333-0.099-0.488-0.02c-3.761,1.92-6.16,0.732-8.701-0.525
				C10.737,0.819,7.524-0.772,2.263,2.06C2.101,2.146,2,2.316,2,2.5v15c0,0.176,0.093,0.339,0.243,0.429s0.338,0.094,0.494,0.011
				c4.601-2.477,7.444-1.178,10.455,0.197c1.71,0.781,3.456,1.58,5.496,1.58c1.222,0,2.549-0.287,4.036-1.035
				C22.894,18.598,23,18.425,23,18.235V3.193C23,3.02,22.909,2.858,22.761,2.768z M22,17.923c-3.396,1.586-5.826,0.478-8.392-0.695
				c-1.759-0.803-3.656-1.669-5.966-1.669c-1.381,0-2.909,0.31-4.643,1.128V2.801c4.642-2.398,7.307-1.078,10.128,0.318
				C15.622,4.354,18.194,5.627,22,3.982V17.923z"/>
			<path d="M18,8h-3.456l-1.068-3.285c-0.135-0.411-0.816-0.411-0.951,0L11.456,8H8C7.783,8,7.592,8.14,7.524,8.345
				C7.458,8.551,7.53,8.776,7.705,8.904l2.798,2.04L9.435,14.24c-0.066,0.206,0.007,0.432,0.182,0.559
				c0.088,0.063,0.19,0.095,0.294,0.095s0.206-0.032,0.294-0.096L13,12.768l2.796,2.028c0.177,0.128,0.413,0.127,0.588,0
				c0.175-0.127,0.248-0.353,0.182-0.559l-1.067-3.291l2.797-2.041c0.175-0.128,0.247-0.354,0.181-0.559C18.408,8.14,18.217,8,18,8z
				 M14.615,10.352c-0.175,0.127-0.247,0.352-0.181,0.558l0.706,2.175l-1.847-1.339c-0.177-0.128-0.413-0.126-0.588,0l-1.847,1.341
				l0.706-2.178c0.066-0.206-0.006-0.431-0.181-0.558L9.534,9h2.285c0.217,0,0.408-0.14,0.476-0.345L13,6.487l0.705,2.168
				C13.772,8.86,13.964,9,14.181,9h2.286L14.615,10.352z"/>
		</g>
	</g>
	<g id="New_icons_1_">
	</g>
</g>

</svg>
