<?xml version="1.0" encoding="utf-8"?>
<!-- Generator: Adobe Illustrator 16.0.3, SVG Export Plug-In . SVG Version: 6.00 Build 0)  -->
<!DOCTYPE svg PUBLIC "-//W3C//DTD SVG 1.1//EN" "http://www.w3.org/Graphics/SVG/1.1/DTD/svg11.dtd">
<svg version="1.1" xmlns="http://www.w3.org/2000/svg" xmlns:xlink="http://www.w3.org/1999/xlink" x="0px" y="0px" width="24px"
	 height="24px" viewBox="0 0 24 24" enable-background="new 0 0 24 24" xml:space="preserve">
<g id="Outline_Icons_1_">
	<g id="Outline_Icons">
		<g>
			<path d="M23.971,8.985c0-0.133-0.053-0.259-0.146-0.354l-8.485-8.485c-0.188-0.188-0.52-0.188-0.707,0l-6.01,6.011L6.854,4.389
				c-0.195-0.195-0.512-0.195-0.707,0l-4.95,4.95C1.103,9.433,1.05,9.56,1.05,9.692s0.053,0.26,0.146,0.354l8.485,8.485
				c0.098,0.097,0.226,0.146,0.354,0.146s0.256-0.049,0.354-0.146l2.124-2.124l1.763,1.768c0.001,0,0.002,0.002,0.003,0.003
				c0.047,0.048,0.104,0.084,0.164,0.108c0.061,0.025,0.125,0.038,0.189,0.038s0.129-0.013,0.19-0.038
				c0.034-0.015,0.062-0.04,0.094-0.062c0.022-0.016,0.049-0.026,0.069-0.045c0.001-0.001,0.001-0.001,0.001-0.001l8.838-8.839
				C23.918,9.245,23.971,9.118,23.971,8.985z M10.035,17.471L2.257,9.692L6.5,5.449l1.769,1.769l6.01,6.01L10.035,17.471z
				 M13.597,15.323c-0.044,0.219-0.072,0.445-0.084,0.672l-0.294-0.294L13.597,15.323z M14.689,17.06
				c-0.676-1.368,0.7-3.537,0.716-3.561c0.009-0.014,0.011-0.031,0.019-0.045c0.014-0.027,0.025-0.054,0.033-0.083
				c0.01-0.032,0.016-0.063,0.02-0.096c0.002-0.029,0.004-0.056,0.001-0.085c-0.002-0.033-0.009-0.065-0.019-0.097
				c-0.008-0.028-0.016-0.054-0.028-0.08c-0.015-0.032-0.036-0.06-0.059-0.088c-0.013-0.017-0.019-0.036-0.033-0.051l-6.01-6.01
				l5.656-5.657l7.778,7.778L14.689,17.06z"/>
			<path d="M0.854,11.117c-0.195-0.195-0.512-0.195-0.707,0s-0.195,0.512,0,0.707l12,12c0.098,0.098,0.226,0.146,0.354,0.146
				s0.256-0.049,0.354-0.146c0.195-0.195,0.195-0.512,0-0.707L0.854,11.117z"/>
		</g>
	</g>
	<g id="New_icons_1_">
	</g>
</g>

</svg>
