<?xml version="1.0" encoding="utf-8"?>
<!-- Generator: Adobe Illustrator 16.0.3, SVG Export Plug-In . SVG Version: 6.00 Build 0)  -->
<!DOCTYPE svg PUBLIC "-//W3C//DTD SVG 1.1//EN" "http://www.w3.org/Graphics/SVG/1.1/DTD/svg11.dtd">
<svg version="1.1" xmlns="http://www.w3.org/2000/svg" xmlns:xlink="http://www.w3.org/1999/xlink" x="0px" y="0px" width="24px"
	 height="24px" viewBox="0 0 24 24" enable-background="new 0 0 24 24" xml:space="preserve">
<g id="Outline_Icons_1_">
	<g id="Outline_Icons">
		<g>
			<path d="M2.5,0C2.224,0,2,0.224,2,0.5v23C2,23.776,2.224,24,2.5,24S3,23.776,3,23.5v-23C3,0.224,2.776,0,2.5,0z"/>
			<path d="M21.804,2.796c-0.123-0.094-0.284-0.126-0.435-0.085c-2.309,0.625-6.404,1.285-7.578,0.388
				C13.59,2.945,13.5,2.761,13.5,2.5c0-0.569-0.235-1.037-0.681-1.352c-1.938-1.372-7.821,0.646-8.485,0.88C4.134,2.1,4,2.288,4,2.5
				v12c0,0.162,0.079,0.314,0.211,0.408c0.133,0.094,0.303,0.118,0.455,0.063c2.322-0.819,6.434-1.815,7.575-1.007
				C12.42,14.091,12.5,14.256,12.5,14.5c0,0.569,0.236,1.052,0.684,1.396c0.637,0.489,1.689,0.658,2.841,0.658
				c2.37,0,5.16-0.717,5.604-0.835C21.848,15.66,22,15.462,22,15.235V3.193C22,3.038,21.928,2.891,21.804,2.796z M21,14.848
				c-2.352,0.581-6.092,1.111-7.207,0.255C13.591,14.947,13.5,14.761,13.5,14.5c0-0.569-0.235-1.037-0.681-1.352
				c-0.484-0.343-1.216-0.474-2.051-0.474c-1.978,0-4.536,0.735-5.769,1.13V2.857c2.363-0.792,6.152-1.664,7.241-0.892
				C12.42,2.091,12.5,2.256,12.5,2.5c0,0.569,0.236,1.051,0.684,1.394C14.834,5.154,19.28,4.25,21,3.836V14.848z"/>
		</g>
	</g>
	<g id="New_icons_1_">
	</g>
</g>

</svg>
