<?xml version="1.0" encoding="utf-8"?>
<!-- Generator: Adobe Illustrator 16.0.3, SVG Export Plug-In . SVG Version: 6.00 Build 0)  -->
<!DOCTYPE svg PUBLIC "-//W3C//DTD SVG 1.1//EN" "http://www.w3.org/Graphics/SVG/1.1/DTD/svg11.dtd">
<svg version="1.1" xmlns="http://www.w3.org/2000/svg" xmlns:xlink="http://www.w3.org/1999/xlink" x="0px" y="0px" width="24px"
	 height="24px" viewBox="0 0 24 24" enable-background="new 0 0 24 24" xml:space="preserve">
<g id="Outline_Icons">
	<g>
		<path d="M11.5,21c-3.416,0-6.225-2.648-6.481-6H16c0.276,0,0.5-0.224,0.5-0.5S16.276,14,16,14H4.5C4.224,14,4,14.224,4,14.5
			c0,4.136,3.364,7.5,7.5,7.5c0.276,0,0.5-0.224,0.5-0.5S11.776,21,11.5,21z"/>
		<path d="M11.5,13c2.481,0,4.5-2.019,4.5-4.5c0-3.497-2.531-6.716-5.888-7.487C9.883,0.958,9.644,1.076,9.545,1.292
			c-0.099,0.215-0.033,0.471,0.158,0.61c1.339,0.985,1.445,2.71,1.131,3.757c-0.189-0.219-0.307-0.445-0.338-0.716
			c-0.018-0.154-0.106-0.292-0.239-0.372c-0.134-0.08-0.298-0.094-0.441-0.036C8.026,5.244,7,6.689,7,8.5C7,10.981,9.019,13,11.5,13
			z M9.68,5.701c0.221,0.49,0.604,0.858,1.003,1.186c0.109,0.089,0.252,0.129,0.392,0.107c0.14-0.021,0.265-0.101,0.343-0.219
			c0.628-0.951,0.808-2.688,0.13-4.141C13.598,3.793,15,6.068,15,8.5c0,1.93-1.57,3.5-3.5,3.5S8,10.43,8,8.5
			C8,7.278,8.592,6.301,9.68,5.701z"/>
		<path d="M23.214,17.491c-0.5-0.823-1.62-1.181-2.607-0.85c-0.049-0.432-0.208-0.845-0.467-1.189
			c-0.816-1.092-2.479-1.096-3.299-0.014c-0.262,0.347-0.424,0.761-0.475,1.195c-0.983-0.322-2.085,0.042-2.582,0.858
			c-0.375,0.619-0.381,1.397-0.016,2.082c0.27,0.505,0.703,0.897,1.216,1.124c-0.219,0.343-0.351,0.73-0.377,1.129
			c-0.04,0.608,0.171,1.192,0.58,1.602c0.377,0.377,0.892,0.585,1.448,0.585c0.725,0,1.401-0.332,1.865-0.878
			c0.464,0.546,1.14,0.878,1.864,0.878c0.556,0,1.07-0.208,1.448-0.585c0.409-0.409,0.62-0.992,0.58-1.602
			c-0.026-0.398-0.158-0.786-0.377-1.129c0.512-0.227,0.946-0.619,1.216-1.125C23.596,18.89,23.59,18.111,23.214,17.491z
			 M22.349,19.103c-0.254,0.476-0.749,0.786-1.29,0.812c-0.209,0.009-0.391,0.148-0.454,0.35c-0.063,0.2,0.006,0.418,0.173,0.546
			c0.365,0.28,0.59,0.675,0.617,1.083c0.021,0.322-0.084,0.624-0.289,0.829c-0.242,0.241-0.537,0.292-0.741,0.292
			c-0.496,0-1.143-0.323-1.393-1.032c-0.071-0.2-0.26-0.334-0.472-0.334c-0.212,0-0.401,0.134-0.472,0.334
			c-0.25,0.709-0.897,1.032-1.393,1.032c-0.205,0-0.499-0.051-0.741-0.292c-0.205-0.205-0.31-0.507-0.289-0.829
			c0.027-0.408,0.251-0.803,0.617-1.083c0.167-0.128,0.236-0.346,0.173-0.546c-0.063-0.201-0.245-0.341-0.455-0.35
			c-0.541-0.025-1.035-0.336-1.289-0.812c-0.2-0.375-0.204-0.773-0.011-1.092c0.348-0.573,1.331-0.655,1.964-0.119
			c0.168,0.144,0.409,0.157,0.593,0.04c0.185-0.119,0.271-0.344,0.211-0.556c-0.132-0.471-0.046-0.97,0.229-1.333
			c0.438-0.577,1.265-0.574,1.702,0.009c0.279,0.372,0.359,0.862,0.218,1.344c-0.062,0.213,0.023,0.442,0.21,0.562
			c0.187,0.119,0.43,0.101,0.599-0.044c0.634-0.556,1.638-0.485,1.992,0.097C22.553,18.329,22.549,18.728,22.349,19.103z"/>
		<path d="M18.5,17.546c-1.096,0-1.988,0.892-1.988,1.988s0.892,1.988,1.988,1.988s1.988-0.892,1.988-1.988
			S19.596,17.546,18.5,17.546z M18.5,20.522c-0.545,0-0.988-0.443-0.988-0.988s0.443-0.988,0.988-0.988s0.988,0.443,0.988,0.988
			S19.045,20.522,18.5,20.522z"/>
	</g>
</g>

</svg>
