<?xml version="1.0" encoding="utf-8"?>
<!-- Generator: Adobe Illustrator 16.0.3, SVG Export Plug-In . SVG Version: 6.00 Build 0)  -->
<!DOCTYPE svg PUBLIC "-//W3C//DTD SVG 1.1//EN" "http://www.w3.org/Graphics/SVG/1.1/DTD/svg11.dtd">
<svg version="1.1" xmlns="http://www.w3.org/2000/svg" xmlns:xlink="http://www.w3.org/1999/xlink" x="0px" y="0px" width="24px"
	 height="24px" viewBox="0 0 24 24" enable-background="new 0 0 24 24" xml:space="preserve">
<g id="Outline_Icons">
	<path d="M19.5,3c-1.271,0-2.411,0.142-3.5,0.43V1c0-0.276-0.224-0.5-0.5-0.5c-1.52,0-2.766,0.268-4.006,0.842
		C10.249,0.798,8.895,0.5,7.5,0.5C7.224,0.5,7,0.724,7,1v2.418C5.882,3.146,4.712,3,3.5,3C3.224,3,3,3.224,3,3.5V8
		c0,4.951,3.407,8.717,8,8.975V23.5c0,0.276,0.224,0.5,0.5,0.5s0.5-0.224,0.5-0.5v-6.525c4.593-0.258,8-4.023,8-8.975V3.5
		C20,3.224,19.776,3,19.5,3z M15,1.511v2.233c-0.036,0.013-0.073,0.026-0.109,0.04c-0.657-0.724-1.401-1.348-2.22-1.843
		C13.398,1.691,14.152,1.548,15,1.511z M8,1.514c2.242,0.125,4.342,1.087,5.914,2.688c-0.74,0.354-1.478,0.783-2.235,1.318
		C10.559,4.736,9.322,4.126,8,3.699V1.514z M11.5,16C7.224,16,4,12.561,4,8V4.009c2.753,0.096,5.267,0.985,7.34,2.506
		c0.022,0.021,0.047,0.038,0.072,0.054c2.369,1.764,4.152,4.357,5.041,7.537C15.151,15.297,13.433,16,11.5,16z M19,8
		c0,2.05-0.651,3.872-1.756,5.259c-0.928-2.918-2.577-5.345-4.726-7.104C14.624,4.728,16.57,4.083,19,4.008V8z"/>
</g>

</svg>
