<?xml version="1.0" encoding="utf-8"?>
<!-- Generator: Adobe Illustrator 16.0.3, SVG Export Plug-In . SVG Version: 6.00 Build 0)  -->
<!DOCTYPE svg PUBLIC "-//W3C//DTD SVG 1.1//EN" "http://www.w3.org/Graphics/SVG/1.1/DTD/svg11.dtd">
<svg version="1.1" xmlns="http://www.w3.org/2000/svg" xmlns:xlink="http://www.w3.org/1999/xlink" x="0px" y="0px" width="24px"
	 height="24px" viewBox="0 0 24 24" enable-background="new 0 0 24 24" xml:space="preserve">
<g id="Outline_Icons_1_">
	<g>
		<g>
			<path d="M23.5,9C23.224,9,23,8.776,23,8.5V5h-6.5C16.224,5,16,4.776,16,4.5S16.224,4,16.5,4h7C23.776,4,24,4.224,24,4.5v4
				C24,8.776,23.776,9,23.5,9z"/>
		</g>
		<g>
			<path d="M0.5,9C0.224,9,0,8.776,0,8.5v-4C0,4.224,0.224,4,0.5,4h7C7.776,4,8,4.224,8,4.5S7.776,5,7.5,5H1v3.5
				C1,8.776,0.776,9,0.5,9z"/>
		</g>
		<g>
			<path d="M23.5,18h-7c-0.276,0-0.5-0.224-0.5-0.5s0.224-0.5,0.5-0.5H23v-3.5c0-0.276,0.224-0.5,0.5-0.5s0.5,0.224,0.5,0.5v4
				C24,17.776,23.776,18,23.5,18z"/>
		</g>
		<g>
			<path d="M7.5,18h-7C0.224,18,0,17.776,0,17.5v-4C0,13.224,0.224,13,0.5,13S1,13.224,1,13.5V17h6.5C7.776,17,8,17.224,8,17.5
				S7.776,18,7.5,18z"/>
		</g>
		<g>
			<path d="M20.5,15h-17C3.224,15,3,14.776,3,14.5v-7C3,7.224,3.224,7,3.5,7h17C20.776,7,21,7.224,21,7.5v7
				C21,14.776,20.776,15,20.5,15z M4,14h16V8H4V14z"/>
		</g>
	</g>
</g>

</svg>
