<?xml version="1.0" encoding="utf-8"?>
<!-- Generator: Adobe Illustrator 16.0.3, SVG Export Plug-In . SVG Version: 6.00 Build 0)  -->
<!DOCTYPE svg PUBLIC "-//W3C//DTD SVG 1.1//EN" "http://www.w3.org/Graphics/SVG/1.1/DTD/svg11.dtd">
<svg version="1.1" xmlns="http://www.w3.org/2000/svg" xmlns:xlink="http://www.w3.org/1999/xlink" x="0px" y="0px" width="24px"
	 height="24px" viewBox="0 0 24 24" enable-background="new 0 0 24 24" xml:space="preserve">
<g id="Outline_Icons">
	<g>
		<path d="M22.5,4H7.707L5.854,2.146C5.76,2.052,5.633,2,5.5,2h-5C0.224,2,0,2.223,0,2.5v16C0,18.776,0.224,19,0.5,19H11v3H5
			c-0.276,0-0.5,0.224-0.5,0.5S4.724,23,5,23h13c0.276,0,0.5-0.224,0.5-0.5S18.276,22,18,22h-6v-3h10.5c0.276,0,0.5-0.224,0.5-0.5
			v-14C23,4.223,22.776,4,22.5,4z M22,18H1V3h4.293l1.854,1.853C7.24,4.947,7.367,5,7.5,5H22V18z"/>
		<circle cx="0.5" cy="22.5" r="0.5"/>
		<circle cx="2.5" cy="22.5" r="0.5"/>
		<circle cx="20.5" cy="22.5" r="0.5"/>
		<circle cx="22.5" cy="22.5" r="0.5"/>
	</g>
</g>

</svg>
