<?xml version="1.0" encoding="utf-8"?>
<!-- Generator: Adobe Illustrator 16.0.3, SVG Export Plug-In . SVG Version: 6.00 Build 0)  -->
<!DOCTYPE svg PUBLIC "-//W3C//DTD SVG 1.1//EN" "http://www.w3.org/Graphics/SVG/1.1/DTD/svg11.dtd">
<svg version="1.1" xmlns="http://www.w3.org/2000/svg" xmlns:xlink="http://www.w3.org/1999/xlink" x="0px" y="0px" width="24px"
	 height="24px" viewBox="0 0 24 24" enable-background="new 0 0 24 24" xml:space="preserve">
<g id="Outline_Icons">
	<g>
		<path d="M23.5,14.5c-0.276,0-0.5,0.224-0.5,0.5v0.77C22.013,14.695,20.538,14,19,14c-2.198,0-4.289,1.402-4.971,3.333
			c-0.092,0.26,0.044,0.546,0.305,0.638c0.261,0.091,0.546-0.044,0.638-0.305C15.509,16.146,17.241,15,19,15
			c1.489,0,2.951,0.826,3.693,2H21c-0.276,0-0.5,0.224-0.5,0.5S20.724,18,21,18h2.5c0.055,0,0.111-0.009,0.167-0.029
			c0.004-0.001,0.007-0.005,0.012-0.007c0.037-0.014,0.067-0.037,0.099-0.059c0.022-0.015,0.047-0.026,0.066-0.044
			c0.024-0.024,0.041-0.053,0.06-0.081c0.018-0.025,0.038-0.047,0.05-0.074c0.012-0.026,0.015-0.057,0.022-0.085
			c0.009-0.035,0.021-0.069,0.021-0.105c0-0.005,0.003-0.01,0.003-0.015V15C24,14.723,23.776,14.5,23.5,14.5z"/>
		<path d="M23.667,20.028c-0.262-0.091-0.546,0.045-0.638,0.305C22.492,21.853,20.76,23,19,23c-1.49,0-2.951-0.826-3.693-2H17
			c0.276,0,0.5-0.224,0.5-0.5S17.276,20,17,20h-2.5c-0.03,0-0.057,0.012-0.085,0.018c-0.027,0.004-0.054,0.001-0.081,0.011
			c-0.005,0.001-0.008,0.005-0.013,0.007c-0.035,0.014-0.063,0.036-0.094,0.057c-0.024,0.016-0.05,0.028-0.07,0.047
			c-0.023,0.023-0.039,0.052-0.058,0.08c-0.018,0.025-0.039,0.048-0.052,0.076c-0.012,0.026-0.014,0.055-0.021,0.083
			c-0.009,0.036-0.021,0.071-0.021,0.109c0,0.005-0.003,0.009-0.003,0.014V23c0,0.276,0.224,0.5,0.5,0.5S15,23.276,15,23v-0.77
			c0.987,1.074,2.461,1.77,4,1.77c2.199,0,4.29-1.402,4.972-3.333C24.063,20.406,23.927,20.12,23.667,20.028z"/>
		<path d="M9.5,17H3.722C3.894,16.704,4,16.365,4,16V5h16v4.5c0,0.276,0.224,0.5,0.5,0.5S21,9.776,21,9.5v-5
			C21,4.223,20.776,4,20.5,4H19V2.5C19,2.223,18.776,2,18.5,2H6V0.5C6,0.223,5.776,0,5.5,0h-5C0.224,0,0,0.223,0,0.5V16
			c0,1.103,0.897,2,2,2h7.5c0.276,0,0.5-0.224,0.5-0.5S9.776,17,9.5,17z M1,16V1h4v1.5C5,2.776,5.224,3,5.5,3H18v1H3.5
			C3.224,4,3,4.223,3,4.5V16c0,0.551-0.449,1-1,1S1,16.551,1,16z"/>
	</g>
</g>

</svg>
