<?xml version="1.0" encoding="utf-8"?>
<!-- Generator: Adobe Illustrator 16.0.3, SVG Export Plug-In . SVG Version: 6.00 Build 0)  -->
<!DOCTYPE svg PUBLIC "-//W3C//DTD SVG 1.1//EN" "http://www.w3.org/Graphics/SVG/1.1/DTD/svg11.dtd">
<svg version="1.1" xmlns="http://www.w3.org/2000/svg" xmlns:xlink="http://www.w3.org/1999/xlink" x="0px" y="0px" width="24px"
	 height="24px" viewBox="0 0 24 24" enable-background="new 0 0 24 24" xml:space="preserve">
<g id="Outline_Icons">
	<g>
		<path d="M23.462,16.329c-0.072-0.198-0.26-0.33-0.47-0.33h-3.19l-1.854-3.723c-0.17-0.339-0.726-0.339-0.896,0L15.198,16h-3.206
			c-0.211,0-0.399,0.133-0.47,0.331c-0.072,0.198-0.011,0.42,0.151,0.555l2.751,2.281l-1.406,4.175
			c-0.069,0.204,0,0.429,0.172,0.558C13.279,23.966,13.386,24,13.492,24c0.098,0,0.197-0.029,0.282-0.087l3.725-2.545l3.71,2.545
			c0.177,0.122,0.412,0.117,0.583-0.013c0.172-0.129,0.242-0.353,0.173-0.558l-1.392-4.177l2.738-2.28
			C23.474,16.749,23.534,16.527,23.462,16.329z M19.672,18.615c-0.158,0.132-0.219,0.347-0.154,0.542l1.029,3.087l-2.764-1.896
			c-0.085-0.059-0.184-0.088-0.283-0.088s-0.197,0.029-0.282,0.087l-2.775,1.897l1.039-3.086c0.066-0.196,0.005-0.413-0.154-0.544
			L13.379,17h2.129c0.189,0,0.363-0.107,0.448-0.276l1.544-3.102l1.544,3.102C19.129,16.892,19.303,17,19.492,17h2.119
			L19.672,18.615z"/>
		<path d="M9.5,17H3.722C3.894,16.704,4,16.365,4,16V5h16v4.5c0,0.276,0.224,0.5,0.5,0.5S21,9.776,21,9.5v-5
			C21,4.223,20.776,4,20.5,4H19V2.5C19,2.223,18.776,2,18.5,2H6V0.5C6,0.223,5.776,0,5.5,0h-5C0.224,0,0,0.223,0,0.5V16
			c0,1.103,0.897,2,2,2h7.5c0.276,0,0.5-0.224,0.5-0.5S9.776,17,9.5,17z M1,16V1h4v1.5C5,2.776,5.224,3,5.5,3H18v1H3.5
			C3.224,4,3,4.223,3,4.5V16c0,0.551-0.449,1-1,1S1,16.551,1,16z"/>
	</g>
</g>

</svg>
