<?xml version="1.0" encoding="utf-8"?>
<!-- Generator: Adobe Illustrator 16.0.3, SVG Export Plug-In . SVG Version: 6.00 Build 0)  -->
<!DOCTYPE svg PUBLIC "-//W3C//DTD SVG 1.1//EN" "http://www.w3.org/Graphics/SVG/1.1/DTD/svg11.dtd">
<svg version="1.1" xmlns="http://www.w3.org/2000/svg" xmlns:xlink="http://www.w3.org/1999/xlink" x="0px" y="0px" width="24px"
	 height="24px" viewBox="0 0 24 24" enable-background="new 0 0 24 24" xml:space="preserve">
<g id="Outline_Icons">
	<g>
		<path d="M9.5,17H3.722C3.894,16.704,4,16.365,4,16V5h16v4.5c0,0.276,0.224,0.5,0.5,0.5S21,9.776,21,9.5v-5
			C21,4.223,20.776,4,20.5,4H19V2.5C19,2.223,18.776,2,18.5,2H6V0.5C6,0.223,5.776,0,5.5,0h-5C0.224,0,0,0.223,0,0.5V16
			c0,1.103,0.897,2,2,2h7.5c0.276,0,0.5-0.224,0.5-0.5S9.776,17,9.5,17z M1,16V1h4v1.5C5,2.776,5.224,3,5.5,3H18v1H3.5
			C3.224,4,3,4.223,3,4.5V16c0,0.551-0.449,1-1,1S1,16.551,1,16z"/>
		<path d="M23.82,15.115l-6-5c-0.186-0.154-0.455-0.154-0.641,0l-6,5c-0.212,0.177-0.241,0.492-0.064,0.705
			c0.177,0.211,0.492,0.24,0.705,0.064L13,14.9V21.5c0,0.276,0.224,0.5,0.5,0.5h8c0.276,0,0.5-0.224,0.5-0.5V14.9l1.18,0.984
			C23.273,15.962,23.387,16,23.5,16c0.144,0,0.286-0.061,0.385-0.179C24.061,15.607,24.032,15.292,23.82,15.115z M21,21h-7v-6.932
			l3.5-2.917l3.5,2.917V21z"/>
	</g>
</g>

</svg>
