<?xml version="1.0" encoding="utf-8"?>
<!-- Generator: Adobe Illustrator 16.0.3, SVG Export Plug-In . SVG Version: 6.00 Build 0)  -->
<!DOCTYPE svg PUBLIC "-//W3C//DTD SVG 1.1//EN" "http://www.w3.org/Graphics/SVG/1.1/DTD/svg11.dtd">
<svg version="1.1" xmlns="http://www.w3.org/2000/svg" xmlns:xlink="http://www.w3.org/1999/xlink" x="0px" y="0px" width="24px"
	 height="24px" viewBox="0 0 24 24" enable-background="new 0 0 24 24" xml:space="preserve">
<g id="Outline_Icons">
	<g>
		<path d="M10.5,0C10.224,0,10,0.224,10,0.5v5c0,1.208-0.86,2.217-2,2.449V0.5C8,0.224,7.776,0,7.5,0S7,0.224,7,0.5v7.449
			C5.86,7.717,5,6.708,5,5.5v-5C5,0.224,4.776,0,4.5,0S4,0.224,4,0.5v5c0,1.759,1.309,3.204,3,3.449V23.5C7,23.776,7.224,24,7.5,24
			S8,23.776,8,23.5V8.949c1.691-0.245,3-1.69,3-3.449v-5C11,0.224,10.776,0,10.5,0z"/>
		<path d="M16.5,0C14.57,0,13,1.57,13,3.5v2c0,1.759,1.309,3.204,3,3.449V23.5c0,0.276,0.224,0.5,0.5,0.5s0.5-0.224,0.5-0.5V8.949
			c1.691-0.245,3-1.69,3-3.449v-2C20,1.57,18.43,0,16.5,0z M19,5.5C19,6.879,17.879,8,16.5,8S14,6.879,14,5.5v-2
			C14,2.121,15.121,1,16.5,1S19,2.121,19,3.5V5.5z"/>
	</g>
</g>

</svg>
