<?xml version="1.0" encoding="utf-8"?>
<!-- Generator: Adobe Illustrator 16.0.3, SVG Export Plug-In . SVG Version: 6.00 Build 0)  -->
<!DOCTYPE svg PUBLIC "-//W3C//DTD SVG 1.1//EN" "http://www.w3.org/Graphics/SVG/1.1/DTD/svg11.dtd">
<svg version="1.1" xmlns="http://www.w3.org/2000/svg" xmlns:xlink="http://www.w3.org/1999/xlink" x="0px" y="0px" width="24px"
	 height="24px" viewBox="0 0 24 24" enable-background="new 0 0 24 24" xml:space="preserve">
<g id="Outline_Icons">
	<g>
		<path d="M23.986,20.385l-4-17C19.934,3.161,19.734,3.002,19.504,3c-0.002,0-0.003,0-0.004,0h-13v0.008
			c-0.214,0-0.414,0.131-0.479,0.348l-6,20c-0.08,0.265,0.07,0.543,0.335,0.623C0.404,23.993,0.452,24,0.5,24
			c0.215,0,0.414-0.14,0.479-0.356L1.771,21h12.838l-0.595,2.379c-0.066,0.268,0.096,0.539,0.364,0.606
			C14.42,23.995,14.46,24,14.5,24c0.225,0,0.429-0.151,0.485-0.379L16.141,19h6.493l0.38,1.615c0.062,0.268,0.331,0.435,0.601,0.372
			C23.884,20.923,24.05,20.654,23.986,20.385z M2.071,20l4.8-16h11.988l-4,16H2.071z M16.391,18l3.095-12.379L22.398,18H16.391z"/>
		<path d="M14.5,8h-7C7.276,8,7.081,8.148,7.02,8.363l-2,7c-0.043,0.151-0.014,0.313,0.081,0.438C5.195,15.927,5.343,16,5.5,16h7
			c0.224,0,0.419-0.148,0.48-0.363l2-7c0.043-0.151,0.014-0.313-0.081-0.438C14.805,8.074,14.657,8,14.5,8z M12.123,15h-5.96
			l1.714-6h5.96L12.123,15z"/>
		<path d="M15.5,6H8C7.724,6,7.5,6.224,7.5,6.5S7.724,7,8,7h7.5C15.776,7,16,6.776,16,6.5S15.776,6,15.5,6z"/>
		<path d="M12,17H4.5C4.224,17,4,17.224,4,17.5S4.224,18,4.5,18H12c0.276,0,0.5-0.224,0.5-0.5S12.276,17,12,17z"/>
	</g>
</g>

</svg>
