<?xml version="1.0" encoding="utf-8"?>
<!-- Generator: Adobe Illustrator 16.0.3, SVG Export Plug-In . SVG Version: 6.00 Build 0)  -->
<!DOCTYPE svg PUBLIC "-//W3C//DTD SVG 1.1//EN" "http://www.w3.org/Graphics/SVG/1.1/DTD/svg11.dtd">
<svg version="1.1" xmlns="http://www.w3.org/2000/svg" xmlns:xlink="http://www.w3.org/1999/xlink" x="0px" y="0px" width="24px"
	 height="24px" viewBox="0 0 24 24" enable-background="new 0 0 24 24" xml:space="preserve">
<g id="Outline_Icons">
	<g>
		<path d="M5.515,23.621C5.57,23.844,5.771,24,6,24h11c0.229,0,0.43-0.156,0.485-0.379l3-12c0.037-0.149,0.004-0.308-0.091-0.429
			C20.3,11.071,20.154,11,20,11h-1.689l1.612-5.867c0.031-0.115,0.021-0.238-0.03-0.346l-0.94-2C18.87,2.612,18.693,2.5,18.5,2.5H17
			c-0.223,0-0.418,0.146-0.48,0.36l-0.812,2.791l0.371-4.418c0.023-0.275-0.181-0.517-0.456-0.54l-2.989-0.252
			c-0.135-0.018-0.264,0.03-0.365,0.116c-0.101,0.086-0.164,0.208-0.175,0.341L11.5,8.012l-0.595-7.113
			c-0.011-0.133-0.074-0.255-0.176-0.341c-0.101-0.086-0.236-0.135-0.364-0.116L7.377,0.693C7.103,0.717,6.898,0.957,6.921,1.231
			l0.35,4.346L6.48,2.86C6.418,2.646,6.223,2.5,6,2.5H4.5c-0.193,0-0.37,0.112-0.452,0.288L3.107,4.79
			C3.057,4.896,3.046,5.02,3.077,5.135L4.688,11H3c-0.154,0-0.3,0.071-0.395,0.192c-0.095,0.121-0.128,0.279-0.091,0.429
			L5.515,23.621z M5.141,18h12.719l-0.5,2H5.641L5.141,18z M16.609,23H6.391l-0.5-2h11.219L16.609,23z M15.292,10.663L17.375,3.5
			h0.808l0.727,1.546L17.273,11h-0.794c-0.276,0-0.5,0.224-0.5,0.5c0,0.65-0.347,1.17-0.896,1.566l0.202-2.405L15.292,10.663z
			 M13.049,1.479l1.992,0.168l-1.004,11.947c-0.61,0.217-1.31,0.343-2.032,0.384L13.049,1.479z M7.957,1.648L9.95,1.479l1.045,12.5
			c-0.739-0.042-1.455-0.171-2.077-0.396L8.66,10.387l0.009-0.003l-0.012-0.041L7.957,1.648z M4.091,5.047L4.817,3.5h0.808
			l2.045,7.031l0.203,2.521C7.336,12.657,7,12.142,7,11.5C7,11.224,6.776,11,6.5,11H5.727L4.091,5.047z M6.042,12
			c0.362,2.086,2.992,3.042,5.448,3.042c2.455,0,5.085-0.956,5.447-3.042h2.422l-1.25,5H4.891l-1.25-5H6.042z"/>
	</g>
</g>

</svg>
