<?xml version="1.0" encoding="utf-8"?>
<!-- Generator: Adobe Illustrator 16.0.3, SVG Export Plug-In . SVG Version: 6.00 Build 0)  -->
<!DOCTYPE svg PUBLIC "-//W3C//DTD SVG 1.1//EN" "http://www.w3.org/Graphics/SVG/1.1/DTD/svg11.dtd">
<svg version="1.1" xmlns="http://www.w3.org/2000/svg" xmlns:xlink="http://www.w3.org/1999/xlink" x="0px" y="0px" width="24px"
	 height="24px" viewBox="0 0 24 24" enable-background="new 0 0 24 24" xml:space="preserve">
<g id="Outline_Icons">
	<g>
		<path d="M17.5,3C17.224,3,17,3.224,17,3.5S17.224,4,17.5,4C18.327,4,19,4.673,19,5.5V8H4V5.5C4,4.673,4.673,4,5.5,4
			C5.776,4,6,3.776,6,3.5S5.776,3,5.5,3C4.122,3,3,4.122,3,5.5v18C3,23.776,3.224,24,3.5,24h2.188h11.625H19.5
			c0.276,0,0.5-0.224,0.5-0.5v-18C20,4.122,18.878,3,17.5,3z M6.2,23c0.265-5.341,4.772-5.5,5.3-5.5s5.036,0.159,5.3,5.5H6.2z
			 M8.75,13.75c0-1.516,1.233-2.75,2.75-2.75s2.75,1.234,2.75,2.75c0,1.517-1.233,2.75-2.75,2.75S8.75,15.267,8.75,13.75z M17.79,23
			c-0.172-3.714-2.215-5.465-4.196-6.14c0.999-0.675,1.657-1.816,1.657-3.11c0-2.068-1.682-3.75-3.75-3.75s-3.75,1.682-3.75,3.75
			c0,1.294,0.658,2.436,1.657,3.11C7.426,17.535,5.383,19.286,5.21,23H4V9h15v14H17.79z"/>
		<path d="M11.5,7C12.327,7,13,6.327,13,5.5S12.327,4,11.5,4S10,4.673,10,5.5S10.673,7,11.5,7z M11.5,5C11.776,5,12,5.224,12,5.5
			S11.776,6,11.5,6S11,5.776,11,5.5S11.224,5,11.5,5z"/>
		<path d="M11.5,3C11.776,3,12,2.776,12,2.5v-2C12,0.224,11.776,0,11.5,0S11,0.224,11,0.5v2C11,2.776,11.224,3,11.5,3z"/>
		<path d="M9.146,3.854C9.244,3.951,9.372,4,9.5,4s0.256-0.049,0.354-0.146c0.195-0.195,0.195-0.512,0-0.707l-1.5-1.5
			c-0.195-0.195-0.512-0.195-0.707,0s-0.195,0.512,0,0.707L9.146,3.854z"/>
		<path d="M13.5,4c0.128,0,0.256-0.049,0.354-0.146l1.5-1.5c0.195-0.195,0.195-0.512,0-0.707s-0.512-0.195-0.707,0l-1.5,1.5
			c-0.195,0.195-0.195,0.512,0,0.707C13.244,3.951,13.372,4,13.5,4z"/>
		<path d="M14,5.5C14,5.776,14.224,6,14.5,6h2C16.776,6,17,5.776,17,5.5S16.776,5,16.5,5h-2C14.224,5,14,5.224,14,5.5z"/>
		<path d="M6.5,6h2C8.776,6,9,5.776,9,5.5S8.776,5,8.5,5h-2C6.224,5,6,5.224,6,5.5S6.224,6,6.5,6z"/>
	</g>
</g>

</svg>
