<?xml version="1.0" encoding="utf-8"?>
<!-- Generator: Adobe Illustrator 16.0.3, SVG Export Plug-In . SVG Version: 6.00 Build 0)  -->
<!DOCTYPE svg PUBLIC "-//W3C//DTD SVG 1.1//EN" "http://www.w3.org/Graphics/SVG/1.1/DTD/svg11.dtd">
<svg version="1.1" xmlns="http://www.w3.org/2000/svg" xmlns:xlink="http://www.w3.org/1999/xlink" x="0px" y="0px" width="24px"
	 height="24px" viewBox="0 0 24 24" enable-background="new 0 0 24 24" xml:space="preserve">
<g id="Outline_Icons">
	<g>
		<path d="M20.5,12h-16C4.224,12,4,12.224,4,12.5v8c0,1.208,0.86,2.217,2,2.449V23.5C6,23.776,6.224,24,6.5,24S7,23.776,7,23.5V23
			h11v0.5c0,0.276,0.224,0.5,0.5,0.5s0.5-0.224,0.5-0.5v-0.551c1.14-0.232,2-1.241,2-2.449v-8C21,12.224,20.776,12,20.5,12z
			 M20,20.5c0,0.827-0.673,1.5-1.5,1.5h-12C5.673,22,5,21.327,5,20.5V13h15V20.5z"/>
		<path d="M6,2.5v2v4C6,9.879,7.121,11,8.5,11h8c1.379,0,2.5-1.121,2.5-2.5v-4C19,4.224,18.776,4,18.5,4H7V2.5
			C7,1.121,5.879,0,4.5,0h-4C0.224,0,0,0.224,0,0.5S0.224,1,0.5,1h4C5.327,1,6,1.673,6,2.5z M7,8.5V5h2v5H8.5
			C7.673,10,7,9.327,7,8.5z M12,10h-2V5h2V10z M13,5h2v5h-2V5z M18,8.5c0,0.827-0.673,1.5-1.5,1.5H16V5h2V8.5z"/>
		<path d="M9.5,17c0.276,0,0.5-0.224,0.5-0.5V16h5v0.5c0,0.276,0.224,0.5,0.5,0.5s0.5-0.224,0.5-0.5v-1c0-0.276-0.224-0.5-0.5-0.5
			h-6C9.224,15,9,15.224,9,15.5v1C9,16.776,9.224,17,9.5,17z"/>
	</g>
</g>

</svg>
