<?xml version="1.0" encoding="utf-8"?>
<!-- Generator: Adobe Illustrator 16.0.3, SVG Export Plug-In . SVG Version: 6.00 Build 0)  -->
<!DOCTYPE svg PUBLIC "-//W3C//DTD SVG 1.1//EN" "http://www.w3.org/Graphics/SVG/1.1/DTD/svg11.dtd">
<svg version="1.1" xmlns="http://www.w3.org/2000/svg" xmlns:xlink="http://www.w3.org/1999/xlink" x="0px" y="0px" width="24px"
	 height="24px" viewBox="0 0 24 24" enable-background="new 0 0 24 24" xml:space="preserve">
<g id="Outline_Icons">
	<g>
		<path d="M20.5,8h-3C17.224,8,17,8.224,17,8.5v2c0,0.276,0.224,0.5,0.5,0.5h3c0.276,0,0.5-0.224,0.5-0.5v-2
			C21,8.224,20.776,8,20.5,8z M20,10h-2V9h2V10z"/>
		<path d="M6.5,8h-3C3.224,8,3,8.224,3,8.5v2C3,10.776,3.224,11,3.5,11h3C6.776,11,7,10.776,7,10.5v-2C7,8.224,6.776,8,6.5,8z M6,10
			H4V9h2V10z"/>
		<path d="M23.5,14H23V7h0.5C23.776,7,24,6.776,24,6.5S23.776,6,23.5,6H23V2.5C23,2.224,22.776,2,22.5,2h-21C1.224,2,1,2.224,1,2.5
			V6H0.5C0.224,6,0,6.224,0,6.5S0.224,7,0.5,7H1v7H0.5C0.224,14,0,14.224,0,14.5S0.224,15,0.5,15H1v8.5C1,23.776,1.224,24,1.5,24h7
			C8.776,24,9,23.776,9,23.5V15h0.5c0.276,0,0.5-0.224,0.5-0.5S9.776,14,9.5,14H9c0-1.654,1.346-3,3-3s3,1.346,3,3h-0.5
			c-0.276,0-0.5,0.224-0.5,0.5s0.224,0.5,0.5,0.5H15v8.5c0,0.276,0.224,0.5,0.5,0.5h7c0.276,0,0.5-0.224,0.5-0.5V15h0.5
			c0.276,0,0.5-0.224,0.5-0.5S23.776,14,23.5,14z M2,3h2v0.5C4,3.776,4.224,4,4.5,4S5,3.776,5,3.5V3h1v0.5C6,3.776,6.224,4,6.5,4
			S7,3.776,7,3.5V3h1v0.5C8,3.776,8.224,4,8.5,4S9,3.776,9,3.5V3h1v0.5C10,3.776,10.224,4,10.5,4S11,3.776,11,3.5V3h2v0.5
			C13,3.776,13.224,4,13.5,4S14,3.776,14,3.5V3h1v0.5C15,3.776,15.224,4,15.5,4S16,3.776,16,3.5V3h1v0.5C17,3.776,17.224,4,17.5,4
			S18,3.776,18,3.5V3h1v0.5C19,3.776,19.224,4,19.5,4S20,3.776,20,3.5V3h2v3H2V3z M8,23H2v-8h6V23z M12,10c-2.206,0-4,1.794-4,4H2V7
			h20v7h-6C16,11.794,14.206,10,12,10z M22,23h-6v-8h6V23z"/>
		<path d="M3.5,22h3C6.776,22,7,21.776,7,21.5V18c0-1.103-0.897-2-2-2s-2,0.897-2,2v3.5C3,21.776,3.224,22,3.5,22z M4,18
			c0-0.551,0.449-1,1-1s1,0.449,1,1v3H4V18z"/>
		<path d="M17.5,22h3c0.276,0,0.5-0.224,0.5-0.5V18c0-1.103-0.897-2-2-2s-2,0.897-2,2v3.5C17,21.776,17.224,22,17.5,22z M18,18
			c0-0.551,0.449-1,1-1s1,0.449,1,1v3h-2V18z"/>
	</g>
</g>

</svg>
