<?xml version="1.0" encoding="utf-8"?>
<!-- Generator: Adobe Illustrator 16.0.3, SVG Export Plug-In . SVG Version: 6.00 Build 0)  -->
<!DOCTYPE svg PUBLIC "-//W3C//DTD SVG 1.1//EN" "http://www.w3.org/Graphics/SVG/1.1/DTD/svg11.dtd">
<svg version="1.1" xmlns="http://www.w3.org/2000/svg" xmlns:xlink="http://www.w3.org/1999/xlink" x="0px" y="0px" width="24px"
	 height="24px" viewBox="0 0 24 24" enable-background="new 0 0 24 24" xml:space="preserve">
<g id="Outline_Icons_1_">
	<g id="Outline_Icons">
	</g>
	<g id="New_icons_1_">
		<g>
			<path d="M10.831,7.383c-0.213-0.177-0.527-0.146-0.704,0.065C9.951,7.661,9.98,7.976,10.192,8.152C11.341,9.106,12,10.509,12,12
				c0,2.757-2.243,5-5,5s-5-2.243-5-5c0-2.604,1.953-4.745,4.542-4.979C6.817,6.996,7.02,6.752,6.995,6.478
				C6.97,6.202,6.726,6,6.452,6.024C3.344,6.307,1,8.875,1,12c0,2.967,2.167,5.432,5,5.91v4.383l-2.146-2.146
				c-0.195-0.195-0.512-0.195-0.707,0s-0.195,0.512,0,0.707l3,2.999c0.193,0.194,0.512,0.197,0.708,0l3-2.999
				c0.195-0.195,0.195-0.512,0-0.707s-0.512-0.195-0.707,0L7,22.293V18c3.309,0,6-2.691,6-6C13,10.21,12.209,8.527,10.831,7.383z"/>
			<path d="M22.5,0h-4C18.224,0,18,0.224,18,0.5S18.224,1,18.5,1h2.793L16.87,5.423C15.825,4.537,14.475,4,13,4
				c-3.309,0-6,2.691-6,6c0,1.797,0.796,3.485,2.184,4.63c0.214,0.175,0.528,0.145,0.704-0.067c0.176-0.213,0.146-0.528-0.067-0.704
				C8.664,12.904,8,11.498,8,10c0-2.757,2.243-5,5-5s5,2.243,5,5c0,2.604-1.952,4.744-4.541,4.979
				c-0.275,0.025-0.478,0.268-0.453,0.543c0.023,0.26,0.242,0.455,0.498,0.455c0.015,0,0.03,0,0.045-0.002
				C16.657,15.693,19,13.125,19,10c0-1.475-0.537-2.825-1.423-3.87L22,1.707V4.5C22,4.776,22.224,5,22.5,5S23,4.776,23,4.5v-4
				C23,0.224,22.772,0,22.5,0z"/>
		</g>
	</g>
</g>

</svg>
