<?xml version="1.0" encoding="utf-8"?>
<!-- Generator: Adobe Illustrator 16.0.3, SVG Export Plug-In . SVG Version: 6.00 Build 0)  -->
<!DOCTYPE svg PUBLIC "-//W3C//DTD SVG 1.1//EN" "http://www.w3.org/Graphics/SVG/1.1/DTD/svg11.dtd">
<svg version="1.1" xmlns="http://www.w3.org/2000/svg" xmlns:xlink="http://www.w3.org/1999/xlink" x="0px" y="0px" width="24px"
	 height="24px" viewBox="0 0 24 24" enable-background="new 0 0 24 24" xml:space="preserve">
<g id="Outline_Icons">
	<g>
		<path d="M17.854,14.147c-0.046-0.046-0.102-0.083-0.163-0.108c-0.122-0.05-0.26-0.05-0.382,0
			c-0.062,0.025-0.117,0.062-0.163,0.108l-2.5,2.5c-0.195,0.195-0.195,0.512,0,0.707c0.195,0.195,0.512,0.195,0.707,0L17,15.707
			V20.5c0,0.276,0.224,0.5,0.5,0.5s0.5-0.224,0.5-0.5v-4.793l1.646,1.647C19.744,17.451,19.872,17.5,20,17.5
			s0.256-0.049,0.354-0.146c0.195-0.195,0.195-0.512,0-0.707L17.854,14.147z"/>
		<path d="M17.5,11c-3.584,0-6.5,2.916-6.5,6.5c0,3.584,2.916,6.5,6.5,6.5s6.5-2.916,6.5-6.5C24,13.916,21.084,11,17.5,11z M17.5,23
			c-3.033,0-5.5-2.467-5.5-5.5s2.467-5.5,5.5-5.5s5.5,2.467,5.5,5.5S20.533,23,17.5,23z"/>
		<path d="M12,23C5.935,23,1,18.066,1,12C1,5.935,5.935,1,12,1c0.69,0,1.364,0.072,2.02,0.194l-3.268,1.873
			c-0.15,0.086-0.245,0.244-0.251,0.417c-0.006,0.173,0.078,0.337,0.222,0.433L12,4.768V7H6.752c-0.17,0-0.329,0.086-0.42,0.229
			l-2.252,3.5c-0.139,0.215-0.092,0.501,0.108,0.661L9,15.24v2.26C9,17.776,9.224,18,9.5,18s0.5-0.224,0.5-0.5V15
			c0-0.152-0.069-0.295-0.188-0.39l-4.648-3.719L7.025,8H12.5C12.776,8,13,7.776,13,7.5v-3c0-0.167-0.083-0.323-0.223-0.416
			L11.95,3.532l3.462-1.984c1.714,0.562,3.243,1.531,4.472,2.797L18.453,7h-1.451c-0.133,0-0.26,0.053-0.354,0.146l-1.75,1.75
			c-0.195,0.196-0.195,0.512,0,0.707c0.098,0.098,0.226,0.146,0.354,0.146s0.256-0.049,0.354-0.146L17.209,8h1.543
			c0.184,0,0.353-0.101,0.44-0.263l1.396-2.592C22.094,7.027,23,9.408,23,12c0,0.276,0.224,0.5,0.5,0.5S24,12.276,24,12
			c0-3.072-1.171-5.87-3.077-7.995c-0.034-0.057-0.078-0.105-0.133-0.146c-1.421-1.534-3.229-2.702-5.276-3.331
			c-0.015-0.005-0.029-0.009-0.045-0.012C14.37,0.183,13.206,0,12,0C5.383,0,0,5.383,0,12s5.383,12,12,12c0.276,0,0.5-0.224,0.5-0.5
			S12.276,23,12,23z"/>
	</g>
</g>

</svg>
