<?xml version="1.0" encoding="utf-8"?>
<!-- Generator: Adobe Illustrator 16.0.3, SVG Export Plug-In . SVG Version: 6.00 Build 0)  -->
<!DOCTYPE svg PUBLIC "-//W3C//DTD SVG 1.1//EN" "http://www.w3.org/Graphics/SVG/1.1/DTD/svg11.dtd">
<svg version="1.1" xmlns="http://www.w3.org/2000/svg" xmlns:xlink="http://www.w3.org/1999/xlink" x="0px" y="0px" width="24px"
	 height="24px" viewBox="0 0 24 24" enable-background="new 0 0 24 24" xml:space="preserve">
<g id="Outline_Icons">
	<g>
		<path d="M23.43,15.928c0.034-0.128,0.017-0.265-0.05-0.379l-1.5-2.598c-0.138-0.239-0.443-0.321-0.683-0.183l-0.775,0.447
			C19.996,12.875,19.52,12.603,19,12.4v-0.9c0-0.276-0.224-0.5-0.5-0.5h-3c-0.276,0-0.5,0.224-0.5,0.5v0.9
			c-0.52,0.202-0.996,0.475-1.422,0.814l-0.775-0.447c-0.239-0.138-0.545-0.056-0.683,0.183l-1.5,2.598
			c-0.066,0.115-0.084,0.251-0.05,0.379s0.118,0.237,0.233,0.304l0.765,0.441c-0.09,0.562-0.09,1.093,0,1.654l-0.763,0.44
			c-0.239,0.139-0.321,0.444-0.183,0.683l1.5,2.598c0.138,0.239,0.443,0.321,0.683,0.183l0.774-0.446
			c0.427,0.339,0.903,0.612,1.422,0.813v0.9c0,0.276,0.224,0.5,0.5,0.5h3c0.276,0,0.5-0.224,0.5-0.5v-0.9
			c0.519-0.202,0.995-0.474,1.422-0.813l0.774,0.446c0.24,0.138,0.545,0.056,0.683-0.183l1.5-2.598
			c0.138-0.239,0.056-0.544-0.183-0.683l-0.763-0.44c0.09-0.562,0.09-1.092,0-1.654l0.765-0.441
			C23.312,16.166,23.396,16.056,23.43,15.928z M21.387,18.475c-0.047,0.213,0.049,0.432,0.238,0.542l0.637,0.369l-1,1.731
			l-0.646-0.373c-0.187-0.109-0.425-0.083-0.587,0.064c-0.478,0.436-1.042,0.76-1.68,0.962C18.141,21.835,18,22.028,18,22.246V23h-2
			v-0.754c0-0.218-0.141-0.411-0.349-0.477c-0.638-0.202-1.203-0.526-1.68-0.962c-0.162-0.147-0.399-0.172-0.587-0.064l-0.646,0.373
			l-1-1.731l0.637-0.369c0.189-0.109,0.286-0.329,0.238-0.542c-0.15-0.673-0.15-1.274,0-1.948c0.047-0.212-0.049-0.432-0.238-0.542
			l-0.639-0.369l1-1.731l0.648,0.373c0.188,0.109,0.426,0.083,0.587-0.064c0.476-0.435,1.041-0.759,1.681-0.962
			C15.859,13.164,16,12.972,16,12.754V12h2v0.754c0,0.218,0.141,0.41,0.348,0.477c0.64,0.204,1.205,0.527,1.681,0.962
			c0.161,0.148,0.399,0.174,0.587,0.064l0.648-0.373l1,1.731l-0.639,0.369c-0.189,0.11-0.286,0.329-0.238,0.542
			C21.537,17.2,21.537,17.801,21.387,18.475z"/>
		<path d="M17,15c-1.378,0-2.5,1.122-2.5,2.5S15.622,20,17,20s2.5-1.122,2.5-2.5S18.378,15,17,15z M17,19
			c-0.827,0-1.5-0.673-1.5-1.5S16.173,16,17,16s1.5,0.673,1.5,1.5S17.827,19,17,19z"/>
		<path d="M20.923,4.005c-0.034-0.057-0.078-0.105-0.133-0.146c-1.422-1.534-3.229-2.702-5.277-3.331
			c-0.015-0.005-0.029-0.009-0.044-0.012C14.37,0.183,13.206,0,12,0C5.383,0,0,5.383,0,12s5.383,12,12,12c0.276,0,0.5-0.224,0.5-0.5
			S12.276,23,12,23C5.935,23,1,18.066,1,12C1,5.935,5.935,1,12,1c0.69,0,1.364,0.072,2.02,0.194l-3.268,1.873
			c-0.15,0.086-0.245,0.244-0.251,0.417c-0.006,0.173,0.078,0.337,0.222,0.433L12,4.768V7H6.752c-0.17,0-0.329,0.086-0.42,0.229
			l-2.252,3.5c-0.139,0.215-0.092,0.501,0.108,0.661L9,15.24v2.26C9,17.776,9.224,18,9.5,18s0.5-0.224,0.5-0.5V15
			c0-0.152-0.069-0.295-0.188-0.39l-4.648-3.719L7.025,8H12.5C12.776,8,13,7.776,13,7.5v-3c0-0.167-0.083-0.323-0.223-0.416
			L11.95,3.532l3.462-1.984c1.714,0.562,3.243,1.531,4.472,2.797L18.453,7h-1.451c-0.133,0-0.26,0.053-0.354,0.146l-1.75,1.75
			c-0.195,0.196-0.195,0.512,0,0.707c0.098,0.098,0.226,0.146,0.354,0.146s0.256-0.049,0.354-0.146L17.209,8h1.543
			c0.184,0,0.353-0.101,0.44-0.263l1.396-2.592C22.094,7.027,23,9.408,23,12c0,0.276,0.224,0.5,0.5,0.5S24,12.276,24,12
			C24,8.928,22.829,6.13,20.923,4.005z"/>
	</g>
</g>

</svg>
