<?xml version="1.0" encoding="utf-8"?>
<!-- Generator: Adobe Illustrator 16.0.3, SVG Export Plug-In . SVG Version: 6.00 Build 0)  -->
<!DOCTYPE svg PUBLIC "-//W3C//DTD SVG 1.1//EN" "http://www.w3.org/Graphics/SVG/1.1/DTD/svg11.dtd">
<svg version="1.1" xmlns="http://www.w3.org/2000/svg" xmlns:xlink="http://www.w3.org/1999/xlink" x="0px" y="0px" width="24px"
	 height="24px" viewBox="0 0 24 24" enable-background="new 0 0 24 24" xml:space="preserve">
<g id="Outline_Icons">
	<g>
		<path d="M23.855,14.644l-2.5-2.5c-0.188-0.187-0.52-0.187-0.707,0l-7.502,7.503c-0.057,0.057-0.092,0.125-0.116,0.197
			c-0.002,0.007-0.009,0.013-0.011,0.02l-1,3.5c-0.05,0.174-0.001,0.362,0.127,0.491C12.242,23.949,12.369,24,12.5,24
			c0.046,0,0.092-0.006,0.137-0.019l3.5-1c0.007-0.002,0.012-0.009,0.02-0.011c0.072-0.024,0.14-0.059,0.197-0.116l7.502-7.502
			C24.051,15.156,24.051,14.839,23.855,14.644z M16,21.793L14.207,20l4.795-4.795l1.793,1.792L16,21.793z M13.747,20.955
			l1.299,1.298l-1.818,0.52L13.747,20.955z M21.502,16.291l-1.793-1.793l1.293-1.292l1.793,1.792L21.502,16.291z"/>
		<path d="M5.165,10.891L7.025,8H12.5C12.776,8,13,7.776,13,7.5v-3c0-0.167-0.083-0.323-0.223-0.416L11.95,3.532l3.462-1.984
			c1.714,0.562,3.243,1.531,4.472,2.797L18.453,7h-1.451c-0.133,0-0.26,0.053-0.354,0.146l-1.75,1.75
			c-0.195,0.196-0.195,0.512,0,0.707c0.098,0.098,0.226,0.146,0.354,0.146s0.256-0.049,0.354-0.146L17.209,8h1.543
			c0.184,0,0.353-0.101,0.44-0.263l1.396-2.592C22.094,7.027,23,9.408,23,12c0,0.276,0.224,0.5,0.5,0.5S24,12.276,24,12
			c0-3.072-1.171-5.87-3.077-7.995c-0.034-0.057-0.078-0.105-0.133-0.146c-1.421-1.534-3.229-2.702-5.276-3.331
			c-0.015-0.005-0.029-0.009-0.045-0.012C14.37,0.183,13.206,0,12,0C5.383,0,0,5.383,0,12c0,5.414,3.646,10.179,8.867,11.587
			c0.044,0.012,0.087,0.017,0.131,0.017c0.22,0,0.422-0.147,0.482-0.37c0.072-0.266-0.086-0.541-0.353-0.613
			C4.342,21.33,1,16.962,1,12C1,5.935,5.935,1,12,1c0.69,0,1.364,0.072,2.02,0.194l-3.268,1.873
			c-0.15,0.086-0.245,0.244-0.251,0.417c-0.006,0.173,0.078,0.337,0.222,0.433L12,4.768V7H6.752c-0.17,0-0.329,0.086-0.42,0.229
			l-2.252,3.5c-0.139,0.215-0.092,0.501,0.108,0.661L9,15.24v2.26C9,17.776,9.224,18,9.5,18s0.5-0.224,0.5-0.5V15
			c0-0.152-0.069-0.295-0.188-0.39L5.165,10.891z"/>
	</g>
</g>

</svg>
