<?xml version="1.0" encoding="utf-8"?>
<!-- Generator: Adobe Illustrator 16.0.3, SVG Export Plug-In . SVG Version: 6.00 Build 0)  -->
<!DOCTYPE svg PUBLIC "-//W3C//DTD SVG 1.1//EN" "http://www.w3.org/Graphics/SVG/1.1/DTD/svg11.dtd">
<svg version="1.1" xmlns="http://www.w3.org/2000/svg" xmlns:xlink="http://www.w3.org/1999/xlink" x="0px" y="0px" width="24px"
	 height="24px" viewBox="0 0 24 24" enable-background="new 0 0 24 24" xml:space="preserve">
<g id="Outline_Icons">
	<g>
		<path d="M16,11.051V8.5C16,8.224,15.776,8,15.5,8h-1.61l-1.905-7.601c-0.111-0.445-0.858-0.445-0.97,0L9.11,8H7.5
			C7.224,8,7,8.224,7,8.5v2.551c-1.14,0.232-2,1.242-2,2.449v8C5,22.878,6.122,24,7.5,24h8c1.378,0,2.5-1.122,2.5-2.5v-8
			C18,12.293,17.14,11.283,16,11.051z M15,11h-1V9h1V11z M12,11V9h1v2H12z M10,11V9h1v2H10z M11.5,2.578L12.859,8h-2.719L11.5,2.578
			z M8,9h1v2H8V9z M17,21.5c0,0.827-0.673,1.5-1.5,1.5h-8C6.673,23,6,22.327,6,21.5v-8C6,12.673,6.673,12,7.5,12h8
			c0.827,0,1.5,0.673,1.5,1.5V21.5z"/>
		<path d="M15.5,14h-8C7.224,14,7,14.224,7,14.5v6C7,20.776,7.224,21,7.5,21h8c0.276,0,0.5-0.224,0.5-0.5v-6
			C16,14.224,15.776,14,15.5,14z M15,20H8v-5h7V20z"/>
	</g>
</g>

</svg>
