<?xml version="1.0" encoding="utf-8"?>
<!-- Generator: Adobe Illustrator 16.0.3, SVG Export Plug-In . SVG Version: 6.00 Build 0)  -->
<!DOCTYPE svg PUBLIC "-//W3C//DTD SVG 1.1//EN" "http://www.w3.org/Graphics/SVG/1.1/DTD/svg11.dtd">
<svg version="1.1" xmlns="http://www.w3.org/2000/svg" xmlns:xlink="http://www.w3.org/1999/xlink" x="0px" y="0px" width="24px"
	 height="24px" viewBox="0 0 24 24" enable-background="new 0 0 24 24" xml:space="preserve">
<g id="Outline_Icons">
	<g>
		<path d="M20.5,11.499c1.93,0,3.5-1.57,3.5-3.5s-1.57-3.5-3.503-3.5l-0.371,0.002c-0.682-1.51-2.196-2.502-3.876-2.502
			c-2.242,0-3.975,1.473-4.22,3.5h-0.78C8.355,5.499,6,7.854,6,10.749c0,0.265,0.02,0.527,0.059,0.787
			c-0.925,0.115-1.758,0.509-2.39,1.137C2.926,13.411,2.5,14.441,2.5,15.499c0,0.891,0.291,1.739,0.827,2.436l-2.937,3.212
			C0.139,21.458,0,21.85,0,22.249c0,0.965,0.785,1.75,1.75,1.75h3.5c0.689,0,1.25-0.561,1.25-1.25c0-0.27-0.085-0.525-0.304-0.808
			L5.8,21.566l3.874-2.582c0.026,0.004,0.049,0.015,0.076,0.015c0.689,0,1.25,0.561,1.25,1.25v3.25c0,0.276,0.224,0.5,0.5,0.5h3.75
			c0.689,0,1.25-0.561,1.25-1.25c0-0.444-0.242-0.86-0.623-1.081l-0.767-0.711C15.041,20.909,15,20.832,15,20.749
			c0-0.051,0.015-0.098,0.028-0.119l1.223-1.632l2.238,2.016C18.818,21.344,19,21.782,19,22.249c0,0.347-0.103,0.684-0.296,0.974
			c-0.103,0.153-0.112,0.351-0.024,0.514C18.767,23.898,18.936,24,19.12,24l2.38-0.001c1.379,0,2.5-1.121,2.5-2.5v-1.5
			c0-0.152-0.015-0.63-4.627-8.5H20.5z M16,5.999V3.007c0.082-0.005,0.166-0.008,0.25-0.008c1.378,0,2.61,0.872,3.067,2.17
			c0.07,0.2,0.26,0.334,0.472,0.334c0.001,0,0.002,0,0.003,0L20.5,5.499c1.379,0,2.5,1.121,2.5,2.5V8h-3c-0.276,0-0.5,0.224-0.5,0.5
			S19.724,9,20,9h2.788c-0.388,0.881-1.266,1.499-2.288,1.499h-3.25c-1.24,0-2.25-1.01-2.25-2.25c0-0.731,0.319-1.462,0.814-1.861
			C15.932,6.293,16,6.15,16,5.999z M23,19.999v1.5c0,0.827-0.673,1.5-1.5,1.5L19.896,23C19.965,22.757,20,22.505,20,22.249
			c0-0.733-0.285-1.423-0.822-1.96l-6.843-6.161c-0.205-0.187-0.521-0.168-0.706,0.036c-0.186,0.206-0.169,0.521,0.036,0.706
			l3.839,3.456l-1.289,1.723C14.074,20.255,14,20.497,14,20.749c0,0.412,0.203,0.798,0.485,0.985l0.756,0.708
			c0.036,0.033,0.076,0.062,0.12,0.083c0.084,0.042,0.139,0.129,0.139,0.224c0,0.138-0.112,0.25-0.25,0.25H12v-2.75
			c0-0.872-0.504-1.621-1.231-1.995l0.509-0.339c0.229-0.153,0.292-0.464,0.139-0.693c-0.154-0.23-0.466-0.291-0.693-0.139l-6,4
			c-0.127,0.085-0.208,0.222-0.221,0.374c-0.013,0.151,0.044,0.301,0.155,0.405l0.794,0.74C5.474,22.632,5.5,22.682,5.5,22.749
			c0,0.138-0.112,0.25-0.25,0.25h-3.5c-0.413,0-0.75-0.337-0.75-0.75c0-0.22,0.092-0.379,0.148-0.45l3.217-3.518
			c0.179-0.196,0.174-0.497-0.012-0.688C3.803,17.03,3.5,16.286,3.5,15.499c0-0.793,0.318-1.565,0.874-2.117
			C4.955,12.805,5.737,12.5,6.639,12.5c0.008,0,0.017,0,0.024,0c0.206-0.008,0.305-0.071,0.399-0.195s0.127-0.285,0.086-0.436
			C7.05,11.507,7,11.13,7,10.749c0-2.344,1.906-4.25,4.25-4.25h1.25c0.276,0,0.5-0.224,0.5-0.5c0-1.323,0.792-2.37,2-2.795v2.57
			c-0.622,0.604-1,1.528-1,2.475c0,1.792,1.458,3.25,3.25,3.25h0.964C20.045,14.617,22.852,19.505,23,19.999z"/>
		<path d="M17.5,6.999c0.276,0,0.5-0.224,0.5-0.5v-1c0-0.276-0.224-0.5-0.5-0.5S17,5.223,17,5.499v1
			C17,6.775,17.224,6.999,17.5,6.999z"/>
	</g>
</g>

</svg>
