<?xml version="1.0" encoding="utf-8"?>
<!-- Generator: Adobe Illustrator 16.0.3, SVG Export Plug-In . SVG Version: 6.00 Build 0)  -->
<!DOCTYPE svg PUBLIC "-//W3C//DTD SVG 1.1//EN" "http://www.w3.org/Graphics/SVG/1.1/DTD/svg11.dtd">
<svg version="1.1" xmlns="http://www.w3.org/2000/svg" xmlns:xlink="http://www.w3.org/1999/xlink" x="0px" y="0px" width="24px"
	 height="24px" viewBox="0 0 24 24" enable-background="new 0 0 24 24" xml:space="preserve">
<g id="Outline_Icons">
	<g>
		<path d="M20.5,13H11V3.5C11,3.224,10.776,3,10.5,3C4.71,3,0,7.71,0,13.5S4.71,24,10.5,24S21,19.29,21,13.5
			C21,13.224,20.776,13,20.5,13z M10.5,23C5.262,23,1,18.738,1,13.5c0-5.07,3.993-9.226,9-9.487V13.5c0,0.276,0.224,0.5,0.5,0.5
			h9.487C19.726,19.007,15.57,23,10.5,23z"/>
		<path d="M13.5,0C13.224,0,13,0.224,13,0.5v10c0,0.276,0.224,0.5,0.5,0.5h10c0.276,0,0.5-0.224,0.5-0.5C24,4.71,19.29,0,13.5,0z
			 M14,10V1.013c4.841,0.252,8.734,4.146,8.987,8.987H14z"/>
	</g>
</g>
<g id="Invisibla_Shape">
	<rect fill="none" width="24" height="24"/>
</g>
</svg>
