<?xml version="1.0" encoding="utf-8"?>
<!-- Generator: Adobe Illustrator 16.0.3, SVG Export Plug-In . SVG Version: 6.00 Build 0)  -->
<!DOCTYPE svg PUBLIC "-//W3C//DTD SVG 1.1//EN" "http://www.w3.org/Graphics/SVG/1.1/DTD/svg11.dtd">
<svg version="1.1" xmlns="http://www.w3.org/2000/svg" xmlns:xlink="http://www.w3.org/1999/xlink" x="0px" y="0px" width="24px"
	 height="24px" viewBox="0 0 24 24" enable-background="new 0 0 24 24" xml:space="preserve">
<g id="Outline_Icons">
	<path d="M23.675,1.532c-0.193-0.073-0.416-0.017-0.553,0.141L16.841,8.92L9.658,6.526C9.526,6.481,9.38,6.494,9.259,6.562L1,11.122
		V1c0-0.276-0.224-0.5-0.5-0.5S0,0.724,0,1v10.96c0,0.006,0,0.013,0,0.019V23.5C0,23.776,0.224,24,0.5,24h23
		c0.276,0,0.5-0.224,0.5-0.5V2C24,1.792,23.87,1.604,23.675,1.532z M1,18.292L8.631,14H15c0.065,0,0.13-0.013,0.19-0.038L23,10.739
		v4.865l-8.039,1.892l-6.423-0.494c-0.115-0.01-0.228,0.021-0.322,0.087L1,22.078V18.292z M9.55,7.544l7.292,2.43
		c0.193,0.065,0.403,0.006,0.536-0.146L23,3.34v6.317L14.901,13H8.5c-0.086,0-0.17,0.022-0.245,0.064L1,17.146v-4.882L9.55,7.544z
		 M1.424,23l7.215-4.988l6.323,0.486c0.05,0.003,0.104,0,0.152-0.012L23,16.631V23H1.424z"/>
</g>
<g id="Invisibla_Shape">
	<rect fill="none" width="24" height="24"/>
</g>
</svg>
