<?xml version="1.0" encoding="utf-8"?>
<!-- Generator: Adobe Illustrator 16.0.3, SVG Export Plug-In . SVG Version: 6.00 Build 0)  -->
<!DOCTYPE svg PUBLIC "-//W3C//DTD SVG 1.1//EN" "http://www.w3.org/Graphics/SVG/1.1/DTD/svg11.dtd">
<svg version="1.1" xmlns="http://www.w3.org/2000/svg" xmlns:xlink="http://www.w3.org/1999/xlink" x="0px" y="0px" width="24px"
	 height="24px" viewBox="0 0 24 24" enable-background="new 0 0 24 24" xml:space="preserve">
<g id="Outline_Icons">
	<g>
		<path d="M6.911,12.231c-0.03-0.046-0.065-0.086-0.108-0.119c-0.01-0.008-0.015-0.021-0.025-0.028l-3-2
			c-0.168-0.112-0.387-0.112-0.555,0l-3,2c-0.011,0.007-0.016,0.02-0.025,0.028c-0.043,0.033-0.078,0.073-0.108,0.119
			c-0.012,0.017-0.024,0.032-0.034,0.051C0.022,12.349,0,12.421,0,12.5v8.907c0,0.164,0.08,0.316,0.214,0.41l3,2.094
			c0.009,0.006,0.021,0.003,0.03,0.009C3.32,23.966,3.404,24,3.5,24s0.18-0.034,0.256-0.08c0.009-0.006,0.021-0.003,0.03-0.009
			l3-2.094C6.92,21.723,7,21.57,7,21.407V12.5c0-0.079-0.022-0.151-0.055-0.217C6.936,12.264,6.923,12.249,6.911,12.231z
			 M3.5,11.102L5.599,12.5L3.5,13.899L1.401,12.5L3.5,11.102z M1,13.434l2,1.333v7.774l-2-1.396V13.434z M4,22.542v-7.774l2-1.333
			v7.712L4,22.542z"/>
		<path d="M14.911,7.231c-0.03-0.046-0.065-0.086-0.108-0.119c-0.01-0.008-0.015-0.021-0.025-0.028l-3-2
			c-0.168-0.112-0.387-0.112-0.555,0l-3,2c-0.011,0.007-0.016,0.02-0.025,0.028C8.154,7.146,8.119,7.186,8.089,7.231
			C8.077,7.249,8.064,7.264,8.055,7.283C8.022,7.349,8,7.421,8,7.5v13.907c0,0.164,0.08,0.316,0.214,0.41l3,2.094
			c0.009,0.006,0.021,0.003,0.03,0.009C11.32,23.966,11.404,24,11.5,24s0.18-0.034,0.256-0.08c0.009-0.006,0.021-0.003,0.03-0.009
			l3-2.094C14.92,21.723,15,21.57,15,21.407V7.5c0-0.079-0.022-0.151-0.055-0.217C14.936,7.264,14.923,7.249,14.911,7.231z
			 M11.5,6.102L13.599,7.5L11.5,8.899L9.401,7.5L11.5,6.102z M9,8.434l2,1.333v12.774l-2-1.396V8.434z M12,22.542V9.768l2-1.333
			v12.712L12,22.542z"/>
		<path d="M22.945,2.283c-0.01-0.019-0.022-0.034-0.034-0.051c-0.03-0.046-0.065-0.086-0.108-0.119
			c-0.01-0.008-0.015-0.021-0.025-0.028l-3-2c-0.168-0.112-0.387-0.112-0.555,0l-3,2c-0.011,0.007-0.016,0.02-0.025,0.028
			c-0.043,0.033-0.078,0.073-0.108,0.119c-0.012,0.017-0.024,0.032-0.034,0.051C16.022,2.349,16,2.421,16,2.5v18.907
			c0,0.164,0.08,0.316,0.214,0.41l3,2.094c0.009,0.006,0.021,0.003,0.03,0.009C19.32,23.966,19.404,24,19.5,24
			s0.18-0.034,0.256-0.08c0.009-0.006,0.021-0.003,0.03-0.009l3-2.094C22.92,21.723,23,21.57,23,21.407V2.5
			C23,2.421,22.978,2.349,22.945,2.283z M19.5,1.102L21.599,2.5L19.5,3.899L17.401,2.5L19.5,1.102z M17,3.434l2,1.333v17.774
			l-2-1.396V3.434z M20,22.542V4.768l2-1.333v17.712L20,22.542z"/>
	</g>
</g>
<g id="Invisibla_Shape">
	<rect fill="none" width="24" height="24"/>
</g>
</svg>
