<?xml version="1.0" encoding="utf-8"?>
<!-- Generator: Adobe Illustrator 16.0.3, SVG Export Plug-In . SVG Version: 6.00 Build 0)  -->
<!DOCTYPE svg PUBLIC "-//W3C//DTD SVG 1.1//EN" "http://www.w3.org/Graphics/SVG/1.1/DTD/svg11.dtd">
<svg version="1.1" xmlns="http://www.w3.org/2000/svg" xmlns:xlink="http://www.w3.org/1999/xlink" x="0px" y="0px" width="24px"
	 height="24px" viewBox="0 0 24 24" enable-background="new 0 0 24 24" xml:space="preserve">
<g id="Outline_Icons">
	<g>
		<path d="M20.5,0h-18C2.478,0,2.459,0.01,2.438,0.013C2.407,0.017,2.38,0.021,2.35,0.031C2.308,0.044,2.27,0.064,2.233,0.088
			C2.218,0.098,2.199,0.1,2.186,0.111C2.18,0.116,2.177,0.125,2.171,0.13C2.134,0.163,2.104,0.203,2.079,0.247
			c-0.011,0.017-0.024,0.03-0.032,0.048C2.018,0.358,2,0.427,2,0.5v20c0,0.236,0.165,0.44,0.396,0.489l14,3
			C16.43,23.997,16.465,24,16.5,24c0.113,0,0.225-0.038,0.314-0.111C16.932,23.794,17,23.651,17,23.5V21h3.5
			c0.276,0,0.5-0.224,0.5-0.5v-20C21,0.224,20.776,0,20.5,0z M16,22.881L3,20.096V1.119l13,2.785V22.881z M20,20h-3V3.5
			c0-0.236-0.165-0.439-0.396-0.489L7.219,1H20V20z"/>
		<path d="M9.963,5.311C9.887,5.125,9.708,5.003,9.509,5C9.348,5.002,9.127,5.113,9.044,5.295l-4.5,10
			c-0.065,0.146-0.058,0.314,0.021,0.453c0.079,0.139,0.221,0.232,0.379,0.25L9,16.448V19.5C9,19.776,9.224,20,9.5,20
			s0.5-0.224,0.5-0.5v-2.941l3.944,0.439C13.963,16.999,13.981,17,14,17c0.156,0,0.304-0.073,0.399-0.199
			c0.105-0.141,0.13-0.327,0.063-0.491L9.963,5.311z M10,15.553V14c0-0.276-0.224-0.5-0.5-0.5S9,13.724,9,14v1.442l-3.263-0.363
			l3.741-8.312l3.74,9.144L10,15.553z"/>
	</g>
</g>

</svg>
