<?xml version="1.0" encoding="utf-8"?>
<!-- Generator: Adobe Illustrator 16.0.3, SVG Export Plug-In . SVG Version: 6.00 Build 0)  -->
<!DOCTYPE svg PUBLIC "-//W3C//DTD SVG 1.1//EN" "http://www.w3.org/Graphics/SVG/1.1/DTD/svg11.dtd">
<svg version="1.1" xmlns="http://www.w3.org/2000/svg" xmlns:xlink="http://www.w3.org/1999/xlink" x="0px" y="0px" width="24px"
	 height="24px" viewBox="0 0 24 24" enable-background="new 0 0 24 24" xml:space="preserve">
<g id="Outline_Icons">
	<g>
		<path d="M18.5,13c-3.033,0-5.5,2.467-5.5,5.5s2.467,5.5,5.5,5.5s5.5-2.467,5.5-5.5S21.533,13,18.5,13z M18.5,14
			c1.061,0,2.024,0.384,2.793,1L15,21.293c-0.616-0.77-1-1.732-1-2.793C14,16.019,16.019,14,18.5,14z M18.5,23
			c-1.06,0-2.023-0.384-2.793-1l6.294-6.293c0.616,0.771,1,1.733,1,2.793C23,20.982,20.982,23,18.5,23z"/>
		<path d="M18,7v4.5c0,0.276,0.224,0.5,0.5,0.5s0.5-0.224,0.5-0.5v-9C19,1.122,17.878,0,16.5,0h-14C1.122,0,0,1.122,0,2.5v15
			C0,18.878,1.122,20,2.5,20h9c0.276,0,0.5-0.224,0.5-0.5S11.776,19,11.5,19H7v-5h5.5c0.276,0,0.5-0.224,0.5-0.5V7H18z M18,2.5V6h-5
			V1h3.5C17.327,1,18,1.673,18,2.5z M12,6H7V1h5V6z M2.5,1H6v5H1V2.5C1,1.673,1.673,1,2.5,1z M1,7h5v6H1V7z M6,19H2.5
			C1.673,19,1,18.327,1,17.5V14h5V19z M12,13H7V7h5V13z"/>
	</g>
</g>

</svg>
