<?xml version="1.0" encoding="utf-8"?>
<!-- Generator: Adobe Illustrator 16.0.3, SVG Export Plug-In . SVG Version: 6.00 Build 0)  -->
<!DOCTYPE svg PUBLIC "-//W3C//DTD SVG 1.1//EN" "http://www.w3.org/Graphics/SVG/1.1/DTD/svg11.dtd">
<svg version="1.1" xmlns="http://www.w3.org/2000/svg" xmlns:xlink="http://www.w3.org/1999/xlink" x="0px" y="0px" width="24px"
	 height="24px" viewBox="0 0 24 24" enable-background="new 0 0 24 24" xml:space="preserve">
<g id="Outline_Icons">
	<g>
		<path d="M23.898,23.172l-4.946-10.387c-0.166-0.349-0.737-0.349-0.903,0l-5,10.5c-0.074,0.155-0.062,0.337,0.029,0.482
			C13.169,23.912,13.329,24,13.5,24h10c0.007,0,0.014,0,0.02,0c0.276,0,0.5-0.224,0.5-0.5C24.02,23.375,23.974,23.261,23.898,23.172
			z M14.292,23l4.208-8.837L22.708,23H14.292z"/>
		<path d="M18,17v3c0,0.276,0.224,0.5,0.5,0.5S19,20.276,19,20v-3c0-0.276-0.224-0.5-0.5-0.5S18,16.724,18,17z"/>
		<circle cx="18.5" cy="21.5" r="0.5"/>
		<path d="M18,7v3c0,0.276,0.224,0.5,0.5,0.5S19,10.276,19,10V2.5C19,1.122,17.878,0,16.5,0h-14C1.122,0,0,1.122,0,2.5v15
			C0,18.878,1.122,20,2.5,20H12c0.276,0,0.5-0.224,0.5-0.5S12.276,19,12,19H7v-5h5.5c0.276,0,0.5-0.224,0.5-0.5V7H18z M18,2.5V6h-5
			V1h3.5C17.327,1,18,1.673,18,2.5z M12,6H7V1h5V6z M2.5,1H6v5H1V2.5C1,1.673,1.673,1,2.5,1z M1,7h5v6H1V7z M6,19H2.5
			C1.673,19,1,18.327,1,17.5V14h5V19z M12,13H7V7h5V13z"/>
	</g>
</g>

</svg>
