<?xml version="1.0" encoding="utf-8"?>
<!-- Generator: Adobe Illustrator 16.0.3, SVG Export Plug-In . SVG Version: 6.00 Build 0)  -->
<!DOCTYPE svg PUBLIC "-//W3C//DTD SVG 1.1//EN" "http://www.w3.org/Graphics/SVG/1.1/DTD/svg11.dtd">
<svg version="1.1" xmlns="http://www.w3.org/2000/svg" xmlns:xlink="http://www.w3.org/1999/xlink" x="0px" y="0px" width="24px"
	 height="24px" viewBox="0 0 24 24" enable-background="new 0 0 24 24" xml:space="preserve">
<g id="Outline_Icons_1_">
	<g id="Outline_Icons">
		<g>
			<path d="M18.5,13c-3.033,0-5.5,2.468-5.5,5.5s2.467,5.5,5.5,5.5s5.5-2.468,5.5-5.5S21.533,13,18.5,13z M18.5,14
				c1.061,0,2.023,0.384,2.794,1L15,21.293c-0.616-0.77-1-1.732-1-2.793C14,16.019,16.019,14,18.5,14z M18.5,23
				c-1.061,0-2.023-0.384-2.793-1l6.294-6.293C22.616,16.478,23,17.44,23,18.5C23,20.981,20.981,23,18.5,23z"/>
			<path d="M9.832,12.838c0.135,0.049,3.022,1.104,3.166,1.104c0.205,0,0.397-0.127,0.471-0.331c0.093-0.26-0.042-0.547-0.302-0.64
				L10.5,12.016v-1.45c1.174-0.944,1.947-2.532,1.947-4.33C12.447,3.629,10.63,1,8,1C5.388,1,3.553,3.572,3.553,6.236
				c0,1.797,0.773,3.385,1.947,4.33v1.45l-3.61,1.293C0.76,13.714,0,14.8,0,16.012V17.5C0,17.776,0.224,18,0.5,18H11
				c0.276,0,0.5-0.224,0.5-0.5S11.276,17,11,17H1v-0.988c0-0.791,0.493-1.499,1.227-1.762l3.941-1.412
				c0.199-0.071,0.332-0.26,0.332-0.471v-1.219c0.471,0.2,0.971,0.328,1.5,0.328s1.029-0.128,1.5-0.328v1.219
				C9.5,12.578,9.633,12.767,9.832,12.838z M8,2c1.657,0,3.043,1.445,3.372,3.363C10.315,5.547,9.668,5.191,9.027,4.07
				C8.936,3.911,8.769,3.815,8.583,3.818C8.4,3.822,8.234,3.925,8.149,4.087C7.807,4.745,6.602,5.344,5.621,5.344
				c-0.348,0-0.648-0.07-0.943-0.177C5.066,3.35,6.401,2,8,2z M8,10.477c-1.871,0-3.464-1.868-3.444-4.283
				c0.336,0.097,0.685,0.15,1.065,0.15c1.064,0,2.228-0.487,2.935-1.17C9.19,6.012,9.937,6.411,10.88,6.411
				c0.176,0,0.367-0.029,0.558-0.057C11.385,8.637,9.868,10.477,8,10.477z"/>
			<path d="M14.5,10.477c-0.276,0-0.5,0.224-0.5,0.5s0.224,0.5,0.5,0.5c0.529,0,1.029-0.128,1.5-0.328V12c0,0.276,0.224,0.5,0.5,0.5
				S17,12.276,17,12v-1.435c1.174-0.944,1.947-2.532,1.947-4.33C18.947,3.628,17.13,1,14.5,1C14.224,1,14,1.224,14,1.5
				S14.224,2,14.5,2c1.657,0,3.043,1.445,3.372,3.363c-1.058,0.184-1.705-0.172-2.345-1.292c-0.138-0.24-0.443-0.324-0.682-0.186
				c-0.24,0.137-0.323,0.442-0.186,0.682c0.717,1.254,1.574,1.845,2.721,1.845c0.176,0,0.367-0.029,0.558-0.057
				C17.885,8.637,16.368,10.477,14.5,10.477z"/>
		</g>
	</g>
	<g id="New_icons_1_">
	</g>
</g>

</svg>
