<?xml version="1.0" encoding="utf-8"?>
<!-- Generator: Adobe Illustrator 16.0.3, SVG Export Plug-In . SVG Version: 6.00 Build 0)  -->
<!DOCTYPE svg PUBLIC "-//W3C//DTD SVG 1.1//EN" "http://www.w3.org/Graphics/SVG/1.1/DTD/svg11.dtd">
<svg version="1.1" xmlns="http://www.w3.org/2000/svg" xmlns:xlink="http://www.w3.org/1999/xlink" x="0px" y="0px" width="24px"
	 height="24px" viewBox="0 0 24 24" enable-background="new 0 0 24 24" xml:space="preserve">
<g id="Outline_Icons">
	<g>
		<path d="M12,3c-3.86,0-7,3.141-7,7c0,1.314,0.368,2.598,1.063,3.71c0.146,0.235,0.454,0.307,0.689,0.159
			c0.234-0.146,0.305-0.455,0.159-0.688C6.315,12.227,6,11.127,6,10c0-3.309,2.691-6,6-6s6,2.691,6,6
			c0,1.134-0.318,2.237-0.919,3.192c-0.147,0.233-0.077,0.542,0.156,0.689c0.083,0.053,0.175,0.077,0.266,0.077
			c0.166,0,0.329-0.083,0.423-0.233C18.629,12.611,19,11.322,19,10C19,6.141,15.86,3,12,3z"/>
		<path d="M16.56,14.944l-3.563-1.063V9.5c0-0.827-0.673-1.5-1.5-1.5s-1.5,0.673-1.5,1.5v6.366
			c-0.695-0.716-1.478-0.998-2.069-0.998c-0.573,0-1.052,0.254-1.282,0.679c-0.147,0.271-0.314,0.847,0.218,1.66l3.061,4.59
			c0.093,0.139,0.249,0.223,0.416,0.223h6.12c0.242,0,0.449-0.173,0.492-0.411c0.104-0.572,0.845-4.553,0.845-4.553
			C18.01,16.135,17.464,15.207,16.56,14.944z M16.818,16.852c0,0-0.555,2.981-0.774,4.168h-5.436l-2.91-4.363
			c-0.208-0.318-0.226-0.536-0.173-0.634c0.051-0.095,0.206-0.154,0.402-0.154c0.639,0,1.54,0.574,2.112,1.855
			c0.096,0.215,0.329,0.333,0.561,0.285c0.231-0.05,0.396-0.253,0.396-0.489V9.5c0-0.275,0.224-0.5,0.5-0.5s0.5,0.225,0.5,0.5v4.754
			c0,0.221,0.145,0.416,0.357,0.479l3.924,1.171C16.677,16.02,16.916,16.427,16.818,16.852z"/>
	</g>
</g>

</svg>
