<?xml version="1.0" encoding="utf-8"?>
<!-- Generator: Adobe Illustrator 16.0.3, SVG Export Plug-In . SVG Version: 6.00 Build 0)  -->
<!DOCTYPE svg PUBLIC "-//W3C//DTD SVG 1.1//EN" "http://www.w3.org/Graphics/SVG/1.1/DTD/svg11.dtd">
<svg version="1.1" xmlns="http://www.w3.org/2000/svg" xmlns:xlink="http://www.w3.org/1999/xlink" x="0px" y="0px" width="24px"
	 height="24px" viewBox="0 0 24 24" enable-background="new 0 0 24 24" xml:space="preserve">
<g id="Outline_Icons">
	<g>
		<path d="M15.858,22.015l-2.525,0.842l-0.842-2.525c-0.087-0.261-0.368-0.404-0.632-0.316c-0.262,0.088-0.403,0.371-0.316,0.633
			l1,3c0.07,0.209,0.265,0.342,0.474,0.342c0.052,0,0.105-0.008,0.158-0.025l3-1c0.262-0.088,0.403-0.371,0.316-0.633
			C16.403,22.07,16.122,21.927,15.858,22.015z"/>
		<path d="M15.44,6.562c0.053,0.232,0.259,0.39,0.487,0.39c0.037,0,0.074-0.004,0.111-0.013c0.269-0.061,0.438-0.329,0.377-0.598
			c-0.627-2.765-1.706-4.973-3.037-6.218c-0.203-0.188-0.518-0.18-0.707,0.023c-0.188,0.202-0.178,0.519,0.023,0.707
			C13.882,1.964,14.856,3.991,15.44,6.562z"/>
		<path d="M17.357,20.016l-1.904,0.64c0.38-0.906,0.709-1.936,0.961-3.049c0.061-0.269-0.108-0.537-0.377-0.598
			c-0.274-0.064-0.538,0.107-0.599,0.377c-0.228,1.005-0.521,1.929-0.855,2.749l-0.592-1.802c-0.086-0.262-0.37-0.407-0.631-0.318
			c-0.262,0.086-0.405,0.368-0.319,0.631l0.99,3.011c0.008,0.025,0.027,0.046,0.04,0.07c0.017,0.031,0.029,0.064,0.053,0.092
			c0.025,0.031,0.059,0.052,0.091,0.076c0.02,0.014,0.033,0.034,0.056,0.046c0.002,0.001,0.003,0.001,0.005,0.001
			c0.003,0.002,0.005,0.005,0.007,0.006c0.068,0.034,0.142,0.05,0.217,0.051c0.002,0,0.004,0.002,0.006,0.002h0l0,0
			c0.054,0,0.107-0.009,0.159-0.026l3.01-1.011c0.262-0.088,0.403-0.371,0.315-0.633S17.619,19.925,17.357,20.016z"/>
		<path d="M17.527,10h-6.372c0.812-0.788,1.118-1.725,0.964-2.449c-0.21-0.987-1.259-1.364-2.299-0.684L5.229,9.928
			c-0.139,0.093-0.223,0.249-0.223,0.416v6.119c0,0.242,0.173,0.449,0.411,0.492l0.316,0.057C6.67,17.181,9.522,17.695,9.97,17.8
			c0.133,0.03,0.269,0.046,0.404,0.046c0.787,0,1.49-0.529,1.708-1.283L13.145,13h4.382c0.827,0,1.5-0.673,1.5-1.5
			S18.354,10,17.527,10z M17.527,12h-4.755c-0.221,0-0.416,0.146-0.479,0.357l-1.17,3.924c-0.113,0.39-0.534,0.635-0.926,0.544
			c-0.416-0.097-2.563-0.486-4.19-0.78v-5.434l4.365-2.91c0.263-0.172,0.436-0.198,0.515-0.198c0.06,0,0.2,0,0.254,0.257
			c0.11,0.517-0.292,1.593-1.838,2.284c-0.215,0.096-0.334,0.329-0.285,0.561C9.067,10.835,9.271,11,9.507,11h8.021
			c0.276,0,0.5,0.225,0.5,0.5S17.803,12,17.527,12z"/>
	</g>
</g>

</svg>
