<?xml version="1.0" encoding="utf-8"?>
<!-- Generator: Adobe Illustrator 16.0.3, SVG Export Plug-In . SVG Version: 6.00 Build 0)  -->
<!DOCTYPE svg PUBLIC "-//W3C//DTD SVG 1.1//EN" "http://www.w3.org/Graphics/SVG/1.1/DTD/svg11.dtd">
<svg version="1.1" xmlns="http://www.w3.org/2000/svg" xmlns:xlink="http://www.w3.org/1999/xlink" x="0px" y="0px" width="24px"
	 height="24px" viewBox="0 0 24 24" enable-background="new 0 0 24 24" xml:space="preserve">
<g id="Outline_Icons">
	<g>
		<path d="M24.007,6c0-0.276-0.224-0.5-0.5-0.5s-0.5,0.224-0.5,0.5v1.25c-1.638-1.477-4.129-2.484-6.954-2.748
			c-0.27-0.02-0.519,0.176-0.544,0.451c-0.025,0.275,0.177,0.519,0.452,0.545c2.58,0.24,4.911,1.176,6.385,2.502h-1.339
			c-0.276,0-0.5,0.224-0.5,0.5S20.73,9,21.007,9h2.5l0,0h0h0c0.104,0,0.194-0.039,0.273-0.093c0.009-0.006,0.02-0.003,0.028-0.01
			s0.013-0.017,0.021-0.023c0.027-0.023,0.049-0.052,0.071-0.081c0.018-0.023,0.036-0.046,0.049-0.072
			c0.014-0.028,0.021-0.059,0.03-0.089c0.009-0.033,0.018-0.065,0.02-0.099c0.001-0.012,0.007-0.021,0.007-0.033V6z"/>
		<path d="M3.007,8H1.66c1.478-1.349,3.773-2.268,6.392-2.502C8.327,5.474,8.53,5.23,8.505,4.955s-0.27-0.468-0.543-0.453
			c-2.818,0.254-5.311,1.26-6.955,2.746V6c0-0.276-0.224-0.5-0.5-0.5s-0.5,0.224-0.5,0.5v2.5c0,0.012,0.006,0.021,0.007,0.033
			c0.002,0.034,0.011,0.066,0.02,0.1c0.008,0.03,0.016,0.06,0.03,0.088c0.013,0.026,0.032,0.05,0.05,0.074
			C0.135,8.823,0.156,8.85,0.183,8.873C0.19,8.881,0.195,8.891,0.204,8.897s0.02,0.004,0.029,0.01C0.312,8.961,0.402,9,0.506,9
			c0,0,0,0,0,0h0l0,0h2.5c0.276,0,0.5-0.224,0.5-0.5S3.283,8,3.007,8z"/>
		<path d="M15.103,15.698l1.196-4.468c0.102-0.441,0.014-0.867-0.249-1.196c-0.273-0.343-0.709-0.548-1.167-0.548
			c-0.651,0-1.183,0.411-1.352,1.029l-1.36,4.367l-0.166-0.041V10.48c0-1.959-3-1.96-3,0v6.366
			c-0.695-0.716-1.478-0.998-2.069-0.998c-0.573,0-1.052,0.254-1.282,0.679c-0.147,0.271-0.314,0.847,0.218,1.66l3.061,4.59
			C9.027,22.916,9.184,23,9.351,23h6.12c0.242,0,0.449-0.173,0.492-0.411l0.033-0.187c0.461-2.561,0.734-4.029,0.812-4.366
			C17.134,16.622,15.977,16.085,15.103,15.698z M15.833,17.812c-0.114,0.494-0.578,3.062-0.78,4.188H9.618l-2.91-4.363
			c-0.208-0.318-0.226-0.536-0.173-0.634c0.051-0.095,0.206-0.154,0.402-0.154c0.639,0,1.54,0.574,2.112,1.855
			c0.096,0.215,0.33,0.33,0.561,0.285c0.231-0.05,0.396-0.253,0.396-0.489v-8.02c0-0.468,0.416-0.492,0.5-0.492s0.5,0.024,0.5,0.492
			v4.754c0,0.23,0.157,0.431,0.381,0.485l1.003,0.246c0.256,0.063,0.518-0.085,0.597-0.337l1.505-4.833
			c0.07-0.256,0.251-0.31,0.392-0.31c0.151,0,0.302,0.066,0.384,0.17c0.072,0.09,0.09,0.204,0.061,0.333l-1.302,4.862
			c-0.063,0.234,0.052,0.48,0.273,0.583l0.355,0.159C15.697,17.054,15.961,17.258,15.833,17.812z"/>
	</g>
</g>

</svg>
