<?xml version="1.0" encoding="utf-8"?>
<!-- Generator: Adobe Illustrator 16.0.3, SVG Export Plug-In . SVG Version: 6.00 Build 0)  -->
<!DOCTYPE svg PUBLIC "-//W3C//DTD SVG 1.1//EN" "http://www.w3.org/Graphics/SVG/1.1/DTD/svg11.dtd">
<svg version="1.1" xmlns="http://www.w3.org/2000/svg" xmlns:xlink="http://www.w3.org/1999/xlink" x="0px" y="0px" width="24px"
	 height="24px" viewBox="0 0 24 24" enable-background="new 0 0 24 24" xml:space="preserve">
<g id="Outline_Icons">
	<g>
		<path d="M17.694,21.109l-1.688,1.35V15.5c0-0.276-0.224-0.5-0.5-0.5s-0.5,0.224-0.5,0.5v6.959l-1.688-1.35
			c-0.215-0.171-0.53-0.136-0.703,0.078c-0.172,0.216-0.137,0.53,0.078,0.703l2.5,2c0.008,0.007,0.02,0.004,0.028,0.01
			c0.082,0.059,0.176,0.1,0.284,0.1s0.202-0.041,0.284-0.1c0.008-0.006,0.02-0.003,0.028-0.01l2.5-2
			c0.215-0.173,0.25-0.487,0.078-0.703C18.225,20.974,17.911,20.938,17.694,21.109z"/>
		<path d="M17.479,0.917c-2.249-1.267-4.932-1.214-7.177,0.142c-0.236,0.143-0.312,0.45-0.169,0.687
			c0.142,0.235,0.449,0.312,0.687,0.169c1.931-1.167,4.237-1.216,6.167-0.126C18.878,2.854,20.007,4.803,20.007,7
			c0,2.212-1.157,4.172-3.095,5.242c-1.949,1.076-4.229,1.016-6.098-0.161c-0.234-0.149-0.542-0.076-0.69,0.156
			c-0.147,0.234-0.077,0.543,0.157,0.689c1.146,0.722,2.422,1.084,3.706,1.084c1.162-0.001,2.329-0.297,3.409-0.894
			c2.262-1.249,3.612-3.535,3.612-6.117C21.007,4.438,19.688,2.163,17.479,0.917z"/>
		<path d="M14.527,8c0.827,0,1.5-0.673,1.5-1.5S15.354,5,14.527,5H8.155c0.812-0.788,1.118-1.725,0.964-2.449
			C8.908,1.563,7.859,1.187,6.82,1.867L2.229,4.928C2.09,5.021,2.007,5.177,2.007,5.344v6.12c0,0.242,0.173,0.449,0.411,0.492
			l0.385,0.069c1.009,0.182,3.689,0.665,4.168,0.775c0.132,0.03,0.267,0.046,0.402,0.046c0.788,0,1.492-0.529,1.71-1.284L10.145,8
			H14.527z M9.293,7.357l-1.17,3.924c-0.113,0.39-0.527,0.634-0.928,0.545c-0.498-0.114-3.063-0.577-4.188-0.78V5.611l4.365-2.91
			c0.263-0.172,0.436-0.198,0.515-0.198c0.06,0,0.2,0,0.254,0.257c0.11,0.517-0.292,1.593-1.838,2.284
			C6.087,5.14,5.969,5.373,6.018,5.604C6.067,5.835,6.271,6,6.507,6h8.021c0.276,0,0.5,0.225,0.5,0.5S14.803,7,14.527,7H9.772
			C9.551,7,9.356,7.146,9.293,7.357z"/>
	</g>
</g>

</svg>
