<?xml version="1.0" encoding="utf-8"?>
<!-- Generator: Adobe Illustrator 16.0.3, SVG Export Plug-In . SVG Version: 6.00 Build 0)  -->
<!DOCTYPE svg PUBLIC "-//W3C//DTD SVG 1.1//EN" "http://www.w3.org/Graphics/SVG/1.1/DTD/svg11.dtd">
<svg version="1.1" xmlns="http://www.w3.org/2000/svg" xmlns:xlink="http://www.w3.org/1999/xlink" x="0px" y="0px" width="24px"
	 height="24px" viewBox="0 0 24 24" enable-background="new 0 0 24 24" xml:space="preserve">
<g id="Outline_Icons">
	<g>
		<path d="M3.595,11.007L1.62,10.678c1.165-0.89,2.888-1.623,4.992-2.101C6.881,8.517,7.05,8.248,6.989,7.979
			C6.927,7.71,6.662,7.54,6.39,7.603C4.286,8.08,2.511,8.812,1.236,9.712l0.281-1.627c0.047-0.272-0.136-0.53-0.408-0.578
			c-0.273-0.05-0.531,0.136-0.578,0.408l-0.518,3c-0.003,0.017,0.002,0.034,0.001,0.052c-0.002,0.033-0.002,0.066,0.002,0.1
			c0.004,0.031,0.011,0.06,0.021,0.09c0.01,0.031,0.023,0.061,0.041,0.09c0.008,0.014,0.01,0.029,0.019,0.043
			c0.01,0.015,0.027,0.023,0.039,0.036c0.012,0.014,0.017,0.03,0.031,0.043c0.012,0.011,0.028,0.016,0.041,0.025
			c0.024,0.019,0.049,0.033,0.077,0.047c0.032,0.016,0.063,0.028,0.096,0.036c0.015,0.004,0.027,0.014,0.043,0.017l3.006,0.5
			C3.458,11.998,3.486,12,3.513,12c0.24,0,0.452-0.174,0.493-0.418C4.051,11.31,3.867,11.052,3.595,11.007z"/>
		<path d="M23.872,10.637c-1.245-1.329-3.453-2.408-6.217-3.036c-0.269-0.067-0.537,0.107-0.599,0.376
			c-0.061,0.27,0.108,0.538,0.377,0.599c2.571,0.585,4.599,1.56,5.709,2.745c0.098,0.105,0.231,0.158,0.365,0.158
			c0.123,0,0.245-0.045,0.342-0.135C24.05,11.154,24.061,10.838,23.872,10.637z"/>
		<path d="M16.57,11.925l-3.563-1.063V6.48c0-0.827-0.673-1.5-1.5-1.5s-1.5,0.673-1.5,1.5v6.366
			c-0.695-0.716-1.478-0.998-2.069-0.998c-0.573,0-1.052,0.254-1.282,0.679c-0.147,0.271-0.314,0.847,0.218,1.66l3.061,4.59
			C10.027,18.916,10.184,19,10.351,19h6.12c0.242,0,0.449-0.173,0.492-0.411l0.033-0.184c0.461-2.562,0.734-4.032,0.812-4.369
			C18.02,13.115,17.475,12.188,16.57,11.925z M16.833,13.812c-0.114,0.494-0.577,3.06-0.78,4.188h-5.435l-2.91-4.363
			c-0.208-0.318-0.226-0.536-0.173-0.634c0.051-0.095,0.206-0.154,0.402-0.154c0.639,0,1.54,0.574,2.112,1.855
			c0.096,0.215,0.329,0.329,0.561,0.285c0.231-0.05,0.396-0.253,0.396-0.489V6.48c0-0.275,0.224-0.5,0.5-0.5s0.5,0.225,0.5,0.5
			v4.754c0,0.221,0.145,0.416,0.357,0.479l3.924,1.171C16.687,13,16.926,13.407,16.833,13.812z"/>
	</g>
</g>

</svg>
