<?xml version="1.0" encoding="utf-8"?>
<!-- Generator: Adobe Illustrator 16.0.3, SVG Export Plug-In . SVG Version: 6.00 Build 0)  -->
<!DOCTYPE svg PUBLIC "-//W3C//DTD SVG 1.1//EN" "http://www.w3.org/Graphics/SVG/1.1/DTD/svg11.dtd">
<svg version="1.1" xmlns="http://www.w3.org/2000/svg" xmlns:xlink="http://www.w3.org/1999/xlink" x="0px" y="0px" width="24px"
	 height="24px" viewBox="0 0 24 24" enable-background="new 0 0 24 24" xml:space="preserve">
<g id="Outline_Icons">
	<path d="M23.37,0.283c-0.091-0.191-0.299-0.296-0.506-0.28l-3.182,0.354c-0.274,0.03-0.472,0.278-0.441,0.553
		c0.03,0.273,0.266,0.468,0.553,0.441l1.765-0.196l-7.837,7.838c-0.046-0.115-0.081-0.231-0.139-0.346
		c-0.072-0.144-0.209-0.244-0.367-0.27c-0.157-0.028-0.32,0.025-0.434,0.14l-9.661,9.661l-0.354-0.354
		c-0.195-0.195-0.512-0.195-0.707,0l-1.414,1.414C0.553,19.332,0.5,19.459,0.5,19.592s0.053,0.26,0.146,0.354l2.456,2.456
		c0.094,0.094,0.221,0.146,0.354,0.146s0.26-0.053,0.354-0.146l1.414-1.415l0.135-0.135l0.805,2.415
		c0.055,0.164,0.191,0.289,0.359,0.328c0.038,0.01,0.077,0.014,0.115,0.014c0.131,0,0.259-0.052,0.354-0.146l2.121-2.121
		c0.134-0.134,0.181-0.332,0.121-0.512l-0.256-0.769l1.902-1.902c0.134-0.134,0.181-0.332,0.121-0.512l-0.609-1.828l1.903-1.902
		c0.938-0.939,1.481-1.936,1.645-2.93c1.03,0.794,2.113,1.204,3.179,1.204c0.789,0,1.566-0.222,2.304-0.67
		c2.806-1.707,4.086-5.968,2.997-9.812l0.854-0.855C23.424,0.703,23.463,0.475,23.37,0.283z M3.456,21.341l-1.749-1.749l0.707-0.707
		l0.354,0.354l0,0l1.396,1.395L3.456,21.341z M6.856,22.183l-0.707-2.122l1.33-1.33l0.707,2.122L6.856,22.183z M9.954,17.67
		L8.624,19l-0.354-1.061l1.33-1.329L9.954,17.67z M11.588,13.209l-4.242,4.242H7.345l-2.121,2.121l0,0L4.87,19.926l-0.261-0.26
		l-0.781-0.781l9.107-9.107C13.248,11.16,12.414,12.382,11.588,13.209z M18.902,10.666c-1.475,0.897-3.124,0.616-4.687-0.754
		l7.383-7.383C22.379,6.092,20.896,9.453,18.902,10.666z"/>
</g>
<g id="invisble_shape">
	<rect fill="none" width="24" height="24"/>
</g>
</svg>
