<?xml version="1.0" encoding="utf-8"?>
<!-- Generator: Adobe Illustrator 16.0.3, SVG Export Plug-In . SVG Version: 6.00 Build 0)  -->
<!DOCTYPE svg PUBLIC "-//W3C//DTD SVG 1.1//EN" "http://www.w3.org/Graphics/SVG/1.1/DTD/svg11.dtd">
<svg version="1.1" xmlns="http://www.w3.org/2000/svg" xmlns:xlink="http://www.w3.org/1999/xlink" x="0px" y="0px" width="24px"
	 height="24px" viewBox="0 0 24 24" enable-background="new 0 0 24 24" xml:space="preserve">
<g id="Outline_Icons">
	<g>
		<path d="M21.016,0.119c-0.195-0.195-0.512-0.195-0.707,0l-2.565,2.565c-1.61-1.171-3.536-1.812-5.566-1.812
			c-2.538,0-4.924,0.988-6.718,2.782c-0.195,0.195-0.195,0.512,0,0.707L5.817,4.72c-3.944,4.036-7.04,8.854-4.004,16.444
			c0.051,0.127,0.151,0.228,0.278,0.278c2.079,0.832,3.981,1.236,5.814,1.236c4.557,0,7.928-2.591,10.632-5.238l0.356,0.356
			c0.094,0.094,0.221,0.146,0.354,0.146s0.26-0.053,0.354-0.146c3.342-3.342,3.657-8.571,0.968-12.282l2.567-2.567
			c0.195-0.195,0.195-0.512,0-0.707L21.016,0.119z M21.153,13.006H19v-3h2.311C21.437,11.006,21.381,12.021,21.153,13.006z
			 M18,4.191v0.814h-3V2.36C16.106,2.75,17.125,3.366,18,4.191z M18,6.006v3h-3v-3H18z M14,9.006h-2.482L11,8.488V6.006h3V9.006z
			 M14,10.006v1.482l-1.482-1.482H14z M10,7.488L8.518,6.006H10V7.488z M18,15.488l-1.482-1.482H18V15.488z M15.518,13.006
			L15,12.488v-2.482h3v3H15.518z M19,9.006v-3h0.692c0.683,0.916,1.158,1.936,1.424,3H19z M14,2.073v2.933h-3V1.961
			c0.388-0.053,0.779-0.089,1.177-0.089C12.798,1.872,13.407,1.944,14,2.073z M10,2.156v2.85H7.518L6.529,4.018
			C7.535,3.121,8.721,2.493,10,2.156z M7.906,21.679c-1.646,0-3.362-0.355-5.243-1.086C0.11,14.017,2.323,9.729,6.521,5.425
			l11.311,11.31C14.277,20.195,11.288,21.679,7.906,21.679z M19.237,16.726L19,16.488v-2.482h1.86
			C20.504,14.983,19.964,15.909,19.237,16.726z M19.955,4.715l-1.414-1.414l2.121-2.121l1.414,1.414L19.955,4.715z"/>
	</g>
</g>

</svg>
