<?xml version="1.0" encoding="utf-8"?>
<!-- Generator: Adobe Illustrator 16.0.3, SVG Export Plug-In . SVG Version: 6.00 Build 0)  -->
<!DOCTYPE svg PUBLIC "-//W3C//DTD SVG 1.1//EN" "http://www.w3.org/Graphics/SVG/1.1/DTD/svg11.dtd">
<svg version="1.1" xmlns="http://www.w3.org/2000/svg" xmlns:xlink="http://www.w3.org/1999/xlink" x="0px" y="0px" width="24px"
	 height="24px" viewBox="0 0 24 24" enable-background="new 0 0 24 24" xml:space="preserve">
<g id="Outline_Icons">
	<g>
		<path d="M22.5,12h-2.395C19.854,7.641,16.359,4.146,12,3.895V1.5C12,1.224,11.776,1,11.5,1S11,1.224,11,1.5v2.395
			C6.641,4.146,3.146,7.641,2.895,12H0.5C0.224,12,0,12.224,0,12.5S0.224,13,0.5,13h2.395c0.252,4.359,3.746,7.854,8.105,8.105V23.5
			c0,0.276,0.224,0.5,0.5,0.5s0.5-0.224,0.5-0.5v-2.395c4.359-0.252,7.854-3.746,8.105-8.105H22.5c0.276,0,0.5-0.224,0.5-0.5
			S22.776,12,22.5,12z M12,20.105v-1.344c0-0.276-0.224-0.5-0.5-0.5s-0.5,0.224-0.5,0.5v1.344C7.191,19.856,4.144,16.809,3.895,13
			h1.345c0.276,0,0.5-0.224,0.5-0.5S5.516,12,5.239,12H3.895C4.144,8.191,7.191,5.144,11,4.895V6.24c0,0.276,0.224,0.5,0.5,0.5
			S12,6.517,12,6.24V4.895c3.809,0.249,6.857,3.297,7.105,7.105h-1.345c-0.276,0-0.5,0.224-0.5,0.5s0.224,0.5,0.5,0.5h1.345
			C18.857,16.809,15.809,19.856,12,20.105z"/>
		<path d="M13.464,8.98c-0.662,0-1.434,0.311-1.964,1.113C10.97,9.291,10.198,8.98,9.535,8.98c-1.192,0-2.427,0.982-2.427,2.627
			c0,2.267,3.68,4.98,4.1,5.283c0.087,0.062,0.189,0.094,0.292,0.094s0.205-0.031,0.292-0.094c0.42-0.303,4.099-3.017,4.099-5.283
			C15.891,9.963,14.657,8.98,13.464,8.98z M11.5,15.86c-1.163-0.893-3.392-2.886-3.392-4.253c0-1.019,0.726-1.627,1.427-1.627
			c0.697,0,1.25,0.563,1.479,1.507c0.109,0.447,0.863,0.447,0.973,0c0.229-0.943,0.781-1.507,1.478-1.507
			c0.701,0,1.427,0.608,1.427,1.627C14.891,12.972,12.662,14.967,11.5,15.86z"/>
	</g>
</g>

</svg>
