<?xml version="1.0" encoding="utf-8"?>
<!-- Generator: Adobe Illustrator 16.0.3, SVG Export Plug-In . SVG Version: 6.00 Build 0)  -->
<!DOCTYPE svg PUBLIC "-//W3C//DTD SVG 1.1//EN" "http://www.w3.org/Graphics/SVG/1.1/DTD/svg11.dtd">
<svg version="1.1" xmlns="http://www.w3.org/2000/svg" xmlns:xlink="http://www.w3.org/1999/xlink" x="0px" y="0px" width="24px"
	 height="24px" viewBox="0 0 24 24" enable-background="new 0 0 24 24" xml:space="preserve">
<g id="Outline_Icons_1_">
	<g id="Outline_Icons">
		<g>
			<path d="M17.5,11c-3.584,0-6.5,2.916-6.5,6.5s2.916,6.5,6.5,6.5s6.5-2.916,6.5-6.5S21.084,11,17.5,11z M17.5,23
				c-3.032,0-5.5-2.467-5.5-5.5c0-3.033,2.468-5.5,5.5-5.5s5.5,2.467,5.5,5.5C23,20.533,20.532,23,17.5,23z"/>
			<path d="M20,17h-2v-2c0-0.276-0.224-0.5-0.5-0.5S17,14.724,17,15v2h-2c-0.276,0-0.5,0.224-0.5,0.5S14.724,18,15,18h2v2
				c0,0.276,0.224,0.5,0.5,0.5S18,20.276,18,20v-2h2c0.276,0,0.5-0.224,0.5-0.5S20.276,17,20,17z"/>
			<path d="M11.484,5.388c0.512-3.322,2.881-4.338,4.796-4.19c2.336,0.179,4.7,2.119,4.7,5.483c0,0.815-0.155,1.688-0.463,2.596
				c-0.089,0.261,0.052,0.545,0.313,0.634c0.262,0.09,0.546-0.052,0.634-0.313c0.342-1.01,0.516-1.991,0.516-2.916
				c0-3.972-2.829-6.266-5.624-6.479c-2.067-0.154-4.313,0.82-5.364,3.264C9.905,0.902,7.519-0.145,5.475,0.017
				C2.838,0.219,0,2.39,0,6.681c0,6.258,6.758,12.051,9.663,14.251c0.09,0.068,0.196,0.102,0.302,0.102
				c0.15,0,0.3-0.068,0.398-0.198c0.167-0.22,0.124-0.534-0.097-0.7C7.48,18.024,1,12.49,1,6.681c0-3.674,2.285-5.494,4.551-5.667
				c2.103-0.162,4.446,1.13,4.945,4.374c0.037,0.244,0.247,0.424,0.494,0.424S11.447,5.631,11.484,5.388z"/>
		</g>
	</g>
	<g id="New_icons_1_">
	</g>
</g>

</svg>
