<?xml version="1.0" encoding="utf-8"?>
<!-- Generator: Adobe Illustrator 16.0.3, SVG Export Plug-In . SVG Version: 6.00 Build 0)  -->
<!DOCTYPE svg PUBLIC "-//W3C//DTD SVG 1.1//EN" "http://www.w3.org/Graphics/SVG/1.1/DTD/svg11.dtd">
<svg version="1.1" xmlns="http://www.w3.org/2000/svg" xmlns:xlink="http://www.w3.org/1999/xlink" x="0px" y="0px" width="24px"
	 height="24px" viewBox="0 0 24 24" enable-background="new 0 0 24 24" xml:space="preserve">
<g id="Outline_Icons_1_">
	<g id="Outline_Icons">
		<g>
			<path d="M23.776,20.468c-0.275-0.607-0.771-1.072-1.397-1.307c-0.625-0.236-1.304-0.213-1.911,0.062
				c-0.453,0.205-0.827,0.534-1.085,0.947l-3.422-1.282C15.98,18.761,16,18.633,16,18.5c0-0.224-0.039-0.437-0.095-0.645
				l3.627-1.813c0.3,0.384,0.704,0.672,1.176,0.829c0.261,0.087,0.528,0.131,0.795,0.131c0.382,0,0.762-0.09,1.114-0.266
				c0.597-0.298,1.043-0.811,1.254-1.444c0.211-0.634,0.163-1.312-0.135-1.909c-0.616-1.232-2.12-1.732-3.354-1.119
				c-1.08,0.54-1.599,1.761-1.298,2.884l-3.629,1.815C14.998,16.381,14.296,16,13.5,16c-1.379,0-2.5,1.122-2.5,2.5
				s1.121,2.5,2.5,2.5c0.891,0,1.668-0.471,2.111-1.174l3.42,1.282c-0.183,1.148,0.46,2.31,1.59,2.734
				c0.286,0.107,0.583,0.161,0.879,0.161c0.353,0,0.703-0.075,1.033-0.225c0.608-0.276,1.072-0.772,1.307-1.397
				C24.075,21.754,24.053,21.076,23.776,20.468z M20.83,13.158C21.044,13.051,21.272,13,21.497,13c0.551,0,1.082,0.304,1.345,0.83
				c0.179,0.357,0.208,0.765,0.081,1.145s-0.395,0.688-0.753,0.867c-0.357,0.178-0.767,0.207-1.145,0.081
				c-0.379-0.126-0.685-0.392-0.863-0.747c-0.001-0.002-0.001-0.004-0.002-0.007s-0.004-0.004-0.005-0.006
				C19.792,14.425,20.093,13.527,20.83,13.158z M13.5,20c-0.827,0-1.5-0.673-1.5-1.5s0.673-1.5,1.5-1.5s1.5,0.673,1.5,1.5
				S14.327,20,13.5,20z M22.904,22.028c-0.291,0.774-1.157,1.167-1.932,0.876s-1.167-1.157-0.877-1.931c0,0,0.001-0.001,0.001-0.002
				v-0.001c0.142-0.375,0.42-0.671,0.783-0.836C21.077,20.045,21.287,20,21.498,20c0.179,0,0.357,0.032,0.529,0.098
				c0.376,0.14,0.674,0.419,0.839,0.783C23.031,21.246,23.045,21.653,22.904,22.028z"/>
			<path d="M1,6.681c0-3.674,2.286-5.494,4.551-5.667c2.11-0.157,4.446,1.13,4.945,4.374c0.037,0.244,0.247,0.424,0.494,0.424
				s0.457-0.18,0.494-0.424c0.512-3.325,2.898-4.336,4.797-4.19c2.335,0.179,4.699,2.12,4.699,5.483
				c0,0.959-0.214,1.991-0.635,3.069c-0.101,0.257,0.026,0.547,0.284,0.647c0.255,0.101,0.547-0.027,0.647-0.284
				c0.467-1.195,0.703-2.349,0.703-3.433c0-3.972-2.829-6.267-5.623-6.48c-2.067-0.153-4.313,0.821-5.365,3.265
				C9.904,0.901,7.521-0.143,5.475,0.017C2.838,0.219,0,2.39,0,6.681c0,6.735,7.816,12.922,10.213,14.658
				c0.088,0.064,0.19,0.095,0.293,0.095c0.154,0,0.307-0.072,0.405-0.206c0.162-0.224,0.111-0.537-0.112-0.699
				C9.163,19.343,1,13.103,1,6.681z"/>
		</g>
	</g>
	<g id="New_icons_1_">
	</g>
</g>

</svg>
