<?xml version="1.0" encoding="utf-8"?>
<!-- Generator: Adobe Illustrator 16.0.3, SVG Export Plug-In . SVG Version: 6.00 Build 0)  -->
<!DOCTYPE svg PUBLIC "-//W3C//DTD SVG 1.1//EN" "http://www.w3.org/Graphics/SVG/1.1/DTD/svg11.dtd">
<svg version="1.1" xmlns="http://www.w3.org/2000/svg" xmlns:xlink="http://www.w3.org/1999/xlink" x="0px" y="0px" width="24px"
	 height="24px" viewBox="0 0 24 24" enable-background="new 0 0 24 24" xml:space="preserve">
<g id="Outline_Icons_1_">
	<g id="Outline_Icons">
		<g>
			<path d="M23.855,14.645l-2.5-2.5c-0.195-0.195-0.512-0.195-0.707,0l-7.502,7.502c-0.058,0.058-0.093,0.126-0.116,0.198
				c-0.002,0.007-0.009,0.011-0.011,0.018l-1,3.5c-0.05,0.174-0.002,0.363,0.127,0.491C12.241,23.949,12.369,24,12.5,24
				c0.046,0,0.092-0.006,0.138-0.02l3.5-1c0.008-0.001,0.013-0.009,0.02-0.011c0.071-0.023,0.14-0.059,0.196-0.116l7.502-7.502
				C24.051,15.156,24.051,14.84,23.855,14.645z M16,21.793L14.207,20l4.795-4.795l1.793,1.793L16,21.793z M13.747,20.955
				l1.299,1.298l-1.818,0.519L13.747,20.955z M21.502,16.291l-1.793-1.793l1.293-1.293l1.793,1.793L21.502,16.291z"/>
			<path d="M16.281,1.197c2.335,0.179,4.699,2.12,4.699,5.483c0,0.815-0.155,1.689-0.462,2.596C20.43,9.538,20.57,9.822,20.832,9.91
				c0.262,0.092,0.546-0.052,0.634-0.313c0.342-1.01,0.515-1.992,0.515-2.916c0-3.972-2.829-6.267-5.623-6.48
				c-2.066-0.153-4.313,0.821-5.365,3.265C9.904,0.901,7.524-0.144,5.475,0.017C2.838,0.219,0,2.39,0,6.681
				c0,6.255,6.758,12.05,9.663,14.251c0.09,0.068,0.196,0.102,0.302,0.102c0.15,0,0.3-0.068,0.398-0.198
				c0.167-0.22,0.124-0.534-0.097-0.7C7.48,18.024,1,12.487,1,6.681c0-3.674,2.286-5.494,4.551-5.667
				c2.107-0.161,4.446,1.13,4.945,4.374c0.037,0.244,0.247,0.424,0.494,0.424s0.457-0.18,0.494-0.424
				C11.996,2.062,14.384,1.05,16.281,1.197z"/>
		</g>
	</g>
	<g id="New_icons_1_">
	</g>
</g>

</svg>
