<?xml version="1.0" encoding="utf-8"?>
<!-- Generator: Adobe Illustrator 16.0.3, SVG Export Plug-In . SVG Version: 6.00 Build 0)  -->
<!DOCTYPE svg PUBLIC "-//W3C//DTD SVG 1.1//EN" "http://www.w3.org/Graphics/SVG/1.1/DTD/svg11.dtd">
<svg version="1.1" xmlns="http://www.w3.org/2000/svg" xmlns:xlink="http://www.w3.org/1999/xlink" x="0px" y="0px" width="24px"
	 height="24px" viewBox="0 0 24 24" enable-background="new 0 0 24 24" xml:space="preserve">
<g id="Outline_Icons">
	<g>
		<path d="M16.908,0.553c-2.064,0-4.337,1.259-5.408,4.021c-1.055-2.719-3.271-3.958-5.28-3.958c-2.843,0-5.72,2.439-5.72,7.102
			c0,8.456,10.286,15.355,10.725,15.645c0.083,0.056,0.18,0.083,0.275,0.083c0.108,0,0.216-0.035,0.306-0.104
			C12.243,23.003,22.5,14.974,22.5,7.127C22.5,2.811,19.687,0.553,16.908,0.553z M11.479,22.321C9.789,21.121,1.5,14.863,1.5,7.718
			c0-4.192,2.446-6.102,4.72-6.102c1.854,0,4.219,1.309,4.786,4.995c0.037,0.244,0.247,0.424,0.494,0.424s0.457-0.18,0.494-0.424
			C12.568,2.877,15,1.553,16.908,1.553c2.211,0,4.592,1.744,4.592,5.574C21.5,13.785,13.14,20.962,11.479,22.321z"/>
		<path d="M14.5,8h-6C7.121,8,6,9.121,6.01,10.598l1,5C7.057,15.832,7.262,16,7.5,16H8v1.5C8,17.776,8.224,18,8.5,18h6
			c0.276,0,0.5-0.224,0.5-0.5V16h0.5c0.238,0,0.443-0.168,0.49-0.402L17,10.5C17,9.121,15.879,8,14.5,8z M15.09,15H14.5
			c-0.276,0-0.5,0.224-0.5,0.5V17h-1v-2c0-0.276-0.224-0.5-0.5-0.5S12,14.724,12,15v2h-1v-2c0-0.276-0.224-0.5-0.5-0.5
			S10,14.724,10,15v2H9v-1.5C9,15.224,8.776,15,8.5,15H7.909L7,10.5C7,9.673,7.673,9,8.5,9h6c0.827,0,1.5,0.673,1.51,1.402L15.09,15
			z"/>
		<circle cx="10" cy="12" r="1"/>
		<circle cx="13" cy="12" r="1"/>
	</g>
</g>

</svg>
