<?xml version="1.0" encoding="utf-8"?>
<!-- Generator: Adobe Illustrator 16.0.3, SVG Export Plug-In . SVG Version: 6.00 Build 0)  -->
<!DOCTYPE svg PUBLIC "-//W3C//DTD SVG 1.1//EN" "http://www.w3.org/Graphics/SVG/1.1/DTD/svg11.dtd">
<svg version="1.1" xmlns="http://www.w3.org/2000/svg" xmlns:xlink="http://www.w3.org/1999/xlink" x="0px" y="0px" width="24px"
	 height="24px" viewBox="0 0 24 24" enable-background="new 0 0 24 24" xml:space="preserve">
<g id="Outline_Icons_1_">
	<g id="Outline_Icons">
		<g>
			<path d="M23,14c0-0.276-0.224-0.5-0.5-0.5S22,13.724,22,14v0.77C21.013,13.696,19.538,13,18,13c-2.198,0-4.289,1.402-4.972,3.334
				c-0.092,0.26,0.045,0.545,0.305,0.638c0.264,0.091,0.546-0.044,0.639-0.305C14.509,15.146,16.24,14,18,14
				c1.489,0,2.951,0.826,3.692,2H20c-0.276,0-0.5,0.224-0.5,0.5S19.724,17,20,17h2.5c0.056,0,0.111-0.009,0.167-0.028
				c0.005-0.002,0.009-0.006,0.014-0.008c0.033-0.014,0.062-0.035,0.091-0.055c0.024-0.017,0.052-0.029,0.072-0.049
				c0.023-0.022,0.039-0.051,0.058-0.078c0.019-0.026,0.04-0.049,0.053-0.078c0.012-0.026,0.014-0.055,0.021-0.082
				c0.009-0.036,0.021-0.071,0.021-0.108c0-0.005,0.003-0.009,0.003-0.015V14z"/>
			<path d="M22.667,19.028c-0.262-0.09-0.546,0.045-0.639,0.306C21.491,20.854,19.76,22,18,22c-1.489,0-2.951-0.825-3.692-2H16
				c0.276,0,0.5-0.224,0.5-0.5S16.276,19,16,19h-2.5c-0.03,0-0.056,0.012-0.084,0.018c-0.028,0.004-0.056,0.001-0.083,0.011
				c-0.005,0.002-0.009,0.006-0.014,0.008c-0.033,0.013-0.062,0.035-0.091,0.055c-0.024,0.016-0.052,0.029-0.072,0.049
				c-0.023,0.022-0.039,0.051-0.058,0.077c-0.019,0.026-0.039,0.05-0.053,0.079c-0.012,0.025-0.014,0.054-0.021,0.082
				c-0.009,0.036-0.021,0.071-0.021,0.108c0,0.006-0.003,0.01-0.003,0.015V22c0,0.276,0.224,0.5,0.5,0.5S14,22.276,14,22v-0.77
				c0.987,1.074,2.462,1.77,4,1.77c2.198,0,4.289-1.402,4.972-3.333C23.063,19.406,22.927,19.121,22.667,19.028z"/>
			<path d="M20.98,6.68c0,0.815-0.155,1.689-0.462,2.595c-0.089,0.262,0.052,0.545,0.313,0.634c0.263,0.09,0.546-0.052,0.634-0.313
				c0.342-1.01,0.515-1.991,0.515-2.916c0-3.971-2.829-6.266-5.623-6.479c-2.062-0.154-4.313,0.821-5.365,3.264
				c-1.087-2.563-3.449-3.6-5.518-3.449C2.838,0.219,0,2.39,0,6.68c0,6.254,6.758,12.05,9.663,14.251
				c0.09,0.068,0.196,0.102,0.302,0.102c0.15,0,0.3-0.068,0.398-0.198c0.167-0.22,0.124-0.534-0.097-0.7
				C7.48,18.023,1,12.485,1,6.68c0-3.673,2.286-5.494,4.551-5.667c2.109-0.162,4.446,1.13,4.945,4.374
				c0.037,0.244,0.247,0.424,0.494,0.424s0.457-0.18,0.494-0.424c0.512-3.324,2.896-4.333,4.797-4.19
				C18.616,1.376,20.98,3.317,20.98,6.68z"/>
		</g>
	</g>
	<g id="New_icons_1_">
	</g>
</g>

</svg>
