<?xml version="1.0" encoding="utf-8"?>
<!-- Generator: Adobe Illustrator 16.0.3, SVG Export Plug-In . SVG Version: 6.00 Build 0)  -->
<!DOCTYPE svg PUBLIC "-//W3C//DTD SVG 1.1//EN" "http://www.w3.org/Graphics/SVG/1.1/DTD/svg11.dtd">
<svg version="1.1" xmlns="http://www.w3.org/2000/svg" xmlns:xlink="http://www.w3.org/1999/xlink" x="0px" y="0px" width="24px"
	 height="24px" viewBox="0 0 24 24" enable-background="new 0 0 24 24" xml:space="preserve">
<g id="Outline_Icons">
	<g>
		<path d="M23.5,11.003h-2.511C20.733,5.471,16.126,1.049,10.5,1.049c-5.789,0-10.499,4.713-10.499,10.507
			c0,5.792,4.71,10.504,10.5,10.504c2.206,0,4-1.794,4-3.998c0-2.205-1.794-3.999-4-3.999c-0.542,0-1-0.472-1-1.03
			c0-0.558,0.458-1.029,1-1.029H23.5c0.276,0,0.5-0.224,0.5-0.5S23.776,11.003,23.5,11.003z M10.501,11.003c-1.103,0-2,0.91-2,2.029
			s0.897,2.03,2,2.03c1.654,0,3,1.346,3,2.999s-1.346,2.998-3,2.998c-5.238,0-9.5-4.264-9.5-9.504c0-5.242,4.261-9.507,9.499-9.507
			c5.074,0,9.232,3.974,9.487,8.954H10.501z"/>
		<path d="M10.501,20.063c1.103,0,2-0.897,2-2s-0.897-2-2-2s-2,0.897-2,2S9.398,20.063,10.501,20.063z M10.501,17.063
			c0.551,0,1,0.448,1,1s-0.449,1-1,1s-1-0.448-1-1S9.95,17.063,10.501,17.063z"/>
	</g>
</g>

</svg>
