<?xml version="1.0" encoding="utf-8"?>
<!-- Generator: Adobe Illustrator 19.2.1, SVG Export Plug-In . SVG Version: 6.00 Build 0)  -->
<svg version="1.1" xmlns="http://www.w3.org/2000/svg" xmlns:xlink="http://www.w3.org/1999/xlink" x="0px" y="0px" width="24px"
	 height="24px" viewBox="0 0 24 24" enable-background="new 0 0 24 24" xml:space="preserve">
<g id="Outline_Icons_1_">
	<g id="Outline_Icons">
		<g>
			<g>
				<path d="M12,19c-1.03,0-2.089-0.164-3.148-0.486c-0.264-0.081-0.413-0.36-0.333-0.624c0.081-0.264,0.358-0.413,0.624-0.333
					C10.108,17.851,11.069,18,12,18c5.248,0,9.736-4.731,10.846-6c-0.531-0.61-1.836-2.016-3.621-3.306
					c-0.224-0.162-0.274-0.475-0.112-0.698c0.161-0.224,0.474-0.274,0.698-0.112c2.467,1.784,4.017,3.725,4.082,3.807
					c0.144,0.182,0.144,0.439,0,0.621C23.676,12.583,18.519,19,12,19z"/>
			</g>
			<g>
				<path d="M4.174,16.106c-2.458-1.781-4.002-3.714-4.066-3.796c-0.144-0.182-0.144-0.439,0-0.621C0.324,11.417,5.481,5,12,5
					c0.859,0,1.744,0.115,2.628,0.341c0.268,0.068,0.429,0.341,0.36,0.608c-0.068,0.267-0.341,0.429-0.608,0.36
					C13.577,6.104,12.776,6,12,6c-5.248,0-9.736,4.731-10.846,6c0.53,0.608,1.83,2.009,3.607,3.296
					c0.224,0.162,0.273,0.475,0.111,0.698C4.713,16.216,4.4,16.27,4.174,16.106z"/>
			</g>
			<g>
				<path d="M8,12.5c-0.276,0-0.5-0.224-0.5-0.5c0-2.481,2.019-4.5,4.5-4.5c0.276,0,0.5,0.224,0.5,0.5c0,0.276-0.224,0.5-0.5,0.5
					c-1.93,0-3.5,1.57-3.5,3.5C8.5,12.276,8.276,12.5,8,12.5z"/>
			</g>
			<g>
				<path d="M12,16.5c-0.276,0-0.5-0.224-0.5-0.5s0.224-0.5,0.5-0.5c1.93,0,3.5-1.57,3.5-3.5c0-0.276,0.224-0.5,0.5-0.5
					s0.5,0.224,0.5,0.5C16.5,14.481,14.481,16.5,12,16.5z"/>
			</g>
			<g>
				<path d="M1.896,22.104c-0.195-0.195-0.195-0.512,0-0.707l19.5-19.5c0.195-0.195,0.512-0.195,0.707,0
					c0.195,0.195,0.195,0.512,0,0.707l-19.5,19.5C2.408,22.299,2.092,22.299,1.896,22.104z"/>
			</g>
		</g>
	</g>
	<g id="New_icons_1_">
	</g>
</g>

</svg>
