<?xml version="1.0" encoding="utf-8"?>
<!-- Generator: Adobe Illustrator 16.0.3, SVG Export Plug-In . SVG Version: 6.00 Build 0)  -->
<!DOCTYPE svg PUBLIC "-//W3C//DTD SVG 1.1//EN" "http://www.w3.org/Graphics/SVG/1.1/DTD/svg11.dtd">
<svg version="1.1" xmlns="http://www.w3.org/2000/svg" xmlns:xlink="http://www.w3.org/1999/xlink" x="0px" y="0px" width="24px"
	 height="24px" viewBox="0 0 24 24" enable-background="new 0 0 24 24" xml:space="preserve">
<g id="Outline_Icons">
	<g>
		<path d="M21.573,0.712c-1.007-0.303-2.17,0.4-2.482,1.444l-5.562,15.847H7.5c-1.313,0-2,1.258-2,2.5s0.687,2.5,2,2.5H15
			c0.925,0,1.678-0.848,1.912-1.633l6.004-18.23C23.228,2.099,22.639,1.032,21.573,0.712z M18.041,8.168l1.304,2.618l-1.565,4.753
			l-1.352-2.773L18.041,8.168z M6.5,20.503c0-0.519,0.209-1.5,1-1.5h1.509l1.751,3H7.5C6.708,22.003,6.5,21.021,6.5,20.503z
			 M15.957,21.071c-0.134,0.45-0.551,0.932-0.958,0.932h-3.082l-1.752-3h3.717c0.212,0,0.401-0.134,0.472-0.334l1.606-4.576
			l1.369,2.81L15.957,21.071z M21.961,2.84l-2.172,6.596l-1.286-2.584l1.539-4.386c0.167-0.556,0.759-0.937,1.245-0.796
			C21.832,1.834,22.114,2.331,21.961,2.84z"/>
		<path d="M8.5,12.003c0-1.379-1.122-2.5-2.5-2.5s-2.5,1.121-2.5,2.5s1.122,2.5,2.5,2.5S8.5,13.382,8.5,12.003z M4.5,12.003
			c0-0.827,0.673-1.5,1.5-1.5s1.5,0.673,1.5,1.5s-0.673,1.5-1.5,1.5S4.5,12.83,4.5,12.003z"/>
	</g>
</g>

</svg>
