<?xml version="1.0" encoding="utf-8"?>
<!-- Generator: Adobe Illustrator 16.0.3, SVG Export Plug-In . SVG Version: 6.00 Build 0)  -->
<!DOCTYPE svg PUBLIC "-//W3C//DTD SVG 1.1//EN" "http://www.w3.org/Graphics/SVG/1.1/DTD/svg11.dtd">
<svg version="1.1" xmlns="http://www.w3.org/2000/svg" xmlns:xlink="http://www.w3.org/1999/xlink" x="0px" y="0px" width="24px"
	 height="24px" viewBox="0 0 24 24" enable-background="new 0 0 24 24" xml:space="preserve">
<g id="Outline_Icons">
	<g>
		<path d="M21.805,0.171c-0.571,0.3-0.865,0.918-0.786,1.522L13.077,5.51l-0.702-1.344c-0.371-0.711-1.312-1.008-2.024-0.635
			c-0.175,0.092-0.322,0.215-0.443,0.357C9.458,3.403,8.726,3.253,8.114,3.571C7.759,3.757,7.497,4.07,7.378,4.452
			C7.298,4.707,7.294,4.971,7.35,5.225C7.165,5.242,6.98,5.293,6.806,5.384C6.072,5.768,5.788,6.676,6.171,7.407l1.388,2.67
			c0.089,0.172,0.263,0.27,0.443,0.27c0.078,0,0.157-0.018,0.23-0.057c0.245-0.127,0.341-0.429,0.213-0.674L7.058,6.945
			C6.93,6.701,7.024,6.398,7.269,6.271C7.51,6.144,7.812,6.238,7.941,6.479l1.62,3.1c0.128,0.246,0.43,0.338,0.675,0.212
			c0.245-0.128,0.34-0.431,0.212-0.675L8.83,6.019C8.829,6.017,8.827,6.015,8.826,6.013l-0.46-0.88
			C8.238,4.889,8.333,4.586,8.577,4.458C8.822,4.33,9.125,4.425,9.252,4.669l2.316,4.432c0.26,0.497,0.77,0.806,1.331,0.806
			c0.24,0,0.479-0.06,0.693-0.171c0.733-0.384,1.018-1.292,0.635-2.024l-0.687-1.314l7.936-3.812
			c0.273,0.26,0.634,0.417,1.024,0.417c0.24,0,0.48-0.06,0.694-0.171c0.733-0.384,1.018-1.292,0.635-2.024
			C23.46,0.097,22.524-0.204,21.805,0.171z M13.375,8.556c-0.04,0.127-0.127,0.231-0.245,0.293c-0.24,0.128-0.552,0.024-0.675-0.211
			l-1.853-3.545c-0.128-0.244-0.033-0.548,0.211-0.675c0.072-0.038,0.15-0.058,0.23-0.058c0.188,0,0.358,0.104,0.444,0.269
			l0.917,1.756c0.001,0,0.001,0.001,0.001,0.002s0.001,0.001,0.002,0.002l0.933,1.785C13.403,8.292,13.415,8.428,13.375,8.556z
			 M22.732,1.943c-0.238,0.125-0.551,0.026-0.675-0.212c-0.128-0.244-0.032-0.547,0.211-0.675C22.341,1.02,22.418,1,22.498,1
			c0.188,0,0.358,0.103,0.445,0.269C23.071,1.513,22.977,1.815,22.732,1.943z"/>
		<path d="M15.5,15h-14C0.673,15,0,15.673,0,16.5v1C0,18.327,0.673,19,1.5,19h0.522c0.23,2.795,2.575,5,5.428,5h2.1
			c2.839,0,5.175-2.184,5.425-5H15.5c0.827,0,1.5-0.673,1.5-1.5v-1C17,15.673,16.327,15,15.5,15z M9.55,23h-2.1
			c-2.288,0-4.179-1.735-4.423-4h10.95C13.751,21.243,11.852,23,9.55,23z M16,17.5c0,0.275-0.225,0.5-0.5,0.5h-1h-12h-1
			C1.225,18,1,17.775,1,17.5v-1C1,16.225,1.225,16,1.5,16h14c0.275,0,0.5,0.225,0.5,0.5V17.5z"/>
		<path d="M6.502,10.5c-0.276,0-0.5,0.224-0.5,0.5v0.5c0,1.379,1.121,2.5,2.5,2.5c0.858,0,1.617-0.436,2.067-1.097
			c0.246,0.264,0.562,0.442,0.933,0.442c0.827,0,1.5-0.673,1.5-1.5V11c0-0.276-0.224-0.5-0.5-0.5s-0.5,0.224-0.5,0.5v0.846
			c0,0.275-0.225,0.5-0.5,0.5c-0.17,0-0.5-0.456-0.5-0.846c0-0.276-0.224-0.5-0.5-0.5s-0.5,0.224-0.5,0.5c0,0.827-0.673,1.5-1.5,1.5
			s-1.5-0.673-1.5-1.5V11C7.002,10.724,6.778,10.5,6.502,10.5z"/>
	</g>
</g>

</svg>
