<?xml version="1.0" encoding="utf-8"?>
<!-- Generator: Adobe Illustrator 16.0.3, SVG Export Plug-In . SVG Version: 6.00 Build 0)  -->
<!DOCTYPE svg PUBLIC "-//W3C//DTD SVG 1.1//EN" "http://www.w3.org/Graphics/SVG/1.1/DTD/svg11.dtd">
<svg version="1.1" xmlns="http://www.w3.org/2000/svg" xmlns:xlink="http://www.w3.org/1999/xlink" x="0px" y="0px" width="24px"
	 height="24px" viewBox="0 0 24 24" enable-background="new 0 0 24 24" xml:space="preserve">
<g id="Outline_Icons">
	<g>
		<path d="M23.147,19.952l-0.691-0.398c0.058-0.377,0.058-0.727,0-1.105l0.69-0.398c0.115-0.066,0.199-0.176,0.233-0.304
			c0.034-0.127,0.017-0.265-0.05-0.379l-1-1.732c-0.139-0.239-0.444-0.321-0.683-0.183l-0.693,0.4
			c-0.289-0.224-0.607-0.405-0.953-0.544V14.5c0-0.276-0.224-0.5-0.5-0.5h-2c-0.276,0-0.5,0.224-0.5,0.5v0.808
			c-0.346,0.139-0.665,0.32-0.953,0.544l-0.693-0.4c-0.241-0.138-0.545-0.056-0.683,0.183l-1,1.732
			c-0.066,0.115-0.084,0.252-0.05,0.379c0.034,0.128,0.118,0.237,0.233,0.304l0.69,0.398c-0.058,0.378-0.058,0.728,0,1.105
			l-0.691,0.398c-0.115,0.066-0.199,0.176-0.233,0.304s-0.017,0.265,0.05,0.379l1,1.732c0.066,0.115,0.176,0.199,0.304,0.233
			c0.127,0.033,0.264,0.016,0.38-0.05l0.694-0.401c0.288,0.223,0.607,0.405,0.953,0.543V23.5c0,0.276,0.224,0.5,0.5,0.5h2
			c0.276,0,0.5-0.224,0.5-0.5v-0.809c0.344-0.139,0.665-0.322,0.952-0.543l0.696,0.402c0.115,0.065,0.251,0.083,0.379,0.05
			c0.128-0.034,0.237-0.118,0.304-0.233l1-1.732c0.066-0.115,0.084-0.251,0.05-0.379S23.262,20.018,23.147,19.952z M21.714,21.434
			l-0.568-0.328c-0.192-0.109-0.433-0.083-0.593,0.07c-0.333,0.314-0.736,0.544-1.197,0.683C19.145,21.923,19,22.117,19,22.338V23
			h-1v-0.662c0-0.221-0.145-0.415-0.356-0.479c-0.461-0.139-0.865-0.37-1.199-0.684c-0.161-0.151-0.401-0.178-0.593-0.069
			l-0.566,0.328l-0.5-0.866l0.567-0.327c0.191-0.11,0.287-0.333,0.237-0.548c-0.119-0.504-0.119-0.879,0-1.384
			c0.05-0.215-0.046-0.438-0.237-0.548l-0.566-0.327l0.5-0.867l0.566,0.327c0.191,0.11,0.432,0.083,0.593-0.069
			c0.335-0.316,0.738-0.546,1.199-0.684C17.855,16.077,18,15.883,18,15.662V15h1v0.662c0,0.221,0.145,0.415,0.356,0.479
			c0.46,0.138,0.864,0.368,1.199,0.684c0.161,0.152,0.401,0.179,0.593,0.069l0.566-0.327l0.5,0.867l-0.566,0.327
			c-0.191,0.11-0.287,0.333-0.237,0.548c0.119,0.504,0.119,0.879,0,1.384c-0.05,0.215,0.046,0.438,0.237,0.548l0.567,0.327
			L21.714,21.434z"/>
		<path d="M18.5,17c-1.103,0-2,0.897-2,2s0.897,2,2,2s2-0.897,2-2S19.603,17,18.5,17z M18.5,20c-0.551,0-1-0.449-1-1s0.449-1,1-1
			s1,0.449,1,1S19.051,20,18.5,20z"/>
		<path d="M11.5,23H4V12.5C4,12.224,3.776,12,3.5,12S3,12.224,3,12.5v11C3,23.776,3.223,24,3.5,24h8c0.276,0,0.5-0.224,0.5-0.5
			S11.776,23,11.5,23z"/>
		<path d="M23.836,11.631l-11.5-10.5c-0.19-0.175-0.483-0.175-0.674,0l-11.5,10.5c-0.204,0.186-0.219,0.502-0.032,0.706
			c0.187,0.205,0.503,0.219,0.706,0.032L12,2.177l11.163,10.192c0.096,0.088,0.216,0.131,0.337,0.131
			c0.135,0,0.271-0.055,0.369-0.163C24.055,12.133,24.041,11.817,23.836,11.631z"/>
		<path d="M16,3h3v3c0,0.276,0.224,0.5,0.5,0.5S20,6.276,20,6V2.5C20,2.224,19.776,2,19.5,2H16c-0.276,0-0.5,0.224-0.5,0.5
			S15.723,3,16,3z"/>
		<path d="M14,9.5v-3C14,6.224,13.776,6,13.5,6h-3C10.223,6,10,6.224,10,6.5v3c0,0.276,0.224,0.5,0.5,0.5h3
			C13.776,10,14,9.776,14,9.5z M13,9h-2V7h2V9z"/>
	</g>
</g>

</svg>
