<?xml version="1.0" encoding="utf-8"?>
<!-- Generator: Adobe Illustrator 16.0.3, SVG Export Plug-In . SVG Version: 6.00 Build 0)  -->
<!DOCTYPE svg PUBLIC "-//W3C//DTD SVG 1.1//EN" "http://www.w3.org/Graphics/SVG/1.1/DTD/svg11.dtd">
<svg version="1.1" xmlns="http://www.w3.org/2000/svg" xmlns:xlink="http://www.w3.org/1999/xlink" x="0px" y="0px" width="24px"
	 height="24px" viewBox="0 0 24 24" enable-background="new 0 0 24 24" xml:space="preserve">
<g id="Outline_Icons">
	<g>
		<path d="M19.5,19c-0.551,0-1,0.449-1,1c0,0.365,0.207,0.672,0.5,0.847V21.5c0,0.276,0.224,0.5,0.5,0.5s0.5-0.224,0.5-0.5v-0.653
			c0.293-0.175,0.5-0.481,0.5-0.847C20.5,19.449,20.051,19,19.5,19z"/>
		<path d="M23.5,17H23v-0.5c0-1.93-1.57-3.5-3.5-3.5S16,14.57,16,16.5V17h-0.5c-0.276,0-0.5,0.224-0.5,0.5v6
			c0,0.276,0.224,0.5,0.5,0.5h8c0.276,0,0.5-0.224,0.5-0.5v-6C24,17.224,23.776,17,23.5,17z M17,16.5c0-1.378,1.122-2.5,2.5-2.5
			s2.5,1.122,2.5,2.5V17h-5V16.5z M23,23h-7v-5h7V23z"/>
		<path d="M13.5,23H4V12.5C4,12.224,3.776,12,3.5,12S3,12.224,3,12.5v11C3,23.776,3.223,24,3.5,24h10c0.276,0,0.5-0.224,0.5-0.5
			S13.776,23,13.5,23z"/>
		<path d="M23.163,12.369c0.096,0.088,0.216,0.131,0.337,0.131c0.135,0,0.271-0.055,0.369-0.163c0.187-0.204,0.172-0.52-0.032-0.706
			l-11.5-10.5c-0.19-0.175-0.483-0.175-0.674,0l-11.5,10.5c-0.204,0.186-0.219,0.502-0.032,0.706
			c0.187,0.205,0.503,0.219,0.706,0.032L12,2.177L23.163,12.369z"/>
		<path d="M16,3h3v3c0,0.276,0.224,0.5,0.5,0.5S20,6.276,20,6V2.5C20,2.224,19.776,2,19.5,2H16c-0.276,0-0.5,0.224-0.5,0.5
			S15.723,3,16,3z"/>
		<path d="M13.5,6h-3C10.223,6,10,6.224,10,6.5v3c0,0.276,0.224,0.5,0.5,0.5h3c0.276,0,0.5-0.224,0.5-0.5v-3
			C14,6.224,13.776,6,13.5,6z M13,9h-2V7h2V9z"/>
	</g>
</g>

</svg>
