<?xml version="1.0" encoding="utf-8"?>
<!-- Generator: Adobe Illustrator 16.0.3, SVG Export Plug-In . SVG Version: 6.00 Build 0)  -->
<!DOCTYPE svg PUBLIC "-//W3C//DTD SVG 1.1//EN" "http://www.w3.org/Graphics/SVG/1.1/DTD/svg11.dtd">
<svg version="1.1" xmlns="http://www.w3.org/2000/svg" xmlns:xlink="http://www.w3.org/1999/xlink" x="0px" y="0px" width="24px"
	 height="24px" viewBox="0 0 24 24" enable-background="new 0 0 24 24" xml:space="preserve">
<g id="Outline_Icons">
	<g>
		<path d="M23.898,23.172l-4.946-10.387c-0.166-0.349-0.737-0.349-0.903,0l-5,10.5c-0.074,0.155-0.062,0.337,0.029,0.482
			C13.169,23.912,13.329,24,13.5,24h10c0.007,0,0.013,0,0.02,0c0.276,0,0.5-0.224,0.5-0.5C24.02,23.375,23.974,23.261,23.898,23.172
			z M14.292,23l4.208-8.837L22.708,23H14.292z"/>
		<path d="M18,17v3c0,0.276,0.224,0.5,0.5,0.5S19,20.276,19,20v-3c0-0.276-0.224-0.5-0.5-0.5S18,16.724,18,17z"/>
		<circle cx="18.5" cy="21.5" r="0.5"/>
		<path d="M11.5,23H4V12.5C4,12.224,3.776,12,3.5,12S3,12.224,3,12.5v11C3,23.776,3.223,24,3.5,24h8c0.276,0,0.5-0.224,0.5-0.5
			S11.776,23,11.5,23z"/>
		<path d="M23.163,12.369c0.096,0.088,0.216,0.131,0.337,0.131c0.135,0,0.271-0.055,0.369-0.163c0.187-0.204,0.172-0.52-0.032-0.706
			l-11.5-10.5c-0.19-0.175-0.483-0.175-0.674,0l-11.5,10.5c-0.204,0.186-0.219,0.502-0.032,0.706
			c0.188,0.205,0.502,0.219,0.706,0.032L12,2.177L23.163,12.369z"/>
		<path d="M16,3h3v3c0,0.276,0.224,0.5,0.5,0.5S20,6.276,20,6V2.5C20,2.224,19.776,2,19.5,2H16c-0.276,0-0.5,0.224-0.5,0.5
			S15.723,3,16,3z"/>
		<path d="M10.5,6C10.223,6,10,6.224,10,6.5v3c0,0.276,0.224,0.5,0.5,0.5h3c0.276,0,0.5-0.224,0.5-0.5v-3C14,6.224,13.776,6,13.5,6
			H10.5z M13,9h-2V7h2V9z"/>
	</g>
</g>

</svg>
