<?xml version="1.0" encoding="utf-8"?>
<!-- Generator: Adobe Illustrator 16.0.3, SVG Export Plug-In . SVG Version: 6.00 Build 0)  -->
<!DOCTYPE svg PUBLIC "-//W3C//DTD SVG 1.1//EN" "http://www.w3.org/Graphics/SVG/1.1/DTD/svg11.dtd">
<svg version="1.1" xmlns="http://www.w3.org/2000/svg" xmlns:xlink="http://www.w3.org/1999/xlink" x="0px" y="0px" width="24px"
	 height="24px" viewBox="0 0 24 24" enable-background="new 0 0 24 24" xml:space="preserve">
<g id="Outline_Icons">
	<g>
		<path d="M8.996,16H5.5C2.467,16,0,13.532,0,10.5c0-2.716,1.939-4.979,4.574-5.421C5.022,2.2,7.55,0,10.5,0
			c2.336,0,4.481,1.393,5.451,3.503c0.018-0.001,0.036-0.001,0.053-0.001c1.454,0,2.766,0.898,3.283,2.297
			c0.096,0.259-0.036,0.547-0.295,0.643c-0.258,0.098-0.546-0.037-0.642-0.295c-0.408-1.101-1.502-1.766-2.659-1.625
			c-0.229,0.031-0.445-0.103-0.528-0.316C14.412,2.258,12.582,1,10.5,1C7.929,1,5.742,3.006,5.521,5.567
			C5.501,5.808,5.311,6,5.07,6.022C2.75,6.241,1,8.166,1,10.5C1,12.981,3.019,15,5.5,15h3.496c0.276,0,0.5,0.224,0.5,0.5
			S9.272,16,8.996,16z"/>
		<path d="M21.5,10h-11C10.224,10,10,9.776,10,9.5S10.224,9,10.5,9h11C21.776,9,22,9.224,22,9.5S21.776,10,21.5,10z"/>
		<path d="M22.5,12h-10c-0.276,0-0.5-0.224-0.5-0.5s0.224-0.5,0.5-0.5h10c0.276,0,0.5,0.224,0.5,0.5S22.776,12,22.5,12z"/>
		<path d="M23.5,14h-9c-0.276,0-0.5-0.224-0.5-0.5s0.224-0.5,0.5-0.5h9c0.276,0,0.5,0.224,0.5,0.5S23.776,14,23.5,14z"/>
		<path d="M21.5,16h-10c-0.276,0-0.5-0.224-0.5-0.5s0.224-0.5,0.5-0.5h10c0.276,0,0.5,0.224,0.5,0.5S21.776,16,21.5,16z"/>
		<path d="M19.5,18h-7c-0.276,0-0.5-0.224-0.5-0.5s0.224-0.5,0.5-0.5h7c0.276,0,0.5,0.224,0.5,0.5S19.776,18,19.5,18z"/>
		<path d="M21.5,20h-6c-0.276,0-0.5-0.224-0.5-0.5s0.224-0.5,0.5-0.5h6c0.276,0,0.5,0.224,0.5,0.5S21.776,20,21.5,20z"/>
		<path d="M22.5,22h-4c-0.276,0-0.5-0.224-0.5-0.5s0.224-0.5,0.5-0.5h4c0.276,0,0.5,0.224,0.5,0.5S22.776,22,22.5,22z"/>
		<path d="M21,24h-1c-0.276,0-0.5-0.224-0.5-0.5S19.724,23,20,23h1c0.276,0,0.5,0.224,0.5,0.5S21.276,24,21,24z"/>
	</g>
</g>

</svg>
