<?xml version="1.0" encoding="utf-8"?>
<!-- Generator: Adobe Illustrator 16.0.3, SVG Export Plug-In . SVG Version: 6.00 Build 0)  -->
<!DOCTYPE svg PUBLIC "-//W3C//DTD SVG 1.1//EN" "http://www.w3.org/Graphics/SVG/1.1/DTD/svg11.dtd">
<svg version="1.1" xmlns="http://www.w3.org/2000/svg" xmlns:xlink="http://www.w3.org/1999/xlink" x="0px" y="0px" width="24px"
	 height="24px" viewBox="0 0 24 24" enable-background="new 0 0 24 24" xml:space="preserve">
<g id="Outline_Icons">
	<g>
		<path d="M19.5,5h-15C2.019,5,0,7.019,0,9.5v6C0,17.981,2.019,20,4.5,20h15c2.481,0,4.5-2.019,4.5-4.5v-6C24,7.019,21.981,5,19.5,5
			z M23,15.5c0,1.93-1.57,3.5-3.5,3.5h-15C2.57,19,1,17.43,1,15.5v-6C1,7.57,2.57,6,4.5,6h15C21.43,6,23,7.57,23,9.5V15.5z"/>
		<path d="M13.5,8.5C12.673,8.5,12,9.173,12,10s0.673,1.5,1.5,1.5S15,10.827,15,10S14.327,8.5,13.5,8.5z M13.5,10.5
			c-0.276,0-0.5-0.224-0.5-0.5c0-0.276,0.224-0.5,0.5-0.5S14,9.724,14,10C14,10.276,13.776,10.5,13.5,10.5z"/>
		<path d="M13.5,13.5c-0.827,0-1.5,0.673-1.5,1.5s0.673,1.5,1.5,1.5S15,15.827,15,15S14.327,13.5,13.5,13.5z M13.5,15.5
			c-0.276,0-0.5-0.224-0.5-0.5c0-0.276,0.224-0.5,0.5-0.5S14,14.724,14,15C14,15.276,13.776,15.5,13.5,15.5z"/>
		<path d="M4.724,8.553C4.555,8.469,4.352,8.487,4.2,8.6l-2,1.5c-0.221,0.166-0.266,0.479-0.1,0.7
			c0.165,0.222,0.478,0.266,0.7,0.101L4,10v6.395c0,0.276,0.224,0.5,0.5,0.5s0.5-0.224,0.5-0.5V9C5,8.811,4.893,8.638,4.724,8.553z"
			/>
		<path d="M8.483,11.509c-0.625,0-1.104,0.174-1.476,0.444C7.047,10.962,7.442,9.5,9.467,9.5c0.276,0,0.5-0.224,0.5-0.5
			s-0.224-0.5-0.5-0.5C6.911,8.5,6,10.376,6,12.133v2.121C6,15.582,6.652,17,8.483,17c1.832,0,2.484-1.418,2.484-2.746
			C10.967,12.927,10.315,11.509,8.483,11.509z M8.483,16C7.193,16,7,14.906,7,14.254c0-0.652,0.193-1.745,1.483-1.745
			c1.291,0,1.484,1.093,1.484,1.745C9.967,14.906,9.774,16,8.483,16z"/>
		<path d="M18.517,8.5c-1.832,0-2.484,1.418-2.484,2.746c0,1.327,0.652,2.745,2.484,2.745c0.625,0,1.104-0.174,1.476-0.445
			C19.955,14.403,19.608,16,17.5,16c-0.276,0-0.5,0.224-0.5,0.5s0.224,0.5,0.5,0.5c2.581,0,3.5-1.876,3.5-3.633v-2.121
			C21,9.918,20.348,8.5,18.517,8.5z M18.517,12.991c-1.291,0-1.484-1.093-1.484-1.745S17.226,9.5,18.517,9.5
			C19.807,9.5,20,10.594,20,11.246S19.807,12.991,18.517,12.991z"/>
	</g>
</g>

</svg>
