<?xml version="1.0" encoding="utf-8"?>
<!-- Generator: Adobe Illustrator 16.0.3, SVG Export Plug-In . SVG Version: 6.00 Build 0)  -->
<!DOCTYPE svg PUBLIC "-//W3C//DTD SVG 1.1//EN" "http://www.w3.org/Graphics/SVG/1.1/DTD/svg11.dtd">
<svg version="1.1" xmlns="http://www.w3.org/2000/svg" xmlns:xlink="http://www.w3.org/1999/xlink" x="0px" y="0px" width="24px"
	 height="24px" viewBox="0 0 24 24" enable-background="new 0 0 24 24" xml:space="preserve">
<g id="Outline_Icons_1_">
	<g id="Outline_Icons">
		<g>
			<path d="M23.932,16.248l-3.5-6C20.342,10.095,20.178,10,20,10h-3c-0.276,0-0.5,0.224-0.5,0.5S16.724,11,17,11h2.713l2.917,5H16.5
				c-0.276,0-0.5,0.224-0.5,0.5v1c0,0.827-0.673,1.5-1.5,1.5H10c-0.827,0-1.5-0.673-1.5-1.5v-1C8.5,16.224,8.276,16,8,16H1.371
				l2.917-5H6.5C6.776,11,7,10.776,7,10.5S6.776,10,6.5,10H4c-0.178,0-0.342,0.095-0.432,0.248l-3.5,6C0.045,16.287,0,16.459,0,16.5
				v7C0,23.776,0.224,24,0.5,24h23c0.276,0,0.5-0.224,0.5-0.5v-7C24,16.459,23.955,16.287,23.932,16.248z M23,23H1v-6h6.5v0.5
				c0,1.378,1.122,2.5,2.5,2.5h4.5c1.378,0,2.5-1.122,2.5-2.5V17h6V23z"/>
			<path d="M11.146,11.853c0.193,0.194,0.512,0.197,0.708,0l4-3.999c0.195-0.195,0.195-0.512,0-0.707s-0.512-0.195-0.707,0
				L12,10.293V0.5C12,0.224,11.776,0,11.5,0S11,0.224,11,0.5v9.793L7.854,7.146c-0.195-0.195-0.512-0.195-0.707,0
				s-0.195,0.512,0,0.707L11.146,11.853z"/>
		</g>
	</g>
	<g id="New_icons_1_">
	</g>
</g>

</svg>
