<?xml version="1.0" encoding="utf-8"?>
<!-- Generator: Adobe Illustrator 16.0.3, SVG Export Plug-In . SVG Version: 6.00 Build 0)  -->
<!DOCTYPE svg PUBLIC "-//W3C//DTD SVG 1.1//EN" "http://www.w3.org/Graphics/SVG/1.1/DTD/svg11.dtd">
<svg version="1.1" xmlns="http://www.w3.org/2000/svg" xmlns:xlink="http://www.w3.org/1999/xlink" x="0px" y="0px" width="24px"
	 height="24px" viewBox="0 0 24 24" enable-background="new 0 0 24 24" xml:space="preserve">
<g id="Outline_Icons">
	<g>
		<path d="M23.414,6.244c-0.756-0.756-2.072-0.755-2.828,0.001l-5.295,5.297c-0.003,0.002-0.007,0.003-0.009,0.005l-1.249,1.25
			c-0.287-0.335-0.579-0.666-0.892-0.977c0.616-0.528,1.243-1.086,1.872-1.678c0.099-0.093,0.156-0.221,0.158-0.356
			s-0.051-0.266-0.146-0.361l-1.061-1.061l4.95-4.949c0.778-0.78,0.778-2.049-0.001-2.829c-0.756-0.756-2.072-0.756-2.828,0
			l-5.3,5.301c-0.002,0.002-0.004,0.002-0.006,0.004L8.243,8.457C6.182,7.528,3.903,7,1.5,7h-1C0.224,7,0,7.224,0,7.5v16
			C0,23.776,0.224,24,0.5,24h17c0.276,0,0.5-0.224,0.5-0.5c0-1.936-0.353-3.785-0.967-5.513c0.819-0.678,1.652-1.408,2.48-2.186
			c0.099-0.093,0.156-0.221,0.158-0.356c0.002-0.135-0.051-0.266-0.146-0.361l-1.061-1.061l4.95-4.95
			C24.194,8.294,24.194,7.025,23.414,6.244z M16.793,1.293c0.379-0.377,1.035-0.377,1.414,0c0.39,0.391,0.39,1.025,0.001,1.415
			l-4.95,4.949l-1.414-1.414L16.793,1.293z M11.138,6.951l1.767,1.767l1.048,1.048c-0.525,0.484-1.045,0.938-1.558,1.376
			c-0.974-0.86-2.042-1.612-3.199-2.226L11.138,6.951z M1,23V8h0.5c8.379,0,15.227,6.684,15.492,15H1z M16.659,16.996
			c-0.527-1.223-1.208-2.36-2.001-3.41l0.978-0.978l1.769,1.769c0,0,0.001,0,0.001,0.001l1.047,1.047
			C17.853,15.977,17.253,16.497,16.659,16.996z M22.708,8.366l-4.95,4.95l-1.414-1.414l4.949-4.95
			c0.379-0.378,1.037-0.379,1.414-0.001C23.097,7.342,23.098,7.977,22.708,8.366z"/>
		<path d="M8.354,11.646c-0.195-0.195-0.512-0.195-0.707,0l-4,4c-0.195,0.195-0.195,0.512,0,0.707C3.744,16.451,3.872,16.5,4,16.5
			s0.256-0.049,0.354-0.146l4-4C8.549,12.158,8.549,11.842,8.354,11.646z"/>
		<path d="M8.146,20.146c-0.195,0.195-0.195,0.512,0,0.707C8.244,20.951,8.372,21,8.5,21s0.256-0.049,0.354-0.146l4-4
			c0.195-0.195,0.195-0.512,0-0.707s-0.512-0.195-0.707,0L8.146,20.146z"/>
	</g>
</g>

</svg>
