<?xml version="1.0" encoding="utf-8"?>
<!-- Generator: Adobe Illustrator 16.0.3, SVG Export Plug-In . SVG Version: 6.00 Build 0)  -->
<!DOCTYPE svg PUBLIC "-//W3C//DTD SVG 1.1//EN" "http://www.w3.org/Graphics/SVG/1.1/DTD/svg11.dtd">
<svg version="1.1" xmlns="http://www.w3.org/2000/svg" xmlns:xlink="http://www.w3.org/1999/xlink" x="0px" y="0px" width="24px"
	 height="24px" viewBox="0 0 24 24" enable-background="new 0 0 24 24" xml:space="preserve">
<g id="Outline_Icons">
	<path d="M22.75,1.626c-0.248-0.486-0.67-0.846-1.188-1.015c-1.061-0.345-2.234,0.267-2.569,1.296l-0.562,1.579l-7.509-0.879
		c0.266-1.033-0.308-2.113-1.338-2.449c-1.05-0.342-2.232,0.266-2.568,1.298L0.101,20.875c-0.169,0.519-0.125,1.072,0.122,1.559
		c0.248,0.485,0.67,0.846,1.189,1.014c0.205,0.066,0.417,0.101,0.632,0.101c0.887,0,1.667-0.567,1.936-1.397l0.916-2.572
		l7.508,0.834l-0.325,0.914c-0.347,1.07,0.241,2.224,1.312,2.573c0.204,0.066,0.417,0.1,0.631,0.1c0.887,0,1.668-0.567,1.937-1.398
		l6.915-19.417C23.041,2.665,22.997,2.112,22.75,1.626z M14.157,15.489l-7.491-0.881l1.083-3.042l7.491,0.881L14.157,15.489z
		 M15.584,11.48l-7.49-0.881l1.064-2.991l7.508,0.835L15.584,11.48z M17.011,7.475L9.503,6.64l1.091-3.063l7.493,0.877L17.011,7.475
		z M3.033,21.829c-0.173,0.534-0.771,0.843-1.312,0.667c-0.265-0.085-0.48-0.27-0.606-0.518c-0.127-0.248-0.148-0.53-0.067-0.781
		L7.962,1.779c0.141-0.432,0.539-0.721,0.991-0.721c0.109,0,0.217,0.017,0.321,0.051c0.547,0.179,0.847,0.768,0.674,1.301
		L3.033,21.829z M5.24,18.611l1.081-3.038l7.491,0.882l-1.064,2.99L5.24,18.611z M21.926,2.861l-6.915,19.418
		c-0.173,0.535-0.775,0.846-1.312,0.669c-0.547-0.178-0.847-0.768-0.675-1.3L19.939,2.23c0.14-0.43,0.538-0.72,0.99-0.72
		c0.108,0,0.218,0.018,0.323,0.052c0.265,0.086,0.479,0.27,0.605,0.518C21.985,2.328,22.007,2.61,21.926,2.861z"/>
</g>

</svg>
