<?xml version="1.0" encoding="utf-8"?>
<!-- Generator: Adobe Illustrator 16.0.3, SVG Export Plug-In . SVG Version: 6.00 Build 0)  -->
<!DOCTYPE svg PUBLIC "-//W3C//DTD SVG 1.1//EN" "http://www.w3.org/Graphics/SVG/1.1/DTD/svg11.dtd">
<svg version="1.1" xmlns="http://www.w3.org/2000/svg" xmlns:xlink="http://www.w3.org/1999/xlink" x="0px" y="0px" width="24px"
	 height="24px" viewBox="0 0 24 24" enable-background="new 0 0 24 24" xml:space="preserve">
<g id="Outline_Icons">
	<g>
		<path d="M23,10h-2c-0.276,0-0.5,0.224-0.5,0.5S20.724,11,21,11h2c0.276,0,0.5-0.224,0.5-0.5S23.276,10,23,10z"/>
		<path d="M20.5,6.5c0.128,0,0.256-0.049,0.354-0.146l1.5-1.5c0.195-0.195,0.195-0.512,0-0.707s-0.512-0.195-0.707,0l-1.5,1.5
			c-0.195,0.195-0.195,0.512,0,0.707C20.244,6.451,20.372,6.5,20.5,6.5z"/>
		<path d="M20.854,14.646c-0.195-0.195-0.512-0.195-0.707,0s-0.195,0.512,0,0.707l1.5,1.5C21.744,16.951,21.872,17,22,17
			s0.256-0.049,0.354-0.146c0.195-0.195,0.195-0.512,0-0.707L20.854,14.646z"/>
		<path d="M3,10.5C3,10.224,2.776,10,2.5,10h-2C0.224,10,0,10.224,0,10.5S0.224,11,0.5,11h2C2.776,11,3,10.776,3,10.5z"/>
		<path d="M1.854,4.146c-0.195-0.195-0.512-0.195-0.707,0s-0.195,0.512,0,0.707l1.5,1.5C2.744,6.451,2.872,6.5,3,6.5
			s0.256-0.049,0.354-0.146c0.195-0.195,0.195-0.512,0-0.707L1.854,4.146z"/>
		<path d="M2.646,14.646l-1.5,1.5c-0.195,0.195-0.195,0.512,0,0.707C1.244,16.951,1.372,17,1.5,17s0.256-0.049,0.354-0.146l1.5-1.5
			c0.195-0.195,0.195-0.512,0-0.707S2.842,14.451,2.646,14.646z"/>
		<path d="M15.615,5.978C15.834,5.924,16,5.735,16,5.5v-2C16,3.224,15.776,3,15.5,3H12V0.5C12,0.224,11.776,0,11.5,0
			S11,0.224,11,0.5V3H7.5C7.224,3,7,3.224,7,3.5v2c0,0.235,0.166,0.424,0.385,0.477C5.901,7.193,5,9.021,5,11
			s0.901,3.808,2.385,5.023C7.166,16.077,7,16.265,7,16.5v2V21c0,0.276,0.224,0.5,0.5,0.5S8,21.276,8,21v-2h1v2
			c0,0.276,0.224,0.5,0.5,0.5S10,21.276,10,21v-2h1v1.418l-0.975,2.924c-0.051,0.152-0.025,0.32,0.069,0.451
			C10.188,23.923,10.339,24,10.5,24h2c0.008,0.001,0.015,0,0.02,0c0.276,0,0.5-0.224,0.5-0.5c0-0.104-0.031-0.202-0.086-0.281
			L12,20.418V19h1v2c0,0.276,0.224,0.5,0.5,0.5S14,21.276,14,21v-2h1v2c0,0.276,0.224,0.5,0.5,0.5S16,21.276,16,21v-2.5v-2
			c0-0.235-0.166-0.423-0.385-0.477C17.099,14.808,18,12.979,18,11S17.098,7.192,15.615,5.978z M11.193,23l0.307-0.918L11.807,23
			H11.193z M16.897,10h-1.936c-0.102-1.47-0.427-2.817-0.926-3.865C15.544,6.922,16.592,8.349,16.897,10z M12.83,16H12v-5h2
			C14,12.984,13.556,14.867,12.83,16z M9,11h2v5h-0.83C9.444,14.867,9,12.984,9,11z M9.042,10c0.122-1.602,0.526-3.06,1.128-4H11v4
			H9.042z M12,10V6h0.83c0.602,0.94,1.006,2.398,1.128,4H12z M8,4h7v1H8V4z M8.964,6.135C8.466,7.183,8.14,8.53,8.038,10H6.103
			C6.408,8.35,7.455,6.922,8.964,6.135z M6,11h2c0,1.851,0.354,3.583,0.964,4.865C7.156,14.922,6,13.06,6,11z M8,17h7v1H8V17z
			 M14.036,15.865C14.646,14.583,15,12.851,15,11h2C17,13.06,15.844,14.922,14.036,15.865z"/>
	</g>
</g>

</svg>
