<?xml version="1.0" encoding="utf-8"?>
<!-- Generator: Adobe Illustrator 16.0.3, SVG Export Plug-In . SVG Version: 6.00 Build 0)  -->
<!DOCTYPE svg PUBLIC "-//W3C//DTD SVG 1.1//EN" "http://www.w3.org/Graphics/SVG/1.1/DTD/svg11.dtd">
<svg version="1.1" xmlns="http://www.w3.org/2000/svg" xmlns:xlink="http://www.w3.org/1999/xlink" x="0px" y="0px" width="24px"
	 height="24px" viewBox="0 0 24 24" enable-background="new 0 0 24 24" xml:space="preserve">
<g id="Outline_Icons">
	<path d="M23.916,9.223l-1.566-2.35c-1.554-2.33-4.114-3.744-6.898-3.853C15.215,1.319,13.766,0,12,0S8.785,1.319,8.549,3.021
		C5.765,3.13,3.204,4.544,1.65,6.874l-1.566,2.35c-0.103,0.153-0.112,0.35-0.024,0.513C0.146,9.898,0.315,10,0.5,10H10v11H9v-1
		c0-0.276-0.224-0.5-0.5-0.5S8,19.724,8,20v1H7.5C6.121,21,5,22.122,5,23.5C5,23.776,5.224,24,5.5,24h13c0.276,0,0.5-0.224,0.5-0.5
		c0-1.378-1.121-2.5-2.5-2.5H14V10h9.5c0.185,0,0.354-0.102,0.44-0.264C24.028,9.573,24.019,9.376,23.916,9.223z M8.888,4H9h6h0.112
		c1.35,0,2.645,0.358,3.781,1H5.106C6.243,4.358,7.538,4,8.888,4z M12,1c1.207,0,2.218,0.86,2.45,2h-4.9C9.782,1.86,10.793,1,12,1z
		 M17.914,23H6.086c0.206-0.582,0.762-1,1.414-1h9C17.152,22,17.708,22.418,17.914,23z M13,21h-2V10h2V21z M1.435,9l1.048-1.572
		C2.837,6.896,3.251,6.419,3.711,6h16.578c0.46,0.419,0.874,0.896,1.229,1.428L22.565,9H1.435z"/>
</g>

</svg>
