<?xml version="1.0" encoding="utf-8"?>
<!-- Generator: Adobe Illustrator 16.0.3, SVG Export Plug-In . SVG Version: 6.00 Build 0)  -->
<!DOCTYPE svg PUBLIC "-//W3C//DTD SVG 1.1//EN" "http://www.w3.org/Graphics/SVG/1.1/DTD/svg11.dtd">
<svg version="1.1" xmlns="http://www.w3.org/2000/svg" xmlns:xlink="http://www.w3.org/1999/xlink" x="0px" y="0px" width="24px"
	 height="24px" viewBox="0 0 24 24" enable-background="new 0 0 24 24" xml:space="preserve">
<g id="Outline_Icons">
	<g>
		<path d="M9.5,5h14C23.776,5,24,4.776,24,4.5S23.776,4,23.5,4h-14C9.224,4,9,4.224,9,4.5S9.224,5,9.5,5z"/>
		<path d="M23.5,12h-14C9.224,12,9,12.224,9,12.5S9.224,13,9.5,13h14c0.276,0,0.5-0.224,0.5-0.5S23.776,12,23.5,12z"/>
		<path d="M23.5,20h-14C9.224,20,9,20.224,9,20.5S9.224,21,9.5,21h14c0.276,0,0.5-0.224,0.5-0.5S23.776,20,23.5,20z"/>
		<path d="M5.5,4H3.883l1.046-1.743c0.143-0.236,0.065-0.544-0.172-0.686C4.523,1.43,4.214,1.506,4.071,1.743L3,3.528L1.929,1.743
			C1.787,1.506,1.478,1.43,1.243,1.571C1.006,1.713,0.929,2.021,1.071,2.257L2.117,4H0.5C0.224,4,0,4.224,0,4.5S0.224,5,0.5,5h1.617
			L1.071,6.743C0.929,6.979,1.006,7.287,1.243,7.429C1.323,7.478,1.412,7.5,1.5,7.5c0.169,0,0.335-0.087,0.429-0.243L3,5.472
			l1.071,1.785C4.165,7.413,4.331,7.5,4.5,7.5c0.088,0,0.177-0.022,0.257-0.071c0.237-0.142,0.314-0.449,0.172-0.686L3.883,5H5.5
			C5.776,5,6,4.776,6,4.5S5.776,4,5.5,4z"/>
		<path d="M5.5,12H3.883l1.046-1.743c0.143-0.236,0.065-0.544-0.172-0.686C4.523,9.43,4.214,9.507,4.071,9.743L3,11.528L1.929,9.743
			C1.787,9.507,1.478,9.43,1.243,9.571c-0.237,0.142-0.314,0.449-0.172,0.686L2.117,12H0.5C0.224,12,0,12.224,0,12.5
			S0.224,13,0.5,13h1.617l-1.046,1.743c-0.143,0.236-0.065,0.544,0.172,0.686C1.323,15.478,1.412,15.5,1.5,15.5
			c0.169,0,0.335-0.087,0.429-0.243L3,13.472l1.071,1.785C4.165,15.413,4.331,15.5,4.5,15.5c0.088,0,0.177-0.022,0.257-0.071
			c0.237-0.142,0.314-0.449,0.172-0.686L3.883,13H5.5C5.776,13,6,12.776,6,12.5S5.776,12,5.5,12z"/>
		<path d="M5.5,20H3.883l1.046-1.743c0.143-0.236,0.065-0.544-0.172-0.686c-0.233-0.143-0.543-0.065-0.686,0.172L3,19.528
			l-1.071-1.785c-0.142-0.237-0.451-0.314-0.686-0.172c-0.237,0.142-0.314,0.449-0.172,0.686L2.117,20H0.5C0.224,20,0,20.224,0,20.5
			S0.224,21,0.5,21h1.617l-1.046,1.743c-0.143,0.236-0.065,0.544,0.172,0.686C1.323,23.478,1.412,23.5,1.5,23.5
			c0.169,0,0.335-0.087,0.429-0.243L3,21.472l1.071,1.785C4.165,23.413,4.331,23.5,4.5,23.5c0.088,0,0.177-0.022,0.257-0.071
			c0.237-0.142,0.314-0.449,0.172-0.686L3.883,21H5.5C5.776,21,6,20.776,6,20.5S5.776,20,5.5,20z"/>
	</g>
</g>

</svg>
