<?xml version="1.0" encoding="utf-8"?>
<!-- Generator: Adobe Illustrator 16.0.3, SVG Export Plug-In . SVG Version: 6.00 Build 0)  -->
<!DOCTYPE svg PUBLIC "-//W3C//DTD SVG 1.1//EN" "http://www.w3.org/Graphics/SVG/1.1/DTD/svg11.dtd">
<svg version="1.1" xmlns="http://www.w3.org/2000/svg" xmlns:xlink="http://www.w3.org/1999/xlink" x="0px" y="0px" width="24px"
	 height="24px" viewBox="0 0 24 24" enable-background="new 0 0 24 24" xml:space="preserve">
<g id="Outline_Icons">
	<g>
		<path d="M16.76,7.061l-4.925-4.432c-0.19-0.171-0.479-0.171-0.669,0l-5,4.5C6.012,7.267,5.959,7.486,6.033,7.679
			C6.107,7.873,6.293,8,6.5,8H8v4.5C8,12.776,8.224,13,8.5,13h2h2h2c0.276,0,0.5-0.224,0.5-0.5V8h1.5c0.007,0,0.013,0,0.02,0
			c0.276,0,0.5-0.224,0.5-0.5C17.02,7.311,16.915,7.146,16.76,7.061z M11,12v-2h1v2H11z M14,12h-1V9.5C13,9.224,12.776,9,12.5,9h-2
			C10.224,9,10,9.224,10,9.5V12H9V8h5V12z M7.803,7L11.5,3.673L15.197,7H7.803z"/>
		<path d="M11.5,0C6.813,0,3,3.813,3,8.5c0,3.611,2.256,6.796,5.64,8.004l2.386,7.155C11.094,23.862,11.285,24,11.5,24
			s0.406-0.138,0.474-0.341l2.386-7.155C17.744,15.296,20,12.111,20,8.5C20,3.813,16.187,0,11.5,0z M13.81,15.635
			c-0.151,0.049-0.27,0.167-0.32,0.317l-1.99,5.967l-1.99-5.967c-0.05-0.151-0.169-0.269-0.32-0.317C6.086,14.629,4,11.762,4,8.5
			C4,4.365,7.364,1,11.5,1S19,4.365,19,8.5C19,11.762,16.914,14.629,13.81,15.635z"/>
	</g>
</g>

</svg>
