<?xml version="1.0" encoding="utf-8"?>
<!-- Generator: Adobe Illustrator 16.0.3, SVG Export Plug-In . SVG Version: 6.00 Build 0)  -->
<!DOCTYPE svg PUBLIC "-//W3C//DTD SVG 1.1//EN" "http://www.w3.org/Graphics/SVG/1.1/DTD/svg11.dtd">
<svg version="1.1" xmlns="http://www.w3.org/2000/svg" xmlns:xlink="http://www.w3.org/1999/xlink" x="0px" y="0px" width="24px"
	 height="24px" viewBox="0 0 24 24" enable-background="new 0 0 24 24" xml:space="preserve">
<g id="Outline_Icons">
	<g>
		<path d="M8.713,9.79c0,1.938,3.055,5.655,3.403,6.072c0.095,0.114,0.235,0.18,0.384,0.18s0.289-0.066,0.384-0.18
			c0.349-0.417,3.404-4.134,3.404-6.072C16.288,7.7,14.589,6,12.5,6C10.412,6,8.713,7.7,8.713,9.79z M15.288,9.79
			c0,1.172-1.76,3.651-2.789,4.958c-1.209-1.531-2.787-3.888-2.787-4.958C9.713,8.252,10.963,7,12.5,7
			C14.038,7,15.288,8.252,15.288,9.79z"/>
		<path d="M10.768,9.79c0,0.954,0.777,1.73,1.732,1.73c0.956,0,1.733-0.776,1.733-1.73c0-0.957-0.778-1.734-1.733-1.734
			C11.545,8.055,10.768,8.833,10.768,9.79z M13.233,9.79c0,0.403-0.329,0.73-0.733,0.73c-0.404,0-0.732-0.328-0.732-0.73
			c0-0.405,0.329-0.734,0.732-0.734C12.904,9.055,13.233,9.385,13.233,9.79z"/>
		<path d="M6.9,9.8c0.166-0.221,0.121-0.535-0.1-0.7C6.58,8.936,6.266,8.979,6.1,9.2L4,12v-1c0-4.411,3.589-8,8-8
			c2.349,0,4.571,1.027,6.096,2.819c0.18,0.211,0.495,0.236,0.705,0.057s0.235-0.495,0.057-0.705C17.143,3.156,14.643,2,12,2
			c-4.962,0-9,4.038-9,9v1L0.9,9.2C0.734,8.979,0.42,8.934,0.2,9.1c-0.221,0.166-0.266,0.479-0.1,0.7l3,4
			c0.006,0.008,0.016,0.01,0.023,0.019c0.033,0.04,0.073,0.07,0.117,0.098c0.018,0.011,0.031,0.025,0.05,0.034
			C3.354,13.98,3.424,14,3.5,14s0.146-0.02,0.21-0.049c0.019-0.009,0.032-0.023,0.05-0.034c0.044-0.028,0.084-0.059,0.117-0.098
			C3.884,13.811,3.894,13.808,3.9,13.8L6.9,9.8z"/>
		<path d="M23.9,12.2l-3-4c-0.005-0.008-0.015-0.01-0.021-0.017C20.787,8.074,20.654,8,20.5,8s-0.287,0.074-0.378,0.183
			C20.115,8.19,20.105,8.192,20.1,8.2l-3,4c-0.166,0.221-0.121,0.534,0.1,0.7c0.222,0.166,0.535,0.122,0.7-0.1L20,10v1
			c0,4.411-3.589,8-8,8c-2.351,0-4.572-1.027-6.096-2.819c-0.18-0.211-0.495-0.236-0.705-0.058c-0.21,0.179-0.236,0.496-0.057,0.706
			C6.856,18.844,9.356,20,12,20c4.962,0,9-4.038,9-9v-1l2.1,2.8c0.098,0.131,0.248,0.2,0.4,0.2c0.104,0,0.209-0.033,0.299-0.1
			C24.021,12.734,24.066,12.421,23.9,12.2z"/>
	</g>
</g>

</svg>
