<?xml version="1.0" encoding="utf-8"?>
<!-- Generator: Adobe Illustrator 16.0.3, SVG Export Plug-In . SVG Version: 6.00 Build 0)  -->
<!DOCTYPE svg PUBLIC "-//W3C//DTD SVG 1.1//EN" "http://www.w3.org/Graphics/SVG/1.1/DTD/svg11.dtd">
<svg version="1.1" xmlns="http://www.w3.org/2000/svg" xmlns:xlink="http://www.w3.org/1999/xlink" x="0px" y="0px" width="24px"
	 height="24px" viewBox="0 0 24 24" enable-background="new 0 0 24 24" xml:space="preserve">
<g id="Outline_Icons">
	<g>
		<path d="M11.5,0c-4.411,0-8,3.589-8,8c0,4.245,7.273,15.307,7.583,15.775C11.175,23.916,11.332,24,11.5,24
			s0.325-0.084,0.417-0.225C12.227,23.307,19.5,12.245,19.5,8C19.5,3.589,15.911,0,11.5,0z M11.5,22.58
			c-1.566-2.447-7-11.184-7-14.58c0-3.86,3.14-7,7-7s7,3.14,7,7C18.5,11.395,13.066,20.132,11.5,22.58z"/>
		<path d="M15.5,8H12V4.5C12,4.224,11.776,4,11.5,4S11,4.224,11,4.5V8H7.5C7.224,8,7,8.224,7,8.5S7.224,9,7.5,9H11v3.5
			c0,0.276,0.224,0.5,0.5,0.5s0.5-0.224,0.5-0.5V9h3.5C15.776,9,16,8.776,16,8.5S15.776,8,15.5,8z"/>
	</g>
</g>

</svg>
