<?xml version="1.0" encoding="utf-8"?>
<!-- Generator: Adobe Illustrator 16.0.3, SVG Export Plug-In . SVG Version: 6.00 Build 0)  -->
<!DOCTYPE svg PUBLIC "-//W3C//DTD SVG 1.1//EN" "http://www.w3.org/Graphics/SVG/1.1/DTD/svg11.dtd">
<svg version="1.1" xmlns="http://www.w3.org/2000/svg" xmlns:xlink="http://www.w3.org/1999/xlink" x="0px" y="0px" width="24px"
	 height="24px" viewBox="0 0 24 24" enable-background="new 0 0 24 24" xml:space="preserve">
<g id="Outline_Icons">
	<g>
		<path d="M11.5,0C6.084,0,2,4.299,2,10c0,7.173,8.832,13.634,9.207,13.905C11.294,23.969,11.397,24,11.5,24
			s0.206-0.031,0.293-0.095C12.168,23.634,21,17.173,21,10C21,4.299,16.916,0,11.5,0z M11.5,22.873C9.972,21.69,3,15.961,3,10
			c0-5.131,3.654-9,8.5-9S20,4.869,20,10C20,15.961,13.028,21.69,11.5,22.873z"/>
		<path d="M9.5,8h2C11.776,8,12,7.776,12,7.5S11.776,7,11.5,7h-2C9.224,7,9,7.224,9,7.5S9.224,8,9.5,8z"/>
		<path d="M17,7h-1.5C15.224,7,15,7.224,15,7.5V11h-1V5.5C14,5.224,13.776,5,13.5,5h-6C7.224,5,7,5.224,7,5.5v9
			C7,14.776,7.224,15,7.5,15h6c0.276,0,0.5-0.224,0.5-0.5V12h1.5c0.276,0,0.5-0.224,0.5-0.5V8h1c0.276,0,0.5-0.224,0.5-0.5
			S17.276,7,17,7z M13,6v3H8V6H13z M13,14H8v-4h5V14z"/>
	</g>
</g>

</svg>
