<?xml version="1.0" encoding="utf-8"?>
<!-- Generator: Adobe Illustrator 16.0.3, SVG Export Plug-In . SVG Version: 6.00 Build 0)  -->
<!DOCTYPE svg PUBLIC "-//W3C//DTD SVG 1.1//EN" "http://www.w3.org/Graphics/SVG/1.1/DTD/svg11.dtd">
<svg version="1.1" xmlns="http://www.w3.org/2000/svg" xmlns:xlink="http://www.w3.org/1999/xlink" x="0px" y="0px" width="24px"
	 height="24px" viewBox="0 0 24 24" enable-background="new 0 0 24 24" xml:space="preserve">
<g id="Outline_Icons">
	<g>
		<path d="M12,7c1.93,0,3.5-1.57,3.5-3.5S13.93,0,12,0S8.5,1.57,8.5,3.5S10.07,7,12,7z M12,1c1.378,0,2.5,1.122,2.5,2.5
			S13.378,6,12,6S9.5,4.878,9.5,3.5S10.622,1,12,1z"/>
		<path d="M10,14.534V18.5c0,0.276,0.224,0.5,0.5,0.5h3c0.276,0,0.5-0.224,0.5-0.5v-3.966c1.952-0.934,3-3.735,3-6.034
			C17,8.224,16.776,8,16.5,8h-9C7.224,8,7,8.224,7,8.5C7,10.798,8.048,13.6,10,14.534z M15.981,9
			c-0.146,1.963-1.13,4.198-2.646,4.729C13.134,13.798,13,13.988,13,14.2V18h-2v-3.8c0-0.212-0.134-0.402-0.335-0.472
			C9.149,13.198,8.166,10.963,8.019,9H15.981z"/>
		<path d="M12,20.5c-4.015,0-6.366-0.821-6.501-1.239c0.035-0.111,0.575-0.602,2.581-0.953c0.272-0.047,0.454-0.307,0.406-0.58
			c-0.048-0.271-0.306-0.452-0.579-0.406C5.646,17.719,4.5,18.367,4.5,19.25c0,1.776,4.714,2.25,7.5,2.25s7.5-0.474,7.5-2.25
			c0-0.882-1.142-1.53-3.394-1.926c-0.271-0.046-0.531,0.134-0.579,0.406c-0.047,0.272,0.134,0.531,0.406,0.579
			c1.997,0.352,2.534,0.84,2.568,0.93C18.366,19.679,16.015,20.5,12,20.5z"/>
		<path d="M16.067,15.252c-0.274-0.027-0.524,0.158-0.56,0.433c-0.035,0.273,0.158,0.524,0.432,0.56
			C20.575,16.843,23,18.335,23,19.5c0,1.655-4.518,3.5-11,3.5S1,21.155,1,19.5c0-1.165,2.426-2.657,7.063-3.255
			c0.274-0.036,0.467-0.287,0.432-0.56c-0.036-0.274-0.289-0.465-0.56-0.433C4.099,15.748,0,17.124,0,19.5C0,22.423,6.183,24,12,24
			s12-1.577,12-4.5C24,17.124,19.902,15.748,16.067,15.252z"/>
	</g>
</g>

</svg>
