<?xml version="1.0" encoding="utf-8"?>
<!-- Generator: Adobe Illustrator 16.0.3, SVG Export Plug-In . SVG Version: 6.00 Build 0)  -->
<!DOCTYPE svg PUBLIC "-//W3C//DTD SVG 1.1//EN" "http://www.w3.org/Graphics/SVG/1.1/DTD/svg11.dtd">
<svg version="1.1" xmlns="http://www.w3.org/2000/svg" xmlns:xlink="http://www.w3.org/1999/xlink" x="0px" y="0px" width="24px"
	 height="24px" viewBox="0 0 24 24" enable-background="new 0 0 24 24" xml:space="preserve">
<g id="Outline_Icons">
	<g>
		<path d="M11.5,0C6.084,0,2,4.299,2,10c0,7.173,8.832,13.634,9.207,13.905C11.294,23.969,11.397,24,11.5,24
			s0.206-0.031,0.293-0.095C12.168,23.634,21,17.173,21,10C21,4.299,16.916,0,11.5,0z M11.5,22.873C9.972,21.69,3,15.961,3,10
			c0-5.131,3.654-9,8.5-9S20,4.869,20,10C20,15.961,13.028,21.69,11.5,22.873z"/>
		<path d="M15.354,5.646c-0.195-0.195-0.512-0.195-0.707,0L11.5,8.793L8.354,5.646c-0.195-0.195-0.512-0.195-0.707,0
			s-0.195,0.512,0,0.707L10.793,9.5l-3.146,3.146c-0.195,0.195-0.195,0.512,0,0.707C7.744,13.451,7.872,13.5,8,13.5
			s0.256-0.049,0.354-0.146l3.146-3.147l3.146,3.147C14.744,13.451,14.872,13.5,15,13.5s0.256-0.049,0.354-0.146
			c0.195-0.195,0.195-0.512,0-0.707L12.207,9.5l3.146-3.146C15.549,6.159,15.549,5.842,15.354,5.646z"/>
	</g>
</g>

</svg>
