<?xml version="1.0" encoding="utf-8"?>
<!-- Generator: Adobe Illustrator 16.0.3, SVG Export Plug-In . SVG Version: 6.00 Build 0)  -->
<!DOCTYPE svg PUBLIC "-//W3C//DTD SVG 1.1//EN" "http://www.w3.org/Graphics/SVG/1.1/DTD/svg11.dtd">
<svg version="1.1" xmlns="http://www.w3.org/2000/svg" xmlns:xlink="http://www.w3.org/1999/xlink" x="0px" y="0px" width="24px"
	 height="24px" viewBox="0 0 24 24" enable-background="new 0 0 24 24" xml:space="preserve">
<g id="Outline_Icons">
	<g>
		<path d="M11.5,0C6.084,0,2,4.299,2,10c0,7.173,8.832,13.634,9.207,13.905C11.294,23.969,11.397,24,11.5,24
			s0.206-0.031,0.293-0.095C12.168,23.634,21,17.173,21,10C21,4.299,16.916,0,11.5,0z M11.5,22.873C9.972,21.69,3,15.961,3,10
			c0-5.131,3.654-9,8.5-9S20,4.869,20,10C20,15.961,13.028,21.69,11.5,22.873z"/>
		<circle cx="10.5" cy="4.5" r="0.5"/>
		<circle cx="12.5" cy="3.5" r="0.5"/>
		<circle cx="13.5" cy="4.5" r="0.5"/>
		<path d="M14.5,6h-6C8.224,6,8,6.224,8,6.5v2c0,1.758,1.309,3.204,3,3.449V15h-1c-0.276,0-0.5,0.224-0.5,0.5S9.724,16,10,16h3
			c0.276,0,0.5-0.224,0.5-0.5S13.276,15,13,15h-1v-3.051c1.691-0.245,3-1.691,3-3.449v-2C15,6.224,14.776,6,14.5,6z M14,8.5
			c0,1.378-1.122,2.5-2.5,2.5S9,9.878,9,8.5V7h5V8.5z"/>
	</g>
</g>

</svg>
