<?xml version="1.0" encoding="utf-8"?>
<!-- Generator: Adobe Illustrator 16.0.3, SVG Export Plug-In . SVG Version: 6.00 Build 0)  -->
<!DOCTYPE svg PUBLIC "-//W3C//DTD SVG 1.1//EN" "http://www.w3.org/Graphics/SVG/1.1/DTD/svg11.dtd">
<svg version="1.1" xmlns="http://www.w3.org/2000/svg" xmlns:xlink="http://www.w3.org/1999/xlink" x="0px" y="0px" width="24px"
	 height="24px" viewBox="0 0 24 24" enable-background="new 0 0 24 24" xml:space="preserve">
<g id="Outline_Icons">
	<g>
		<path d="M11.5,3C7.916,3,5,5.916,5,9.5c0,3.584,2.916,6.5,6.5,6.5S18,13.084,18,9.5C18,5.916,15.084,3,11.5,3z M11.5,15
			C8.467,15,6,12.533,6,9.5S8.467,4,11.5,4S17,6.467,17,9.5S14.533,15,11.5,15z"/>
		<path d="M11.5,7.146c0.491,0,0.891,0.399,0.891,0.891c0,0.277,0.224,0.5,0.5,0.5s0.5-0.223,0.5-0.5
			c0-0.868-0.592-1.594-1.391-1.814V5.719c0-0.276-0.224-0.5-0.5-0.5S11,5.442,11,5.719v0.504c-0.799,0.22-1.391,0.946-1.391,1.814
			c0,1.042,0.848,1.891,1.891,1.891c0.491,0,0.891,0.4,0.891,0.893c0,0.491-0.399,0.891-0.891,0.891s-0.891-0.399-0.891-0.891
			c0-0.276-0.224-0.5-0.5-0.5s-0.5,0.224-0.5,0.5c0,0.868,0.592,1.594,1.391,1.815v0.501c0,0.276,0.224,0.5,0.5,0.5
			s0.5-0.224,0.5-0.5v-0.501c0.799-0.221,1.391-0.947,1.391-1.815c0-1.043-0.848-1.893-1.891-1.893
			c-0.491,0-0.891-0.399-0.891-0.891S11.009,7.146,11.5,7.146z"/>
		<path d="M11.5,0C6.084,0,2,4.299,2,10c0,7.173,8.832,13.634,9.207,13.905C11.294,23.969,11.397,24,11.5,24
			s0.206-0.031,0.293-0.095C12.168,23.634,21,17.173,21,10C21,4.299,16.916,0,11.5,0z M11.5,22.873C9.972,21.69,3,15.961,3,10
			c0-5.131,3.654-9,8.5-9S20,4.869,20,10C20,15.961,13.028,21.69,11.5,22.873z"/>
	</g>
</g>

</svg>
