<?xml version="1.0" encoding="utf-8"?>
<!-- Generator: Adobe Illustrator 16.0.3, SVG Export Plug-In . SVG Version: 6.00 Build 0)  -->
<!DOCTYPE svg PUBLIC "-//W3C//DTD SVG 1.1//EN" "http://www.w3.org/Graphics/SVG/1.1/DTD/svg11.dtd">
<svg version="1.1" xmlns="http://www.w3.org/2000/svg" xmlns:xlink="http://www.w3.org/1999/xlink" x="0px" y="0px" width="24px"
	 height="24px" viewBox="0 0 24 24" enable-background="new 0 0 24 24" xml:space="preserve">
<g id="Outline_Icons_1_">
	<g>
		<path d="M12,24c4.411,0,8-3.589,8-8c0-2.021-0.76-3.864-2-5.274l-0.008-5.315C17.424,2.275,14.904,0,12,0S6.576,2.275,6,5.5v5.227
			C4.76,12.136,4,13.979,4,16C4,20.411,7.589,24,12,24z M12,23c-3.859,0-7-3.14-7-7c0-3.86,3.141-7,7-7s7,3.14,7,7
			C19,19.86,15.859,23,12,23z M12,1c2.42,0,4.526,1.931,5,4.5v4.265C15.629,8.663,13.892,8,12,8c-1.893,0-3.631,0.664-5.002,1.766
			L6.992,5.589C7.474,2.931,9.58,1,12,1z"/>
		<path d="M12.5,11.551V11c0-0.276-0.224-0.5-0.5-0.5s-0.5,0.224-0.5,0.5v0.551c-2.077,0.233-3.716,1.872-3.949,3.949H7
			c-0.276,0-0.5,0.224-0.5,0.5s0.224,0.5,0.5,0.5h0.551c0.233,2.078,1.872,3.716,3.949,3.95V21c0,0.276,0.224,0.5,0.5,0.5
			s0.5-0.224,0.5-0.5v-0.55c2.077-0.234,3.716-1.872,3.949-3.95H17c0.276,0,0.5-0.224,0.5-0.5s-0.224-0.5-0.5-0.5h-0.551
			C16.216,13.423,14.577,11.784,12.5,11.551z M12.5,19.45V19c0-0.276-0.224-0.5-0.5-0.5s-0.5,0.224-0.5,0.5v0.45
			c-1.527-0.222-2.729-1.423-2.949-2.95H9c0.276,0,0.5-0.224,0.5-0.5S9.276,15.5,9,15.5H8.551c0.221-1.526,1.422-2.729,2.949-2.949
			V13c0,0.276,0.224,0.5,0.5,0.5s0.5-0.224,0.5-0.5v-0.449c1.527,0.221,2.729,1.423,2.949,2.949H15c-0.276,0-0.5,0.224-0.5,0.5
			s0.224,0.5,0.5,0.5h0.449C15.229,18.027,14.027,19.228,12.5,19.45z"/>
		<circle cx="12" cy="16" r="1"/>
	</g>
</g>

</svg>
