<?xml version="1.0" encoding="utf-8"?>
<!-- Generator: Adobe Illustrator 16.0.3, SVG Export Plug-In . SVG Version: 6.00 Build 0)  -->
<!DOCTYPE svg PUBLIC "-//W3C//DTD SVG 1.1//EN" "http://www.w3.org/Graphics/SVG/1.1/DTD/svg11.dtd">
<svg version="1.1" xmlns="http://www.w3.org/2000/svg" xmlns:xlink="http://www.w3.org/1999/xlink" x="0px" y="0px" width="24px"
	 height="24px" viewBox="0 0 24 24" enable-background="new 0 0 24 24" xml:space="preserve">
<g id="Outline_Icons">
	<g>
		<path d="M23.996,11.039C23.196,4.648,18.861,0.522,12.359,0l-0.667,0.007C10.595,0.19,9.227,0.522,8.39,1.473
			c-0.57,0.647-0.967,1.729-1.021,2.4c-0.237,2.945,1.928,4.079,3.725,5.021c1.174,0.616,2.373,1.237,3.572,1.859l2.045,1.062
			c0.996,0.521,1.781,1,2.378,1.647c1.294,1.403,1.837,3.056,1.71,5.202c-0.012,0.205,0.103,0.397,0.291,0.484
			c0.067,0.03,0.138,0.045,0.208,0.045c0.127,0,0.252-0.049,0.348-0.141c0.31-0.3,0.612-0.718,0.9-1.242
			c0.775-1.419,1.258-3.037,1.399-4.686C23.98,13.057,24,12.979,24,12.898L23.996,11.039z M23,12.735
			c-0.032,0.076-0.048,0.159-0.046,0.248c-0.146,1.804-0.702,3.228-1.183,4.155c-0.171-1.692-0.814-3.128-1.946-4.354
			c-0.695-0.753-1.562-1.286-2.651-1.856l-2.047-1.062c-1.198-0.621-2.395-1.242-3.625-1.887C9.794,7.084,8.182,6.239,8.366,3.954
			c0.041-0.5,0.361-1.352,0.775-1.821C9.776,1.412,10.996,1.137,11.775,1l0.544-0.002c5.954,0.48,9.948,4.28,10.681,10.104V12.735z"
			/>
		<path d="M14.572,13.895c-1.016-0.541-2.009-1.05-3.003-1.56c-0.952-0.487-1.905-0.977-2.882-1.495l-0.145-0.077
			c-0.923-0.488-1.795-0.95-2.432-1.587C5.291,8.357,4.607,7.004,4.407,5.809C4.333,5.365,4.324,4.619,4.324,4.095
			c0-0.194-0.113-0.372-0.29-0.454c-0.178-0.08-0.385-0.054-0.534,0.072C2.469,4.587,1.516,6.02,0.887,7.642
			C0.345,9.04,0.063,10.274,0,11.551l0,0.971c0.161,2.967,1.261,5.522,3.366,7.815c1.881,2.044,4.537,3.31,7.735,3.663h1.527
			c0.026,0,0.052-0.002,0.077-0.006c1.348-0.211,2.55-0.837,3.475-1.812c0.547-0.576,2.278-2.645,1.603-5.104
			C17.368,15.564,15.994,14.653,14.572,13.895z M15.456,21.493c-0.763,0.806-1.754,1.325-2.867,1.507l-1.432,0.003
			c-2.899-0.323-5.339-1.479-7.054-3.343C2.162,17.546,1.146,15.193,1,12.494l0-0.918c0.057-1.142,0.318-2.277,0.82-3.573
			c0.399-1.03,0.935-1.968,1.532-2.704C3.368,5.57,3.39,5.791,3.421,5.974c0.235,1.406,1.013,2.94,1.981,3.909
			c0.743,0.743,1.68,1.239,2.671,1.764l0.144,0.076c0.981,0.521,1.938,1.012,2.895,1.502c0.99,0.508,1.979,1.014,2.989,1.553
			c1.225,0.654,2.402,1.417,2.717,2.566C17.356,19.299,15.911,21.014,15.456,21.493z"/>
	</g>
</g>
<g id="Frames-24px">
	<rect fill="none" width="24" height="24"/>
</g>
</svg>
