<?xml version="1.0" encoding="utf-8"?>
<!-- Generator: Adobe Illustrator 16.0.3, SVG Export Plug-In . SVG Version: 6.00 Build 0)  -->
<!DOCTYPE svg PUBLIC "-//W3C//DTD SVG 1.1//EN" "http://www.w3.org/Graphics/SVG/1.1/DTD/svg11.dtd">
<svg version="1.1" xmlns="http://www.w3.org/2000/svg" xmlns:xlink="http://www.w3.org/1999/xlink" x="0px" y="0px" width="24px"
	 height="24px" viewBox="0 0 24 24" enable-background="new 0 0 24 24" xml:space="preserve">
<g id="Outline_Icons">
	<g>
		<path d="M12,0C5.383,0,0,5.383,0,12s5.383,12,12,12s12-5.383,12-12S18.617,0,12,0z M12,23C5.935,23,1,18.066,1,12
			C1,5.935,5.935,1,12,1s11,4.935,11,11C23,18.066,18.065,23,12,23z"/>
		<path d="M13.971,13.237c-0.093-0.018-0.207-0.035-0.304-0.035c-0.349,0-0.509,0.19-0.561,0.284
			c-0.243,0.389,0.044,0.762,0.165,0.916c0.287,0.317,2.833,2.427,3.504,2.58c0.103,0.022,0.206,0.035,0.307,0.035
			c0.486,0,0.904-0.271,1.091-0.709c0.191-0.448,0.086-0.959-0.271-1.331C17.46,14.502,14.484,13.337,13.971,13.237z M17.253,15.917
			c-0.016,0.037-0.06,0.101-0.171,0.101l-0.071-0.008c-0.231-0.076-1.073-0.694-1.816-1.283c0.857,0.35,1.798,0.776,1.981,0.938
			C17.259,15.75,17.286,15.84,17.253,15.917z"/>
		<path d="M18.908,10.85c-0.128-0.044-0.3-0.062-0.575-0.062c-0.824,0-2.479,0.185-3.371,0.421
			c-0.295,0.075-0.845,0.216-0.889,0.808c0.041,0.469,0.501,0.605,0.89,0.721c0.905,0.23,2.602,0.416,3.403,0.416
			c0.252,0,0.41-0.017,0.538-0.057c0.514-0.172,0.846-0.613,0.846-1.135C19.75,11.457,19.418,11.02,18.908,10.85z M18.61,12.14
			c-0.285,0.058-1.404-0.038-2.324-0.171c0.74-0.109,1.563-0.182,2.047-0.182c0.18,0,0.25,0.01,0.256,0.01
			c0.119,0.04,0.161,0.111,0.161,0.175C18.75,12.049,18.69,12.112,18.61,12.14z"/>
		<path d="M13.665,10.791c0.139,0,0.271-0.029,0.307-0.039c0.507-0.098,3.471-1.252,3.93-1.729c0.359-0.382,0.463-0.896,0.27-1.342
			c-0.226-0.521-0.799-0.797-1.396-0.663c-0.688,0.158-3.236,2.275-3.506,2.584c-0.389,0.437-0.243,0.782-0.156,0.922
			C13.18,10.623,13.339,10.791,13.665,10.791z M17.084,7.982c0.111,0,0.154,0.061,0.169,0.097c0.033,0.076,0.004,0.171-0.066,0.247
			c-0.182,0.156-1.111,0.574-1.97,0.924C15.954,8.675,16.801,8.067,17.084,7.982z"/>
		<path d="M12.067,6.11c-0.262-0.086-0.545,0.051-0.635,0.312l-2.465,7.235L6.521,6.424C6.433,6.162,6.15,6.024,5.887,6.11
			C5.625,6.199,5.484,6.482,5.573,6.744l2.864,8.469l-0.262,0.77C7.969,16.591,7.398,17,6.756,17H5c-0.276,0-0.5,0.224-0.5,0.5
			S4.724,18,5,18h1.756c1.07,0,2.021-0.682,2.367-1.695l3.257-9.56C12.469,6.483,12.329,6.2,12.067,6.11z"/>
	</g>
</g>
<g id="Frames-24px">
	<rect fill="none" width="24" height="24"/>
</g>
</svg>
