<?xml version="1.0" encoding="utf-8"?>
<!-- Generator: Adobe Illustrator 16.0.3, SVG Export Plug-In . SVG Version: 6.00 Build 0)  -->
<!DOCTYPE svg PUBLIC "-//W3C//DTD SVG 1.1//EN" "http://www.w3.org/Graphics/SVG/1.1/DTD/svg11.dtd">
<svg version="1.1" xmlns="http://www.w3.org/2000/svg" xmlns:xlink="http://www.w3.org/1999/xlink" x="0px" y="0px" width="24px"
	 height="24px" viewBox="0 0 24 24" enable-background="new 0 0 24 24" xml:space="preserve">
<g id="Outline_Icons">
	<g>
		<path d="M3.5,17h-2C1.224,17,1,17.224,1,17.5v6C1,23.776,1.224,24,1.5,24h2C3.776,24,4,23.776,4,23.5v-6C4,17.224,3.776,17,3.5,17
			z M3,23H2v-5h1V23z"/>
		<path d="M7.5,12h-2C5.224,12,5,12.224,5,12.5v11C5,23.776,5.224,24,5.5,24h2C7.776,24,8,23.776,8,23.5v-11
			C8,12.224,7.776,12,7.5,12z M7,23H6V13h1V23z"/>
		<path d="M11.5,15h-2C9.224,15,9,15.224,9,15.5v8C9,23.776,9.224,24,9.5,24h2c0.276,0,0.5-0.224,0.5-0.5v-8
			C12,15.224,11.776,15,11.5,15z M11,23h-1v-7h1V23z"/>
		<path d="M15.5,8h-2C13.224,8,13,8.224,13,8.5v15c0,0.276,0.224,0.5,0.5,0.5h2c0.276,0,0.5-0.224,0.5-0.5v-15
			C16,8.224,15.776,8,15.5,8z M15,23h-1V9h1V23z"/>
		<path d="M19.5,12h-2c-0.276,0-0.5,0.224-0.5,0.5v11c0,0.276,0.224,0.5,0.5,0.5h2c0.276,0,0.5-0.224,0.5-0.5v-11
			C20,12.224,19.776,12,19.5,12z M19,23h-1V13h1V23z"/>
		<path d="M23.5,4h-2C21.224,4,21,4.224,21,4.5v19c0,0.276,0.224,0.5,0.5,0.5h2c0.276,0,0.5-0.224,0.5-0.5v-19
			C24,4.224,23.776,4,23.5,4z M23,23h-1V5h1V23z"/>
		<path d="M23.5,0h-22C1.224,0,1,0.224,1,0.5v2C1,2.776,1.224,3,1.5,3h22C23.776,3,24,2.776,24,2.5v-2C24,0.224,23.776,0,23.5,0z
			 M23,2H2V1h21V2z"/>
	</g>
</g>
<g id="Frames-24px">
	<rect fill="none" width="24" height="24"/>
</g>
</svg>
