<?xml version="1.0" encoding="utf-8"?>
<!-- Generator: Adobe Illustrator 16.0.3, SVG Export Plug-In . SVG Version: 6.00 Build 0)  -->
<!DOCTYPE svg PUBLIC "-//W3C//DTD SVG 1.1//EN" "http://www.w3.org/Graphics/SVG/1.1/DTD/svg11.dtd">
<svg version="1.1" xmlns="http://www.w3.org/2000/svg" xmlns:xlink="http://www.w3.org/1999/xlink" x="0px" y="0px" width="24px"
	 height="24px" viewBox="0 0 24 24" enable-background="new 0 0 24 24" xml:space="preserve">
<g id="Outline_Icons">
	<g>
		<path d="M12,0C5.383,0,0,5.383,0,12s5.383,12,12,12s12-5.383,12-12S18.617,0,12,0z M12,23C5.935,23,1,18.066,1,12
			C1,5.935,5.935,1,12,1s11,4.935,11,11C23,18.066,18.065,23,12,23z"/>
		<path d="M6.677,6H4.709C4.468,6,4.261,6.172,4.218,6.409l-0.555,3C3.636,9.555,3.675,9.706,3.77,9.819
			C3.865,9.934,4.006,10,4.154,10h2.045c1.768,0,2.559-1.08,2.559-2.15C8.758,6.959,8.106,6,6.677,6z M6.199,9H4.755l0.37-2h1.552
			c0.976,0,1.081,0.594,1.081,0.85C7.758,8.195,7.605,9,6.199,9z"/>
		<path d="M12.914,5h-1.967c-0.241,0-0.448,0.172-0.491,0.409l-0.555,3c-0.027,0.146,0.012,0.297,0.106,0.41
			C10.104,8.934,10.244,9,10.393,9h2.044c1.767,0,2.558-1.08,2.558-2.15C14.994,5.959,14.343,5,12.914,5z M12.437,8h-1.443l0.37-2
			h1.551c0.975,0,1.08,0.594,1.08,0.85C13.994,7.195,13.843,8,12.437,8z"/>
		<path d="M18.919,7h-1.967c-0.241,0-0.448,0.172-0.491,0.409l-0.555,3c-0.027,0.146,0.012,0.297,0.106,0.41
			C16.108,10.934,16.249,11,16.397,11h2.044C20.209,11,21,9.92,21,8.85C21,8.163,20.562,7,18.919,7z M18.441,10h-1.443l0.37-2h1.551
			C19.895,8,20,8.594,20,8.85C20,9.195,19.848,10,18.441,10z"/>
		<path d="M18.265,12h-1.967c-0.241,0-0.447,0.172-0.491,0.409l-0.556,3c-0.027,0.146,0.012,0.296,0.106,0.41
			C15.453,15.934,15.594,16,15.742,16h2.045c1.768,0,2.559-1.08,2.559-2.15C20.346,12.959,19.694,12,18.265,12z M17.787,15h-1.443
			l0.37-2h1.551c0.976,0,1.081,0.594,1.081,0.85C19.346,14.195,19.193,15,17.787,15z"/>
		<path d="M6.021,11H4.055c-0.241,0-0.448,0.172-0.491,0.409l-0.555,3c-0.027,0.146,0.012,0.297,0.106,0.41
			C3.211,14.934,3.352,15,3.5,15h2.045c1.767,0,2.558-1.08,2.558-2.15C8.103,12.163,7.664,11,6.021,11z M5.545,14H4.101l0.37-2
			h1.551c0.976,0,1.081,0.594,1.081,0.85C7.103,13.195,6.951,14,5.545,14z"/>
		<path d="M12.259,10h-1.967c-0.241,0-0.448,0.172-0.491,0.409l-0.555,3c-0.027,0.146,0.012,0.297,0.106,0.41
			C9.448,13.934,9.589,14,9.737,14h2.045c1.767,0,2.558-1.08,2.558-2.15C14.34,11.163,13.901,10,12.259,10z M11.782,13h-1.444
			l0.37-2h1.551c0.976,0,1.081,0.594,1.081,0.85C13.34,12.195,13.188,13,11.782,13z"/>
		<path d="M11.604,15H9.638c-0.241,0-0.448,0.172-0.491,0.409l-0.555,3c-0.027,0.146,0.012,0.297,0.106,0.41
			C8.794,18.934,8.935,19,9.083,19h2.044c1.768,0,2.559-1.08,2.559-2.15C13.686,16.163,13.247,15,11.604,15z M11.127,18H9.684
			l0.37-2h1.551c0.976,0,1.081,0.594,1.081,0.85C12.686,17.195,12.533,18,11.127,18z"/>
	</g>
</g>
<g id="Frames-24px">
	<rect fill="none" width="24" height="24"/>
</g>
</svg>
