<?xml version="1.0" encoding="utf-8"?>
<!-- Generator: Adobe Illustrator 16.0.3, SVG Export Plug-In . SVG Version: 6.00 Build 0)  -->
<!DOCTYPE svg PUBLIC "-//W3C//DTD SVG 1.1//EN" "http://www.w3.org/Graphics/SVG/1.1/DTD/svg11.dtd">
<svg version="1.1" xmlns="http://www.w3.org/2000/svg" xmlns:xlink="http://www.w3.org/1999/xlink" x="0px" y="0px" width="24px"
	 height="24px" viewBox="0 0 24 24" enable-background="new 0 0 24 24" xml:space="preserve">
<g id="Outline_Icons">
	<g>
		<path d="M14.488,0.994H0.5c-0.276,0-0.5,0.224-0.5,0.5V23.5C0,23.776,0.224,24,0.5,24h23c0.276,0,0.5-0.224,0.5-0.5V10.506
			C24,5.261,19.733,0.994,14.488,0.994z M23,23H1V1.994h13.488c4.693,0,8.512,3.818,8.512,8.512V23z"/>
		<path d="M10.5,4h-7C3.224,4,3,4.224,3,4.5v16C3,20.776,3.224,21,3.5,21h7c0.276,0,0.5-0.224,0.5-0.5v-16C11,4.224,10.776,4,10.5,4
			z M10,20H4V5h6V20z"/>
		<path d="M13.5,4C13.224,4,13,4.224,13,4.5v16c0,0.276,0.224,0.5,0.5,0.5h7c0.276,0,0.5-0.224,0.5-0.5v-9.632
			C21,7.082,17.636,4,13.5,4z M20,20h-6V5.018c3.352,0.23,6,2.767,6,5.851V20z"/>
	</g>
</g>
<g id="Frames-24px">
	<rect fill="none" width="24" height="24"/>
</g>
</svg>
