<?xml version="1.0" encoding="utf-8"?>
<!-- Generator: Adobe Illustrator 16.0.3, SVG Export Plug-In . SVG Version: 6.00 Build 0)  -->
<!DOCTYPE svg PUBLIC "-//W3C//DTD SVG 1.1//EN" "http://www.w3.org/Graphics/SVG/1.1/DTD/svg11.dtd">
<svg version="1.1" xmlns="http://www.w3.org/2000/svg" xmlns:xlink="http://www.w3.org/1999/xlink" x="0px" y="0px" width="24px"
	 height="24px" viewBox="0 0 24 24" enable-background="new 0 0 24 24" xml:space="preserve">
<g id="Outline_Icons">
	<path d="M22,0v17c0,1.654-1.346,3-3,3s-3-1.346-3-3v-6.5C16,9.122,14.878,8,13.5,8h-6C5.57,8,4,9.57,4,11.5S5.57,15,7.5,15
		c1.378,0,2.5,1.122,2.5,2.5S8.878,20,7.5,20H0v1h7.5c1.93,0,3.5-1.57,3.5-3.5S9.43,14,7.5,14C6.122,14,5,12.878,5,11.5
		S6.122,9,7.5,9h6c0.827,0,1.5,0.673,1.5,1.5V17c0,2.206,1.794,4,4,4s4-1.794,4-4V0H22z"/>
</g>
<g id="Frames-24px">
	<rect fill="none" width="24" height="24"/>
</g>
</svg>
