<?xml version="1.0" encoding="utf-8"?>
<!-- Generator: Adobe Illustrator 16.0.3, SVG Export Plug-In . SVG Version: 6.00 Build 0)  -->
<!DOCTYPE svg PUBLIC "-//W3C//DTD SVG 1.1//EN" "http://www.w3.org/Graphics/SVG/1.1/DTD/svg11.dtd">
<svg version="1.1" xmlns="http://www.w3.org/2000/svg" xmlns:xlink="http://www.w3.org/1999/xlink" x="0px" y="0px" width="24px"
	 height="24px" viewBox="0 0 24 24" enable-background="new 0 0 24 24" xml:space="preserve">
<g id="Outline_Icons">
	<g>
		<path d="M12,0C5.383,0,0,5.383,0,12s5.383,12,12,12s12-5.383,12-12S18.617,0,12,0z M12,23C5.935,23,1,18.066,1,12
			C1,5.935,5.935,1,12,1s11,4.935,11,11C23,18.066,18.065,23,12,23z"/>
		<path d="M17.655,11.31c-0.105,0-0.209,0.007-0.312,0.021c-0.408-1.656-1.885-2.844-3.645-2.844c-0.501,0-0.813,0.105-1.205,0.255
			C12.172,8.868,12.006,9.095,12,9.425v5.863c0.007,0.368,0.285,0.673,0.699,0.712h4.956C18.948,16,20,14.948,20,13.655
			C20,12.362,18.948,11.31,17.655,11.31z M17.655,15L13,15.002V9.619c0.254-0.092,0.426-0.133,0.699-0.133
			c1.438,0,2.617,1.08,2.744,2.512c0.014,0.16,0.104,0.303,0.24,0.385c0.138,0.083,0.306,0.095,0.453,0.032
			c0.163-0.069,0.338-0.104,0.519-0.104c0.741,0,1.345,0.604,1.345,1.345C19,14.396,18.396,15,17.655,15z"/>
		<path d="M10.5,9.126c-0.276,0-0.5,0.224-0.5,0.5V15.5c0,0.276,0.224,0.5,0.5,0.5s0.5-0.224,0.5-0.5V9.626
			C11,9.35,10.776,9.126,10.5,9.126z"/>
		<path d="M8.5,10C8.224,10,8,10.224,8,10.5v4.895c0,0.276,0.224,0.5,0.5,0.5s0.5-0.224,0.5-0.5V10.5C9,10.224,8.776,10,8.5,10z"/>
		<path d="M6.5,10.94c-0.276,0-0.5,0.224-0.5,0.5v3.591c0,0.276,0.224,0.5,0.5,0.5s0.5-0.224,0.5-0.5V11.44
			C7,11.164,6.776,10.94,6.5,10.94z"/>
		<path d="M4.5,12.064c-0.276,0-0.5,0.224-0.5,0.5v2.601c0,0.277,0.224,0.5,0.5,0.5s0.5-0.223,0.5-0.5v-2.601
			C5,12.288,4.776,12.064,4.5,12.064z"/>
	</g>
</g>
<g id="Frames-24px">
	<rect fill="none" width="24" height="24"/>
</g>
</svg>
