<?xml version="1.0" encoding="utf-8"?>
<!-- Generator: Adobe Illustrator 16.0.3, SVG Export Plug-In . SVG Version: 6.00 Build 0)  -->
<!DOCTYPE svg PUBLIC "-//W3C//DTD SVG 1.1//EN" "http://www.w3.org/Graphics/SVG/1.1/DTD/svg11.dtd">
<svg version="1.1" xmlns="http://www.w3.org/2000/svg" xmlns:xlink="http://www.w3.org/1999/xlink" x="0px" y="0px" width="24px"
	 height="24px" viewBox="0 0 24 24" enable-background="new 0 0 24 24" xml:space="preserve">
<g id="Outline_Icons">
	<g>
		<path d="M12,0.004c-6.617,0-12,5.383-12,12s5.383,12,12,12s12-5.383,12-12S18.617,0.004,12,0.004z M12,23.004
			c-6.065,0-11-4.935-11-11s4.935-11,11-11s11,4.935,11,11S18.065,23.004,12,23.004z"/>
		<path d="M12.321,6.379c-0.438,0.114-0.812,0.393-1.031,0.765c-0.194,0.334-0.251,0.715-0.157,1.072
			c0.148,0.571,0.64,0.957,1.249,1.045c-0.097,0.001-0.194,0.003-0.287,0.006c-0.09,0.004-0.182,0.008-0.273,0.008
			c-0.374,0-0.693,0.281-0.743,0.653c0,0-0.228,1.732-0.424,3.036c-0.066,0.436-0.107,1.071,0.302,1.548
			c0.427,0.496,1.111,0.496,1.403,0.496L12.769,15c0.39,0,0.719-0.304,0.746-0.677c0.016-0.133,0.307-2.203,0.41-2.935l0.036-0.257
			c0.076-0.582-0.036-1.048-0.332-1.385c-0.281-0.319-0.59-0.426-0.898-0.463c0.111-0.007,0.223-0.015,0.339-0.044
			c0.394-0.104,0.734-0.336,0.958-0.654c0.254-0.359,0.336-0.78,0.229-1.185C14.057,6.635,13.154,6.159,12.321,6.379z M12.97,10.998
			l-0.035,0.251c-0.246,1.744-0.345,2.457-0.386,2.756l-0.189,0.003c-0.358,0-0.558-0.045-0.645-0.147
			c-0.104-0.122-0.129-0.373-0.072-0.747c0.156-1.036,0.332-2.341,0.399-2.844c0.031,0,0.062-0.002,0.094-0.003
			c0.087-0.003,0.174-0.007,0.258-0.007c0.298,0,0.399,0.052,0.484,0.148C12.973,10.515,13.005,10.726,12.97,10.998z M13.21,8.008
			c-0.089,0.125-0.229,0.219-0.391,0.262c-0.369,0.093-0.654-0.06-0.719-0.306c-0.033-0.129,0.01-0.243,0.053-0.314
			c0.085-0.146,0.238-0.256,0.422-0.303c0.061-0.017,0.123-0.025,0.185-0.025c0.257,0,0.479,0.14,0.53,0.331
			C13.328,7.799,13.269,7.926,13.21,8.008z"/>
		<path d="M20.964,9.598c-0.057-0.13-0.208-0.477-1.31-0.477c-0.315,0-0.997,0.036-1.513,0.321c0.064-0.562-0.049-1.015-0.338-1.342
			c-0.488-0.556-1.035-0.507-1.524-0.481c-0.093,0.003-0.187,0.008-0.282,0.008c-0.376,0-0.696,0.282-0.742,0.649
			c0,0-0.469,3.381-0.665,4.688c-0.066,0.438-0.107,1.073,0.302,1.547c0.376,0.439,0.926,0.498,1.413,0.498l0.4-0.006
			c0.341,0,0.629-0.223,0.722-0.547c0.328,0.342,0.767,0.599,1.372,0.599c1.112,0,1.688-0.893,1.726-1.491
			c0.029-0.408-0.279-0.767-0.634-0.79c-0.072-0.031-0.311-0.23-0.58-0.741c0.487-0.514,1.217-1.302,1.446-1.55l0.07-0.075
			C21.026,10.193,21.081,9.878,20.964,9.598z M18.35,11.591c-0.142,0.146-0.181,0.365-0.098,0.551
			c0.35,0.787,0.783,1.332,1.204,1.534c-0.088,0.164-0.276,0.379-0.657,0.379c-0.54,0-0.825-0.396-1.223-1.228
			c-0.084-0.176-0.261-0.285-0.451-0.285c-0.024,0-0.05,0.002-0.075,0.006c-0.218,0.033-0.389,0.205-0.42,0.423l-0.021,0.148
			c-0.047,0.332-0.096,0.671-0.124,0.888l-0.18,0.003c-0.369,0-0.564-0.044-0.654-0.149c-0.104-0.122-0.129-0.372-0.072-0.746
			C15.746,12,16.11,9.387,16.217,8.622c0.036-0.001,0.073-0.002,0.11-0.005c0.089-0.004,0.177-0.008,0.262-0.008
			c0.279,0,0.375,0.051,0.464,0.152c0.122,0.138,0.117,0.399,0.092,0.593c-0.047,0.361-0.12,0.883-0.202,1.456
			c-0.031,0.223,0.089,0.438,0.294,0.529c0.208,0.089,0.446,0.032,0.589-0.142c0.233-0.287,0.506-0.6,0.696-0.804
			c0.132-0.141,0.632-0.276,1.207-0.271C19.323,10.56,18.684,11.248,18.35,11.591z"/>
		<path d="M7.419,10.949c-0.035-0.007-0.16-0.021-0.196-0.021c-0.636,0-1.031,0.625-1.047,1.229
			c-0.015,0.571,0.329,0.987,0.877,1.014c0.647,0,1.059-0.573,1.116-1.114C8.228,11.503,7.926,11.058,7.419,10.949z"/>
		<path d="M7.682,8.976c-0.75,0-3.229,0.224-3.643,3.103c-0.159,1.106,0.205,1.796,0.537,2.18c0.531,0.614,1.471,0.946,2.327,0.856
			c0.046,0.254,0.141,0.473,0.284,0.659c0.386,0.502,0.939,0.57,1.43,0.57l0.35-0.006c0.374,0,0.693-0.28,0.742-0.65
			c0.001,0,0.266-1.98,0.499-3.586c0.136-0.931-0.03-1.693-0.495-2.266C9.243,9.257,8.579,8.976,7.682,8.976z M9.218,11.957
			c-0.188,1.296-0.396,2.832-0.471,3.386l-0.13,0.001c-0.417,0-0.549-0.066-0.638-0.18c-0.095-0.124-0.129-0.339-0.101-0.64
			c0.017-0.179-0.064-0.354-0.213-0.457c-0.085-0.059-0.185-0.089-0.285-0.089c-0.074,0-0.148,0.017-0.217,0.05
			c-0.136,0.065-0.337,0.103-0.553,0.103c-0.516,0-0.994-0.197-1.279-0.526c-0.285-0.33-0.388-0.795-0.303-1.383
			c0.28-1.954,1.782-2.246,2.652-2.246c0.593,0,0.979,0.151,1.254,0.489C9.218,10.812,9.312,11.314,9.218,11.957z"/>
	</g>
</g>
<g id="Frames-24px">
	<rect fill="none" width="24" height="24"/>
</g>
</svg>
