<?xml version="1.0" encoding="utf-8"?>
<!-- Generator: Adobe Illustrator 16.0.3, SVG Export Plug-In . SVG Version: 6.00 Build 0)  -->
<!DOCTYPE svg PUBLIC "-//W3C//DTD SVG 1.1//EN" "http://www.w3.org/Graphics/SVG/1.1/DTD/svg11.dtd">
<svg version="1.1" xmlns="http://www.w3.org/2000/svg" xmlns:xlink="http://www.w3.org/1999/xlink" x="0px" y="0px" width="24px"
	 height="24px" viewBox="0 0 24 24" enable-background="new 0 0 24 24" xml:space="preserve">
<g id="Outline_Icons">
	<g>
		<path d="M12,0.004c-6.617,0-12,5.383-12,12s5.383,12,12,12s12-5.383,12-12S18.617,0.004,12,0.004z M12,23.004
			c-6.065,0-11-4.935-11-11s4.935-11,11-11s11,4.935,11,11S18.065,23.004,12,23.004z"/>
		<path d="M12.5,5.004c-4.136,0-7.5,2.732-7.5,6.089c0,1.616,0.761,3.124,2.148,4.268c0.149,1.303-0.851,1.6-1.058,1.646
			c-0.115,0.024-0.219,0.089-0.292,0.182c-0.117,0.151-0.207,0.406-0.106,0.672c0.101,0.27,0.35,0.445,0.743,0.519
			c0.249,0.046,0.504,0.068,0.758,0.068c1.723,0,3.084-1.029,3.553-1.435c0.579,0.112,1.167,0.169,1.754,0.169
			c4.136,0,7.5-2.732,7.5-6.09C20,7.736,16.636,5.004,12.5,5.004z M12.5,16.184c-0.609,0-1.222-0.069-1.819-0.205
			c-0.144-0.03-0.295,0.019-0.412,0.106c-0.039,0.03-0.074,0.067-0.103,0.108c-0.249,0.225-1.384,1.178-2.799,1.252
			c0.539-0.466,0.957-1.244,0.738-2.441c-0.022-0.121-0.088-0.229-0.185-0.305C6.682,13.735,6,12.455,6,11.094
			c0-2.806,2.916-5.089,6.5-5.089S19,8.288,19,11.094C19,13.9,16.084,16.184,12.5,16.184z"/>
	</g>
</g>
<g id="Frames-24px">
	<rect fill="none" width="24" height="24"/>
</g>
</svg>
