<?xml version="1.0" encoding="utf-8"?>
<!-- Generator: Adobe Illustrator 16.0.3, SVG Export Plug-In . SVG Version: 6.00 Build 0)  -->
<!DOCTYPE svg PUBLIC "-//W3C//DTD SVG 1.1//EN" "http://www.w3.org/Graphics/SVG/1.1/DTD/svg11.dtd">
<svg version="1.1" xmlns="http://www.w3.org/2000/svg" xmlns:xlink="http://www.w3.org/1999/xlink" x="0px" y="0px" width="24px"
	 height="24px" viewBox="0 0 24 24" enable-background="new 0 0 24 24" xml:space="preserve">
<g id="Outline_Icons">
	<g>
		<path d="M12,0C5.383,0,0,5.383,0,12s5.383,12,12,12s12-5.383,12-12S18.617,0,12,0z M12,23C5.935,23,1,18.066,1,12
			C1,5.935,5.935,1,12,1s11,4.935,11,11C23,18.066,18.065,23,12,23z"/>
		<path d="M14.998,16.382c-1.061,1.179-1.706,1.682-2.159,1.682c-0.073,0-0.134-0.024-0.184-0.075
			c-0.098-0.098-0.156-0.289-0.167-0.534c0.386-0.901,3.065-7.206,3.735-9.725c0.07-0.267-0.088-0.54-0.355-0.61
			c-0.271-0.075-0.541,0.088-0.611,0.354c-0.238,0.897-0.757,2.33-1.334,3.821c-0.368-0.382-0.861-0.636-1.34-0.636
			c-1.902,0-3.561,2.354-4.084,3.952c-0.36,1.156-0.645,2.738,0.054,3.707c0.244,0.338,0.723,0.745,1.623,0.762
			c0.617,0,1.127-0.322,1.538-0.699c0.073,0.133,0.155,0.235,0.231,0.312c0.237,0.238,0.555,0.37,0.894,0.37
			c0.909,0,1.785-0.77,2.903-2.011c0.185-0.207,0.168-0.521-0.037-0.708C15.5,16.161,15.185,16.178,14.998,16.382z M11.557,17.089
			c-0.454,0.53-0.902,0.991-1.371,0.991c-0.39-0.007-0.658-0.121-0.822-0.348c-0.346-0.479-0.312-1.535,0.089-2.816
			c0.504-1.54,1.914-3.257,3.131-3.257c0.308,0,0.767,0.364,0.896,0.768C12.605,14.623,11.728,16.688,11.557,17.089z"/>
		<path d="M8.925,12.168c0.05-0.058,0.085-0.126,0.104-0.199l0.264-1.012c0.039-0.149,0.238-0.349,0.386-0.388l2.209-0.577
			C12.421,9.85,12.5,9.531,12.5,9.354c0-0.178-0.079-0.496-0.615-0.638L9.679,8.138C9.53,8.099,9.331,7.899,9.293,7.752L8.716,5.535
			C8.575,5,8.256,4.92,8.078,4.92S7.58,5,7.441,5.536L6.863,7.752C6.825,7.9,6.627,8.099,6.479,8.138L4.271,8.717
			c-0.534,0.142-0.613,0.46-0.613,0.638c0,0.177,0.079,0.495,0.615,0.638l2.205,0.577c0.149,0.039,0.348,0.238,0.387,0.387
			l0.513,1.969c0.051,0.195,0.213,0.341,0.412,0.369c0.024,0.003,0.048,0.005,0.071,0.005c0.174,0,0.338-0.091,0.429-0.243
			C8.48,12.736,8.694,12.438,8.925,12.168z M8.072,11.629l-0.24-0.924c-0.129-0.496-0.601-0.971-1.099-1.103L5.785,9.354
			l0.949-0.249C7.231,8.973,7.703,8.5,7.831,8.004l0.248-0.945l0.246,0.946c0.13,0.495,0.602,0.968,1.099,1.1l0.948,0.25
			L9.423,9.603c-0.496,0.132-0.968,0.604-1.098,1.102L8.09,11.607C8.084,11.615,8.078,11.621,8.072,11.629z"/>
		<path d="M11.96,6.435l0.764,0.2l0.199,0.764c0.088,0.346,0.337,0.47,0.542,0.47c0.202,0,0.451-0.123,0.541-0.466l0.2-0.768
			l0.762-0.199c0.344-0.089,0.466-0.338,0.466-0.542S15.312,5.44,14.97,5.353l-0.764-0.2l-0.2-0.771
			c-0.091-0.341-0.339-0.462-0.541-0.462c-0.204,0-0.453,0.122-0.541,0.465l-0.2,0.768l-0.762,0.199
			c-0.344,0.089-0.466,0.338-0.466,0.542S11.618,6.347,11.96,6.435z"/>
		<path d="M19.983,13.585l-1.302-0.341c-0.029-0.01-0.079-0.062-0.09-0.087l-0.343-1.314c-0.127-0.478-0.472-0.516-0.574-0.516
			s-0.447,0.038-0.574,0.518l-0.343,1.31c-0.011,0.028-0.062,0.08-0.083,0.088l-1.31,0.343c-0.479,0.127-0.516,0.472-0.516,0.574
			s0.037,0.447,0.517,0.575l1.305,0.342c0.027,0.011,0.077,0.061,0.087,0.085l0.343,1.313c0.127,0.479,0.472,0.517,0.574,0.517
			s0.447-0.037,0.574-0.519l0.342-1.309c0.011-0.027,0.061-0.077,0.084-0.087l1.31-0.343c0.479-0.128,0.516-0.473,0.516-0.575
			S20.463,13.712,19.983,13.585z M17.675,14.766c-0.114-0.264-0.344-0.493-0.604-0.606c0.262-0.115,0.491-0.346,0.604-0.605
			c0.114,0.261,0.343,0.49,0.605,0.605C18.019,14.273,17.789,14.503,17.675,14.766z"/>
	</g>
</g>
<g id="Frames-24px">
	<rect fill="none" width="24" height="24"/>
</g>
</svg>
