<?xml version="1.0" encoding="utf-8"?>
<!-- Generator: Adobe Illustrator 16.0.3, SVG Export Plug-In . SVG Version: 6.00 Build 0)  -->
<!DOCTYPE svg PUBLIC "-//W3C//DTD SVG 1.1//EN" "http://www.w3.org/Graphics/SVG/1.1/DTD/svg11.dtd">
<svg version="1.1" xmlns="http://www.w3.org/2000/svg" xmlns:xlink="http://www.w3.org/1999/xlink" x="0px" y="0px" width="24px"
	 height="24px" viewBox="0 0 24 24" enable-background="new 0 0 24 24" xml:space="preserve">
<g id="Outline_Icons">
	<g>
		<path d="M21.387,3.007c-1.786-1.868-4.192-2.896-6.777-2.896H9.39C4.212,0.11,0,4.322,0,9.5v5.218
			c0,2.677,1.154,5.234,3.162,7.014c1.698,1.534,3.91,2.379,6.228,2.379h12.13c1.368,0,2.48-1.112,2.48-2.48V9.5
			C24,7.082,23.072,4.775,21.387,3.007z M23,21.63c0,0.816-0.664,1.48-1.48,1.48H9.39c-2.07,0-4.043-0.753-5.561-2.124
			C2.031,19.393,1,17.108,1,14.718V9.5c0-4.627,3.764-8.39,8.39-8.39h5.219c2.309,0,4.459,0.919,6.054,2.587
			C22.17,5.278,23,7.339,23,9.5V21.63z"/>
		<path d="M13.679,6.134c-0.213,0.176-0.243,0.491-0.067,0.704c1.338,1.619,2.075,3.67,2.075,5.772c0,1.867-0.565,3.662-1.634,5.192
			c-0.158,0.226-0.103,0.538,0.123,0.696c0.087,0.061,0.188,0.09,0.286,0.09c0.158,0,0.313-0.074,0.41-0.214
			c1.188-1.698,1.815-3.691,1.815-5.765c0-2.335-0.818-4.612-2.305-6.409C14.208,5.988,13.894,5.958,13.679,6.134z"/>
		<path d="M10.009,13.473c-0.236-0.141-0.543-0.067-0.687,0.168l-2.541,4.188c-0.144,0.237-0.068,0.544,0.168,0.688
			c0.081,0.049,0.17,0.071,0.259,0.071c0.169,0,0.334-0.086,0.428-0.239l2.541-4.189C10.321,13.924,10.246,13.616,10.009,13.473z"/>
		<path d="M9.241,7.184c-0.827,0-1.5,0.67-1.5,1.494c0,0.83,0.673,1.506,1.5,1.506s1.5-0.676,1.5-1.506
			C10.741,7.854,10.068,7.184,9.241,7.184z M9.241,9.184c-0.276,0-0.5-0.227-0.5-0.506c0-0.277,0.22-0.494,0.5-0.494
			s0.5,0.217,0.5,0.494C9.741,8.957,9.517,9.184,9.241,9.184z"/>
	</g>
</g>
<g id="Frames-24px">
	<rect fill="none" width="24" height="24"/>
</g>
</svg>
