<?xml version="1.0" encoding="utf-8"?>
<!-- Generator: Adobe Illustrator 16.0.3, SVG Export Plug-In . SVG Version: 6.00 Build 0)  -->
<!DOCTYPE svg PUBLIC "-//W3C//DTD SVG 1.1//EN" "http://www.w3.org/Graphics/SVG/1.1/DTD/svg11.dtd">
<svg version="1.1" xmlns="http://www.w3.org/2000/svg" xmlns:xlink="http://www.w3.org/1999/xlink" x="0px" y="0px" width="24px"
	 height="24px" viewBox="0 0 24 24" enable-background="new 0 0 24 24" xml:space="preserve">
<g id="Outline_Icons">
	<path d="M21.913,11.399c-0.043-0.061-4.357-6.176-13.412-3.876C7.958,7.661,7.443,7.818,6.958,7.995L5.493,5.394L4.622,5.885
		l1.401,2.489c-1.992,0.9-3.413,2.177-4.24,3.814c-1.086,2.153-0.855,4.429-0.327,5.725c0.078,0.193,0.264,0.312,0.463,0.312
		c0.048,0,0.097-0.007,0.145-0.021l8.495-2.567c0.146-0.044,0.263-0.151,0.319-0.292s0.046-0.3-0.028-0.432L7.455,8.879
		c0.409-0.143,0.839-0.272,1.292-0.387c6.865-1.745,10.668,1.563,11.898,2.929l-7.105,2.179l-2.311-4.006
		c-0.139-0.239-0.445-0.321-0.683-0.183c-0.239,0.138-0.321,0.443-0.183,0.683l2.51,4.351c0.117,0.201,0.358,0.296,0.58,0.228
		l8.194-2.513c0.152-0.046,0.273-0.163,0.326-0.312C22.024,11.696,22.002,11.531,21.913,11.399z M9.673,14.857l-7.436,2.249
		c-0.286-1.018-0.423-2.761,0.439-4.468c0.73-1.447,2.018-2.582,3.839-3.388L9.673,14.857z"/>
</g>
<g id="Frames-24px">
	<rect fill="none" width="24" height="24"/>
</g>
</svg>
