<?xml version="1.0" encoding="utf-8"?>
<!-- Generator: Adobe Illustrator 16.0.3, SVG Export Plug-In . SVG Version: 6.00 Build 0)  -->
<!DOCTYPE svg PUBLIC "-//W3C//DTD SVG 1.1//EN" "http://www.w3.org/Graphics/SVG/1.1/DTD/svg11.dtd">
<svg version="1.1" xmlns="http://www.w3.org/2000/svg" xmlns:xlink="http://www.w3.org/1999/xlink" x="0px" y="0px" width="24px"
	 height="24px" viewBox="0 0 24 24" enable-background="new 0 0 24 24" xml:space="preserve">
<g id="Outline_Icons">
	<g>
		<path d="M12,0C5.383,0,0,5.383,0,12s5.383,12,12,12s12-5.383,12-12S18.617,0,12,0z M12,23C5.935,23,1,18.066,1,12
			C1,5.935,5.935,1,12,1s11,4.935,11,11C23,18.066,18.065,23,12,23z"/>
		<path d="M19.921,10.302L7.675,4.554C7.101,4.284,6.401,4.33,5.871,4.667C5.326,5.013,5,5.604,5,6.252v11.496
			c0,0.648,0.326,1.241,0.871,1.584c0.301,0.191,0.649,0.291,1.006,0.291c0.277,0,0.546-0.059,0.797-0.177l12.247-5.747
			C20.576,13.39,21,12.724,21,12C21,11.275,20.576,10.608,19.921,10.302z M16.717,9.902l-1.496,1.402l-4.624-4.275L16.717,9.902z
			 M7.248,18.542c-0.117,0.055-0.241,0.081-0.371,0.081c-0.167,0-0.329-0.046-0.472-0.136C6.155,18.33,6,18.047,6,17.748V6.252
			c0-0.303,0.151-0.579,0.408-0.741c0.14-0.089,0.302-0.138,0.468-0.138c0.129,0,0.254,0.029,0.372,0.085l0.354,0.167l6.886,6.365
			l-6.742,6.318L7.248,18.542z M15.225,12.672l1.526,1.41l-6.073,2.852L15.225,12.672z M19.495,12.794l-1.767,0.829l-1.771-1.637
			l1.734-1.626l1.805,0.847C19.802,11.351,20,11.661,20,12C20,12.338,19.802,12.65,19.495,12.794z"/>
	</g>
</g>
<g id="Frames-24px">
	<rect fill="none" width="24" height="24"/>
</g>
</svg>
