<?xml version="1.0" encoding="utf-8"?>
<!-- Generator: Adobe Illustrator 16.0.3, SVG Export Plug-In . SVG Version: 6.00 Build 0)  -->
<!DOCTYPE svg PUBLIC "-//W3C//DTD SVG 1.1//EN" "http://www.w3.org/Graphics/SVG/1.1/DTD/svg11.dtd">
<svg version="1.1" xmlns="http://www.w3.org/2000/svg" xmlns:xlink="http://www.w3.org/1999/xlink" x="0px" y="0px" width="24px"
	 height="24px" viewBox="0 0 24 24" enable-background="new 0 0 24 24" xml:space="preserve">
<g id="Outline_Icons">
	<g>
		<path d="M12,0C5.383,0,0,5.383,0,12s5.383,12,12,12s12-5.383,12-12S18.617,0,12,0z M12,23C5.935,23,1,18.066,1,12
			C1,5.935,5.935,1,12,1s11,4.935,11,11C23,18.066,18.065,23,12,23z"/>
		<path d="M12.004,3.98c-4.687,0-8.5,3.813-8.5,8.5c0,3.668,2.336,6.908,5.883,8.084c0.082,0.015,0.157,0.021,0.225,0.021
			c0.517,0,0.891-0.374,0.891-0.889l0.001-0.198c0-0.262,0.002-0.688-0.001-1.194c-0.001-0.15-0.069-0.293-0.188-0.388
			c-0.118-0.094-0.271-0.13-0.419-0.098c-0.916,0.199-1.547-0.035-1.832-0.312c0.918,0.561,1.744,0.229,2.176,0.037
			c0.157-0.07,0.267-0.217,0.291-0.387c0.067-0.477,0.263-0.694,0.344-0.766c0.148-0.131,0.206-0.336,0.146-0.525
			c-0.059-0.188-0.224-0.324-0.42-0.347c-1.662-0.187-3.2-0.737-3.2-3.457c0-0.696,0.232-1.307,0.691-1.811
			c0.131-0.144,0.167-0.349,0.093-0.527C8.14,9.612,7.946,9.071,8.161,8.299c0.266,0.045,0.778,0.203,1.561,0.734
			c0.12,0.083,0.274,0.108,0.414,0.068c0.587-0.163,1.233-0.25,1.867-0.252c0.636,0.002,1.283,0.089,1.872,0.252
			c0.141,0.037,0.292,0.015,0.413-0.068c0.771-0.523,1.279-0.684,1.559-0.734c0.215,0.772,0.021,1.313-0.023,1.425
			c-0.074,0.179-0.038,0.385,0.093,0.527c0.459,0.503,0.691,1.112,0.691,1.811c0,2.72-1.542,3.266-3.208,3.451
			c-0.197,0.022-0.363,0.159-0.422,0.35s0.001,0.396,0.151,0.526c0.112,0.098,0.373,0.396,0.373,1.094v2.217
			c0,0.514,0.373,0.887,0.887,0.887c0.073,0,0.154-0.008,0.307-0.041c3.475-1.159,5.809-4.399,5.809-8.064
			C20.504,7.794,16.69,3.98,12.004,3.98z M14.502,19.56v-2.077c0-0.453-0.081-0.812-0.194-1.095c1.308-0.269,3.3-1.12,3.3-4.326
			c0-0.854-0.256-1.612-0.761-2.258c0.113-0.437,0.207-1.225-0.176-2.188c-0.055-0.14-0.169-0.246-0.312-0.292
			c-0.166-0.056-0.98-0.183-2.441,0.756c-0.615-0.15-1.258-0.228-1.915-0.229c-0.646,0.002-1.301,0.082-1.911,0.229
			C8.63,7.14,7.812,7.267,7.648,7.323C7.506,7.369,7.392,7.476,7.337,7.615C6.954,8.579,7.048,9.367,7.161,9.804
			C6.656,10.451,6.4,11.209,6.4,12.062c0,3.213,1.997,4.063,3.302,4.333c-0.041,0.104-0.075,0.21-0.104,0.322
			c-0.137,0.042-0.304,0.077-0.478,0.077c-0.414,0-0.735-0.204-0.976-0.615c-0.022-0.041-0.566-1.007-1.666-1.083
			c-0.438,0-0.741,0.174-0.835,0.476c-0.148,0.481,0.341,0.814,0.557,0.957c0.016,0.008,0.373,0.209,0.636,0.87
			C6.854,17.459,7.309,18.9,9.188,18.9c0.103,0,0.208-0.004,0.315-0.013c0,0.247-0.001,0.455-0.001,0.607l-0.001,0.058
			c-2.995-1.058-4.998-3.883-4.998-7.072c0-4.136,3.364-7.5,7.5-7.5s7.5,3.364,7.5,7.5C19.504,15.693,17.472,18.536,14.502,19.56z"
			/>
	</g>
</g>
<g id="Frames-24px">
	<rect fill="none" width="24" height="24"/>
</g>
</svg>
