<?xml version="1.0" encoding="utf-8"?>
<!-- Generator: Adobe Illustrator 16.0.3, SVG Export Plug-In . SVG Version: 6.00 Build 0)  -->
<!DOCTYPE svg PUBLIC "-//W3C//DTD SVG 1.1//EN" "http://www.w3.org/Graphics/SVG/1.1/DTD/svg11.dtd">
<svg version="1.1" xmlns="http://www.w3.org/2000/svg" xmlns:xlink="http://www.w3.org/1999/xlink" x="0px" y="0px" width="24px"
	 height="24px" viewBox="0 0 24 24" enable-background="new 0 0 24 24" xml:space="preserve">
<g id="Outline_Icons">
	<g>
		<path d="M12,0.004c-6.617,0-12,5.383-12,12s5.383,12,12,12s12-5.383,12-12S18.617,0.004,12,0.004z M12,23.004
			c-6.065,0-11-4.935-11-11s4.935-11,11-11s11,4.935,11,11S18.065,23.004,12,23.004z"/>
		<path d="M13,14.055v-3.101c1.14-0.232,2-1.242,2-2.449v-1.5h2c0.276,0,0.5-0.224,0.5-0.5c0-0.277-0.224-0.5-0.5-0.5h-2v-1
			c0-0.277-0.224-0.5-0.5-0.5S14,4.728,14,5.004v1h-3v-1c0-0.277-0.224-0.5-0.5-0.5S10,4.728,10,5.004v1H8
			c-0.276,0-0.5,0.223-0.5,0.5c0,0.276,0.224,0.5,0.5,0.5h2v1.5c0,1.207,0.86,2.217,2,2.449v3.101c-1.691,0.246-3,1.691-3,3.45V19.4
			c0,0.276,0.224,0.5,0.5,0.5s0.5-0.224,0.5-0.5v-1.896c0-1.207,0.86-2.217,2-2.449V19.4c0,0.276,0.224,0.5,0.5,0.5
			s0.5-0.224,0.5-0.5v-4.345c1.14,0.232,2,1.243,2,2.449V19.4c0,0.276,0.224,0.5,0.5,0.5s0.5-0.224,0.5-0.5v-1.896
			C16,15.746,14.691,14.3,13,14.055z M11,8.504v-1.5h3v1.5c0,0.827-0.673,1.5-1.5,1.5S11,9.332,11,8.504z"/>
		<path d="M15.611,10.604c-0.221-0.165-0.533-0.119-0.7,0.103c-0.165,0.221-0.119,0.535,0.103,0.699l2.688,2
			c0.09,0.067,0.194,0.099,0.299,0.099c0.152,0,0.303-0.07,0.401-0.202c0.165-0.221,0.119-0.535-0.103-0.699L15.611,10.604z"/>
		<path d="M9.089,10.706c-0.167-0.222-0.479-0.268-0.7-0.103l-2.688,2c-0.222,0.165-0.268,0.478-0.103,0.699
			C5.697,13.435,5.848,13.504,6,13.504c0.104,0,0.209-0.032,0.299-0.099l2.688-2C9.208,11.241,9.254,10.927,9.089,10.706z"/>
	</g>
</g>
<g id="Frames-24px">
	<rect fill="none" width="24" height="24"/>
</g>
</svg>
