<?xml version="1.0" encoding="utf-8"?>
<!-- Generator: Adobe Illustrator 16.0.3, SVG Export Plug-In . SVG Version: 6.00 Build 0)  -->
<!DOCTYPE svg PUBLIC "-//W3C//DTD SVG 1.1//EN" "http://www.w3.org/Graphics/SVG/1.1/DTD/svg11.dtd">
<svg version="1.1" xmlns="http://www.w3.org/2000/svg" xmlns:xlink="http://www.w3.org/1999/xlink" x="0px" y="0px" width="24px"
	 height="24px" viewBox="0 0 24 24" enable-background="new 0 0 24 24" xml:space="preserve">
<g id="Outline_Icons">
	<g>
		<path d="M12,0C5.383,0,0,5.383,0,12s5.383,12,12,12s12-5.383,12-12S18.617,0,12,0z M12,23C5.935,23,1,18.066,1,12
			C1,5.935,5.935,1,12,1s11,4.935,11,11C23,18.066,18.065,23,12,23z"/>
		<path d="M15.5,4.484c-3.188,0-4.031,2.586-4.031,3.953V12c0,0.276,0.224,0.5,0.5,0.5h3.355c2.595,0,4.207-1.525,4.207-3.98
			C19.531,5.993,18.024,4.484,15.5,4.484z M15.324,11.5h-2.855V8.438c0-0.119,0.034-2.953,3.031-2.953
			c1.983,0,3.031,1.051,3.031,3.035C18.531,10.441,17.393,11.5,15.324,11.5z"/>
		<path d="M12.987,14.002L9.999,14v-2.951c0-0.255-0.191-0.469-0.444-0.496c-0.176-0.021-0.354-0.033-0.534-0.033
			c-2.481,0-4.5,2.019-4.5,4.5s2.019,4.5,4.5,4.5s4.5-2.019,4.5-4.5c0-0.198-0.013-0.392-0.037-0.583
			C13.45,14.188,13.238,14.002,12.987,14.002z M12.521,15.02c0,1.93-1.57,3.5-3.5,3.5s-3.5-1.57-3.5-3.5
			c0-1.923,1.559-3.488,3.479-3.5v2.98c0,0.276,0.224,0.5,0.5,0.5l3.021,0.002C12.521,15.008,12.521,15.014,12.521,15.02z"/>
		<path d="M15.5,6.484c-0.276,0-0.5,0.224-0.5,0.5v2c0,0.276,0.224,0.5,0.5,0.5s0.5-0.224,0.5-0.5v-2
			C16,6.708,15.776,6.484,15.5,6.484z"/>
		<circle cx="15.5" cy="10.52" r="0.5"/>
	</g>
</g>
<g id="Frames-24px">
	<rect fill="none" width="24" height="24"/>
</g>
</svg>
