<?xml version="1.0" encoding="utf-8"?>
<!-- Generator: Adobe Illustrator 16.0.3, SVG Export Plug-In . SVG Version: 6.00 Build 0)  -->
<!DOCTYPE svg PUBLIC "-//W3C//DTD SVG 1.1//EN" "http://www.w3.org/Graphics/SVG/1.1/DTD/svg11.dtd">
<svg version="1.1" xmlns="http://www.w3.org/2000/svg" xmlns:xlink="http://www.w3.org/1999/xlink" x="0px" y="0px" width="24px"
	 height="24px" viewBox="0 0 24 24" enable-background="new 0 0 24 24" xml:space="preserve">
<g id="Outline_Icons">
	<g>
		<path d="M12,0C5.383,0,0,5.383,0,12s5.383,12,12,12s12-5.383,12-12S18.617,0,12,0z M12,23C5.935,23,1,18.066,1,12
			C1,5.935,5.935,1,12,1s11,4.935,11,11C23,18.066,18.065,23,12,23z"/>
		<path d="M10.092,12.17c0.11-0.646,0.46-1.265,0.99-1.746c0.82-0.769,2.074-1.176,3.329-1.083c0.173,0.012,0.309-0.052,0.412-0.169
			c0.103-0.117,0.146-0.276,0.114-0.43c-0.265-1.297-1.171-2.485-2.421-3.176c-1.516-0.855-3.48-1.006-5.144-0.404
			c-1.167,0.42-2.14,1.188-2.736,2.161C4.035,8.297,3.848,9.46,4.12,10.503c0.233,0.993,0.851,1.903,1.755,2.596
			c-0.127,0.372-0.251,0.743-0.369,1.118c-0.062,0.193,0,0.403,0.155,0.533c0.092,0.077,0.206,0.117,0.321,0.117
			c0.079,0,0.158-0.018,0.231-0.057c0.34-0.178,0.678-0.359,1.017-0.541l0.478-0.256c0.606,0.173,1.226,0.261,1.844,0.261
			l0.206-0.003c0.158-0.005,0.305-0.085,0.396-0.215c0.09-0.131,0.113-0.296,0.062-0.446C10.062,13.157,10.02,12.655,10.092,12.17z
			 M9.104,12.013c-0.062,0.416-0.062,0.837,0,1.244c-0.437-0.035-0.871-0.121-1.298-0.259c-0.13-0.04-0.268-0.027-0.387,0.037
			l-0.57,0.304c0.03-0.089,0.062-0.179,0.092-0.268c0.074-0.216-0.007-0.454-0.196-0.58c-0.852-0.564-1.453-1.372-1.654-2.229
			C4.888,9.482,5.035,8.58,5.489,7.848c0.479-0.781,1.268-1.401,2.223-1.745c0.57-0.206,1.174-0.311,1.794-0.311
			c0.899,0,1.771,0.223,2.522,0.647c0.798,0.44,1.418,1.123,1.741,1.896c-1.293,0.063-2.508,0.55-3.365,1.354
			C9.715,10.314,9.254,11.136,9.104,12.013z"/>
		<path d="M19.695,12.504c-0.377-0.854-1.085-1.579-1.995-2.041c-1.457-0.738-3.354-0.733-4.808,0.02
			c-1.133,0.581-1.952,1.596-2.188,2.703c-0.206,0.87-0.043,1.832,0.447,2.635c0.648,1.076,1.806,1.836,3.164,2.083
			c0.778,0.155,1.637,0.114,2.543-0.127c0.206,0.094,0.404,0.207,0.603,0.319c0.193,0.109,0.388,0.219,0.587,0.314
			c0.069,0.033,0.144,0.05,0.217,0.05c0.116,0,0.231-0.041,0.324-0.119c0.15-0.128,0.211-0.333,0.155-0.522
			c-0.087-0.294-0.179-0.586-0.275-0.877c0.514-0.418,0.896-0.877,1.135-1.361C20.102,14.633,20.135,13.482,19.695,12.504z
			 M18.714,15.127c-0.218,0.441-0.586,0.844-1.124,1.228c-0.18,0.129-0.254,0.36-0.182,0.57c0.001,0.002,0.001,0.004,0.002,0.007
			c-0.108-0.054-0.22-0.104-0.335-0.148c-0.103-0.04-0.217-0.047-0.323-0.014c-0.811,0.236-1.551,0.292-2.246,0.151
			c-1.071-0.194-2.005-0.799-2.499-1.618c-0.354-0.583-0.475-1.271-0.326-1.897c0.176-0.828,0.8-1.589,1.67-2.035
			c0.592-0.306,1.271-0.468,1.964-0.468c0.682,0,1.35,0.156,1.933,0.453c0.705,0.357,1.249,0.908,1.534,1.555
			C19.093,13.604,19.069,14.448,18.714,15.127z"/>
		<path d="M16.805,12.32c-0.019,0-0.037,0.002-0.056,0.004c-0.349,0.014-0.638,0.521-0.292,0.832
			c0.087,0.092,0.209,0.135,0.333,0.135c0.183,0,0.366-0.094,0.44-0.268C17.406,12.723,17.136,12.32,16.805,12.32z"/>
		<path d="M14.03,12.305c-0.055,0-0.11,0.01-0.165,0.033c-0.336,0.104-0.437,0.592-0.18,0.824c0.089,0.097,0.215,0.142,0.342,0.142
			c0.205,0,0.413-0.116,0.479-0.32C14.646,12.664,14.353,12.305,14.03,12.305z"/>
		<path d="M10.962,8.062c0.021-0.285-0.235-0.52-0.505-0.52c-0.056,0-0.112,0.011-0.167,0.032c-0.357,0.11-0.443,0.64-0.14,0.858
			c0.085,0.077,0.188,0.111,0.294,0.111C10.701,8.545,10.964,8.34,10.962,8.062z"/>
		<path d="M7.769,7.541c-0.053,0-0.106,0.009-0.159,0.029C7.246,7.68,7.16,8.219,7.469,8.438C7.554,8.51,7.658,8.543,7.763,8.543
			c0.225,0,0.451-0.15,0.499-0.382C8.354,7.85,8.073,7.541,7.769,7.541z"/>
	</g>
</g>
<g id="Frames-24px">
	<rect fill="none" width="24" height="24"/>
</g>
</svg>
