<?xml version="1.0" encoding="utf-8"?>
<!-- Generator: Adobe Illustrator 16.0.3, SVG Export Plug-In . SVG Version: 6.00 Build 0)  -->
<!DOCTYPE svg PUBLIC "-//W3C//DTD SVG 1.1//EN" "http://www.w3.org/Graphics/SVG/1.1/DTD/svg11.dtd">
<svg version="1.1" xmlns="http://www.w3.org/2000/svg" xmlns:xlink="http://www.w3.org/1999/xlink" x="0px" y="0px" width="24px"
	 height="24px" viewBox="0 0 24 24" enable-background="new 0 0 24 24" xml:space="preserve">
<g id="Outline_Icons">
	<g>
		<path d="M12,0C5.383,0,0,5.383,0,12s5.383,12,12,12s12-5.383,12-12S18.617,0,12,0z M12,23C5.935,23,1,18.066,1,12
			C1,5.935,5.935,1,12,1s11,4.935,11,11C23,18.066,18.065,23,12,23z"/>
		<path d="M12.679,14.166C12.584,14.061,12.448,14,12.307,14H9.152v-2H9.9c0.193,0,0.369-0.111,0.452-0.285
			c0.082-0.175,0.058-0.383-0.064-0.531l-2.45-3.002c-0.191-0.232-0.584-0.232-0.775,0l-2.45,3.002
			c-0.122,0.148-0.146,0.356-0.064,0.531C4.631,11.889,4.807,12,5,12h1.014v3.1c0,1.088,1.107,1.9,2.097,1.9H14.1
			c0.197,0,0.376-0.115,0.457-0.296c0.08-0.181,0.047-0.39-0.085-0.538L12.679,14.166z M8.11,16c-0.494,0-1.097-0.415-1.097-0.9
			v-3.6c0-0.276-0.224-0.5-0.5-0.5h-0.46L7.45,9.289L8.847,11H8.652c-0.276,0-0.5,0.224-0.5,0.5v3c0,0.276,0.224,0.5,0.5,0.5h3.431
			l0.896,1H8.11z"/>
		<path d="M19,13h-1V9.021C18,7.907,17.187,7,16.187,7H9.9C9.703,7,9.524,7.116,9.444,7.296C9.363,7.477,9.396,7.687,9.528,7.834
			l1.792,2C11.415,9.939,11.55,10,11.692,10H15v3h-0.9c-0.193,0-0.369,0.111-0.452,0.285c-0.082,0.175-0.058,0.381,0.064,0.531
			l2.45,3.003c0.096,0.116,0.237,0.184,0.388,0.184s0.292-0.067,0.388-0.184l2.45-3.003c0.122-0.15,0.146-0.356,0.064-0.531
			C19.369,13.111,19.193,13,19,13z M16.55,15.712L15.153,14H15.5c0.276,0,0.5-0.224,0.5-0.5v-4C16,9.224,15.776,9,15.5,9h-3.584
			L11.02,8h5.167C16.673,8,17,8.528,17,9.021V13.5c0,0.276,0.224,0.5,0.5,0.5h0.446L16.55,15.712z"/>
	</g>
</g>
<g id="Frames-24px">
	<rect fill="none" width="24" height="24"/>
</g>
</svg>
