<?xml version="1.0" encoding="utf-8"?>
<!-- Generator: Adobe Illustrator 16.0.3, SVG Export Plug-In . SVG Version: 6.00 Build 0)  -->
<!DOCTYPE svg PUBLIC "-//W3C//DTD SVG 1.1//EN" "http://www.w3.org/Graphics/SVG/1.1/DTD/svg11.dtd">
<svg version="1.1" xmlns="http://www.w3.org/2000/svg" xmlns:xlink="http://www.w3.org/1999/xlink" x="0px" y="0px" width="24px"
	 height="24px" viewBox="0 0 24 24" enable-background="new 0 0 24 24" xml:space="preserve">
<g id="Outline_Icons">
	<g>
		<path d="M11.899,13.932l2.996-2.924c0.506-0.548,1.088-1.314,1.088-2.387c0-1.281-0.871-2.607-2.327-2.607
			c-0.992,0-1.628,0.602-2.193,1.213L7,12.015V2.993C7,1.314,5.934,0,4.573,0C3.154,0,2,1.281,2,2.855v18.288
			C2,22.719,3.154,24,4.573,24C5.979,24,7,22.856,7,21.281v-2.492l1.227-1.248l3.289,5.141c0.592,0.935,1.236,1.316,2.222,1.316
			c1.367,0,2.438-1.158,2.438-2.638c0-0.602-0.173-1.119-0.6-1.792L11.899,13.932z M13.737,22.998c-0.634,0-0.969-0.207-1.378-0.854
			l-3.628-5.671c-0.082-0.128-0.218-0.212-0.37-0.228c-0.148-0.018-0.302,0.039-0.408,0.146l-1.81,1.842
			C6.051,18.327,6,18.453,6,18.584v2.697C6,22.31,5.427,23,4.573,23C3.706,23,3,22.167,3,21.144V2.855C3,1.832,3.706,1,4.573,1
			C5.455,1,6,2.035,6,2.993v10.291c0,0.205,0.125,0.39,0.317,0.464c0.191,0.076,0.409,0.028,0.549-0.123l5.33-5.719
			c0.623-0.676,0.978-0.893,1.459-0.893c0.862,0,1.327,0.828,1.327,1.607c0,0.581-0.238,1.076-0.804,1.689l-3.271,3.191
			c-0.171,0.166-0.2,0.432-0.07,0.631l3.897,5.977c0.321,0.507,0.441,0.846,0.441,1.251C15.175,22.294,14.557,22.998,13.737,22.998z
			"/>
		<path d="M19.175,12.851c-1.649,0-2.991,1.349-2.991,3.005c0,1.657,1.342,3.005,2.991,3.005s2.991-1.348,2.991-3.005
			C22.166,14.199,20.824,12.851,19.175,12.851z M19.175,17.86c-1.098,0-1.991-0.899-1.991-2.005s0.893-2.005,1.991-2.005
			s1.991,0.899,1.991,2.005S20.273,17.86,19.175,17.86z"/>
	</g>
</g>
<g id="Frames-24px">
	<rect fill="none" width="24" height="24"/>
</g>
</svg>
