<?xml version="1.0" encoding="utf-8"?>
<!-- Generator: Adobe Illustrator 16.0.3, SVG Export Plug-In . SVG Version: 6.00 Build 0)  -->
<!DOCTYPE svg PUBLIC "-//W3C//DTD SVG 1.1//EN" "http://www.w3.org/Graphics/SVG/1.1/DTD/svg11.dtd">
<svg version="1.1" xmlns="http://www.w3.org/2000/svg" xmlns:xlink="http://www.w3.org/1999/xlink" x="0px" y="0px" width="24px"
	 height="24px" viewBox="0 0 24 24" enable-background="new 0 0 24 24" xml:space="preserve">
<g id="Outline_Icons">
	<g>
		<path d="M12,0C5.383,0,0,5.383,0,12s5.383,12,12,12s12-5.383,12-12S18.617,0,12,0z M12,23C5.935,23,1,18.066,1,12
			C1,5.935,5.935,1,12,1s11,4.935,11,11C23,18.066,18.065,23,12,23z"/>
		<path d="M15.247,9.998c-0.235,0-0.467,0.03-0.693,0.074c-0.946-1.865-3.132-4.555-5.935-3.862
			c0.098-0.316,0.151-0.698,0.092-1.188C8.678,4.746,8.424,4.543,8.154,4.586C7.881,4.619,7.686,4.868,7.719,5.143
			c0.066,0.55-0.033,0.955-0.298,1.201C7.134,6.612,6.724,6.639,6.564,6.61C6.296,6.559,6.031,6.736,5.98,7.009
			C5.929,7.281,6.107,7.541,6.379,7.593c0.096,0.019,0.202,0.028,0.313,0.028c0.399,0,0.87-0.135,1.264-0.436
			c2.111,0.973,2.222,3.706,2.195,4.616c-1.521,0.576-2.609,2.036-2.609,3.755c0,2.22,1.807,4.025,4.026,4.025
			c1.541,0,2.866-0.88,3.542-2.154c0.046,0.002,0.091,0.009,0.137,0.009c2.051,0,3.72-1.667,3.72-3.718
			C18.967,11.667,17.298,9.998,15.247,9.998z M9.594,7.1c1.999,0.061,3.452,2.312,3.993,3.301c-0.549,0.274-1.026,0.682-1.385,1.195
			c-0.208-0.034-0.417-0.064-0.634-0.064c-0.141,0-0.273,0.027-0.41,0.041C11.162,10.532,10.978,8.461,9.594,7.1z M11.568,18.582
			c-1.669,0-3.026-1.357-3.026-3.025s1.357-3.025,3.026-3.025c1.668,0,3.025,1.357,3.025,3.025S13.236,18.582,11.568,18.582z
			 M15.498,16.411c0.06-0.276,0.096-0.561,0.096-0.854c0-1.622-0.969-3.015-2.354-3.651c0.51-0.564,1.231-0.907,2.008-0.907
			c1.5,0,2.72,1.221,2.72,2.721C17.967,15.133,16.879,16.283,15.498,16.411z"/>
		<circle cx="10.367" cy="14.203" r="0.613"/>
	</g>
</g>
<g id="Frames-24px">
	<rect fill="none" width="24" height="24"/>
</g>
</svg>
