<?xml version="1.0" encoding="utf-8"?>
<!-- Generator: Adobe Illustrator 16.0.3, SVG Export Plug-In . SVG Version: 6.00 Build 0)  -->
<!DOCTYPE svg PUBLIC "-//W3C//DTD SVG 1.1//EN" "http://www.w3.org/Graphics/SVG/1.1/DTD/svg11.dtd">
<svg version="1.1" xmlns="http://www.w3.org/2000/svg" xmlns:xlink="http://www.w3.org/1999/xlink" x="0px" y="0px" width="24px"
	 height="24px" viewBox="0 0 24 24" enable-background="new 0 0 24 24" xml:space="preserve">
<g id="Outline_Icons">
	<g>
		<path d="M12,0C5.383,0,0,5.383,0,12s5.383,12,12,12s12-5.383,12-12S18.617,0,12,0z M12,23C5.935,23,1,18.066,1,12
			C1,5.935,5.935,1,12,1s11,4.935,11,11C23,18.066,18.065,23,12,23z"/>
		<path d="M16.38,15.332l-0.187-0.146c-0.337-0.271-0.693-0.52-1.05-0.768l-0.185-0.129c-1.15-0.81-2.159-0.633-2.867,0.437
			c-0.261,0.398-0.427,0.25-0.69,0.133c-1.343-0.611-2.261-1.503-2.806-2.729c-0.247-0.555-0.121-0.776,0.196-0.991
			c0.298-0.203,0.919-0.625,0.874-1.45C9.619,8.828,7.875,6.451,7.072,6.156c-0.356-0.13-0.735-0.133-1.117-0.004
			C5.073,6.448,4.437,6.976,4.114,7.678C3.802,8.359,3.812,9.153,4.146,9.972c1.759,4.318,4.902,7.478,9.343,9.391
			c0.207,0.089,0.432,0.142,0.6,0.18l0.112,0.026c0.041,0.011,0.084,0.018,0.127,0.018c0.004,0,0.02,0,0.02,0
			c1.243,0,2.517-1.148,2.882-2.179C17.626,16.283,16.876,15.711,16.38,15.332z M16.285,17.073
			c-0.265,0.749-1.194,1.484-1.897,1.512l-0.08-0.019c-0.118-0.027-0.278-0.061-0.425-0.123c-4.19-1.805-7.155-4.782-8.812-8.849
			c-0.226-0.557-0.242-1.075-0.048-1.5C5.228,7.65,5.66,7.306,6.272,7.102c0.087-0.03,0.166-0.045,0.243-0.045
			c0.073,0,0.144,0.013,0.212,0.038c0.447,0.18,1.897,2.161,1.94,2.649c0.011,0.202-0.088,0.33-0.438,0.567
			c-0.539,0.366-1.072,1.049-0.549,2.226c0.64,1.438,1.752,2.527,3.308,3.233c0.265,0.119,0.521,0.181,0.762,0.181
			c0.334,0,0.81-0.118,1.176-0.674c0.323-0.489,0.595-0.489,0.684-0.489c0.211,0,0.472,0.107,0.774,0.32l0.188,0.131
			c0.337,0.235,0.676,0.471,0.994,0.727l0.206,0.16C16.305,16.533,16.425,16.679,16.285,17.073z"/>
		<path d="M19.87,11.479c-0.979-3.573-3.919-6.518-7.492-7.501c-0.269-0.069-0.542,0.084-0.615,0.35
			c-0.073,0.267,0.084,0.542,0.35,0.615c3.24,0.891,5.906,3.56,6.793,6.8c0.061,0.223,0.263,0.368,0.482,0.368
			c0.043,0,0.088-0.006,0.132-0.018C19.786,12.02,19.942,11.745,19.87,11.479z"/>
		<path d="M11.946,5.904c-0.274-0.06-0.535,0.116-0.592,0.387s0.116,0.535,0.387,0.592c2.586,0.541,4.741,2.727,5.24,5.316
			c0.047,0.238,0.256,0.404,0.49,0.404c0.032,0,0.063-0.002,0.096-0.009c0.271-0.053,0.448-0.313,0.396-0.586
			C17.39,9.036,14.915,6.525,11.946,5.904z"/>
		<path d="M11.393,8.886c0.232,0.013,0.462,0.05,0.685,0.107c0.593,0.153,1.131,0.466,1.585,0.872
			c0.057,0.049,0.121,0.092,0.174,0.146c0.054,0.054,0.097,0.117,0.147,0.175c0.558,0.624,0.929,1.414,0.977,2.268
			c0.015,0.267,0.235,0.473,0.499,0.473c0.009,0,0.019,0,0.027-0.001c0.276-0.015,0.487-0.251,0.472-0.526
			c-0.13-2.354-2.153-4.378-4.509-4.511c-0.287-0.025-0.512,0.196-0.527,0.471C10.906,8.635,11.117,8.87,11.393,8.886z"/>
	</g>
</g>
<g id="Frames-24px">
	<rect fill="none" width="24" height="24"/>
</g>
</svg>
