<?xml version="1.0" encoding="utf-8"?>
<!-- Generator: Adobe Illustrator 16.0.3, SVG Export Plug-In . SVG Version: 6.00 Build 0)  -->
<!DOCTYPE svg PUBLIC "-//W3C//DTD SVG 1.1//EN" "http://www.w3.org/Graphics/SVG/1.1/DTD/svg11.dtd">
<svg version="1.1" xmlns="http://www.w3.org/2000/svg" xmlns:xlink="http://www.w3.org/1999/xlink" x="0px" y="0px" width="24px"
	 height="24px" viewBox="0 0 24 24" enable-background="new 0 0 24 24" xml:space="preserve">
<g id="Outline_Icons">
	<g>
		<path d="M20.5,8C22.43,8,24,6.43,24,4.5S22.43,1,20.5,1S17,2.57,17,4.5S18.57,8,20.5,8z M20.5,2C21.878,2,23,3.121,23,4.5
			S21.878,7,20.5,7S18,5.879,18,4.5S19.122,2,20.5,2z"/>
		<path d="M20.5,9c-1.93,0-3.5,1.57-3.5,3.5s1.57,3.5,3.5,3.5s3.5-1.57,3.5-3.5S22.43,9,20.5,9z M20.5,15
			c-1.378,0-2.5-1.121-2.5-2.5s1.122-2.5,2.5-2.5s2.5,1.121,2.5,2.5S21.878,15,20.5,15z"/>
		<path d="M20.5,17c-1.93,0-3.5,1.57-3.5,3.5s1.57,3.5,3.5,3.5s3.5-1.57,3.5-3.5S22.43,17,20.5,17z M20.5,23
			c-1.378,0-2.5-1.121-2.5-2.5s1.122-2.5,2.5-2.5s2.5,1.121,2.5,2.5S21.878,23,20.5,23z"/>
		<path d="M12,1c-1.93,0-3.5,1.57-3.5,3.5S10.07,8,12,8s3.5-1.57,3.5-3.5S13.93,1,12,1z M12,7c-1.378,0-2.5-1.121-2.5-2.5
			S10.622,2,12,2s2.5,1.121,2.5,2.5S13.378,7,12,7z"/>
		<path d="M12,9c-1.93,0-3.5,1.57-3.5,3.5S10.07,16,12,16s3.5-1.57,3.5-3.5S13.93,9,12,9z M12,15c-1.378,0-2.5-1.121-2.5-2.5
			S10.622,10,12,10s2.5,1.121,2.5,2.5S13.378,15,12,15z"/>
		<path d="M3.5,9C1.57,9,0,10.57,0,12.5S1.57,16,3.5,16S7,14.43,7,12.5S5.43,9,3.5,9z M3.5,15C2.122,15,1,13.879,1,12.5
			S2.122,10,3.5,10S6,11.121,6,12.5S4.878,15,3.5,15z"/>
		<path d="M12,17c-1.93,0-3.5,1.57-3.5,3.5S10.07,24,12,24s3.5-1.57,3.5-3.5S13.93,17,12,17z M12,23c-1.378,0-2.5-1.121-2.5-2.5
			S10.622,18,12,18s2.5,1.121,2.5,2.5S13.378,23,12,23z"/>
	</g>
</g>
<g id="Frames-24px">
	<rect fill="none" width="24" height="24"/>
</g>
</svg>
