<?xml version="1.0" encoding="utf-8"?>
<!-- Generator: Adobe Illustrator 16.0.3, SVG Export Plug-In . SVG Version: 6.00 Build 0)  -->
<!DOCTYPE svg PUBLIC "-//W3C//DTD SVG 1.1//EN" "http://www.w3.org/Graphics/SVG/1.1/DTD/svg11.dtd">
<svg version="1.1" xmlns="http://www.w3.org/2000/svg" xmlns:xlink="http://www.w3.org/1999/xlink" x="0px" y="0px" width="24px"
	 height="24px" viewBox="0 0 24 24" enable-background="new 0 0 24 24" xml:space="preserve">
<g id="Outline_Icons">
	<g>
		<path d="M12,0C5.383,0,0,5.383,0,12s5.383,12,12,12s12-5.383,12-12S18.617,0,12,0z M12,23C5.935,23,1,18.066,1,12
			C1,5.935,5.935,1,12,1s11,4.935,11,11C23,18.066,18.065,23,12,23z"/>
		<path d="M9.717,8.998c-0.782,0-1.418,0.633-1.418,1.41s0.636,1.41,1.418,1.41s1.418-0.633,1.418-1.41S10.499,8.998,9.717,8.998z
			 M9.717,10.818c-0.23,0-0.418-0.184-0.418-0.41s0.188-0.41,0.418-0.41s0.418,0.184,0.418,0.41S9.947,10.818,9.717,10.818z"/>
		<path d="M16.315,8.998c-0.781,0-1.417,0.633-1.417,1.41s0.636,1.41,1.417,1.41c0.782,0,1.419-0.633,1.419-1.41
			S17.098,8.998,16.315,8.998z M16.315,10.818c-0.229,0-0.417-0.184-0.417-0.41s0.188-0.41,0.417-0.41
			c0.231,0,0.419,0.184,0.419,0.41S16.547,10.818,16.315,10.818z"/>
		<path d="M16.249,6.686c-1.395,0-2.68,0.755-3.366,1.863c-0.547-0.938-1.548-1.863-3.166-1.863c-2.067,0-3.749,1.67-3.749,3.723
			c0,1.943,1.216,3.348,3.012,3.563l0.005,0.208l-3.363-0.843c-0.148-0.036-0.308-0.005-0.429,0.091C5.071,13.522,5,13.668,5,13.822
			v4.285c0,0.156,0.073,0.304,0.197,0.398c0.124,0.094,0.285,0.127,0.437,0.083L9,17.654V18.5C9,18.776,9.224,19,9.5,19h5.744
			c0.16,0,0.311-0.077,0.405-0.207c0.094-0.129,0.12-0.295,0.07-0.448L14.296,14h1.922C18.339,14,20,12.422,20,10.408
			C20,8.355,18.317,6.686,16.249,6.686z M16.211,13h-2.604c-0.16,0-0.311,0.077-0.405,0.207c-0.094,0.129-0.12,0.296-0.07,0.448
			L14.555,18H10v-1.004c0-0.156-0.073-0.304-0.197-0.398c-0.125-0.094-0.288-0.128-0.437-0.083L6,17.449v-2.986l3.379,0.847
			c0.15,0.038,0.311,0.003,0.434-0.095c0.122-0.098,0.191-0.246,0.188-0.402l-0.031-1.324C9.962,13.217,9.74,13,9.469,13
			c-1.52,0-2.501-1.018-2.501-2.592c0-1.501,1.233-2.723,2.749-2.723c2.188,0,2.666,2.249,2.686,2.346
			c0.048,0.238,0.251,0.408,0.503,0.402c0.243-0.007,0.446-0.186,0.481-0.427c0.193-1.302,1.45-2.321,2.862-2.321
			c1.517,0,2.751,1.222,2.751,2.723C19,11.861,17.778,13,16.211,13z"/>
	</g>
</g>
<g id="Frames-24px">
	<rect fill="none" width="24" height="24"/>
</g>
</svg>
