<?xml version="1.0" encoding="utf-8"?>
<!-- Generator: Adobe Illustrator 16.0.3, SVG Export Plug-In . SVG Version: 6.00 Build 0)  -->
<!DOCTYPE svg PUBLIC "-//W3C//DTD SVG 1.1//EN" "http://www.w3.org/Graphics/SVG/1.1/DTD/svg11.dtd">
<svg version="1.1" xmlns="http://www.w3.org/2000/svg" xmlns:xlink="http://www.w3.org/1999/xlink" x="0px" y="0px" width="24px"
	 height="24px" viewBox="0 0 24 24" enable-background="new 0 0 24 24" xml:space="preserve">
<g id="Outline_Icons">
	<g>
		<path d="M12,0C5.383,0,0,5.383,0,12s5.383,12,12,12s12-5.383,12-12S18.617,0,12,0z M12,23C5.935,23,1,18.066,1,12
			C1,5.935,5.935,1,12,1s11,4.935,11,11C23,18.066,18.065,23,12,23z"/>
		<path d="M15.197,12.102c1.269-2.066,0.895-4.807-1.01-6.422c-0.902-0.765-2.049-1.186-3.229-1.186
			c-1.473,0-2.864,0.644-3.816,1.767c-1.45,1.711-1.568,4.205-0.32,6.041l-1.283,2.837C5.445,15.342,5.5,15.582,5.67,15.727
			c0.093,0.079,0.208,0.119,0.323,0.119c0.097,0,0.193-0.027,0.278-0.084l2.589-1.73c0.653,0.301,1.372,0.46,2.096,0.46
			c0.454,0,0.899-0.068,1.327-0.187c-0.046,0.196-0.076,0.399-0.079,0.608c-0.018,1.242,0.778,2.354,1.931,2.753l0.393,1.458
			c0.058,0.216,0.252,0.367,0.475,0.37c0.003,0,0.005,0,0.008,0c0.22,0,0.415-0.144,0.479-0.354l0.438-1.445
			c1.165-0.365,1.994-1.453,2.013-2.695c0.012-0.765-0.275-1.489-0.809-2.039C16.625,12.44,15.954,12.144,15.197,12.102z
			 M9.062,13.013c-0.162-0.087-0.362-0.08-0.515,0.024l-1.377,0.92l0.682-1.508c0.077-0.168,0.054-0.366-0.06-0.513
			c-1.148-1.482-1.101-3.598,0.112-5.029c0.763-0.898,1.875-1.414,3.054-1.414c0.944,0,1.861,0.337,2.583,0.948
			c1.681,1.426,1.889,3.955,0.465,5.637c-0.156,0.184-0.335,0.34-0.519,0.491c-0.066,0.045-0.123,0.102-0.186,0.151
			c-0.677,0.491-1.492,0.77-2.346,0.77C10.295,13.491,9.64,13.325,9.062,13.013z M15.434,16.788
			c-0.182,0.036-0.329,0.168-0.383,0.346l-0.013,0.042l-0.012-0.042c-0.048-0.179-0.191-0.316-0.371-0.357
			c-0.854-0.195-1.464-0.972-1.451-1.849c0.009-0.541,0.255-1.022,0.637-1.359c0.085-0.061,0.169-0.124,0.251-0.19
			c0.292-0.181,0.636-0.29,1.008-0.29c0.499,0.008,0.965,0.209,1.312,0.568c0.348,0.357,0.534,0.83,0.526,1.328
			C16.926,15.861,16.293,16.62,15.434,16.788z"/>
	</g>
</g>
<g id="Frames-24px">
	<rect fill="none" width="24" height="24"/>
</g>
</svg>
