<?xml version="1.0" encoding="utf-8"?>
<!-- Generator: Adobe Illustrator 16.0.3, SVG Export Plug-In . SVG Version: 6.00 Build 0)  -->
<!DOCTYPE svg PUBLIC "-//W3C//DTD SVG 1.1//EN" "http://www.w3.org/Graphics/SVG/1.1/DTD/svg11.dtd">
<svg version="1.1" xmlns="http://www.w3.org/2000/svg" xmlns:xlink="http://www.w3.org/1999/xlink" x="0px" y="0px" width="24px"
	 height="24px" viewBox="0 0 24 24" enable-background="new 0 0 24 24" xml:space="preserve">
<g id="Outline_Icons">
	<g>
		<path d="M12,5c-3.859,0-7,3.14-7,7c0,3.86,3.141,7,7,7s7-3.14,7-7C19,8.14,15.859,5,12,5z M16.785,8.396
			c0.742,0.982,1.19,2.197,1.21,3.515c-0.456-0.054-1.06-0.11-1.647-0.11c-0.856,0-1.701,0.084-2.529,0.234
			c-0.175-0.457-0.368-0.905-0.591-1.34C14.513,10.119,15.71,9.348,16.785,8.396z M16.121,7.65
			c-1.023,0.905-2.165,1.634-3.391,2.173c-0.769-1.27-1.746-2.416-2.908-3.409C10.499,6.15,11.231,6,12,6
			C13.596,6,15.045,6.63,16.121,7.65z M8.854,6.9c1.178,0.943,2.165,2.054,2.938,3.292c-1.372,0.479-2.823,0.743-4.312,0.743
			c-0.455,0-0.912-0.032-1.366-0.078C6.436,9.187,7.455,7.767,8.854,6.9z M6.008,11.85c0.489,0.05,0.98,0.084,1.471,0.084
			c1.666,0,3.289-0.304,4.815-0.86c0.2,0.385,0.374,0.781,0.534,1.185c-2.139,0.551-4.12,1.602-5.802,3.094
			C6.379,14.396,6,13.241,6,12C6,11.949,6.006,11.9,6.008,11.85z M7.657,16.129c1.59-1.42,3.471-2.413,5.502-2.921
			c0.383,1.239,0.602,2.538,0.602,3.879c0,0.221-0.014,0.438-0.024,0.655C13.186,17.908,12.604,18,12,18
			C10.291,18,8.751,17.279,7.657,16.129z M14.752,17.326c0.001-0.08,0.009-0.158,0.009-0.239c0-1.413-0.228-2.782-0.622-4.089
			c0.725-0.124,1.461-0.197,2.209-0.197c0.442,0,1.007,0.04,1.576,0.107C17.629,14.834,16.421,16.46,14.752,17.326z"/>
		<path d="M12,0C5.383,0,0,5.383,0,12s5.383,12,12,12s12-5.383,12-12S18.617,0,12,0z M12,23C5.935,23,1,18.066,1,12
			C1,5.935,5.935,1,12,1s11,4.935,11,11C23,18.066,18.065,23,12,23z"/>
	</g>
</g>
<g id="Frames-24px">
	<rect fill="none" width="24" height="24"/>
</g>
</svg>
