<?xml version="1.0" encoding="utf-8"?>
<!-- Generator: Adobe Illustrator 16.0.3, SVG Export Plug-In . SVG Version: 6.00 Build 0)  -->
<!DOCTYPE svg PUBLIC "-//W3C//DTD SVG 1.1//EN" "http://www.w3.org/Graphics/SVG/1.1/DTD/svg11.dtd">
<svg version="1.1" xmlns="http://www.w3.org/2000/svg" xmlns:xlink="http://www.w3.org/1999/xlink" x="0px" y="0px" width="24px"
	 height="24px" viewBox="0 0 24 24" enable-background="new 0 0 24 24" xml:space="preserve">
<g id="Outline_Icons">
	<path d="M20,14h-3.5h-0.832c-0.237-0.668-0.618-1.254-1.108-1.727l3.614-7.834c0.375-0.813,0.374-1.746-0.004-2.56
		c-0.379-0.812-1.091-1.413-1.954-1.649c-0.858-0.234-1.792-0.075-2.522,0.426c-0.74,0.506-1.216,1.308-1.306,2.198l-0.835,8.156
		c-0.032,0-0.063-0.008-0.096-0.008c-0.086,0-0.169,0.017-0.254,0.021L10.797,2.97c-0.044-0.896-0.479-1.721-1.19-2.265
		C8.906,0.17,7.976-0.039,7.109,0.15C6.234,0.342,5.492,0.906,5.073,1.697c-0.42,0.79-0.47,1.721-0.137,2.554l3.266,8.162
		C7.781,12.859,7.461,13.4,7.247,14H6.5H3c-0.276,0-0.5,0.224-0.5,0.5S2.724,15,3,15h3v6.5C6,22.879,7.121,24,8.5,24h6
		c1.379,0,2.5-1.121,2.5-2.5V15h3c0.276,0,0.5-0.224,0.5-0.5S20.276,14,20,14z M12.544,11.146l0.838-8.189
		c0.061-0.598,0.38-1.136,0.877-1.476c0.491-0.337,1.118-0.442,1.693-0.285c0.579,0.158,1.057,0.562,1.312,1.107
		c0.253,0.546,0.254,1.172,0.002,1.717l-3.516,7.621c-0.02-0.012-0.04-0.019-0.06-0.029c-0.119-0.069-0.243-0.127-0.368-0.185
		c-0.077-0.035-0.153-0.071-0.232-0.103c-0.144-0.057-0.291-0.103-0.441-0.145C12.613,11.17,12.58,11.154,12.544,11.146z
		 M9.012,11.745L5.864,3.88C5.642,3.321,5.675,2.696,5.956,2.166c0.282-0.531,0.78-0.91,1.367-1.039
		C7.467,1.096,7.613,1.08,7.76,1.08c0.445,0,0.886,0.149,1.239,0.42c0.479,0.365,0.77,0.918,0.8,1.52l0.411,8.165
		c-0.027,0.008-0.052,0.021-0.079,0.03c-0.138,0.043-0.271,0.096-0.402,0.152c-0.07,0.029-0.141,0.059-0.209,0.093
		c-0.157,0.075-0.308,0.161-0.454,0.255C9.048,11.727,9.029,11.733,9.012,11.745z M9.103,12.935c0.009-0.007,0.02-0.01,0.028-0.018
		c0.349-0.317,0.75-0.556,1.178-0.709c0.025-0.01,0.051-0.021,0.077-0.029c0.107-0.036,0.218-0.062,0.328-0.086
		c0.241-0.054,0.488-0.09,0.743-0.09c0.152,0,0.303,0.013,0.451,0.032c0.008,0.002,0.015,0.008,0.023,0.009
		c0.458,0.063,0.893,0.218,1.283,0.446c0.017,0.009,0.034,0.017,0.05,0.026c0.102,0.062,0.197,0.133,0.292,0.204
		c0.438,0.335,0.805,0.767,1.048,1.279H8.311C8.505,13.591,8.778,13.234,9.103,12.935z M14.5,23h-6C7.673,23,7,22.327,7,21.5V18h9
		v3.5C16,22.327,15.327,23,14.5,23z M16,17H7v-2h0.6h7.716H16V17z"/>
</g>
<g id="invisble_shape">
	<rect fill="none" width="24" height="24"/>
</g>
</svg>
