<?xml version="1.0" encoding="utf-8"?>
<!-- Generator: Adobe Illustrator 16.0.3, SVG Export Plug-In . SVG Version: 6.00 Build 0)  -->
<!DOCTYPE svg PUBLIC "-//W3C//DTD SVG 1.1//EN" "http://www.w3.org/Graphics/SVG/1.1/DTD/svg11.dtd">
<svg version="1.1" xmlns="http://www.w3.org/2000/svg" xmlns:xlink="http://www.w3.org/1999/xlink" x="0px" y="0px" width="24px"
	 height="24px" viewBox="0 0 24 24" enable-background="new 0 0 24 24" xml:space="preserve">
<g id="Outline_Icons_1_">
	<g id="Outline_Icons">
	</g>
	<g id="New_icons_1_">
		<g>
			<path d="M21.031,18.517l-4.873-1.28c0.694-0.78,1.215-1.736,1.322-2.842c0.604-0.207,1.013-0.814,1.106-1.604
				C20.843,12.228,22,11.459,22,10.5c0-1.194-1.855-2.041-4.42-2.524l0.915-6.405c0.033-0.228-0.095-0.449-0.31-0.534
				c-3.468-1.389-8.903-1.389-12.371,0C5.6,1.121,5.472,1.343,5.505,1.57L6.42,7.976C3.855,8.459,2,9.306,2,10.5
				c0,0.959,1.157,1.728,3.414,2.29c0.093,0.79,0.502,1.397,1.106,1.604c0.107,1.105,0.627,2.061,1.321,2.841L2.92,18.532
				C1.116,19.209,0,21.638,0,23.5C0,23.776,0.224,24,0.5,24h23c0.276,0,0.5-0.224,0.5-0.5C24,21.638,22.884,19.209,21.031,18.517z
				 M21,10.5c0,0.173-0.486,0.748-2.472,1.273c-0.165-0.594-0.534-1.038-1.028-1.216V8.974C19.789,9.42,21,10.082,21,10.5z
				 M17.448,1.826l-0.506,3.541c-2.992-0.47-6.877-0.471-9.885,0L6.552,1.826C9.652,0.727,14.348,0.727,17.448,1.826z M7.199,6.357
				c2.91-0.457,6.705-0.456,9.602,0l-0.208,1.453C15.165,7.605,13.58,7.5,12,7.5S8.835,7.605,7.407,7.811L7.199,6.357z M3,10.5
				c0-0.418,1.211-1.08,3.5-1.526v1.584c-0.494,0.178-0.864,0.622-1.028,1.216C3.486,11.248,3,10.673,3,10.5z M7,13.473
				c-0.494,0-0.625-0.654-0.625-1c0-0.291,0.072-0.565,0.197-0.754C6.719,11.498,6.887,11.473,7,11.473c0.276,0,0.5-0.224,0.5-0.5
				V8.805C8.755,8.62,10.256,8.5,12,8.5s3.245,0.12,4.5,0.305v2.168c0,0.276,0.224,0.5,0.5,0.5c0.494,0,0.625,0.654,0.625,1
				c0,0.291-0.072,0.565-0.197,0.754c-0.147,0.221-0.314,0.246-0.428,0.246c-0.276,0-0.5,0.224-0.5,0.5
				c0,2.615-3.158,4.527-4.5,4.527s-4.5-1.912-4.5-4.527C7.5,13.696,7.276,13.473,7,13.473z M3.223,19.483L6.6,18.595L7.401,23
				h-6.37C1.205,21.579,2.071,19.918,3.223,19.483z M12,21.641L13.699,23h-3.398L12,21.641z M10,21.96v-1.222l1.018,0.407L10,21.96z
				 M14,21.96l-1.018-0.814L14,20.738V21.96z M14.78,19.586c-0.139-0.093-0.313-0.112-0.466-0.05L12,20.462l-2.314-0.926
				c-0.153-0.062-0.328-0.043-0.466,0.05C9.083,19.679,9,19.834,9,20v3H8.417L7.57,18.34l1.123-0.295
				C9.852,18.977,11.196,19.5,12,19.5c0.804,0,2.147-0.522,3.307-1.455l1.124,0.296L15.583,23H15v-3
				C15,19.834,14.917,19.679,14.78,19.586z M16.599,23l0.801-4.405l3.329,0.873c1.195,0.448,2.066,2.11,2.24,3.532H16.599z"/>
			<path d="M9.5,12.009c0.094-0.013,0.251-0.01,0.363-0.01L10,12l0.137-0.001c0.112,0,0.269-0.003,0.363,0.01
				C10.504,12.28,10.727,12.5,11,12.5c0.276,0,0.5-0.224,0.5-0.5c0-0.298-0.089-0.538-0.266-0.713
				c-0.296-0.294-0.711-0.286-1.105-0.288L10,11l-0.129-0.001c-0.396,0.003-0.809-0.006-1.105,0.288C8.589,11.462,8.5,11.702,8.5,12
				c0,0.276,0.226,0.473,0.502,0.473C9.257,12.473,9.469,12.259,9.5,12.009z"/>
			<path d="M13.002,12.473c0.254,0,0.467-0.214,0.498-0.464c0.094-0.013,0.25-0.01,0.363-0.01L14,12l0.137-0.001
				c0.112,0,0.268-0.003,0.363,0.01C14.504,12.28,14.727,12.5,15,12.5c0.276,0,0.5-0.224,0.5-0.5c0-0.298-0.089-0.538-0.266-0.713
				c-0.296-0.294-0.708-0.286-1.105-0.288L14,11l-0.129-0.001c-0.396,0.003-0.809-0.006-1.105,0.288
				C12.589,11.462,12.5,11.702,12.5,12C12.5,12.276,12.726,12.473,13.002,12.473z"/>
		</g>
	</g>
</g>

</svg>
