<?xml version="1.0" encoding="utf-8"?>
<!-- Generator: Adobe Illustrator 16.0.3, SVG Export Plug-In . SVG Version: 6.00 Build 0)  -->
<!DOCTYPE svg PUBLIC "-//W3C//DTD SVG 1.1//EN" "http://www.w3.org/Graphics/SVG/1.1/DTD/svg11.dtd">
<svg version="1.1" xmlns="http://www.w3.org/2000/svg" xmlns:xlink="http://www.w3.org/1999/xlink" x="0px" y="0px" width="24px"
	 height="24px" viewBox="0 0 24 24" enable-background="new 0 0 24 24" xml:space="preserve">
<g id="Outline_Icons_1_">
	<g id="Outline_Icons">
		<path d="M23.932,11.248l-3.5-6C20.342,5.095,20.178,5,20,5H4C3.822,5,3.658,5.095,3.568,5.248l-3.5,6
			C0.045,11.287,0,11.459,0,11.5v7C0,18.776,0.224,19,0.5,19h23c0.276,0,0.5-0.224,0.5-0.5v-7
			C24,11.459,23.955,11.287,23.932,11.248z M4.287,6h15.426l2.917,5H16.5c-0.133,0-0.26,0.053-0.354,0.146S16,11.368,16,11.5l0,1
			c0,0.827-0.673,1.5-1.5,1.5H10c-0.827,0-1.5-0.673-1.5-1.5v-1C8.5,11.224,8.276,11,8,11H1.371L4.287,6z M23,18H1v-6h6.5v0.5
			c0,1.378,1.122,2.5,2.5,2.5h4.5c1.378,0,2.5-1.122,2.5-2.5l0-0.5h6V18z"/>
	</g>
	<g id="New_icons_1_">
	</g>
</g>

</svg>
