<?xml version="1.0" encoding="utf-8"?>
<!-- Generator: Adobe Illustrator 16.0.3, SVG Export Plug-In . SVG Version: 6.00 Build 0)  -->
<!DOCTYPE svg PUBLIC "-//W3C//DTD SVG 1.1//EN" "http://www.w3.org/Graphics/SVG/1.1/DTD/svg11.dtd">
<svg version="1.1" xmlns="http://www.w3.org/2000/svg" xmlns:xlink="http://www.w3.org/1999/xlink" x="0px" y="0px" width="24px"
	 height="24px" viewBox="0 0 24 24" enable-background="new 0 0 24 24" xml:space="preserve">
<g id="Outline_Icons_1_">
	<g id="Outline_Icons">
		<g>
			<path d="M20.5,5H5V3h2.5C7.776,3,8,2.776,8,2.5v-2C8,0.224,7.776,0,7.5,0h-3C4.224,0,4,0.224,4,0.5V5H3.5C1.57,5,0,6.57,0,8.5v9
				C0,17.776,0.224,18,0.5,18H13v5.5c0,0.276,0.224,0.5,0.5,0.5s0.5-0.224,0.5-0.5V18h9.5c0.276,0,0.5-0.224,0.5-0.5v-9
				C24,6.57,22.43,5,20.5,5z M5,1h2v1H5V1z M1,8.5C1,7.122,2.122,6,3.5,6S6,7.122,6,8.5V17H1V8.5z M23,17H7V8.5
				C7,7.521,6.593,6.636,5.941,6H20.5C21.878,6,23,7.122,23,8.5V17z"/>
			<path d="M4.5,15h-2C2.224,15,2,15.224,2,15.5S2.224,16,2.5,16h2C4.776,16,5,15.776,5,15.5S4.776,15,4.5,15z"/>
		</g>
	</g>
	<g id="New_icons_1_">
	</g>
</g>

</svg>
