<?xml version="1.0" encoding="utf-8"?>
<!-- Generator: Adobe Illustrator 16.0.3, SVG Export Plug-In . SVG Version: 6.00 Build 0)  -->
<!DOCTYPE svg PUBLIC "-//W3C//DTD SVG 1.1//EN" "http://www.w3.org/Graphics/SVG/1.1/DTD/svg11.dtd">
<svg version="1.1" xmlns="http://www.w3.org/2000/svg" xmlns:xlink="http://www.w3.org/1999/xlink" x="0px" y="0px" width="24px"
	 height="24px" viewBox="0 0 24 24" enable-background="new 0 0 24 24" xml:space="preserve">
<g id="Outline_Icons_1_">
	<g id="Outline_Icons">
		<g>
			<path d="M11.5,8c2.206,0,4-1.794,4-4s-1.794-4-4-4s-4,1.794-4,4S9.294,8,11.5,8z M11.5,1c1.654,0,3,1.346,3,3s-1.346,3-3,3
				s-3-1.346-3-3S9.846,1,11.5,1z"/>
			<path d="M17,9H6C5.724,9,5.5,9.224,5.5,9.5c0,4.828,2.083,6.923,3.5,7.789V23.5C9,23.776,9.224,24,9.5,24h4
				c0.276,0,0.5-0.224,0.5-0.5v-6.211c1.417-0.866,3.5-2.962,3.5-7.789C17.5,9.224,17.276,9,17,9z M13.262,16.561
				C13.101,16.648,13,16.816,13,17v6h-3v-6c0-0.184-0.101-0.352-0.262-0.439C7.753,15.485,6.616,13.166,6.508,10h9.983
				C16.384,13.166,15.247,15.484,13.262,16.561z"/>
		</g>
	</g>
	<g id="New_icons_1_">
	</g>
</g>

</svg>
