<?xml version="1.0" encoding="utf-8"?>
<!-- Generator: Adobe Illustrator 16.0.3, SVG Export Plug-In . SVG Version: 6.00 Build 0)  -->
<!DOCTYPE svg PUBLIC "-//W3C//DTD SVG 1.1//EN" "http://www.w3.org/Graphics/SVG/1.1/DTD/svg11.dtd">
<svg version="1.1" xmlns="http://www.w3.org/2000/svg" xmlns:xlink="http://www.w3.org/1999/xlink" x="0px" y="0px" width="24px"
	 height="24px" viewBox="0 0 24 24" enable-background="new 0 0 24 24" xml:space="preserve">
<g id="Outline_Icons">
	<path d="M20.5,6C21.878,6,23,4.878,23,3.5S21.878,1,20.5,1S18,2.122,18,3.5c0,0.66,0.262,1.257,0.681,1.704l-1.418,2.002
		l-2.289-6.865C14.906,0.138,14.715,0,14.5,0h-5C9.285,0,9.094,0.138,9.026,0.342l-7,21C1.975,21.494,2,21.662,2.094,21.792
		C2.188,21.923,2.339,22,2.5,22H4v1.5C4,23.776,4.224,24,4.5,24S5,23.776,5,23.5V22h14v1.5c0,0.276,0.224,0.5,0.5,0.5
		s0.5-0.224,0.5-0.5V22h1.5c0.006,0,0.013,0,0.02,0c0.276,0,0.5-0.224,0.5-0.5c0-0.104-0.032-0.201-0.087-0.281L17.655,8.383
		l1.84-2.598C19.803,5.922,20.142,6,20.5,6z M9.86,1h4.279l2.406,7.219L11.741,15H5.194l0.667-2h4.64c0.276,0,0.5-0.224,0.5-0.5
		S10.776,12,10.5,12H6.194l0.667-2h3.64c0.276,0,0.5-0.224,0.5-0.5S10.776,9,10.5,9H7.194L7.86,7h2.64C10.776,7,11,6.776,11,6.5
		S10.776,6,10.5,6H8.194L8.86,4h1.64C10.776,4,11,3.776,11,3.5S10.776,3,10.5,3H9.194L9.86,1z M3.194,21l1.667-5H19.14l1.667,5
		H3.194z M18.806,15h-5.839l3.971-5.605L18.806,15z M20.5,2C21.327,2,22,2.673,22,3.5S21.327,5,20.5,5S19,4.327,19,3.5
		S19.673,2,20.5,2z"/>
</g>

</svg>
