<?xml version="1.0" encoding="utf-8"?>
<!-- Generator: Adobe Illustrator 16.0.3, SVG Export Plug-In . SVG Version: 6.00 Build 0)  -->
<!DOCTYPE svg PUBLIC "-//W3C//DTD SVG 1.1//EN" "http://www.w3.org/Graphics/SVG/1.1/DTD/svg11.dtd">
<svg version="1.1" xmlns="http://www.w3.org/2000/svg" xmlns:xlink="http://www.w3.org/1999/xlink" x="0px" y="0px" width="24px"
	 height="24px" viewBox="0 0 24 24" enable-background="new 0 0 24 24" xml:space="preserve">
<g id="Outline_Icons">
	<g>
		<path d="M21.731,0.557c-0.167-0.087-0.365-0.073-0.518,0.034c-1.767,1.234-3.225,1.784-4.727,1.784
			c-1.787,0-3.46-0.806-4.59-2.209c-0.189-0.236-0.606-0.235-0.796,0C9.973,1.569,8.3,2.375,6.513,2.375
			c-1.503,0-2.961-0.55-4.727-1.784C1.635,0.483,1.436,0.47,1.269,0.557C1.104,0.643,1,0.813,1,1v14.812
			c0,0.045,0.006,0.09,0.018,0.133c0.062,0.226,1.626,5.571,10.348,8.016c0.044,0.013,0.09,0.019,0.135,0.019
			s0.091-0.006,0.135-0.019c8.722-2.445,10.285-7.79,10.348-8.016C21.994,15.902,22,15.857,22,15.812V1
			C22,0.813,21.896,0.643,21.731,0.557z M21,15.737c-0.186,0.557-1.905,5.047-9.5,7.223c-7.554-2.165-9.31-6.666-9.5-7.225V1.929
			c1.609,0.996,3.029,1.446,4.513,1.446c1.898,0,3.687-0.775,4.987-2.146c1.301,1.371,3.089,2.146,4.987,2.146
			c1.483,0,2.902-0.45,4.513-1.446V15.737z"/>
		<path d="M14,6.5C14,6.224,13.776,6,13.5,6h-4C9.224,6,9,6.224,9,6.5V9H6.5C6.224,9,6,9.224,6,9.5v4C6,13.776,6.224,14,6.5,14H9
			v2.5C9,16.776,9.224,17,9.5,17h4c0.276,0,0.5-0.224,0.5-0.5V14h2.5c0.276,0,0.5-0.224,0.5-0.5v-4C17,9.224,16.776,9,16.5,9H14V6.5
			z M16,10v3h-2.5c-0.276,0-0.5,0.224-0.5,0.5V16h-3v-2.5c0-0.276-0.224-0.5-0.5-0.5H7v-3h2.5C9.776,10,10,9.776,10,9.5V7h3v2.5
			c0,0.276,0.224,0.5,0.5,0.5H16z"/>
	</g>
</g>

</svg>
