<?xml version="1.0" encoding="utf-8"?>
<!-- Generator: Adobe Illustrator 16.0.3, SVG Export Plug-In . SVG Version: 6.00 Build 0)  -->
<!DOCTYPE svg PUBLIC "-//W3C//DTD SVG 1.1//EN" "http://www.w3.org/Graphics/SVG/1.1/DTD/svg11.dtd">
<svg version="1.1" xmlns="http://www.w3.org/2000/svg" xmlns:xlink="http://www.w3.org/1999/xlink" x="0px" y="0px" width="24px"
	 height="24px" viewBox="0 0 24 24" enable-background="new 0 0 24 24" xml:space="preserve">
<g id="Outline_Icons">
	<path d="M23.642,8.164l-2.5-4.33c-0.065-0.115-0.175-0.199-0.303-0.232c-0.131-0.034-0.266-0.016-0.38,0.049L15,6.803V0.5
		C15,0.224,14.776,0,14.5,0h-5C9.224,0,9,0.224,9,0.5v6.302L3.543,3.651c-0.115-0.065-0.249-0.083-0.38-0.049
		C3.035,3.635,2.926,3.719,2.86,3.834l-2.5,4.33C0.222,8.403,0.304,8.709,0.543,8.848L6,12l-5.457,3.151
		c-0.239,0.138-0.321,0.444-0.183,0.683l2.5,4.33c0.065,0.115,0.175,0.199,0.304,0.232c0.127,0.035,0.265,0.017,0.379-0.049
		L9,17.195V23.5C9,23.776,9.224,24,9.5,24h5c0.276,0,0.5-0.224,0.5-0.5v-6.305l5.459,3.152c0.115,0.065,0.249,0.084,0.38,0.049
		c0.128-0.034,0.237-0.118,0.303-0.232l2.5-4.33c0.066-0.115,0.085-0.251,0.051-0.379c-0.035-0.127-0.118-0.237-0.233-0.304L18,12
		l5.459-3.152C23.698,8.709,23.78,8.403,23.642,8.164z M16.75,11.567C16.596,11.656,16.5,11.821,16.5,12s0.096,0.344,0.25,0.434
		l5.776,3.334l-2,3.463l-5.776-3.335c-0.154-0.088-0.346-0.088-0.5,0C14.096,15.985,14,16.15,14,16.329V23h-4v-6.671
		c0-0.179-0.096-0.344-0.25-0.434c-0.154-0.088-0.346-0.088-0.5,0L3.476,19.23l-2-3.463l5.774-3.334C7.404,12.344,7.5,12.179,7.5,12
		s-0.096-0.344-0.25-0.433L1.476,8.23l2-3.463L9.25,8.102c0.154,0.089,0.346,0.089,0.5,0C9.904,8.012,10,7.847,10,7.668V1h4v6.669
		c0,0.179,0.096,0.344,0.25,0.433c0.154,0.089,0.346,0.089,0.5,0l5.776-3.334l2,3.463L16.75,11.567z"/>
</g>

</svg>
