<?xml version="1.0" encoding="utf-8"?>
<!-- Generator: Adobe Illustrator 16.0.3, SVG Export Plug-In . SVG Version: 6.00 Build 0)  -->
<!DOCTYPE svg PUBLIC "-//W3C//DTD SVG 1.1//EN" "http://www.w3.org/Graphics/SVG/1.1/DTD/svg11.dtd">
<svg version="1.1" xmlns="http://www.w3.org/2000/svg" xmlns:xlink="http://www.w3.org/1999/xlink" x="0px" y="0px" width="24px"
	 height="24px" viewBox="0 0 24 24" enable-background="new 0 0 24 24" xml:space="preserve">
<g id="Outline_Icons">
	<path d="M23.5,8H22V7.493c0-0.225-0.15-0.422-0.367-0.481l-2.96-0.818c-0.376-0.133-0.771-0.2-1.173-0.2
		c-1.761,0-3.208,1.312-3.45,3.007h-3.221C12.404,8.226,13.5,6.62,13.5,4.75C13.5,2.131,11.369,0,8.75,0S4,2.131,4,4.75
		c0,1.881,1.108,3.496,2.698,4.265C6.688,9.021,6.676,9.026,6.665,9.033C6.612,9.015,6.559,9,6.5,9C2.916,9,0,11.916,0,15.5
		C0,15.776,0.224,16,0.5,16S1,15.776,1,15.5c0-2.717,1.983-4.975,4.577-5.416C5.215,10.635,5,11.292,5,12v3
		c0,0.82,0.306,1.508,0.824,2.023c-0.227,0.575-0.404,1.358-0.536,1.998C4.562,19.125,4,19.745,4,20.5V21H3.5
		C2.673,21,2,21.673,2,22.5S2.673,24,3.5,24h3C7.327,24,8,23.327,8,22.5c0-0.651-0.419-1.201-1-1.408V20.5
		c0-0.545-0.295-1.019-0.731-1.281c0.107-0.521,0.244-1.126,0.405-1.607C7.192,17.855,7.804,18,8.5,18s1.308-0.145,1.826-0.389
		c0.161,0.481,0.298,1.087,0.405,1.607C10.295,19.481,10,19.955,10,20.5v0.592c-0.581,0.207-1,0.757-1,1.408
		c0,0.827,0.673,1.5,1.5,1.5h3c0.827,0,1.5-0.673,1.5-1.5S14.327,21,13.5,21H13v-0.5c0-0.755-0.562-1.375-1.288-1.479
		c-0.132-0.64-0.31-1.423-0.536-1.998C11.695,16.508,12,15.82,12,15v-3c0-0.744-0.237-1.432-0.636-2h2.688
		c0.248,1.688,1.692,2.993,3.448,2.993c0.399,0,0.792-0.067,1.133-0.189l3-0.829C21.85,11.915,22,11.718,22,11.493V11h1.5
		c0.276,0,0.5-0.224,0.5-0.5v-2C24,8.224,23.776,8,23.5,8z M11,14H6v-2c0-1.379,1.121-2.5,2.5-2.5S11,10.621,11,12V14z M8,5
		C7.725,5,7.5,4.775,7.5,4.5S7.725,4,8,4s0.5,0.225,0.5,0.5S8.275,5,8,5z M9,8.475V5.61C9.184,5.445,9.323,5.236,9.408,5h3.066
		C12.349,6.865,10.865,8.349,9,8.475z M5,4.75C5,2.683,6.683,1,8.75,1c1.811,0,3.325,1.291,3.674,3H9.408C9.201,3.419,8.651,3,8,3
		C7.173,3,6.5,3.673,6.5,4.5S7.173,6,8,6v2.424C6.291,8.075,5,6.561,5,4.75z M5,20.5C5,20.225,5.225,20,5.5,20S6,20.225,6,20.5V21H5
		V20.5z M6.5,23h-3C3.225,23,3,22.775,3,22.5S3.225,22,3.5,22h3C6.775,22,7,22.225,7,22.5S6.775,23,6.5,23z M6,15h5
		c0,1.475-1.291,2-2.5,2S6,16.475,6,15z M14,22.5c0,0.275-0.225,0.5-0.5,0.5h-3c-0.275,0-0.5-0.225-0.5-0.5s0.225-0.5,0.5-0.5h3
		C13.775,22,14,22.225,14,22.5z M12,20.5V21h-1v-0.5c0-0.275,0.225-0.5,0.5-0.5S12,20.225,12,20.5z M21,11.112l-2.666,0.738
		c-0.268,0.095-0.549,0.143-0.834,0.143c-1.379,0-2.5-1.121-2.5-2.5s1.121-2.5,2.5-2.5c0.288,0,0.57,0.048,0.873,0.153L21,7.874
		V11.112z M23,10h-1V9h1V10z"/>
</g>

</svg>
