<?xml version="1.0" encoding="utf-8"?>
<!-- Generator: Adobe Illustrator 16.0.3, SVG Export Plug-In . SVG Version: 6.00 Build 0)  -->
<!DOCTYPE svg PUBLIC "-//W3C//DTD SVG 1.1//EN" "http://www.w3.org/Graphics/SVG/1.1/DTD/svg11.dtd">
<svg version="1.1" xmlns="http://www.w3.org/2000/svg" xmlns:xlink="http://www.w3.org/1999/xlink" x="0px" y="0px" width="24px"
	 height="24px" viewBox="0 0 24 24" enable-background="new 0 0 24 24" xml:space="preserve">
<g id="Outline_Icons">
	<g>
		<path d="M16.5,2H14V0.5C14,0.224,13.776,0,13.5,0h-3C10.224,0,10,0.224,10,0.5V2H7.5C6.122,2,5,3.122,5,4.5v1V24h1V6h12v18h1V5.5
			v-1C19,3.122,17.878,2,16.5,2z M11,1h2v1h-2V1z M6,4.5C6,3.673,6.673,3,7.5,3h3h3h3C17.327,3,18,3.673,18,4.5V5H6V4.5z"/>
		<path d="M14.5,10c0-1.378-1.122-2.5-2.5-2.5S9.5,8.622,9.5,10s1.122,2.5,2.5,2.5S14.5,11.378,14.5,10z M10.5,10
			c0-0.827,0.673-1.5,1.5-1.5s1.5,0.673,1.5,1.5s-0.673,1.5-1.5,1.5S10.5,10.827,10.5,10z"/>
		<path d="M15.5,13h-7C8.224,13,8,13.224,8,13.5c0,3.999,1.001,4.985,2,5.858V23.5c0,0.276,0.224,0.5,0.5,0.5h3
			c0.276,0,0.5-0.224,0.5-0.5v-4.131c1.052-0.865,2-1.854,2-5.869C16,13.224,15.776,13,15.5,13z M13.186,18.742
			C13.068,18.838,13,18.98,13,19.131V23h-2v-3.869c0-0.144-0.062-0.281-0.171-0.376l-0.084-0.073C9.89,17.937,9.08,17.231,9.005,14
			h5.989C14.922,17.335,14.114,17.99,13.186,18.742z"/>
		<path d="M23.479,15h-2.958c-0.276,0-0.5,0.224-0.5,0.5s0.224,0.5,0.5,0.5h2.958c0.276,0,0.5-0.224,0.5-0.5S23.755,15,23.479,15z"
			/>
		<path d="M20.5,12.312c0.068,0,0.138-0.014,0.204-0.044l2.646-1.187c0.252-0.113,0.365-0.409,0.251-0.66
			c-0.113-0.252-0.409-0.364-0.661-0.252l-2.646,1.187c-0.252,0.113-0.365,0.409-0.251,0.661
			C20.127,12.202,20.309,12.312,20.5,12.312z"/>
		<path d="M23.351,19.878l-2.646-1.188c-0.253-0.112-0.548,0-0.661,0.251c-0.113,0.252,0,0.548,0.251,0.661l2.646,1.188
			c0.067,0.03,0.136,0.044,0.205,0.044c0.191,0,0.374-0.11,0.457-0.295C23.715,20.287,23.602,19.991,23.351,19.878z"/>
		<path d="M3.479,16c0.276,0,0.5-0.224,0.5-0.5S3.755,15,3.479,15H0.521c-0.276,0-0.5,0.224-0.5,0.5s0.224,0.5,0.5,0.5H3.479z"/>
		<path d="M3.705,11.356L1.058,10.17c-0.252-0.112-0.548,0-0.661,0.252c-0.113,0.251,0,0.547,0.251,0.66l2.646,1.187
			c0.066,0.03,0.136,0.044,0.204,0.044c0.191,0,0.374-0.11,0.457-0.295C4.069,11.766,3.957,11.469,3.705,11.356z"/>
		<path d="M3.295,18.689l-2.646,1.188c-0.252,0.113-0.365,0.409-0.251,0.661c0.083,0.186,0.266,0.295,0.457,0.295
			c0.068,0,0.138-0.014,0.204-0.044l2.646-1.188c0.252-0.113,0.365-0.409,0.251-0.661C3.843,18.688,3.547,18.576,3.295,18.689z"/>
	</g>
</g>

</svg>
