<?xml version="1.0" encoding="utf-8"?>
<!-- Generator: Adobe Illustrator 16.0.3, SVG Export Plug-In . SVG Version: 6.00 Build 0)  -->
<!DOCTYPE svg PUBLIC "-//W3C//DTD SVG 1.1//EN" "http://www.w3.org/Graphics/SVG/1.1/DTD/svg11.dtd">
<svg version="1.1" xmlns="http://www.w3.org/2000/svg" xmlns:xlink="http://www.w3.org/1999/xlink" x="0px" y="0px" width="24px"
	 height="24px" viewBox="0 0 24 24" enable-background="new 0 0 24 24" xml:space="preserve">
<g id="Outline_Icons">
	<g>
		<path d="M5,11.328V21.5C5,22.878,6.121,24,7.5,24h9c1.379,0,2.5-1.122,2.5-2.5V11.328c0-0.057-0.013-0.11-0.017-0.166l1.496-5.02
			c0.078-0.265-0.072-0.543-0.337-0.622c-0.267-0.077-0.542,0.073-0.622,0.337l-1.144,3.836c-0.037-0.043-0.068-0.092-0.109-0.133
			L16,7.293V5h1.5C17.776,5,18,4.776,18,4.5C18,2.57,16.43,1,14.5,1h-5C7.57,1,6,2.57,6,4.5C6,4.776,6.224,5,6.5,5H8v2.293
			L5.732,9.561C5.691,9.602,5.66,9.65,5.623,9.693L4.479,5.857c-0.08-0.264-0.353-0.415-0.622-0.337
			C3.593,5.6,3.442,5.878,3.521,6.143l1.496,5.02C5.013,11.218,5,11.271,5,11.328z M8.707,8h6.586l2,2H6.707L8.707,8z M18,21.5
			c0,0.827-0.673,1.5-1.5,1.5h-9C6.673,23,6,22.327,6,21.5V11.328C6,11.217,6.016,11.107,6.04,11h11.92
			c0.024,0.107,0.04,0.217,0.04,0.328V21.5z M9.5,2h5c1.207,0,2.218,0.86,2.45,2H15.5h-7H7.05C7.282,2.86,8.293,2,9.5,2z M15,5v2H9
			V5H15z"/>
	</g>
</g>

</svg>
