<?xml version="1.0" encoding="utf-8"?>
<!-- Generator: Adobe Illustrator 16.0.3, SVG Export Plug-In . SVG Version: 6.00 Build 0)  -->
<!DOCTYPE svg PUBLIC "-//W3C//DTD SVG 1.1//EN" "http://www.w3.org/Graphics/SVG/1.1/DTD/svg11.dtd">
<svg version="1.1" xmlns="http://www.w3.org/2000/svg" xmlns:xlink="http://www.w3.org/1999/xlink" x="0px" y="0px" width="24px"
	 height="24px" viewBox="0 0 24 24" enable-background="new 0 0 24 24" xml:space="preserve">
<g id="Outline_Icons_1_">
	<g id="Outline_Icons">
		<g>
			<path d="M6.5,14.958c0.276,0,0.5-0.224,0.5-0.5V8h6.484c0.276,0,0.5-0.224,0.5-0.5S13.761,7,13.484,7H7V5c0-0.552,0.449-1,1-1
				h8.479c0.276,0,0.5-0.224,0.5-0.5S16.756,3,16.479,3H8C6.897,3,6,3.897,6,5v9.458C6,14.734,6.224,14.958,6.5,14.958z"/>
			<path d="M17.5,9.021c-0.276,0-0.5,0.224-0.5,0.5V17H9.5C9.224,17,9,17.224,9,17.5S9.224,18,9.5,18H17v1c0,0.552-0.449,1-1,1H7.5
				C7.224,20,7,20.224,7,20.5S7.224,21,7.5,21H16c1.103,0,2-0.897,2-2V9.521C18,9.244,17.776,9.021,17.5,9.021z"/>
			<path d="M10.5,5C10.224,5,10,5.224,10,5.5S10.224,6,10.5,6h3C13.776,6,14,5.776,14,5.5S13.776,5,13.5,5H10.5z"/>
			<path d="M22.354,1.646c-0.195-0.195-0.512-0.195-0.707,0l-20,20c-0.195,0.195-0.195,0.512,0,0.707
				C1.744,22.451,1.872,22.5,2,22.5s0.256-0.049,0.354-0.146l20-20C22.549,2.158,22.549,1.842,22.354,1.646z"/>
		</g>
	</g>
	<g id="New_icons_1_">
	</g>
</g>

</svg>
