<?xml version="1.0" encoding="utf-8"?>
<!-- Generator: Adobe Illustrator 16.0.3, SVG Export Plug-In . SVG Version: 6.00 Build 0)  -->
<!DOCTYPE svg PUBLIC "-//W3C//DTD SVG 1.1//EN" "http://www.w3.org/Graphics/SVG/1.1/DTD/svg11.dtd">
<svg version="1.1" xmlns="http://www.w3.org/2000/svg" xmlns:xlink="http://www.w3.org/1999/xlink" x="0px" y="0px" width="24px"
	 height="24px" viewBox="0 0 24 24" enable-background="new 0 0 24 24" xml:space="preserve">
<g id="Outline_Icons_1_">
	<g id="Outline_Icons">
	</g>
	<g id="New_icons_1_">
		<g>
			<path d="M16.5,0h-9C6.122,0,5,1.121,5,2.5v19C5,22.879,6.122,24,7.5,24h9c1.378,0,2.5-1.121,2.5-2.5v-19
				C19,1.121,17.878,0,16.5,0z M6,5h12v14H6V5z M7.5,1h9C17.327,1,18,1.673,18,2.5V4H6V2.5C6,1.673,6.673,1,7.5,1z M16.5,23h-9
				C6.673,23,6,22.327,6,21.5V20h12v1.5C18,22.327,17.327,23,16.5,23z"/>
			<path d="M9.5,3h5C14.776,3,15,2.776,15,2.5S14.776,2,14.5,2h-5C9.224,2,9,2.224,9,2.5S9.224,3,9.5,3z"/>
			<path d="M12,20.5c-0.551,0-1,0.448-1,1s0.449,1,1,1s1-0.448,1-1S12.551,20.5,12,20.5z M12,21.501L12,21.501l0.5-0.001L12,21.501z
				"/>
			<path d="M12,6.5c-1.93,0-3.5,1.57-3.5,3.5c0,0.276,0.224,0.5,0.5,0.5s0.5-0.224,0.5-0.5c0-1.379,1.122-2.5,2.5-2.5
				s2.5,1.121,2.5,2.5s-1.122,2.5-2.5,2.5c-0.276,0-0.5,0.224-0.5,0.5v1c0,0.276,0.224,0.5,0.5,0.5s0.5-0.224,0.5-0.5v-0.535
				c1.694-0.244,3-1.705,3-3.465C15.5,8.07,13.93,6.5,12,6.5z"/>
			<path d="M12,15.5c-0.551,0-1,0.448-1,1s0.449,1,1,1s1-0.448,1-1S12.551,15.5,12,15.5z M12,16.5L12,16.5h0.5H12z"/>
		</g>
	</g>
</g>

</svg>
