<?xml version="1.0" encoding="utf-8"?>
<!-- Generator: Adobe Illustrator 16.0.3, SVG Export Plug-In . SVG Version: 6.00 Build 0)  -->
<!DOCTYPE svg PUBLIC "-//W3C//DTD SVG 1.1//EN" "http://www.w3.org/Graphics/SVG/1.1/DTD/svg11.dtd">
<svg version="1.1" xmlns="http://www.w3.org/2000/svg" xmlns:xlink="http://www.w3.org/1999/xlink" x="0px" y="0px" width="24px"
	 height="24px" viewBox="0 0 24 24" enable-background="new 0 0 24 24" xml:space="preserve">
<g id="Outline_Icons">
	<g>
		<path d="M12.5,14.5c0.552,0,1,0.449,1,1c0,0.276,0.224,0.5,0.5,0.5s0.5-0.224,0.5-0.5c0-0.929-0.64-1.706-1.5-1.929V13
			c0-0.276-0.224-0.5-0.5-0.5S12,12.724,12,13v0.571c-0.86,0.223-1.5,1-1.5,1.929c0,1.103,0.897,2,2,2c0.552,0,1,0.449,1,1
			s-0.448,1-1,1s-1-0.449-1-1c0-0.276-0.224-0.5-0.5-0.5s-0.5,0.224-0.5,0.5c0,0.929,0.64,1.706,1.5,1.929V21
			c0,0.276,0.224,0.5,0.5,0.5S13,21.276,13,21v-0.571c0.86-0.223,1.5-1,1.5-1.929c0-1.103-0.897-2-2-2c-0.552,0-1-0.449-1-1
			S11.948,14.5,12.5,14.5z"/>
		<path d="M15.077,10.098C14.991,10.035,14.887,10,14.78,10H9.22c-0.106,0-0.211,0.035-0.297,0.098C6.503,11.883,4,15.327,4,18
			c0,4.093,2.542,6,8,6s8-1.907,8-6C20,15.326,17.497,11.882,15.077,10.098z M12,23c-6.168,0-7-2.527-7-5c0-2.28,2.252-5.37,4.387-7
			h5.227C16.748,12.63,19,15.719,19,18C19,20.473,18.168,23,12,23z"/>
		<path d="M8.5,8C8.224,8,8,8.224,8,8.5S8.224,9,8.5,9h7C15.776,9,16,8.776,16,8.5S15.776,8,15.5,8H8.5z"/>
		<path d="M9,6.5C9,6.776,9.224,7,9.5,7h5C14.776,7,15,6.776,15,6.5c0-1.824,1.896-4.693,1.916-4.723
			c0.123-0.184,0.109-0.427-0.032-0.597c-0.141-0.169-0.38-0.227-0.581-0.14l-3.028,1.298l-0.811-2.024
			c-0.15-0.38-0.777-0.38-0.928,0l-0.811,2.024L7.697,1.041c-0.203-0.087-0.44-0.03-0.581,0.14C6.975,1.35,6.961,1.593,7.084,1.777
			C7.104,1.807,9,4.676,9,6.5z M10.803,3.459c0.125,0.053,0.264,0.054,0.389,0.002c0.124-0.051,0.223-0.151,0.272-0.276L12,1.847
			l0.536,1.339c0.05,0.125,0.148,0.225,0.272,0.276c0.125,0.051,0.264,0.05,0.389-0.002l2.096-0.898
			c-0.514,0.959-1.114,2.28-1.26,3.439H9.967c-0.146-1.159-0.746-2.479-1.26-3.439L10.803,3.459z"/>
	</g>
</g>

</svg>
