<?xml version="1.0" encoding="utf-8"?>
<!-- Generator: Adobe Illustrator 16.0.3, SVG Export Plug-In . SVG Version: 6.00 Build 0)  -->
<!DOCTYPE svg PUBLIC "-//W3C//DTD SVG 1.1//EN" "http://www.w3.org/Graphics/SVG/1.1/DTD/svg11.dtd">
<svg version="1.1" xmlns="http://www.w3.org/2000/svg" xmlns:xlink="http://www.w3.org/1999/xlink" x="0px" y="0px" width="24px"
	 height="24px" viewBox="0 0 24 24" enable-background="new 0 0 24 24" xml:space="preserve">
<g id="Outline_Icons_1_">
	<g>
		<path d="M22.337,19.836c-0.06-0.268-0.315-0.435-0.597-0.38l-4.872,1.078c4.593-4.98,4.921-12.72,0.538-17.887
			c-0.178-0.211-0.493-0.236-0.704-0.058c-0.211,0.178-0.236,0.493-0.058,0.704c4.125,4.866,3.726,12.198-0.748,16.802l0.354-5.354
			c0.019-0.275-0.19-0.514-0.466-0.532c-0.265-0.018-0.514,0.19-0.532,0.466l-0.441,6.682c-0.022,0.325,0.274,0.594,0.607,0.521
			l6.539-1.446C22.227,20.373,22.396,20.106,22.337,19.836z"/>
		<path d="M10.5,22c-0.276,0-0.5,0.224-0.5,0.5V23H9.5C9.224,23,9,23.224,9,23.5S9.224,24,9.5,24h1c0.276,0,0.5-0.224,0.5-0.5v-1
			C11,22.224,10.776,22,10.5,22z"/>
		<path d="M5.5,23H5v-0.5C5,22.224,4.776,22,4.5,22S4,22.224,4,22.5v1C4,23.776,4.224,24,4.5,24h1C5.776,24,6,23.776,6,23.5
			S5.776,23,5.5,23z"/>
		<path d="M10.14,20.149c-0.202,0.227-0.174,0.526,0.01,0.71c0.183,0.183,0.506,0.196,0.71-0.01c0.189-0.208,0.188-0.493-0.01-0.71
			C10.649,19.96,10.37,19.939,10.14,20.149z"/>
		<path d="M7.149,23.149c-0.202,0.185-0.197,0.513,0,0.71c0.175,0.175,0.476,0.206,0.71-0.01c0.205-0.226,0.173-0.535-0.01-0.7
			C7.66,22.96,7.319,22.97,7.149,23.149z"/>
		<path d="M7.14,17.149c-0.183,0.185-0.193,0.507,0.01,0.71c0.175,0.175,0.476,0.206,0.71-0.01c0.179-0.196,0.2-0.479-0.01-0.71
			C7.66,16.96,7.34,16.96,7.14,17.149z"/>
		<path d="M5.5,17h-1C4.224,17,4,17.224,4,17.5v1C4,18.776,4.224,19,4.5,19S5,18.776,5,18.5V18h0.5C5.776,18,6,17.776,6,17.5
			S5.776,17,5.5,17z"/>
		<path d="M10.5,17h-1C9.224,17,9,17.224,9,17.5S9.224,18,9.5,18H10v0.5c0,0.276,0.224,0.5,0.5,0.5s0.5-0.224,0.5-0.5v-1
			C11,17.224,10.776,17,10.5,17z"/>
		<path d="M4.85,20.85c0.183-0.163,0.22-0.469,0-0.71c-0.189-0.18-0.5-0.189-0.71,0.01c-0.187,0.188-0.189,0.521,0.01,0.7
			C4.322,21.041,4.641,21.059,4.85,20.85z"/>
		<path d="M10.5,14c-0.276,0-0.5,0.224-0.5,0.5V15H9.5C9.224,15,9,15.224,9,15.5S9.224,16,9.5,16h1c0.276,0,0.5-0.224,0.5-0.5v-1
			C11,14.224,10.776,14,10.5,14z"/>
		<path d="M5.5,15H5v-0.5C5,14.224,4.776,14,4.5,14S4,14.224,4,14.5v1C4,15.776,4.224,16,4.5,16h1C5.776,16,6,15.776,6,15.5
			S5.776,15,5.5,15z"/>
		<path d="M10.149,12.149c-0.2,0.183-0.198,0.521,0,0.7c0.182,0.201,0.521,0.2,0.7,0c0.199-0.199,0.2-0.498,0-0.7
			C10.67,11.96,10.33,11.96,10.149,12.149z"/>
		<path d="M7.149,15.14c-0.188,0.17-0.207,0.513-0.01,0.71c0.233,0.208,0.519,0.191,0.71,0c0.2-0.179,0.201-0.519,0-0.7
			C7.67,14.96,7.319,14.97,7.149,15.14z"/>
		<path d="M7.14,9.149c-0.173,0.175-0.205,0.475,0.01,0.71c0.226,0.204,0.528,0.174,0.71-0.01c0.187-0.185,0.188-0.512,0-0.7
			C7.68,8.96,7.35,8.95,7.14,9.149z"/>
		<path d="M5.5,9h-1C4.224,9,4,9.224,4,9.5v1C4,10.776,4.224,11,4.5,11S5,10.776,5,10.5V10h0.5C5.776,10,6,9.776,6,9.5
			S5.776,9,5.5,9z"/>
		<path d="M10.5,9h-1C9.224,9,9,9.224,9,9.5S9.224,10,9.5,10H10v0.5c0,0.276,0.224,0.5,0.5,0.5s0.5-0.224,0.5-0.5v-1
			C11,9.224,10.776,9,10.5,9z"/>
		<path d="M4.859,12.85c0.182-0.18,0.197-0.503-0.01-0.71c-0.18-0.18-0.51-0.18-0.71,0.01c-0.183,0.185-0.193,0.507,0.01,0.71
			C4.332,13.042,4.655,13.056,4.859,12.85z"/>
		<path d="M10.5,1h-6C4.224,1,4,1.224,4,1.5v6C4,7.776,4.224,8,4.5,8h6C10.776,8,11,7.776,11,7.5v-6C11,1.224,10.776,1,10.5,1z
			 M10,7H5V2h5V7z"/>
	</g>
</g>

</svg>
