<?xml version="1.0" encoding="utf-8"?>
<!-- Generator: Adobe Illustrator 16.0.3, SVG Export Plug-In . SVG Version: 6.00 Build 0)  -->
<!DOCTYPE svg PUBLIC "-//W3C//DTD SVG 1.1//EN" "http://www.w3.org/Graphics/SVG/1.1/DTD/svg11.dtd">
<svg version="1.1" xmlns="http://www.w3.org/2000/svg" xmlns:xlink="http://www.w3.org/1999/xlink" x="0px" y="0px" width="24px"
	 height="24px" viewBox="0 0 24 24" enable-background="new 0 0 24 24" xml:space="preserve">
<g id="Outline_Icons">
	<g>
		<path d="M18.988,11.952c-0.599-0.839-2.03-1.348-3.665-1.622l-0.825-9.872C14.477,0.199,14.26,0,14,0h-4
			C9.74,0,9.523,0.199,9.502,0.458l-0.825,9.876c-1.634,0.275-3.062,0.783-3.665,1.617c-0.461,0.64-0.632,1.376-0.477,2.098
			l2.137,7.976C6.917,23.169,7.945,24,9.117,24h5.766c1.17,0,2.199-0.831,2.439-1.951l2.148-8.023
			C19.619,13.331,19.448,12.596,18.988,11.952z M11.645,10.073c-0.697,0-1.34,0.024-1.949,0.074L10.46,1h3.08l0.766,9.163
			c-0.27-0.017-0.505-0.024-0.756-0.036c-0.516-0.035-1.032-0.059-1.53-0.059c-0.093,0-0.19,0.006-0.284,0.007
			C11.708,10.074,11.673,10.073,11.645,10.073z M18.499,13.791l-2.148,8.023C16.202,22.502,15.585,23,14.883,23H9.117
			c-0.703,0-1.32-0.498-1.473-1.209l-2.137-7.977c-0.09-0.417,0.022-0.871,0.316-1.278c0.606-0.842,3.043-1.432,5.964-1.462
			c0.501,0.002,1.046,0.018,1.642,0.045c2.36,0.156,4.229,0.691,4.746,1.415C18.469,12.945,18.582,13.4,18.499,13.791z"/>
		<path d="M15.5,13h-7c-0.145,0-0.283,0.062-0.378,0.173c-0.095,0.109-0.138,0.254-0.117,0.397l1,7C9.04,20.817,9.251,21,9.5,21h5
			c0.249,0,0.46-0.183,0.495-0.43l1-7c0.021-0.144-0.022-0.288-0.117-0.397C15.783,13.062,15.645,13,15.5,13z M14.066,20H9.934
			l-0.857-6h5.847L14.066,20z"/>
	</g>
</g>

</svg>
