<?xml version="1.0" encoding="utf-8"?>
<!-- Generator: Adobe Illustrator 16.0.3, SVG Export Plug-In . SVG Version: 6.00 Build 0)  -->
<!DOCTYPE svg PUBLIC "-//W3C//DTD SVG 1.1//EN" "http://www.w3.org/Graphics/SVG/1.1/DTD/svg11.dtd">
<svg version="1.1" xmlns="http://www.w3.org/2000/svg" xmlns:xlink="http://www.w3.org/1999/xlink" x="0px" y="0px" width="24px"
	 height="24px" viewBox="0 0 24 24" enable-background="new 0 0 24 24" xml:space="preserve">
<g id="Outline_Icons_1_">
	<g id="Outline_Icons">
	</g>
	<g id="New_icons_1_">
		<g>
			<path d="M21,12.5v-9C21,3.224,20.776,3,20.5,3h-16C4.224,3,4,3.224,4,3.5v9C4,12.776,4.224,13,4.5,13h16
				C20.776,13,21,12.776,21,12.5z M20,12H5V4h15V12z"/>
			<circle cx="12.5" cy="14.5" r="1"/>
			<path d="M23.469,23H13v-3h6c0.276,0,0.5-0.224,0.5-0.5S19.276,19,19,19h-3.639l-0.667-2H21c1.103,0,2-0.897,2-2V3
				c0-1.103-0.897-2-2-2H4C2.897,1,2,1.897,2,3v12c0,1.103,0.897,2,2,2h6.306L9.64,19H6c-0.276,0-0.5,0.224-0.5,0.5S5.724,20,6,20h6
				v3H1.521c-0.276,0-0.5,0.224-0.5,0.5s0.224,0.5,0.5,0.5h21.947c0.276,0,0.5-0.224,0.5-0.5S23.745,23,23.469,23z M3,15V3
				c0-0.551,0.448-1,1-1h17c0.552,0,1,0.449,1,1v12c0,0.551-0.448,1-1,1H4C3.448,16,3,15.551,3,15z M11.36,17h2.279l0.667,2h-3.613
				L11.36,17z"/>
		</g>
	</g>
</g>

</svg>
