<?xml version="1.0" encoding="utf-8"?>
<!-- Generator: Adobe Illustrator 16.0.3, SVG Export Plug-In . SVG Version: 6.00 Build 0)  -->
<!DOCTYPE svg PUBLIC "-//W3C//DTD SVG 1.1//EN" "http://www.w3.org/Graphics/SVG/1.1/DTD/svg11.dtd">
<svg version="1.1" xmlns="http://www.w3.org/2000/svg" xmlns:xlink="http://www.w3.org/1999/xlink" x="0px" y="0px" width="24px"
	 height="24px" viewBox="0 0 24 24" enable-background="new 0 0 24 24" xml:space="preserve">
<g id="Outline_Icons">
	<g>
		<path d="M20.146,18.646L19,19.793V16c0-0.276-0.224-0.5-0.5-0.5S18,15.724,18,16v3.793l-1.146-1.146
			c-0.195-0.195-0.512-0.195-0.707,0s-0.195,0.512,0,0.707l1.999,2c0.047,0.046,0.103,0.082,0.163,0.107
			C18.37,21.486,18.435,21.5,18.5,21.5s0.13-0.014,0.191-0.039c0.061-0.025,0.116-0.062,0.163-0.107l1.999-2
			c0.195-0.195,0.195-0.512,0-0.707S20.342,18.451,20.146,18.646z"/>
		<path d="M18.5,13c-3.032,0-5.5,2.468-5.5,5.5s2.468,5.5,5.5,5.5s5.5-2.468,5.5-5.5S21.532,13,18.5,13z M18.5,23
			c-2.481,0-4.5-2.019-4.5-4.5s2.019-4.5,4.5-4.5s4.5,2.019,4.5,4.5S20.981,23,18.5,23z"/>
		<path d="M24,11.479c-0.265-6.166-5.117-11.04-11.197-11.439c-0.033-0.005-0.065-0.007-0.1-0.005C12.47,0.021,12.237,0,12,0
			c-0.234,0-0.464,0.021-0.695,0.035c-0.039-0.003-0.076,0-0.115,0.006C5.148,0.447,0.331,5.334,0.03,11.403
			c-0.007,0.032-0.02,0.062-0.02,0.097c0,0.021,0.009,0.038,0.012,0.058C0.017,11.706,0,11.851,0,12
			c0,2.054,0.522,3.988,1.436,5.684c0.008,0.021,0.022,0.037,0.033,0.057c1.932,3.541,5.59,6.014,9.883,6.243
			c0.009,0.001,0.018,0.001,0.026,0.001c0.102,0,0.191-0.037,0.271-0.09c0.009-0.006,0.021-0.003,0.029-0.01
			c0.008-0.006,0.012-0.015,0.019-0.021c0.028-0.023,0.05-0.052,0.072-0.08c0.017-0.022,0.035-0.043,0.048-0.067
			c0.016-0.028,0.022-0.06,0.032-0.091c0.009-0.031,0.02-0.061,0.022-0.093c0.001-0.008,0.006-0.014,0.006-0.021
			c0.001-0.023-0.008-0.044-0.01-0.065c-0.003-0.036-0.005-0.071-0.016-0.105c-0.01-0.033-0.026-0.062-0.043-0.091
			c-0.012-0.021-0.016-0.045-0.03-0.064C10.485,21.461,9.49,19.727,8.759,18H11.5c0.276,0,0.5-0.224,0.5-0.5S11.776,17,11.5,17
			H8.358c-0.611-1.688-0.946-3.359-1.019-5h9.831h0.005H23.5c0.004,0,0.006-0.002,0.01-0.002S23.518,12,23.521,12
			c0.032-0.002,0.061-0.016,0.091-0.022c0.031-0.008,0.063-0.011,0.092-0.022c0.029-0.014,0.052-0.035,0.078-0.053
			c0.026-0.02,0.055-0.034,0.077-0.058c0.023-0.023,0.037-0.053,0.055-0.081c0.017-0.025,0.037-0.049,0.049-0.079
			c0.014-0.033,0.016-0.069,0.021-0.106C23.988,11.552,24,11.527,24,11.5c0-0.004-0.002-0.006-0.002-0.01S24,11.482,24,11.479z
			 M1.051,11c0.166-1.834,0.784-3.536,1.741-5h4.52C6.725,7.611,6.41,9.286,6.374,11H1.051z M8.339,6h7.321
			c0.632,1.593,0.958,3.264,0.997,5h-9.33C7.367,9.283,7.697,7.607,8.339,6z M16.703,6h4.523c0.95,1.459,1.56,3.159,1.726,5h-5.296
			C17.618,9.284,17.297,7.608,16.703,6z M20.495,5h-4.201c-0.598-1.335-1.382-2.615-2.356-3.822C16.564,1.641,18.866,3.026,20.495,5
			z M12.499,1.024c1.137,1.259,2.036,2.587,2.71,3.976H8.793c0.673-1.385,1.571-2.717,2.708-3.975C11.667,1.018,11.831,1,12,1
			C12.168,1,12.332,1.017,12.499,1.024z M10.06,1.182C9.083,2.395,8.305,3.672,7.716,5H3.521C5.147,3.033,7.446,1.65,10.06,1.182z
			 M10.342,22.877C7.165,22.396,4.451,20.566,2.78,18h4.919C8.344,19.632,9.228,21.264,10.342,22.877z M7.336,17H2.203
			C1.436,15.497,1,13.798,1,12h5.387C6.454,13.646,6.77,15.319,7.336,17z"/>
	</g>
</g>

</svg>
