<?xml version="1.0" encoding="utf-8"?>
<!-- Generator: Adobe Illustrator 16.0.3, SVG Export Plug-In . SVG Version: 6.00 Build 0)  -->
<!DOCTYPE svg PUBLIC "-//W3C//DTD SVG 1.1//EN" "http://www.w3.org/Graphics/SVG/1.1/DTD/svg11.dtd">
<svg version="1.1" xmlns="http://www.w3.org/2000/svg" xmlns:xlink="http://www.w3.org/1999/xlink" x="0px" y="0px" width="24px"
	 height="24px" viewBox="0 0 24 24" enable-background="new 0 0 24 24" xml:space="preserve">
<g id="Outline_Icons_1_">
	<g id="Outline_Icons">
	</g>
	<g id="New_icons_1_">
		<g>
			<path d="M19.5,12.5c-0.276,0-0.5,0.224-0.5,0.5v5H4v-5c0-0.276-0.224-0.5-0.5-0.5S3,12.724,3,13v6.912C3,21.063,3.897,22,5,22h6
				v1H8c-0.276,0-0.5,0.224-0.5,0.5S7.724,24,8,24h7c0.276,0,0.5-0.224,0.5-0.5S15.276,23,15,23h-3v-1h6c1.103,0,2-0.937,2-2.088V13
				C20,12.724,19.776,12.5,19.5,12.5z M18,21H5c-0.552,0-1-0.488-1-1.088V19h15v0.912C19,20.512,18.552,21,18,21z"/>
			<path d="M13.854,13.854L17,10.707V12.5c0,0.276,0.224,0.5,0.5,0.5s0.5-0.224,0.5-0.5v-3C18,9.226,17.774,9,17.5,9h-3
				C14.224,9,14,9.224,14,9.5s0.224,0.5,0.5,0.5h1.793l-3.146,3.146c-0.195,0.195-0.195,0.512,0,0.707S13.658,14.049,13.854,13.854z
				"/>
			<path d="M5,9.5v3C5,12.776,5.224,13,5.5,13S6,12.776,6,12.5v-1.793l3.146,3.146c0.195,0.195,0.512,0.195,0.707,0
				s0.195-0.512,0-0.707L6.707,10H8.5C8.776,10,9,9.776,9,9.5S8.776,9,8.5,9h-3C5.226,9,5,9.226,5,9.5z"/>
			<path d="M20.745,4.285C21.21,3.831,21.5,3.2,21.5,2.5C21.5,1.122,20.379,0,19,0s-2.5,1.122-2.5,2.5c0,0.7,0.29,1.331,0.755,1.785
				C15.629,4.867,15,6.259,15,7.5C15,7.776,15.224,8,15.5,8h7C22.776,8,23,7.776,23,7.5C23,6.259,22.371,4.867,20.745,4.285z
				 M17.5,2.5C17.5,1.673,18.173,1,19,1s1.5,0.673,1.5,1.5S19.827,4,19,4S17.5,3.327,17.5,2.5z M16.048,7C16.196,6.21,16.787,5,19,5
				s2.804,1.21,2.952,2H16.048z"/>
			<path d="M8,7.5c0-1.241-0.629-2.633-2.255-3.215C6.21,3.831,6.5,3.2,6.5,2.5C6.5,1.122,5.379,0,4,0S1.5,1.122,1.5,2.5
				c0,0.7,0.29,1.331,0.755,1.785C0.629,4.867,0,6.259,0,7.5C0,7.776,0.224,8,0.5,8h7C7.776,8,8,7.776,8,7.5z M2.5,2.5
				C2.5,1.673,3.173,1,4,1s1.5,0.673,1.5,1.5S4.827,4,4,4S2.5,3.327,2.5,2.5z M1.048,7C1.196,6.21,1.787,5,4,5s2.804,1.21,2.952,2
				H1.048z"/>
		</g>
	</g>
</g>

</svg>
