<?xml version="1.0" encoding="utf-8"?>
<!-- Generator: Adobe Illustrator 16.0.3, SVG Export Plug-In . SVG Version: 6.00 Build 0)  -->
<!DOCTYPE svg PUBLIC "-//W3C//DTD SVG 1.1//EN" "http://www.w3.org/Graphics/SVG/1.1/DTD/svg11.dtd">
<svg version="1.1" xmlns="http://www.w3.org/2000/svg" xmlns:xlink="http://www.w3.org/1999/xlink" x="0px" y="0px" width="24px"
	 height="24px" viewBox="0 0 24 24" enable-background="new 0 0 24 24" xml:space="preserve">
<g id="Outline_Icons_1_">
	<g id="Outline_Icons">
		<g>
			<path d="M18,6c1.654,0,3-1.346,3-3s-1.346-3-3-3s-3,1.346-3,3S16.346,6,18,6z M18,1c1.103,0,2,0.897,2,2c0,1.103-0.897,2-2,2
				s-2-0.897-2-2C16,1.897,16.897,1,18,1z"/>
			<path d="M23.638,7.519l-3.5-1c-0.231-0.063-0.477,0.042-0.585,0.258L18,9.882l-1.553-3.105c-0.109-0.216-0.354-0.321-0.585-0.258
				L13,7.337V0.524C13,0.018,12.512,0,12.005,0C5.273,0,0,5.161,0,11.749C0,18.504,5.369,24,11.968,24C12.481,24,13,23.99,13,23.474
				V16h1.029l0.975,7.564C15.036,23.813,15.249,24,15.5,24h5c0.251,0,0.464-0.187,0.496-0.436L21.97,16h1.53
				c0.276,0,0.5-0.224,0.5-0.5V8C24,7.777,23.852,7.581,23.638,7.519z M1.013,12h5.545c0.057,1.647,0.363,3.321,0.921,5H2.275
				C1.5,15.501,1.052,13.802,1.013,12z M12,11H7.505c0.041-1.363,0.267-2.7,0.687-4H12V11z M6.551,11H1.037
				c0.098-1.436,0.471-2.784,1.07-4h5.063C6.787,8.301,6.589,9.64,6.551,11z M7.51,12H12v5H8.5C7.897,15.314,7.571,13.642,7.51,12z
				 M12,6H8.547c0.707-1.749,1.771-3.421,3.187-4.987C11.823,1.011,11.91,1,12,1V6z M10.321,1.133C9.08,2.664,8.146,4.296,7.518,6
				H2.67C4.319,3.414,7.063,1.604,10.321,1.133z M2.854,18h4.981c0.64,1.636,1.52,3.27,2.634,4.883
				C7.303,22.436,4.561,20.608,2.854,18z M11.968,23c-0.069,0-0.135-0.009-0.203-0.01c-1.222-1.658-2.172-3.327-2.87-4.99H12v5
				C11.989,23,11.979,23,11.968,23z M23,15h-1.47c-0.251,0-0.464,0.187-0.496,0.436L20.061,23h-4.121l-0.975-7.564
				C14.933,15.187,14.72,15,14.469,15H13V8.377l2.738-0.782l1.814,3.629c0.17,0.339,0.725,0.339,0.895,0l1.814-3.629L23,8.377V15z"
				/>
		</g>
	</g>
	<g id="New_icons_1_">
	</g>
</g>

</svg>
