<?xml version="1.0" encoding="utf-8"?>
<!-- Generator: Adobe Illustrator 16.0.3, SVG Export Plug-In . SVG Version: 6.00 Build 0)  -->
<!DOCTYPE svg PUBLIC "-//W3C//DTD SVG 1.1//EN" "http://www.w3.org/Graphics/SVG/1.1/DTD/svg11.dtd">
<svg version="1.1" xmlns="http://www.w3.org/2000/svg" xmlns:xlink="http://www.w3.org/1999/xlink" x="0px" y="0px" width="24px"
	 height="24px" viewBox="0 0 24 24" enable-background="new 0 0 24 24" xml:space="preserve">
<g id="Outline_Icons">
	<g>
		<path d="M23.495,8h-1.778C20.126,4.1,16.271,1.5,12,1.5S3.874,4.1,2.283,8H0.495c-0.276,0-0.5,0.224-0.5,0.5v7
			c0,0.276,0.224,0.5,0.5,0.5h1.819c1.613,3.887,5.457,6.486,9.688,6.5c4.227-0.014,8.07-2.613,9.684-6.5h1.81
			c0.276,0,0.5-0.224,0.5-0.5v-7C23.995,8.224,23.771,8,23.495,8z M16.381,8c-0.091-0.337-0.193-0.67-0.31-1h4.021
			c0.198,0.321,0.384,0.652,0.544,1H16.381z M15.345,8H8.655c0.098-0.337,0.206-0.671,0.332-1h6.025
			C15.139,7.329,15.247,7.663,15.345,8z M19.379,6h-3.701c-0.516-1.17-1.198-2.29-2.046-3.354C15.904,3.041,17.945,4.247,19.379,6z
			 M12.207,2.508c0.989,1.1,1.782,2.267,2.372,3.492H9.421c0.59-1.226,1.383-2.393,2.372-3.492C11.862,2.507,11.931,2.5,12,2.5
			S12.138,2.507,12.207,2.508z M10.368,2.646C9.521,3.71,8.838,4.83,8.322,6H4.621C6.055,4.247,8.096,3.041,10.368,2.646z M3.908,7
			h4.021C7.812,7.33,7.71,7.663,7.619,8H3.364C3.524,7.652,3.71,7.321,3.908,7z M7.871,16c0.104,0.334,0.217,0.667,0.343,1H3.949
			c-0.2-0.321-0.389-0.652-0.552-1H7.871z M8.927,16h6.146c-0.11,0.334-0.214,0.667-0.348,1H9.274
			C9.141,16.667,9.037,16.334,8.927,16z M4.668,18h3.966c0.507,1.137,1.144,2.266,1.904,3.38C8.229,21.008,6.139,19.785,4.668,18z
			 M11.83,21.492c-0.846-1.15-1.54-2.318-2.098-3.492h4.535c-0.558,1.174-1.252,2.342-2.098,3.493
			c-0.057,0.001-0.111,0.007-0.168,0.007C11.944,21.5,11.888,21.494,11.83,21.492z M13.461,21.381
			c0.762-1.115,1.398-2.244,1.905-3.381h3.966C17.861,19.786,15.771,21.01,13.461,21.381z M20.051,17h-4.265
			c0.126-0.333,0.239-0.666,0.343-1h4.474C20.439,16.348,20.251,16.679,20.051,17z M22.995,15h-22V9h22V15z"/>
		<path d="M5.546,14.499C5.559,14.5,5.571,14.5,5.584,14.5c0.216,0,0.41-0.14,0.477-0.349l0.16-0.504l0.161,0.505
			c0.07,0.22,0.291,0.375,0.515,0.347c0.23-0.018,0.419-0.191,0.456-0.421l0.637-4C8.032,9.806,7.847,9.55,7.573,9.506
			C7.305,9.467,7.044,9.648,7.001,9.922l-0.306,1.923c-0.137-0.409-0.812-0.409-0.948-0.002L5.441,9.922
			C5.397,9.648,5.135,9.467,4.869,9.506c-0.273,0.044-0.459,0.3-0.416,0.572l0.637,4C5.127,14.308,5.315,14.481,5.546,14.499z"/>
		<path d="M11.568,14.499c0.013,0.001,0.025,0.001,0.038,0.001c0.216,0,0.409-0.14,0.477-0.348l0.161-0.504l0.159,0.503
			c0.07,0.221,0.266,0.374,0.514,0.348c0.231-0.018,0.42-0.191,0.457-0.42l0.641-4c0.043-0.272-0.143-0.529-0.415-0.573
			c-0.27-0.039-0.529,0.142-0.573,0.415l-0.308,1.922c-0.068-0.203-0.259-0.341-0.474-0.341c-0.216,0-0.408,0.139-0.476,0.345
			l-0.306-1.925c-0.043-0.273-0.304-0.455-0.572-0.416c-0.273,0.044-0.459,0.3-0.416,0.572l0.637,4
			C11.149,14.308,11.338,14.481,11.568,14.499z"/>
		<path d="M17.594,14.499c0.23,0.026,0.444-0.127,0.515-0.347l0.161-0.505l0.16,0.504c0.066,0.209,0.261,0.349,0.477,0.349
			c0.013,0,0.025,0,0.038-0.001c0.23-0.018,0.419-0.191,0.456-0.421l0.637-4c0.043-0.272-0.143-0.528-0.416-0.572
			c-0.271-0.039-0.529,0.143-0.572,0.416l-0.306,1.921c-0.068-0.203-0.259-0.341-0.474-0.341c-0.216,0-0.406,0.139-0.475,0.343
			l-0.306-1.923c-0.043-0.273-0.304-0.455-0.572-0.416c-0.273,0.044-0.459,0.3-0.416,0.572l0.637,4
			C17.175,14.308,17.363,14.481,17.594,14.499z"/>
	</g>
</g>

</svg>
