<?xml version="1.0" encoding="utf-8"?>
<!-- Generator: Adobe Illustrator 16.0.3, SVG Export Plug-In . SVG Version: 6.00 Build 0)  -->
<!DOCTYPE svg PUBLIC "-//W3C//DTD SVG 1.1//EN" "http://www.w3.org/Graphics/SVG/1.1/DTD/svg11.dtd">
<svg version="1.1" xmlns="http://www.w3.org/2000/svg" xmlns:xlink="http://www.w3.org/1999/xlink" x="0px" y="0px" width="24px"
	 height="24px" viewBox="0 0 24 24" enable-background="new 0 0 24 24" xml:space="preserve">
<g id="Outline_Icons_1_">
	<g id="Outline_Icons">
		<g>
			<path d="M23.009,18.093L23,12.963C23,11.862,22.121,11,21,11h-3v-0.5c0-0.65-0.415-1.199-0.991-1.407L17,3.963
				C17,2.862,16.121,2,15,2H9C7.879,2,7,2.862,7,3.963l0.006,5.128C6.422,9.298,6,9.849,6,10.5V11H3c-1.121,0-2,0.862-2,1.963
				l0.006,5.128C0.422,18.298,0,18.849,0,19.5v2C0,21.776,0.224,22,0.5,22h11c0.276,0,0.5-0.224,0.5-0.5c0,0.276,0.224,0.5,0.5,0.5
				h11c0.276,0,0.5-0.224,0.5-0.5v-2C24,18.85,23.585,18.301,23.009,18.093z M22,12.964L22.009,18h-8.003L14,12.963
				C14,12.423,14.439,12,15,12h6C21.561,12,22,12.423,22,12.964z M9,3h6c0.561,0,1,0.423,1,0.964L16.009,9H8.006L8,3.963
				C8,3.423,8.439,3,9,3z M7,10.5C7,10.224,7.228,10,7.507,10h0.001h9.002c0.274,0,0.49,0.22,0.49,0.5V11h-2
				c-0.76,0-1.401,0.401-1.74,1h-2.52c-0.339-0.599-0.979-1-1.74-1H7V10.5z M3,12h6c0.561,0,1,0.423,1,0.964L10.009,18H2.006
				L2,12.963C2,12.423,2.439,12,3,12z M11,21H1v-1.5C1,19.224,1.228,19,1.507,19h0.001h9.002c0.275,0,0.49,0.22,0.49,0.5V21z
				 M12,19.5c0-0.65-0.415-1.199-0.991-1.407L11,13h2l0.006,5.092C12.422,18.298,12,18.849,12,19.5z M23,21H13v-1.5
				c0-0.276,0.228-0.5,0.507-0.5h0.001h9.002c0.275,0,0.49,0.22,0.49,0.5V21z"/>
			<path d="M15,13.5v3c0,0.276,0.224,0.5,0.5,0.5h5c0.276,0,0.5-0.224,0.5-0.5v-3c0-0.276-0.224-0.5-0.5-0.5h-5
				C15.224,13,15,13.224,15,13.5z M16,14h4v2h-4V14z"/>
			<path d="M3.5,17h5C8.776,17,9,16.776,9,16.5v-3C9,13.224,8.776,13,8.5,13h-5C3.224,13,3,13.224,3,13.5v3
				C3,16.776,3.224,17,3.5,17z M4,14h4v2H4V14z"/>
			<path d="M9.5,8h5C14.776,8,15,7.776,15,7.5v-3C15,4.224,14.776,4,14.5,4h-5C9.224,4,9,4.224,9,4.5v3C9,7.776,9.224,8,9.5,8z
				 M10,5h4v2h-4V5z"/>
		</g>
	</g>
	<g id="New_icons_1_">
	</g>
</g>

</svg>
