<?xml version="1.0" encoding="utf-8"?>
<!-- Generator: Adobe Illustrator 16.0.3, SVG Export Plug-In . SVG Version: 6.00 Build 0)  -->
<!DOCTYPE svg PUBLIC "-//W3C//DTD SVG 1.1//EN" "http://www.w3.org/Graphics/SVG/1.1/DTD/svg11.dtd">
<svg version="1.1" xmlns="http://www.w3.org/2000/svg" xmlns:xlink="http://www.w3.org/1999/xlink" x="0px" y="0px" width="24px"
	 height="24px" viewBox="0 0 24 24" enable-background="new 0 0 24 24" xml:space="preserve">
<g id="Outline_Icons_1_">
	<g id="Outline_Icons">
		<g>
			<path d="M0.5,24h21.948c0.276,0,0.5-0.224,0.5-0.5s-0.224-0.5-0.5-0.5H11.979v-4.026c5.007-0.276,9-4.428,9-9.507
				c0-5.22-4.26-9.467-9.496-9.467C6.171,0,1.979,4.02,1.979,9.304c0,5.183,3.996,9.416,9,9.672V23H0.5C0.224,23,0,23.224,0,23.5
				S0.224,24,0.5,24z M3.014,10h4.118c0.072,0.992,0.261,1.994,0.561,3H3.795C3.369,12.076,3.097,11.066,3.014,10z M19.956,9h-4.08
				c-0.006-1.369-0.246-2.708-0.695-4h3.507C19.423,6.174,19.875,7.537,19.956,9z M19.952,10c-0.065,1.065-0.325,2.076-0.747,3
				h-3.932c0.301-1.006,0.489-2.008,0.562-3H19.952z M14.907,9H8.06c0.007-1.373,0.266-2.711,0.765-4h5.318
				C14.642,6.289,14.899,7.628,14.907,9z M7.09,9H2.994c0.052-1.473,0.471-2.832,1.178-4h3.613C7.337,6.292,7.097,7.631,7.09,9z
				 M8.102,10h6.764c-0.08,0.989-0.29,1.991-0.619,3H8.72C8.391,11.991,8.181,10.989,8.102,10z M13.88,14
				c-0.541,1.33-1.293,2.666-2.266,3.992c-0.054,0.001-0.228,0.003-0.262,0.002C10.38,16.667,9.627,15.331,9.086,14H13.88z
				 M12.923,17.864c0.86-1.277,1.538-2.57,2.021-3.864h3.72C17.403,16.002,15.339,17.441,12.923,17.864z M17.96,4h-3.174
				c-0.439-0.984-1.001-1.938-1.708-2.845C15.021,1.524,16.729,2.553,17.96,4z M11.644,1.008C12.497,1.958,13.182,2.96,13.699,4
				H9.267c0.52-1.042,1.205-2.045,2.061-2.997C11.379,1.002,11.59,1.007,11.644,1.008z M9.894,1.148
				C9.185,2.058,8.621,3.013,8.181,4H4.883C6.111,2.532,7.858,1.507,9.894,1.148z M4.333,14h3.688
				c0.484,1.295,1.163,2.591,2.024,3.87C7.652,17.457,5.6,16.016,4.333,14z"/>
		</g>
	</g>
	<g id="New_icons_1_">
	</g>
</g>

</svg>
