<?xml version="1.0" encoding="utf-8"?>
<!-- Generator: Adobe Illustrator 16.0.3, SVG Export Plug-In . SVG Version: 6.00 Build 0)  -->
<!DOCTYPE svg PUBLIC "-//W3C//DTD SVG 1.1//EN" "http://www.w3.org/Graphics/SVG/1.1/DTD/svg11.dtd">
<svg version="1.1" xmlns="http://www.w3.org/2000/svg" xmlns:xlink="http://www.w3.org/1999/xlink" x="0px" y="0px" width="24px"
	 height="24px" viewBox="0 0 24 24" enable-background="new 0 0 24 24" xml:space="preserve">
<g id="Outline_Icons_1_">
	<g id="Outline_Icons">
	</g>
	<g id="New_icons_1_">
		<g>
			<path d="M22.5,2H20V0.5C20,0.224,19.776,0,19.5,0S19,0.224,19,0.5V2h-4V0.5C15,0.224,14.776,0,14.5,0S14,0.224,14,0.5V2h-4V0.5
				C10,0.224,9.776,0,9.5,0S9,0.224,9,0.5V2H5V0.5C5,0.224,4.776,0,4.5,0S4,0.224,4,0.5V2H1.5C1.224,2,1,2.224,1,2.5v21
				C1,23.776,1.224,24,1.5,24h15c0.139,0,0.264-0.056,0.354-0.147l5.998-5.999C22.943,17.764,23,17.639,23,17.5v-15
				C23,2.224,22.776,2,22.5,2z M16,17.5V23H2V3h2v2c0,0.276,0.224,0.5,0.5,0.5S5,5.276,5,5V3h4v2c0,0.276,0.224,0.5,0.5,0.5
				S10,5.276,10,5V3h4v2c0,0.276,0.224,0.5,0.5,0.5S15,5.276,15,5V3h4v2c0,0.276,0.224,0.5,0.5,0.5S20,5.276,20,5V3h2v14h-5.5
				C16.224,17,16,17.224,16,17.5z M21.293,18L17,22.293V18H21.293z"/>
			<path d="M9.146,7.146L6.5,9.793L5.354,8.646c-0.195-0.195-0.512-0.195-0.707,0s-0.195,0.512,0,0.707l1.5,1.5
				C6.244,10.951,6.372,11,6.5,11s0.256-0.049,0.354-0.146l3-3c0.195-0.195,0.195-0.512,0-0.707S9.342,6.951,9.146,7.146z"/>
			<path d="M9.146,12.646L6.5,15.293l-1.146-1.146c-0.195-0.195-0.512-0.195-0.707,0s-0.195,0.512,0,0.707l1.5,1.5
				C6.244,16.451,6.372,16.5,6.5,16.5s0.256-0.049,0.354-0.146l3-3c0.195-0.195,0.195-0.512,0-0.707S9.342,12.451,9.146,12.646z"/>
			<path d="M11.5,10H18c0.276,0,0.5-0.224,0.5-0.5S18.276,9,18,9h-6.5C11.224,9,11,9.224,11,9.5S11.224,10,11.5,10z"/>
			<path d="M18.5,14.5c0-0.276-0.224-0.5-0.5-0.5h-6.5c-0.276,0-0.5,0.224-0.5,0.5s0.224,0.5,0.5,0.5H18
				C18.276,15,18.5,14.776,18.5,14.5z"/>
		</g>
	</g>
</g>

</svg>
