<?xml version="1.0" encoding="utf-8"?>
<!-- Generator: Adobe Illustrator 16.0.3, SVG Export Plug-In . SVG Version: 6.00 Build 0)  -->
<!DOCTYPE svg PUBLIC "-//W3C//DTD SVG 1.1//EN" "http://www.w3.org/Graphics/SVG/1.1/DTD/svg11.dtd">
<svg version="1.1" xmlns="http://www.w3.org/2000/svg" xmlns:xlink="http://www.w3.org/1999/xlink" x="0px" y="0px" width="24px"
	 height="24px" viewBox="0 0 24 24" enable-background="new 0 0 24 24" xml:space="preserve">
<g id="Outline_Icons">
	<g>
		<path d="M22.411,4.476c-0.036-0.274-0.297-0.479-0.562-0.429L3.018,6.566C2.744,6.603,2.552,6.854,2.589,7.128
			c0.033,0.251,0.248,0.434,0.494,0.434c0.022,0,0.045-0.001,0.067-0.005l4.378-0.586c0.433,0.936,0.091,1.792-0.312,2.773
			C6.814,10.723,6.384,11.809,6.812,13H1.5c-0.144,0-0.28,0.062-0.375,0.169s-0.139,0.251-0.121,0.394
			c0.447,3.579,2.84,6.501,6.031,7.764C7.015,21.381,7,21.438,7,21.5v2C7,23.776,7.224,24,7.5,24h7c0.276,0,0.5-0.224,0.5-0.5v-2
			c0-0.062-0.015-0.119-0.035-0.174c3.191-1.263,5.584-4.185,6.031-7.764c0.018-0.143-0.026-0.286-0.121-0.394S20.644,13,20.5,13
			h-6.593c-0.526-0.965-0.176-1.848,0.24-2.857c0.468-1.136,1.021-2.529,0.018-4.06l7.817-1.046
			C22.256,5.001,22.448,4.749,22.411,4.476z M11.223,9.762c-0.4,0.972-0.83,2.053-0.408,3.238H9.911
			c-0.51-0.958-0.164-1.842,0.245-2.853c0.43-1.063,0.904-2.25,0.301-3.568l0.77-0.103C12.086,7.627,11.711,8.577,11.223,9.762z
			 M8.141,10.125c0.403-0.981,0.854-2.078,0.421-3.292l0.831-0.111c0.633,1.046,0.269,1.98-0.164,3.051
			C8.836,10.743,8.415,11.822,8.823,13H7.906C7.371,12.028,7.724,11.141,8.141,10.125z M14,22v1H8v-1h2.562h0.875H14z M11.438,21
			h-0.875c-4.154,0-7.702-2.972-8.478-7h17.83C19.14,18.028,15.592,21,11.438,21z M13.116,6.32c1.02,1.224,0.617,2.203,0.106,3.441
			c-0.4,0.972-0.83,2.053-0.408,3.238h-0.907c-0.526-0.965-0.176-1.848,0.24-2.857c0.442-1.076,0.978-2.381,0.183-3.814l0.712-0.095
			L13.116,6.32z"/>
		<path d="M21.507,0.023L3.222,5.185C2.956,5.26,2.801,5.536,2.876,5.802c0.062,0.221,0.263,0.364,0.481,0.364
			c0.045,0,0.091-0.006,0.136-0.019l18.285-5.161c0.266-0.075,0.421-0.352,0.346-0.617S21.772-0.051,21.507,0.023z"/>
	</g>
</g>

</svg>
