<?xml version="1.0" encoding="utf-8"?>
<!-- Generator: Adobe Illustrator 19.2.1, SVG Export Plug-In . SVG Version: 6.00 Build 0)  -->
<svg version="1.1" xmlns="http://www.w3.org/2000/svg" xmlns:xlink="http://www.w3.org/1999/xlink" x="0px" y="0px" width="24px"
	 height="24px" viewBox="0 0 24 24" enable-background="new 0 0 24 24" xml:space="preserve">
<g id="Outline_Icons_1_">
	<g id="Outline_Icons">
	</g>
	<g id="New_icons_1_">
		<g>
			<path d="M23.975,6.342l-2-6C21.907,0.138,21.716,0,21.501,0c-0.215,0-0.406,0.138-0.474,0.342l-2,5.998
				c-0.015,0.045-0.021,0.093-0.023,0.14C19.004,6.487,19,6.493,19,6.5c0,0.002,0.001,0.003,0.001,0.005V21.5
				c0,1.376,1.121,2.498,2.5,2.5c1.379-0.002,2.5-1.124,2.5-2.501V6.5C24.001,6.446,23.992,6.393,23.975,6.342z M20.001,7h3v12h-3V7
				z M21.501,2.081L22.807,6h-2.613L21.501,2.081z M21.5,23c-0.827-0.001-1.5-0.674-1.5-1.5V20h3v1.499
				C23.001,22.325,22.327,22.999,21.5,23z"/>
			<path d="M15.5,2h-12h-2C0.673,2,0,2.673,0,3.5v17C0,21.327,0.673,22,1.5,22h14c0.276,0,0.5-0.224,0.5-0.5v-19
				C16,2.224,15.776,2,15.5,2z M1,20.5v-17C1,3.224,1.224,3,1.5,3H3v18H1.5C1.229,21,1,20.771,1,20.5z M15,21H4V3h11V21z"/>
			<path d="M6.5,11h6c0.276,0,0.5-0.224,0.5-0.5v-3C13,7.224,12.776,7,12.5,7h-6C6.224,7,6,7.224,6,7.5v3C6,10.776,6.224,11,6.5,11z
				 M7,8h5v2H7V8z"/>
		</g>
	</g>
</g>

</svg>
