<?xml version="1.0" encoding="utf-8"?>
<!-- Generator: Adobe Illustrator 16.0.3, SVG Export Plug-In . SVG Version: 6.00 Build 0)  -->
<!DOCTYPE svg PUBLIC "-//W3C//DTD SVG 1.1//EN" "http://www.w3.org/Graphics/SVG/1.1/DTD/svg11.dtd">
<svg version="1.1" xmlns="http://www.w3.org/2000/svg" xmlns:xlink="http://www.w3.org/1999/xlink" x="0px" y="0px" width="24px"
	 height="24px" viewBox="0 0 24 24" enable-background="new 0 0 24 24" xml:space="preserve">
<g id="Outline_Icons_1_">
	<g id="Outline_Icons">
		<path d="M20.5,2H18V0.5C18,0.224,17.776,0,17.5,0h-4C13.224,0,13,0.224,13,0.5V2H5.5h-2C2.673,2,2,2.673,2,3.5v19
			C2,23.327,2.673,24,3.5,24h2h15c0.276,0,0.5-0.224,0.5-0.5v-21C21,2.224,20.776,2,20.5,2z M14,1h3v8.293l-1.146-1.146
			C15.756,8.049,15.628,8,15.5,8s-0.256,0.049-0.354,0.146L14,9.293V1z M3,22.5v-19C3,3.224,3.225,3,3.5,3H5v20H3.5
			C3.225,23,3,22.776,3,22.5z M20,23H6V3h7v7.5c0,0.202,0.122,0.385,0.309,0.462c0.186,0.078,0.402,0.036,0.545-0.108L15.5,9.207
			l1.646,1.647C17.242,10.949,17.37,11,17.5,11c0.064,0,0.13-0.012,0.191-0.038C17.878,10.885,18,10.702,18,10.5V3h2V23z"/>
	</g>
	<g id="New_icons_1_">
	</g>
</g>

</svg>
