<?xml version="1.0" encoding="utf-8"?>
<!-- Generator: Adobe Illustrator 16.0.3, SVG Export Plug-In . SVG Version: 6.00 Build 0)  -->
<!DOCTYPE svg PUBLIC "-//W3C//DTD SVG 1.1//EN" "http://www.w3.org/Graphics/SVG/1.1/DTD/svg11.dtd">
<svg version="1.1" xmlns="http://www.w3.org/2000/svg" xmlns:xlink="http://www.w3.org/1999/xlink" x="0px" y="0px" width="24px"
	 height="24px" viewBox="0 0 24 24" enable-background="new 0 0 24 24" xml:space="preserve">
<g id="Outline_Icons">
	<path d="M21.5,10c0.276,0,0.5-0.224,0.5-0.5S21.776,9,21.5,9H20V3h1.5C21.776,3,22,2.776,22,2.5S21.776,2,21.5,2h-2H19V0.5
		C19,0.224,18.776,0,18.5,0h-4C14.223,0,14,0.224,14,0.5V2H4.5h-2C2.223,2,2,2.224,2,2.5S2.223,3,2.5,3H4v6H2.5
		C2.223,9,2,9.224,2,9.5S2.223,10,2.5,10H4v6H2.5C2.223,16,2,16.224,2,16.5S2.223,17,2.5,17H4v6H2.5C2.223,23,2,23.224,2,23.5
		S2.223,24,2.5,24h2h15h2c0.276,0,0.5-0.224,0.5-0.5S21.776,23,21.5,23H20v-6h1.5c0.276,0,0.5-0.224,0.5-0.5S21.776,16,21.5,16H20
		v-6H21.5z M15,1h3v1h-3V1z M5,3h14v6H5V3z M19,23H5v-6h14V23z M19,16H5v-6h14V16z"/>
</g>

</svg>
