<?xml version="1.0" encoding="utf-8"?>
<!-- Generator: Adobe Illustrator 16.0.3, SVG Export Plug-In . SVG Version: 6.00 Build 0)  -->
<!DOCTYPE svg PUBLIC "-//W3C//DTD SVG 1.1//EN" "http://www.w3.org/Graphics/SVG/1.1/DTD/svg11.dtd">
<svg version="1.1" xmlns="http://www.w3.org/2000/svg" xmlns:xlink="http://www.w3.org/1999/xlink" x="0px" y="0px" width="24px"
	 height="24px" viewBox="0 0 24 24" enable-background="new 0 0 24 24" xml:space="preserve">
<g id="Outline_Icons">
	<g>
		<path d="M21,23H19.55L13.672,9H15c0.276,0,0.5-0.224,0.5-0.5S15.276,8,15,8h-1.748l-0.288-0.686l-1-2.5
			c-0.152-0.381-0.776-0.381-0.929,0L9.709,8H8C7.723,8,7.5,8.224,7.5,8.5S7.723,9,8,9h1.293l-5.83,14H2c-0.276,0-0.5,0.224-0.5,0.5
			S1.723,24,2,24h19c0.276,0,0.5-0.224,0.5-0.5S21.276,23,21,23z M9.374,11.481l1.311,1.019l-2.578,2.006L9.374,11.481z
			 M14.923,14.529l-2.61-2.029l1.329-1.033L14.923,14.529z M15.823,16.682l2.149,5.136l-5.479-3.193L15.823,16.682z M15.109,15.941
			l-3.607,2.104L7.89,15.94l3.609-2.807L15.109,15.941z M7.191,16.69l3.319,1.935l-5.466,3.189L7.191,16.69z M11.502,19.203
			L18.016,23H4.997L11.502,19.203z M10.964,7.686L11.5,6.347L12.191,8h-1.359L10.964,7.686z M12.609,9l0.632,1.511l-1.743,1.356
			l-1.725-1.342L10.413,9H12.609z"/>
		<path d="M13.828,3.885c0.156,0,0.31-0.072,0.407-0.209c0.766-1.069,2.17-1.519,3.417-1.088c0.262,0.091,0.546-0.048,0.636-0.31
			c0.09-0.261-0.048-0.546-0.31-0.636c-1.661-0.572-3.535,0.023-4.557,1.451c-0.161,0.225-0.109,0.537,0.116,0.697
			C13.626,3.854,13.728,3.885,13.828,3.885z"/>
		<path d="M5.346,2.588c1.246-0.431,2.651,0.019,3.417,1.088c0.098,0.137,0.251,0.209,0.407,0.209c0.101,0,0.202-0.03,0.291-0.094
			c0.225-0.16,0.276-0.473,0.116-0.697C8.555,1.665,6.68,1.07,5.02,1.643c-0.261,0.09-0.399,0.375-0.31,0.636
			C4.8,2.54,5.083,2.678,5.346,2.588z"/>
		<path d="M11.5,3.5C11.776,3.5,12,3.276,12,3V0.5C12,0.224,11.776,0,11.5,0S11,0.224,11,0.5V3C11,3.276,11.223,3.5,11.5,3.5z"/>
	</g>
</g>

</svg>
