<?xml version="1.0" encoding="utf-8"?>
<!-- Generator: Adobe Illustrator 16.0.3, SVG Export Plug-In . SVG Version: 6.00 Build 0)  -->
<!DOCTYPE svg PUBLIC "-//W3C//DTD SVG 1.1//EN" "http://www.w3.org/Graphics/SVG/1.1/DTD/svg11.dtd">
<svg version="1.1" xmlns="http://www.w3.org/2000/svg" xmlns:xlink="http://www.w3.org/1999/xlink" x="0px" y="0px" width="24px"
	 height="24px" viewBox="0 0 24 24" enable-background="new 0 0 24 24" xml:space="preserve">
<g id="Outline_Icons">
	<path d="M15.5,14c0.276,0,0.5-0.224,0.5-0.5S15.776,13,15.5,13H11v-2h4.5c0.276,0,0.5-0.224,0.5-0.5S15.776,10,15.5,10H11V0.5
		C11,0.224,10.776,0,10.5,0S10,0.224,10,0.5V10H5.5C5.224,10,5,10.224,5,10.5S5.224,11,5.5,11H10v2H5.5C5.224,13,5,13.224,5,13.5
		S5.224,14,5.5,14H10v8.293l-4.146-4.146c-0.195-0.195-0.512-0.195-0.707,0s-0.195,0.512,0,0.707l4.999,4.999
		c0.047,0.047,0.103,0.083,0.163,0.109C10.37,23.986,10.435,24,10.5,24s0.13-0.014,0.191-0.038c0.061-0.026,0.116-0.062,0.163-0.109
		l4.999-4.999c0.195-0.195,0.195-0.512,0-0.707s-0.512-0.195-0.707,0L11,22.293V14H15.5z"/>
</g>

</svg>
