<?xml version="1.0" encoding="utf-8"?>
<!-- Generator: Adobe Illustrator 16.0.3, SVG Export Plug-In . SVG Version: 6.00 Build 0)  -->
<!DOCTYPE svg PUBLIC "-//W3C//DTD SVG 1.1//EN" "http://www.w3.org/Graphics/SVG/1.1/DTD/svg11.dtd">
<svg version="1.1" xmlns="http://www.w3.org/2000/svg" xmlns:xlink="http://www.w3.org/1999/xlink" x="0px" y="0px" width="24px"
	 height="24px" viewBox="0 0 24 24" enable-background="new 0 0 24 24" xml:space="preserve">
<g id="Outline_Icons">
	<path d="M23,15.093V3.5C23,3.224,22.776,3,22.5,3H15V2.5C15,2.224,14.776,2,14.5,2H12V0.5C12,0.224,11.776,0,11.5,0
		S11,0.224,11,0.5V2H9.5C9.224,2,9,2.224,9,2.5V3H1.5C1.224,3,1,3.224,1,3.5v11.593c-0.581,0.207-1,0.756-1,1.407
		C0,17.327,0.673,18,1.5,18h4.691l-2.638,5.276c-0.124,0.247-0.023,0.547,0.224,0.671C3.848,23.983,3.924,24,4,24
		c0.184,0,0.36-0.101,0.448-0.276L7.309,18H11v5.5c0,0.276,0.224,0.5,0.5,0.5s0.5-0.224,0.5-0.5V18h4.691l2.862,5.724
		C19.641,23.899,19.817,24,20,24c0.075,0,0.151-0.017,0.223-0.053c0.247-0.124,0.347-0.424,0.224-0.671L17.809,18H22.5
		c0.827,0,1.5-0.673,1.5-1.5C24,15.849,23.581,15.299,23,15.093z M10,3h4v1h-4V3z M2,4h7v0.5C9,4.776,9.224,5,9.5,5h5
		C14.776,5,15,4.776,15,4.5V4h7v11H2V4z M22.5,17h-21C1.224,17,1,16.776,1,16.5C1,16.224,1.224,16,1.5,16h21
		c0.276,0,0.5,0.224,0.5,0.5C23,16.776,22.776,17,22.5,17z"/>
</g>

</svg>
