<?xml version="1.0" encoding="utf-8"?>
<!-- Generator: Adobe Illustrator 16.0.3, SVG Export Plug-In . SVG Version: 6.00 Build 0)  -->
<!DOCTYPE svg PUBLIC "-//W3C//DTD SVG 1.1//EN" "http://www.w3.org/Graphics/SVG/1.1/DTD/svg11.dtd">
<svg version="1.1" xmlns="http://www.w3.org/2000/svg" xmlns:xlink="http://www.w3.org/1999/xlink" x="0px" y="0px" width="24px"
	 height="24px" viewBox="0 0 24 24" enable-background="new 0 0 24 24" xml:space="preserve">
<g id="Outline_Icons">
	<path d="M19.5,24h-15c-0.162,0-0.313-0.078-0.407-0.209s-0.119-0.299-0.066-0.453c2.562-7.486,2.562-15.117,0-22.677
		C3.975,0.508,4,0.34,4.094,0.208C4.188,0.078,4.339,0,4.5,0h15c0.162,0,0.314,0.079,0.408,0.211
		c0.094,0.133,0.117,0.302,0.063,0.455c-2.671,7.575-2.671,15.201-0.001,22.666c0.055,0.153,0.032,0.323-0.062,0.456
		C19.815,23.921,19.663,24,19.5,24z M5.193,23h13.604c-2.441-7.253-2.44-14.648,0.003-22H5.191C7.535,8.336,7.536,15.73,5.193,23z"
		/>
</g>

</svg>
