<?xml version="1.0" encoding="utf-8"?>
<!-- Generator: Adobe Illustrator 16.0.3, SVG Export Plug-In . SVG Version: 6.00 Build 0)  -->
<!DOCTYPE svg PUBLIC "-//W3C//DTD SVG 1.1//EN" "http://www.w3.org/Graphics/SVG/1.1/DTD/svg11.dtd">
<svg version="1.1" xmlns="http://www.w3.org/2000/svg" xmlns:xlink="http://www.w3.org/1999/xlink" x="0px" y="0px" width="24px"
	 height="24px" viewBox="0 0 24 24" enable-background="new 0 0 24 24" xml:space="preserve">
<g id="Outline_Icons">
	<path d="M21.804,1.566c-1.518-1.533-4.333-2.022-6.926,0.521c0,0,0,0.001-0.001,0.002c0,0-0.001,0-0.002,0.001L4.267,12.697
		c-0.283,0.284-0.439,0.661-0.439,1.061c0,0.401,0.156,0.778,0.439,1.061l0.354,0.353l-2.475,2.475C2.053,17.74,2,17.867,2,18v5.657
		c0,0.202,0.122,0.385,0.309,0.462c0.062,0.025,0.127,0.038,0.191,0.038c0.13,0,0.258-0.051,0.354-0.146l5.303-5.304l0.353,0.353
		C8.792,19.344,9.169,19.5,9.57,19.5s0.778-0.157,1.061-0.44L21.238,8.455C23.674,6.018,23.367,3.145,21.804,1.566z M3,22.45v-4.243
		l2.328-2.328l0.13,0.13c0,0,0,0.001,0,0.001l1.86,1.86c0,0,0.001,0,0.001,0L7.449,18L3,22.45z M7.672,16.809L6.52,15.656
		l7.506-7.506c0.308-0.308,0.846-0.308,1.153,0c0.318,0.317,0.317,0.834,0,1.153L7.672,16.809z M9.923,18.354
		c-0.188,0.189-0.517,0.19-0.707-0.001l-0.838-0.837l7.507-7.506c0.707-0.708,0.707-1.86,0-2.567c-0.686-0.686-1.882-0.686-2.567,0
		l-7.506,7.507L4.974,14.11c-0.094-0.093-0.146-0.219-0.146-0.353s0.052-0.259,0.146-0.354L15.228,3.151l4.95,4.95L9.923,18.354z
		 M20.856,7.367l-4.891-4.891c1.988-1.667,4.02-1.325,5.127-0.206C22.199,3.387,22.527,5.412,20.856,7.367z"/>
</g>

</svg>
