<?xml version="1.0" encoding="utf-8"?>
<!-- Generator: Adobe Illustrator 16.0.3, SVG Export Plug-In . SVG Version: 6.00 Build 0)  -->
<!DOCTYPE svg PUBLIC "-//W3C//DTD SVG 1.1//EN" "http://www.w3.org/Graphics/SVG/1.1/DTD/svg11.dtd">
<svg version="1.1" xmlns="http://www.w3.org/2000/svg" xmlns:xlink="http://www.w3.org/1999/xlink" x="0px" y="0px" width="24px"
	 height="24px" viewBox="0 0 24 24" enable-background="new 0 0 24 24" xml:space="preserve">
<g id="Outline_Icons_1_">
	<g id="Outline_Icons">
		<g>
			<path d="M18.499,12.998c-3.033,0-5.5,2.467-5.5,5.5c0,3.032,2.468,5.5,5.501,5.502c3.032-0.002,5.499-2.47,5.499-5.502
				C23.999,15.465,21.532,12.998,18.499,12.998z M18.5,23c-2.482-0.002-4.501-2.021-4.501-4.502c0-2.481,2.019-4.5,4.5-4.5
				s4.5,2.019,4.5,4.5C22.999,20.979,20.98,22.998,18.5,23z"/>
			<path d="M21.103,15.895c-0.195-0.195-0.512-0.195-0.707,0l-1.896,1.896l-1.896-1.896c-0.195-0.195-0.512-0.195-0.707,0
				s-0.195,0.512,0,0.707l1.896,1.896l-1.896,1.896c-0.195,0.195-0.195,0.512,0,0.707c0.098,0.098,0.226,0.146,0.354,0.146
				s0.256-0.049,0.354-0.146l1.896-1.896l1.896,1.896c0.098,0.098,0.226,0.146,0.354,0.146s0.256-0.049,0.354-0.146
				c0.195-0.195,0.195-0.512,0-0.707l-1.896-1.896l1.896-1.896C21.298,16.406,21.298,16.09,21.103,15.895z"/>
			<path d="M11,19H1.015c0.033-0.81,0.138-2.405,0.46-3.378c0.225-0.679,2.206-1.333,3.953-1.91c0.746-0.246,1.516-0.5,2.25-0.78
				C7.872,12.858,8,12.672,8,12.464v-2.5c0-0.198-0.123-0.379-0.304-0.46C7.647,9.483,6.5,8.951,6.5,6.964
				c0-0.276-0.182-0.487-0.458-0.487C6.007,6.45,5.913,6.276,5.913,5.964S6.007,5.479,6,5.464c0.276,0,0.5-0.223,0.5-0.5
				c0-0.125-0.038-0.254-0.112-0.513C6.272,4.053,5.921,2.842,6.224,2.512c0.097-0.104,0.343-0.125,0.677-0.058
				c0.261,0.054,0.519-0.11,0.584-0.37c0.148-0.598,1.337-1.049,2.765-1.049s2.616,0.451,2.765,1.049
				c0.208,0.838-0.159,1.762-0.357,2.258C12.556,4.6,12.5,4.74,12.5,4.894c0,0.276,0.175,0.485,0.452,0.485
				c0.036,0.03,0.136,0.216,0.136,0.551c0,0.334-0.1,0.521-0.087,0.535c-0.276,0-0.5,0.224-0.5,0.5c0,1.987-1.147,2.519-1.19,2.538
				C11.122,9.579,11,9.762,11,9.964v2.5c0,0.208,0.129,0.395,0.324,0.468c0.88,0.333,1.616,0.571,2.486,0.861
				c0.261,0.086,0.545-0.055,0.632-0.317c0.087-0.262-0.055-0.545-0.317-0.632C13.39,12.6,12.736,12.386,12,12.117v-1.864
				c0.486-0.325,1.382-1.159,1.489-2.931c0.367-0.235,0.598-0.744,0.598-1.393c0-0.57-0.178-1.031-0.469-1.294
				c0.244-0.616,0.641-1.688,0.367-2.791c-0.332-1.334-2.22-1.808-3.735-1.808c-1.342,0-2.977,0.372-3.563,1.384
				c-0.51-0.022-0.917,0.11-1.198,0.416C4.82,2.562,5.191,3.913,5.412,4.676C5.295,4.77,5.195,4.895,5.116,5.045
				C4.985,5.297,4.913,5.623,4.913,5.964c0,0.635,0.231,1.132,0.598,1.361C5.619,9.096,6.514,9.928,7,10.253v1.864
				c-0.622,0.228-1.263,0.439-1.886,0.645c-2.35,0.776-4.206,1.389-4.589,2.546C0.033,16.794,0.001,19.385,0,19.495
				c-0.001,0.133,0.051,0.262,0.145,0.356C0.239,19.947,0.367,20,0.5,20H11c0.276,0,0.5-0.224,0.5-0.5S11.276,19,11,19z"/>
		</g>
	</g>
	<g id="New_icons_1_">
	</g>
</g>

</svg>
