<?xml version="1.0" encoding="utf-8"?>
<!-- Generator: Adobe Illustrator 16.0.3, SVG Export Plug-In . SVG Version: 6.00 Build 0)  -->
<!DOCTYPE svg PUBLIC "-//W3C//DTD SVG 1.1//EN" "http://www.w3.org/Graphics/SVG/1.1/DTD/svg11.dtd">
<svg version="1.1" xmlns="http://www.w3.org/2000/svg" xmlns:xlink="http://www.w3.org/1999/xlink" x="0px" y="0px" width="24px"
	 height="24px" viewBox="0 0 24 24" enable-background="new 0 0 24 24" xml:space="preserve">
<g id="Outline_Icons_1_">
	<g id="Outline_Icons">
		<g>
			<path d="M24,15c0-0.276-0.224-0.5-0.5-0.5S23,14.724,23,15v0.77C22.013,14.696,20.538,14,19,14c-2.197,0-4.288,1.402-4.971,3.333
				c-0.092,0.26,0.044,0.546,0.304,0.638c0.261,0.092,0.547-0.044,0.638-0.304C15.51,16.146,17.242,15,19,15
				c1.489,0,2.951,0.826,3.693,2H21c-0.276,0-0.5,0.224-0.5,0.5S20.724,18,21,18h2.5c0.269,0,0.5-0.24,0.5-0.5V15z"/>
			<path d="M23.667,20.029c-0.261-0.093-0.547,0.044-0.638,0.304C22.49,21.854,20.758,23,19,23c-1.489,0-2.95-0.825-3.692-2H17
				c0.276,0,0.5-0.224,0.5-0.5S17.276,20,17,20h-2.5c-0.271,0-0.5,0.244-0.5,0.5V23c0,0.276,0.224,0.5,0.5,0.5S15,23.276,15,23
				v-0.771C15.987,23.304,17.462,24,19,24c2.197,0,4.288-1.402,4.971-3.333C24.063,20.407,23.927,20.121,23.667,20.029z"/>
			<path d="M15.5,6.5C15.5,2.916,13.033,0,10,0S4.5,2.916,4.5,6.5c0,2.276,0.997,4.279,2.5,5.441v2.207l-4.678,1.671
				C0.933,16.315,0,17.639,0,19.114V21.5C0,21.776,0.224,22,0.5,22h11c0.276,0,0.5-0.224,0.5-0.5S11.776,21,11.5,21H1v-1.886
				c0-1.053,0.667-1.999,1.659-2.354l5.009-1.789C7.867,14.9,8,14.711,8,14.5v-1.951C8.621,12.836,9.294,13,10,13
				s1.379-0.164,2-0.451V14.5c0,0.276,0.224,0.5,0.5,0.5s0.5-0.224,0.5-0.5v-2.559C14.503,10.779,15.5,8.776,15.5,6.5z M10,1
				c2.204,0,4.039,1.947,4.423,4.507c-0.007,0.001-0.011,0.001-0.018,0.002C12.954,5.79,12.053,5.316,11.2,3.822
				c-0.09-0.159-0.238-0.241-0.444-0.252c-0.183,0.003-0.349,0.106-0.434,0.269C9.861,4.724,8.308,5.5,7,5.5
				c-0.509,0-0.946-0.084-1.376-0.26C6.092,2.813,7.874,1,10,1z M5.5,6.5c0-0.081,0.007-0.16,0.01-0.24C5.979,6.418,6.464,6.5,7,6.5
				c1.374,0,2.881-0.653,3.735-1.55c0.797,1.109,1.737,1.635,2.931,1.635c0.264,0,0.545-0.034,0.834-0.085
				c0,3.033-2.019,5.5-4.5,5.5S5.5,9.533,5.5,6.5z"/>
		</g>
	</g>
	<g id="New_icons_1_">
	</g>
</g>

</svg>
