<?xml version="1.0" encoding="utf-8"?>
<!-- Generator: Adobe Illustrator 16.0.3, SVG Export Plug-In . SVG Version: 6.00 Build 0)  -->
<!DOCTYPE svg PUBLIC "-//W3C//DTD SVG 1.1//EN" "http://www.w3.org/Graphics/SVG/1.1/DTD/svg11.dtd">
<svg version="1.1" xmlns="http://www.w3.org/2000/svg" xmlns:xlink="http://www.w3.org/1999/xlink" x="0px" y="0px" width="24px"
	 height="24px" viewBox="0 0 24 24" enable-background="new 0 0 24 24" xml:space="preserve">
<g id="Outline_Icons_1_">
	<g id="Outline_Icons">
		<g>
			<path d="M20.146,19.146L19,20.293V15.5c0-0.276-0.224-0.5-0.5-0.5S18,15.224,18,15.5v4.793l-1.146-1.146
				c-0.195-0.195-0.512-0.195-0.707,0s-0.195,0.512,0,0.707l2,1.999c0.193,0.194,0.512,0.197,0.708,0l2-1.999
				c0.195-0.195,0.195-0.512,0-0.707S20.342,18.951,20.146,19.146z"/>
			<path d="M18.5,13c-3.033,0-5.5,2.467-5.5,5.5c0,3.033,2.467,5.5,5.5,5.5s5.5-2.467,5.5-5.5C24,15.467,21.533,13,18.5,13z
				 M18.5,23c-2.481,0-4.5-2.019-4.5-4.5s2.019-4.5,4.5-4.5s4.5,2.019,4.5,4.5S20.981,23,18.5,23z"/>
			<path d="M11,19H1.015c0.033-0.801,0.138-2.372,0.459-3.343c0.225-0.68,2.205-1.333,3.951-1.91
				c0.746-0.246,1.518-0.501,2.252-0.78C7.872,12.894,8,12.708,8,12.5V10c0-0.198-0.123-0.379-0.303-0.459
				C7.648,9.519,6.5,8.986,6.5,7c0-0.276-0.182-0.487-0.458-0.487C6.007,6.485,5.913,6.312,5.913,6c0-0.312,0.095-0.485,0.087-0.5
				c0.276,0,0.5-0.224,0.5-0.5c0-0.125-0.038-0.255-0.112-0.513C6.272,4.089,5.921,2.878,6.224,2.549
				C6.32,2.444,6.568,2.423,6.902,2.49c0.26,0.052,0.519-0.11,0.583-0.37c0.148-0.598,1.337-1.049,2.765-1.049
				s2.616,0.451,2.765,1.049c0.208,0.837-0.159,1.761-0.356,2.257C12.556,4.635,12.5,4.775,12.5,4.93
				c0,0.276,0.175,0.484,0.451,0.484c0.037,0.03,0.136,0.216,0.136,0.551S12.987,6.485,13,6.5c-0.276,0-0.5,0.224-0.5,0.5
				c0,1.986-1.148,2.519-1.191,2.538C11.122,9.615,11,9.797,11,10v2.5c0,0.208,0.128,0.394,0.323,0.468
				c0.848,0.321,1.636,0.581,2.485,0.862c0.261,0.086,0.544-0.055,0.632-0.317c0.087-0.262-0.055-0.545-0.317-0.632
				c-0.726-0.241-1.399-0.462-2.123-0.728v-1.864c0.486-0.325,1.382-1.159,1.489-2.932c0.367-0.235,0.598-0.744,0.598-1.393
				c0-0.57-0.178-1.031-0.469-1.294c0.244-0.615,0.641-1.688,0.368-2.791c-0.332-1.334-2.22-1.808-3.735-1.808
				c-1.343,0-2.977,0.372-3.563,1.384C6.165,1.421,5.769,1.566,5.488,1.872C4.82,2.6,5.191,3.949,5.411,4.711
				C5.295,4.806,5.195,4.93,5.116,5.081C4.985,5.333,4.913,5.659,4.913,6c0,0.635,0.231,1.132,0.598,1.361
				C5.619,9.131,6.514,9.964,7,10.289v1.864c-0.622,0.228-1.264,0.44-1.888,0.646c-2.349,0.774-4.204,1.387-4.587,2.544
				C0.033,16.83,0.001,19.387,0,19.495c-0.001,0.134,0.051,0.262,0.145,0.357C0.239,19.947,0.367,20,0.5,20H11
				c0.276,0,0.5-0.224,0.5-0.5S11.276,19,11,19z"/>
		</g>
	</g>
	<g id="New_icons_1_">
	</g>
</g>

</svg>
