<?xml version="1.0" encoding="utf-8"?>
<!-- Generator: Adobe Illustrator 16.0.3, SVG Export Plug-In . SVG Version: 6.00 Build 0)  -->
<!DOCTYPE svg PUBLIC "-//W3C//DTD SVG 1.1//EN" "http://www.w3.org/Graphics/SVG/1.1/DTD/svg11.dtd">
<svg version="1.1" xmlns="http://www.w3.org/2000/svg" xmlns:xlink="http://www.w3.org/1999/xlink" x="0px" y="0px" width="24px"
	 height="24px" viewBox="0 0 24 24" enable-background="new 0 0 24 24" xml:space="preserve">
<g id="Outline_Icons_1_">
	<g id="Outline_Icons">
	</g>
	<g id="New_icons_1_">
		<g>
			<path d="M14,19H1.015c0.033-0.818,0.137-2.438,0.46-3.414c0.226-0.68,2.208-1.334,3.956-1.911c0.745-0.246,1.514-0.5,2.247-0.779
				C7.872,12.822,8,12.636,8,12.429v-2.5c0-0.198-0.123-0.379-0.303-0.459C7.648,9.447,6.5,8.915,6.5,6.929
				c0-0.276-0.182-0.486-0.458-0.486C6.007,6.414,5.913,6.241,5.913,5.929c0-0.312,0.095-0.485,0.087-0.5c0.276,0,0.5-0.224,0.5-0.5
				c0-0.125-0.038-0.255-0.112-0.514C6.272,4.018,5.921,2.806,6.225,2.477C6.32,2.373,6.567,2.352,6.901,2.419
				c0.26,0.054,0.519-0.11,0.584-0.37C7.634,1.452,8.823,1,10.25,1s2.616,0.451,2.765,1.049c0.208,0.837-0.159,1.761-0.356,2.257
				C12.556,4.562,12.5,4.704,12.5,4.857c0,0.276,0.175,0.484,0.451,0.484c0.037,0.03,0.136,0.217,0.136,0.552
				c0,0.334-0.1,0.521-0.087,0.535c-0.276,0-0.5,0.224-0.5,0.5c0,1.986-1.148,2.519-1.191,2.538C11.122,9.544,11,9.726,11,9.929v2.5
				c0,0.213,0.135,0.403,0.336,0.473l2.466,0.854c0.262,0.089,0.545-0.049,0.636-0.309c0.09-0.26-0.048-0.545-0.309-0.636L12,12.073
				v-1.855c0.486-0.325,1.382-1.159,1.489-2.932c0.367-0.235,0.598-0.744,0.598-1.393c0-0.57-0.178-1.032-0.469-1.295
				c0.244-0.616,0.641-1.689,0.367-2.791C13.653,0.474,11.766,0,10.25,0C8.908,0,7.273,0.372,6.687,1.384
				C6.179,1.361,5.771,1.493,5.488,1.8C4.82,2.526,5.191,3.877,5.412,4.64C5.295,4.734,5.195,4.859,5.116,5.01
				C4.985,5.261,4.913,5.587,4.913,5.929c0,0.635,0.231,1.132,0.598,1.361C5.619,9.06,6.514,9.893,7,10.218v1.864
				c-0.621,0.227-1.261,0.438-1.883,0.643c-2.351,0.776-4.208,1.389-4.592,2.547C0.033,16.757,0.001,19.384,0,19.495
				c-0.001,0.133,0.051,0.262,0.145,0.356C0.239,19.947,0.367,20,0.5,20H14c0.276,0,0.5-0.224,0.5-0.5S14.276,19,14,19z"/>
			<path d="M23.933,16.249C23.843,16.095,23.678,16,23.5,16H21v-4.5c0-0.227-0.152-0.425-0.372-0.483
				c-0.221-0.058-0.45,0.038-0.562,0.235l-4,7c-0.088,0.155-0.088,0.345,0.001,0.499C16.157,18.905,16.322,19,16.5,19H19v4.5
				c0,0.227,0.152,0.425,0.372,0.483C19.415,23.995,19.458,24,19.5,24c0.176,0,0.344-0.093,0.434-0.252l4-7
				C24.022,16.593,24.022,16.403,23.933,16.249z M20,21.617V18.5c0-0.276-0.224-0.5-0.5-0.5h-2.138L20,13.383V16.5
				c0,0.276,0.224,0.5,0.5,0.5h2.138L20,21.617z"/>
		</g>
	</g>
</g>

</svg>
