<?xml version="1.0" encoding="utf-8"?>
<!-- Generator: Adobe Illustrator 16.0.3, SVG Export Plug-In . SVG Version: 6.00 Build 0)  -->
<!DOCTYPE svg PUBLIC "-//W3C//DTD SVG 1.1//EN" "http://www.w3.org/Graphics/SVG/1.1/DTD/svg11.dtd">
<svg version="1.1" xmlns="http://www.w3.org/2000/svg" xmlns:xlink="http://www.w3.org/1999/xlink" x="0px" y="0px" width="24px"
	 height="24px" viewBox="0 0 24 24" enable-background="new 0 0 24 24" xml:space="preserve">
<g id="Outline_Icons_1_">
	<g id="Outline_Icons">
		<g>
			<path d="M21.271,14.817c-1.162,0-1.776,0.637-2.272,1.384c-0.496-0.747-1.111-1.384-2.272-1.384
				c-1.341,0-2.728,1.116-2.728,2.984c0,2.611,4.226,5.752,4.708,6.102c0.087,0.063,0.19,0.095,0.293,0.095s0.206-0.032,0.294-0.096
				c0.481-0.35,4.705-3.493,4.705-6.102C23.998,15.934,22.611,14.817,21.271,14.817z M18.999,22.877c-1.979-1.499-4-3.651-4-5.075
				c0-1.242,0.878-1.984,1.728-1.984c0.847,0,1.171,0.477,1.769,1.467l0.076,0.125c0.182,0.299,0.674,0.299,0.855,0l0.076-0.125
				c0.598-0.99,0.922-1.467,1.769-1.467c0.849,0,1.728,0.742,1.728,1.984C22.998,19.226,20.978,21.377,18.999,22.877z"/>
			<path d="M13,7c0,1.986-1.148,2.519-1.191,2.538C11.622,9.615,11.5,9.797,11.5,10v2.5c0,0.17,0.087,0.329,0.23,0.421
				c0.567,0.363,1.919,0.688,2.578,0.907c0.262,0.085,0.544-0.055,0.632-0.317c0.087-0.262-0.055-0.545-0.317-0.632
				c-0.554-0.184-1.616-0.458-2.123-0.681v-1.909c0.492-0.329,1.403-1.179,1.493-2.995c0.245-0.247,0.382-0.707,0.382-1.329
				c0-0.548-0.106-0.97-0.299-1.232c0.204-0.6,0.58-1.712,0.296-2.854c-0.332-1.334-2.204-1.808-3.707-1.808
				c-1.331,0-2.952,0.372-3.535,1.383c-0.514-0.03-0.912,0.11-1.189,0.417C5.292,2.586,5.648,3.859,5.894,4.669
				C5.75,4.759,5.624,4.881,5.521,5.035C5.346,5.298,5.25,5.641,5.25,6c0,0.659,0.302,1.18,0.763,1.395
				C6.13,9.142,7.017,9.966,7.5,10.289v1.855c-0.567,0.194-1.137,0.376-1.689,0.554c-2.514,0.805-4.5,1.441-4.899,2.645
				c-0.481,1.451-0.888,3.971-0.905,4.078c-0.023,0.145,0.018,0.292,0.113,0.403C0.214,19.936,0.354,20,0.5,20h11
				c0.276,0,0.5-0.224,0.5-0.5S11.776,19,11.5,19H1.093c0.149-0.832,0.446-2.373,0.768-3.342c0.239-0.721,2.373-1.404,4.254-2.007
				c0.671-0.215,1.366-0.438,2.051-0.679c0.2-0.07,0.334-0.26,0.334-0.472V10c0-0.198-0.123-0.379-0.303-0.459
				C8.148,9.519,7,8.986,7,7c0-0.276-0.224-0.5-0.5-0.5C6.328,6.5,6.25,6.208,6.25,6c0-0.159,0.039-0.313,0.104-0.41
				C6.409,5.507,6.456,5.5,6.5,5.5C6.776,5.5,7,5.276,7,5c0-0.129-0.041-0.264-0.123-0.531C6.757,4.072,6.39,2.865,6.682,2.544
				c0.09-0.101,0.332-0.119,0.664-0.054c0.264,0.054,0.519-0.11,0.583-0.37c0.148-0.598,1.325-1.049,2.736-1.049
				c1.412,0,2.588,0.451,2.736,1.049c0.214,0.859-0.103,1.792-0.273,2.293C13.045,4.657,13,4.79,13,4.93
				c0,0.133,0.053,0.26,0.146,0.354c0.045,0.045,0.098,0.081,0.156,0.106c0.095,0.25,0.095,0.901,0,1.151
				C13.125,6.617,13,6.794,13,7z"/>
		</g>
	</g>
	<g id="New_icons_1_">
	</g>
</g>

</svg>
