<?xml version="1.0" encoding="utf-8"?>
<!-- Generator: Adobe Illustrator 16.0.3, SVG Export Plug-In . SVG Version: 6.00 Build 0)  -->
<!DOCTYPE svg PUBLIC "-//W3C//DTD SVG 1.1//EN" "http://www.w3.org/Graphics/SVG/1.1/DTD/svg11.dtd">
<svg version="1.1" xmlns="http://www.w3.org/2000/svg" xmlns:xlink="http://www.w3.org/1999/xlink" x="0px" y="0px" width="24px"
	 height="24px" viewBox="0 0 24 24" enable-background="new 0 0 24 24" xml:space="preserve">
<g id="Outline_Icons_1_">
	<g id="Outline_Icons">
		<g>
			<path d="M18.5,13c-3.033,0-5.5,2.467-5.5,5.5c0,3.033,2.467,5.5,5.5,5.5s5.5-2.467,5.5-5.5C24,15.467,21.533,13,18.5,13z
				 M18.5,23c-2.481,0-4.5-2.019-4.5-4.5s2.019-4.5,4.5-4.5s4.5,2.019,4.5,4.5S20.981,23,18.5,23z"/>
			<path d="M18.5,16.623c0.363,0,0.659,0.295,0.659,0.658c0,0.277,0.224,0.5,0.5,0.5s0.5-0.223,0.5-0.5
				c0-0.739-0.489-1.359-1.159-1.572V15.35c0-0.276-0.224-0.5-0.5-0.5s-0.5,0.224-0.5,0.5v0.359
				c-0.67,0.213-1.159,0.833-1.159,1.572c0,0.916,0.744,1.661,1.659,1.661c0.363,0,0.659,0.295,0.659,0.658
				c0,0.364-0.296,0.66-0.659,0.66s-0.659-0.296-0.659-0.66c0-0.276-0.224-0.5-0.5-0.5s-0.5,0.224-0.5,0.5
				c0,0.74,0.489,1.361,1.159,1.575v0.356c0,0.277,0.224,0.5,0.5,0.5s0.5-0.223,0.5-0.5v-0.356c0.67-0.214,1.159-0.835,1.159-1.575
				c0-0.914-0.744-1.658-1.659-1.658c-0.363,0-0.659-0.297-0.659-0.661C17.841,16.918,18.137,16.623,18.5,16.623z"/>
			<path d="M11.001,19H1.017c0.033-0.802,0.138-2.373,0.459-3.343c0.226-0.681,2.21-1.336,3.961-1.914
				c0.743-0.245,1.511-0.499,2.242-0.776c0.194-0.074,0.323-0.259,0.323-0.467V10c0-0.198-0.123-0.379-0.303-0.459
				C7.649,9.519,6.501,8.986,6.501,7c0-0.276-0.182-0.487-0.458-0.487C6.009,6.485,5.914,6.312,5.914,6
				c0-0.312,0.095-0.485,0.087-0.5c0.276,0,0.5-0.224,0.5-0.5c0-0.125-0.038-0.255-0.112-0.513C6.273,4.089,5.922,2.877,6.226,2.548
				C6.322,2.444,6.57,2.424,6.903,2.49c0.262,0.052,0.519-0.11,0.584-0.37c0.148-0.598,1.337-1.049,2.765-1.049
				s2.616,0.451,2.765,1.049c0.208,0.838-0.159,1.761-0.357,2.257c-0.102,0.255-0.158,0.396-0.158,0.55
				c0,0.276,0.175,0.484,0.451,0.484c0.036,0.03,0.136,0.217,0.136,0.552s-0.1,0.521-0.087,0.536c-0.276,0-0.5,0.224-0.5,0.5
				c0,1.986-1.148,2.519-1.191,2.538c-0.187,0.078-0.309,0.26-0.309,0.462v2.5c0,0.208,0.129,0.395,0.324,0.468
				c0.853,0.321,1.631,0.577,2.485,0.86c0.263,0.085,0.544-0.055,0.632-0.317c0.087-0.262-0.055-0.545-0.317-0.632
				c-0.738-0.246-1.377-0.454-2.123-0.727v-1.863c0.486-0.325,1.382-1.159,1.489-2.932c0.367-0.235,0.598-0.744,0.598-1.394
				c0-0.57-0.178-1.031-0.469-1.295c0.244-0.616,0.641-1.688,0.367-2.79c-0.332-1.334-2.22-1.808-3.735-1.808
				c-1.342,0-2.977,0.371-3.563,1.383c-0.51-0.026-0.916,0.11-1.198,0.416c-0.668,0.727-0.297,2.078-0.077,2.84
				C5.297,4.806,5.196,4.93,5.118,5.081C4.986,5.333,4.914,5.659,4.914,6c0,0.635,0.231,1.132,0.598,1.361
				c0.108,1.77,1.003,2.603,1.489,2.928v1.864c-0.619,0.226-1.257,0.437-1.878,0.641c-2.354,0.777-4.213,1.39-4.597,2.549
				c-0.493,1.485-0.524,4.044-0.525,4.152C0,19.628,0.052,19.757,0.146,19.852C0.24,19.947,0.368,20,0.501,20h10.5
				c0.276,0,0.5-0.224,0.5-0.5S11.278,19,11.001,19z"/>
		</g>
	</g>
	<g id="New_icons_1_">
	</g>
</g>

</svg>
