<?xml version="1.0" encoding="utf-8"?>
<!-- Generator: Adobe Illustrator 16.0.3, SVG Export Plug-In . SVG Version: 6.00 Build 0)  -->
<!DOCTYPE svg PUBLIC "-//W3C//DTD SVG 1.1//EN" "http://www.w3.org/Graphics/SVG/1.1/DTD/svg11.dtd">
<svg version="1.1" xmlns="http://www.w3.org/2000/svg" xmlns:xlink="http://www.w3.org/1999/xlink" x="0px" y="0px" width="24px"
	 height="24px" viewBox="0 0 24 24" enable-background="new 0 0 24 24" xml:space="preserve">
<g id="Outline_Icons">
	<path d="M22.5,12.5h-2c-0.157,0-0.306,0.074-0.4,0.2l-1.35,1.8h-1.55l0.329-0.618c0.774-1.45,0.578-3.187-0.468-4.434l2.263-4.242
		c0.389-0.73,0.112-1.642-0.617-2.03c-0.708-0.377-1.654-0.088-2.03,0.618l-2.263,4.243c-1.618-0.168-3.186,0.659-3.945,2.085
		L8.195,14.5H5.25l-1.35-1.8c-0.094-0.126-0.243-0.2-0.4-0.2h-2C0.672,12.5,0,13.173,0,14s0.673,1.5,1.5,1.5h0.147l1.907,5.34
		c0.354,0.993,1.3,1.66,2.354,1.66H18.09c1.054,0,2-0.667,2.354-1.66l1.908-5.34H22.5c0.827,0,1.5-0.673,1.5-1.5
		S23.327,12.5,22.5,12.5z M11.353,10.588c0.61-1.146,1.951-1.776,3.236-1.514c0.219,0.047,0.436-0.06,0.54-0.255l2.429-4.555
		c0.126-0.237,0.438-0.334,0.677-0.206c0.243,0.129,0.335,0.434,0.205,0.677L16.011,9.29c-0.104,0.195-0.067,0.435,0.089,0.59
		c0.95,0.943,1.17,2.362,0.546,3.531l-0.58,1.089h-1.684l1.046-1.743c0.142-0.236,0.065-0.544-0.171-0.686
		c-0.237-0.144-0.544-0.064-0.686,0.172L13.217,14.5h-1.355l1.572-2.752c0.137-0.239,0.054-0.545-0.186-0.683
		c-0.24-0.137-0.545-0.054-0.682,0.187L10.709,14.5H9.322L11.353,10.588z M22.5,14.5H22c-0.211,0-0.4,0.133-0.471,0.332
		l-2.026,5.672C19.29,21.1,18.723,21.5,18.09,21.5H5.909c-0.632,0-1.2-0.4-1.413-0.996L2.47,14.832C2.399,14.633,2.211,14.5,2,14.5
		H1.5C1.224,14.5,1,14.275,1,14s0.224-0.5,0.5-0.5h1.75l1.35,1.8c0.094,0.126,0.243,0.2,0.4,0.2h14c0.157,0,0.306-0.074,0.4-0.2
		l1.35-1.8h1.75c0.276,0,0.5,0.225,0.5,0.5S22.775,14.5,22.5,14.5z"/>
</g>

</svg>
