<?xml version="1.0" encoding="utf-8"?>
<!-- Generator: Adobe Illustrator 16.0.3, SVG Export Plug-In . SVG Version: 6.00 Build 0)  -->
<!DOCTYPE svg PUBLIC "-//W3C//DTD SVG 1.1//EN" "http://www.w3.org/Graphics/SVG/1.1/DTD/svg11.dtd">
<svg version="1.1" xmlns="http://www.w3.org/2000/svg" xmlns:xlink="http://www.w3.org/1999/xlink" x="0px" y="0px" width="24px"
	 height="24px" viewBox="0 0 24 24" enable-background="new 0 0 24 24" xml:space="preserve">
<g id="Outline_Icons">
	<path d="M23.077,21.884c-0.591-1.383-2.949-3.353-7.175-3.818C18.381,16.244,20,13.316,20,10.012c0-5.514-4.486-10-10-10
		s-10,4.486-10,10s4.486,10,10,10c1.583,0,3.076-0.38,4.408-1.037c4.669,0.107,7.044,2.059,7.652,3.108
		c0.201,0.347,0.182,0.529,0.168,0.555c-0.035,0.032-0.314,0.111-0.968-0.135c-3.978-1.501-8.32-0.732-11.811-0.115
		c-4.287,0.758-6.743,1.065-7.341-1.45c-0.064-0.268-0.334-0.438-0.602-0.37C1.236,20.631,1.07,20.9,1.134,21.17
		c0.509,2.14,1.996,2.764,3.993,2.764c1.32,0,2.864-0.272,4.496-0.562c3.544-0.627,7.562-1.337,11.284,0.066
		c1.176,0.444,1.761,0.186,2.043-0.109C23.277,22.987,23.323,22.46,23.077,21.884z M14.192,17.969c-0.027,0-0.054-0.002-0.082-0.002
		c-0.823-0.368-1.601-0.828-2.321-1.371c0.572-0.523,1.095-1.092,1.562-1.706c0.919,0.659,1.944,1.155,3.03,1.46
		C15.741,16.994,15.003,17.54,14.192,17.969z M7.744,9.629c-0.444,0.802-1.086,1.476-1.859,1.964
		c-1.778-0.478-3.437-1.368-4.824-2.595C1.162,8.102,1.394,7.244,1.74,6.445C3.297,8.203,5.42,9.328,7.744,9.629z M8.154,5.365
		C6.639,5.125,5.289,4.238,4.451,2.94c0.335-0.265,0.69-0.504,1.062-0.719C6.783,2.891,7.724,4.028,8.154,5.365z M4.528,12.21
		C4.043,12.353,3.53,12.433,3,12.433c-0.599,0-1.179-0.113-1.738-0.303c-0.148-0.609-0.234-1.241-0.251-1.892
		C2.079,11.072,3.262,11.744,4.528,12.21z M3,13.433c3.541,0,6.421-2.881,6.421-6.421c0-2.146-1.09-4.14-2.838-5.322
		c0.858-0.354,1.784-0.572,2.75-0.644c1.53,1.62,2.376,3.726,2.376,5.966c0,4.787-3.881,8.683-8.662,8.709
		c-0.6-0.729-1.08-1.558-1.428-2.451C2.07,13.368,2.53,13.433,3,13.433z M12.709,7.012c0-2.192-0.729-4.269-2.059-5.967
		c1.135,0.082,2.211,0.375,3.192,0.841C14.605,3.494,15,5.215,15,7.012c0,5.211-3.301,9.762-8.229,11.391
		C5.729,18,4.783,17.411,3.97,16.674C8.87,16.186,12.709,12.039,12.709,7.012z M15.002,12.03c0.96,0.769,2.104,1.243,3.331,1.368
		c-0.311,0.76-0.724,1.465-1.219,2.105c-1.147-0.254-2.233-0.744-3.189-1.432C14.341,13.426,14.705,12.745,15.002,12.03z
		 M15.985,6.749c0.543-0.562,1.018-1.182,1.41-1.854c0.497,0.716,0.892,1.506,1.166,2.352c-0.809,1.066-1.794,2-2.906,2.744
		C15.878,9.029,16,8.033,16,7.012C16,6.924,15.986,6.838,15.985,6.749z M18.668,12.399c-1.14-0.068-2.199-0.487-3.076-1.204
		c1.227-0.727,2.334-1.65,3.265-2.734C18.944,8.966,19,9.482,19,10.012C19,10.84,18.878,11.638,18.668,12.399z M16.706,4.03
		c-0.237,0.453-0.513,0.881-0.825,1.285c-0.114-0.881-0.312-1.743-0.605-2.579C15.798,3.116,16.276,3.55,16.706,4.03z M3.689,3.604
		c1.068,1.574,2.79,2.599,4.686,2.784C8.399,6.595,8.42,6.802,8.42,7.012c0,0.578-0.093,1.135-0.262,1.658
		C5.833,8.447,3.711,7.305,2.235,5.481C2.639,4.794,3.125,4.161,3.689,3.604z M8.353,18.854c0.958-0.431,1.847-0.968,2.655-1.598
		c0.607,0.475,1.252,0.895,1.931,1.253c-0.922,0.32-1.909,0.503-2.939,0.503C9.437,19.012,8.888,18.953,8.353,18.854z"/>
</g>

</svg>
