<?xml version="1.0" encoding="utf-8"?>
<!-- Generator: Adobe Illustrator 16.0.3, SVG Export Plug-In . SVG Version: 6.00 Build 0)  -->
<!DOCTYPE svg PUBLIC "-//W3C//DTD SVG 1.1//EN" "http://www.w3.org/Graphics/SVG/1.1/DTD/svg11.dtd">
<svg version="1.1" xmlns="http://www.w3.org/2000/svg" xmlns:xlink="http://www.w3.org/1999/xlink" x="0px" y="0px" width="24px"
	 height="24px" viewBox="0 0 24 24" enable-background="new 0 0 24 24" xml:space="preserve">
<g id="Outline_Icons">
	<g>
		<path d="M22.975,8.377C22.715,5.946,17.689,4,11.531,4C5.172,4,0,6.051,0,8.572v3c0,1.975,3.113,3.629,7.932,4.215
			c0.021,0.003,0.041,0.004,0.061,0.004c0.25,0,0.465-0.186,0.496-0.439c0.034-0.274-0.162-0.523-0.436-0.557
			C3.422,14.231,1,12.747,1,11.572v-1.144C2.911,12.066,7.275,13,11.531,13c4.793,0,8.712-1.025,10.469-2.565v1.138
			c0,1.177-2.403,2.661-6.996,3.223c-0.274,0.033-0.469,0.282-0.436,0.557c0.031,0.254,0.247,0.439,0.496,0.439
			c0.02,0,0.041-0.001,0.061-0.004C19.908,15.203,23,13.548,23,11.572V8.5C23,8.456,22.985,8.417,22.975,8.377z M11.531,5
			C17.522,5,22,6.886,22,8.572c0,0.275-0.133,0.557-0.37,0.833C19.657,7.939,15.783,7,11.531,7C7.248,7,3.36,7.941,1.376,9.41
			C1.135,9.132,1,8.85,1,8.572C1,6.886,5.503,5,11.531,5z M2.169,10.069C4.028,8.82,7.649,8,11.531,8c3.856,0,7.463,0.82,9.31,2.067
			C19.166,11.136,15.796,12,11.531,12C7.242,12,3.854,11.137,2.169,10.069z"/>
		<path d="M11.5,14c-1.654,0-3,1.346-3,3s1.346,3,3,3s3-1.346,3-3S13.154,14,11.5,14z M11.5,19c-1.103,0-2-0.897-2-2
			c0-0.929,0.64-1.705,1.5-1.929V17c0,0.276,0.224,0.5,0.5,0.5S12,17.276,12,17v-1.929c0.86,0.224,1.5,1,1.5,1.929
			C13.5,18.103,12.603,19,11.5,19z"/>
	</g>
</g>

</svg>
