<?xml version="1.0" encoding="utf-8"?>
<!-- Generator: Adobe Illustrator 16.0.3, SVG Export Plug-In . SVG Version: 6.00 Build 0)  -->
<!DOCTYPE svg PUBLIC "-//W3C//DTD SVG 1.1//EN" "http://www.w3.org/Graphics/SVG/1.1/DTD/svg11.dtd">
<svg version="1.1" xmlns="http://www.w3.org/2000/svg" xmlns:xlink="http://www.w3.org/1999/xlink" x="0px" y="0px" width="24px"
	 height="24px" viewBox="0 0 24 24" enable-background="new 0 0 24 24" xml:space="preserve">
<g id="Outline_Icons_1_">
	<g id="Outline_Icons">
		<g>
			<path d="M17.171,16.157c-0.944-0.945-2.592-0.945-3.536,0l-0.385,0.385c-2.068-1.731-4.056-3.719-5.789-5.79l0.385-0.385h0
				c0.973-0.975,0.973-2.561,0-3.535L5.724,4.711c-0.975-0.975-2.561-0.975-3.535,0L1.024,5.874c-1.17,1.17-1.356,3.022-0.441,4.403
				c3.423,5.176,7.967,9.72,13.141,13.142c0.587,0.389,1.259,0.578,1.928,0.578c0.904,0,1.803-0.348,2.476-1.021l1.163-1.163
				c0.473-0.473,0.733-1.101,0.733-1.769c0-0.668-0.261-1.296-0.733-1.767L17.171,16.157z M18.584,21.106l-1.163,1.163
				c-0.835,0.837-2.158,0.969-3.145,0.315C9.213,19.236,4.767,14.79,1.417,9.726C0.764,8.739,0.896,7.417,1.731,6.581l1.164-1.163
				c0.292-0.292,0.676-0.438,1.061-0.438s0.768,0.146,1.061,0.438l2.122,2.121c0.584,0.585,0.584,1.536,0,2.121l-0.707,0.707
				c-0.182,0.182-0.196,0.472-0.033,0.671c1.936,2.361,4.206,4.633,6.566,6.566c0.198,0.163,0.488,0.15,0.67-0.033l0.707-0.707
				c0.585-0.586,1.537-0.586,2.122,0l2.121,2.121c0.283,0.283,0.439,0.659,0.44,1.06C19.024,20.446,18.868,20.822,18.584,21.106z"/>
			<path d="M14.5,11h3c0.276,0,0.5-0.224,0.5-0.5v-9C18,1.224,17.776,1,17.5,1h-3C14.224,1,14,1.224,14,1.5v9
				C14,10.776,14.224,11,14.5,11z M15,2h2v8h-2V2z"/>
			<path d="M22.5,1h-3C19.224,1,19,1.224,19,1.5v9c0,0.276,0.224,0.5,0.5,0.5h3c0.276,0,0.5-0.224,0.5-0.5v-9
				C23,1.224,22.776,1,22.5,1z M22,10h-2V2h2V10z"/>
		</g>
	</g>
	<g id="New_icons_1_">
	</g>
</g>

</svg>
