<?xml version="1.0" encoding="utf-8"?>
<!-- Generator: Adobe Illustrator 16.0.3, SVG Export Plug-In . SVG Version: 6.00 Build 0)  -->
<!DOCTYPE svg PUBLIC "-//W3C//DTD SVG 1.1//EN" "http://www.w3.org/Graphics/SVG/1.1/DTD/svg11.dtd">
<svg version="1.1" xmlns="http://www.w3.org/2000/svg" xmlns:xlink="http://www.w3.org/1999/xlink" x="0px" y="0px" width="24px"
	 height="24px" viewBox="0 0 24 24" enable-background="new 0 0 24 24" xml:space="preserve">
<g id="Outline_Icons">
	<g>
		<path d="M23.5,0c-8.101,0-9.305,10.593-9.473,13H4.5C3.673,13,3,13.673,3,14.5V18c0,3.309,2.691,6,6,6s6-2.691,6-6v-4.489
			C15.003,13.387,15.384,1,23.5,1C23.776,1,24,0.776,24,0.5S23.776,0,23.5,0z M14,18c0,2.757-2.243,5-5,5s-5-2.243-5-5v-3.5
			C4,14.224,4.225,14,4.5,14H14V18z"/>
		<path d="M7.417,10.458c0,0.827,0.673,1.5,1.5,1.5s1.5-0.673,1.5-1.5s-0.673-1.5-1.5-1.5S7.417,9.631,7.417,10.458z M9.417,10.458
			c0,0.276-0.225,0.5-0.5,0.5s-0.5-0.224-0.5-0.5s0.225-0.5,0.5-0.5S9.417,10.183,9.417,10.458z"/>
		<path d="M5.265,7.792C5.729,8.246,6.343,8.5,7,8.5c1.379,0,2.5-1.122,2.5-2.5c0-1.006-0.604-1.898-1.511-2.289
			C7.841,1.64,6.108,0,4,0C1.794,0,0,1.794,0,4s1.794,4,4,4C4.432,8,4.855,7.931,5.265,7.792z M1,4c0-1.654,1.346-3,3-3
			s3,1.346,2.993,3.047c-0.01,0.236,0.147,0.447,0.376,0.506C8.035,4.724,8.5,5.318,8.5,6c0,0.827-0.673,1.5-1.5,1.5
			c-0.47,0-0.904-0.219-1.192-0.602C5.71,6.77,5.562,6.7,5.408,6.7c-0.068,0-0.137,0.014-0.202,0.043C4.819,6.914,4.414,7,4,7
			C2.346,7,1,5.654,1,4z"/>
	</g>
</g>

</svg>
