<?xml version="1.0" encoding="utf-8"?>
<!-- Generator: Adobe Illustrator 16.0.3, SVG Export Plug-In . SVG Version: 6.00 Build 0)  -->
<!DOCTYPE svg PUBLIC "-//W3C//DTD SVG 1.1//EN" "http://www.w3.org/Graphics/SVG/1.1/DTD/svg11.dtd">
<svg version="1.1" xmlns="http://www.w3.org/2000/svg" xmlns:xlink="http://www.w3.org/1999/xlink" x="0px" y="0px" width="24px"
	 height="24px" viewBox="0 0 24 24" enable-background="new 0 0 24 24" xml:space="preserve">
<g id="Outline_Icons">
	<g>
		<path d="M16.736,5.06c-0.163-0.088-0.361-0.077-0.513,0.024l-6,4C10.083,9.177,10,9.333,10,9.5V14H8.5C7.292,14,6,14.657,6,16.5
			S7.292,19,8.5,19c0.996,0,2.5,0,2.5-1.5v-3V9.768l5-3.333V12h-2c-1.208,0-2.5,0.657-2.5,2.5S12.792,17,14,17c1.048,0,3,0,3-1.5v-3
			v-7C17,5.315,16.898,5.146,16.736,5.06z M10,17.5c0,0.381-0.207,0.5-1.5,0.5C7.816,18,7,17.74,7,16.5S7.816,15,8.5,15H10V17.5z
			 M16,15.5c0,0.5-1.301,0.5-2,0.5c-0.684,0-1.5-0.26-1.5-1.5S13.316,13,14,13h2V15.5z"/>
		<path d="M23.5,4H22V2.5C22,2.224,21.776,2,21.5,2h-19C2.224,2,2,2.224,2,2.5V4H0.5C0.224,4,0,4.224,0,4.5v15
			C0,19.776,0.224,20,0.5,20H2v1.5C2,21.776,2.224,22,2.5,22h19c0.276,0,0.5-0.224,0.5-0.5V20h1.5c0.276,0,0.5-0.224,0.5-0.5v-15
			C24,4.224,23.776,4,23.5,4z M1,19V5h1v14H1z M21,21H3V3h18V21z M23,19h-1V5h1V19z"/>
	</g>
</g>

</svg>
