<?xml version="1.0" encoding="utf-8"?>
<!-- Generator: Adobe Illustrator 16.0.3, SVG Export Plug-In . SVG Version: 6.00 Build 0)  -->
<!DOCTYPE svg PUBLIC "-//W3C//DTD SVG 1.1//EN" "http://www.w3.org/Graphics/SVG/1.1/DTD/svg11.dtd">
<svg version="1.1" xmlns="http://www.w3.org/2000/svg" xmlns:xlink="http://www.w3.org/1999/xlink" x="0px" y="0px" width="24px"
	 height="24px" viewBox="0 0 24 24" enable-background="new 0 0 24 24" xml:space="preserve">
<g id="Outline_Icons">
	<g>
		<path d="M13.736,2.06c-0.162-0.088-0.36-0.078-0.513,0.024l-6,4C7.083,6.177,7,6.333,7,6.5V11H5.5C4.292,11,3,11.658,3,13.507
			s1.292,2.507,2.5,2.507c0.996,0,2.5,0,2.5-1.5V6.768l5-3.333V8h-1.5C10.292,8,9,8.658,9,10.507s1.292,2.507,2.5,2.507
			c0.996,0,2.5,0,2.5-1.5V2.5C14,2.315,13.898,2.146,13.736,2.06z M7,14.514c0,0.381-0.207,0.5-1.5,0.5
			c-0.684,0-1.5-0.262-1.5-1.507S4.816,12,5.5,12H7V14.514z M13,11.514c0,0.381-0.207,0.5-1.5,0.5c-0.684,0-1.5-0.262-1.5-1.507
			S10.816,9,11.5,9H13V11.514z"/>
		<path d="M11.5,18H1V1h17v11.5c0,0.276,0.224,0.5,0.5,0.5s0.5-0.224,0.5-0.5v-12C19,0.224,18.776,0,18.5,0h-18
			C0.224,0,0,0.224,0,0.5v18C0,18.776,0.224,19,0.5,19h11c0.276,0,0.5-0.224,0.5-0.5S11.776,18,11.5,18z"/>
		<path d="M23.633,15.018c-0.267-0.072-0.542,0.083-0.615,0.35l-0.343,1.248c-1.139-1.691-3.276-2.535-5.322-1.905
			c-2.502,0.77-3.913,3.433-3.144,5.938C14.837,22.687,16.722,24,18.752,24c0.461,0,0.931-0.068,1.395-0.211
			c0.264-0.081,0.412-0.36,0.331-0.625c-0.082-0.264-0.362-0.414-0.625-0.33c-1.979,0.606-4.08-0.505-4.688-2.48
			c-0.607-1.978,0.506-4.08,2.481-4.688c1.67-0.511,3.417,0.21,4.291,1.634l-1.332-0.287c-0.267-0.06-0.536,0.113-0.594,0.383
			c-0.058,0.27,0.113,0.536,0.383,0.594l2.312,0.5c0.011,0.002,0.022,0.002,0.033,0.004c0.015,0.002,0.028,0.004,0.043,0.004
			c0.01,0.001,0.02,0.004,0.03,0.004c0.01,0,0.018-0.009,0.029-0.01c0.039-0.002,0.079,0,0.118-0.013
			c0.048-0.015,0.088-0.043,0.128-0.069c0.011-0.008,0.021-0.01,0.031-0.018c0.077-0.061,0.127-0.142,0.158-0.232
			c0.003-0.01,0.014-0.016,0.017-0.025l0.688-2.5C24.055,15.366,23.899,15.091,23.633,15.018z"/>
	</g>
</g>

</svg>
