<?xml version="1.0" encoding="utf-8"?>
<!-- Generator: Adobe Illustrator 16.0.3, SVG Export Plug-In . SVG Version: 6.00 Build 0)  -->
<!DOCTYPE svg PUBLIC "-//W3C//DTD SVG 1.1//EN" "http://www.w3.org/Graphics/SVG/1.1/DTD/svg11.dtd">
<svg version="1.1" xmlns="http://www.w3.org/2000/svg" xmlns:xlink="http://www.w3.org/1999/xlink" x="0px" y="0px" width="24px"
	 height="24px" viewBox="0 0 24 24" enable-background="new 0 0 24 24" xml:space="preserve">
<g id="Outline_Icons_1_">
	<g id="Outline_Icons">
		<g>
			<path d="M23.597,4.389c-0.195-0.195-0.512-0.195-0.707,0l-2.475,2.476l-3.536-3.536l2.475-2.475c0.195-0.195,0.195-0.512,0-0.707
				s-0.512-0.195-0.707,0l-2.475,2.475l-1.768-1.768c-0.195-0.195-0.512-0.195-0.707,0L9.809,4.742
				C8.673,5.877,8.088,7.428,8.162,9.11c0.043,0.999,0.321,1.968,0.794,2.848l-1.977,1.978c-0.195,0.195-0.195,0.512,0,0.707
				l0.707,0.707l-4.242,4.242c-0.975,0.975-0.975,2.561,0,3.535c0.944,0.945,2.591,0.945,3.536,0l3.182-3.182
				c0.391-0.391,1.025-0.391,1.415,0c0.39,0.39,0.39,1.024,0,1.414l-1.683,1.682c-0.195,0.195-0.195,0.512,0,0.707
				c0.098,0.098,0.226,0.146,0.354,0.146s0.256-0.049,0.354-0.146l1.683-1.682c0.778-0.78,0.778-2.048,0-2.828
				c-0.78-0.779-2.049-0.779-2.829,0L6.272,22.42c-0.566,0.566-1.554,0.566-2.121,0c-0.585-0.585-0.585-1.536,0-2.121l4.242-4.242
				l0.707,0.707c0.098,0.098,0.226,0.146,0.354,0.146s0.256-0.049,0.354-0.146l1.975-1.974c0.986,0.532,2.064,0.802,3.124,0.802
				c1.513,0,2.986-0.548,4.094-1.656l3.89-3.89c0.195-0.195,0.195-0.512,0-0.707L21.122,7.57l2.475-2.475
				C23.792,4.9,23.792,4.584,23.597,4.389z M9.454,15.703L8.04,14.289l1.469-1.471c0.2,0.267,0.414,0.524,0.653,0.764
				c0.241,0.241,0.499,0.453,0.763,0.65L9.454,15.703z M18.293,13.229c-1.949,1.95-5.278,1.791-7.424-0.354
				c-1.04-1.04-1.647-2.393-1.708-3.808C9.1,7.668,9.581,6.384,10.516,5.449l3.535-3.535l7.778,7.778L18.293,13.229z"/>
			<path d="M20.061,9.339l-5.656-5.657c-0.195-0.195-0.512-0.195-0.707,0s-0.195,0.512,0,0.707l5.656,5.657
				c0.098,0.098,0.226,0.146,0.354,0.146s0.256-0.049,0.354-0.146C20.256,9.851,20.256,9.534,20.061,9.339z"/>
			<path d="M12.284,8.632c-0.378,0.377-0.586,0.879-0.586,1.413s0.208,1.036,0.586,1.415c0.39,0.39,0.902,0.585,1.414,0.585
				s1.024-0.195,1.414-0.585c0,0,0,0,0,0c0.377-0.379,0.585-0.881,0.585-1.415s-0.208-1.036-0.586-1.413
				C14.332,7.853,13.063,7.853,12.284,8.632z M14.404,10.753c-0.39,0.391-1.025,0.391-1.414,0c-0.189-0.189-0.293-0.44-0.293-0.708
				c0-0.267,0.104-0.518,0.293-0.706c0.195-0.195,0.451-0.292,0.707-0.292c0.256,0,0.512,0.098,0.708,0.292
				c0.188,0.188,0.292,0.439,0.292,0.706C14.697,10.312,14.593,10.563,14.404,10.753z"/>
		</g>
	</g>
	<g id="New_icons_1_">
	</g>
</g>

</svg>
