<?xml version="1.0" encoding="utf-8"?>
<!-- Generator: Adobe Illustrator 19.2.1, SVG Export Plug-In . SVG Version: 6.00 Build 0)  -->
<svg version="1.1" xmlns="http://www.w3.org/2000/svg" xmlns:xlink="http://www.w3.org/1999/xlink" x="0px" y="0px" width="24px"
	 height="24px" viewBox="0 0 24 24" enable-background="new 0 0 24 24" xml:space="preserve">
<g id="Outline_Icons_1_">
	<g id="Outline_Icons">
	</g>
	<g id="New_icons_1_">
		<path d="M20.5,9h-2.498V3.5c0-1.207-0.86-2.216-2-2.448V0.5c0-0.276-0.224-0.5-0.5-0.5H12.5C12.224,0,12,0.224,12,0.5V9H9.999
			V2.499c0-1.376-1.121-2.498-2.499-2.5c-1.379,0.002-2.5,1.124-2.5,2.501V9H2.5C2.224,9,2,9.224,2,9.5V21
			c0,0.227,0.153,0.426,0.373,0.483l9.5,2.5C11.915,23.995,11.957,24,12,24c0.047,0,0.095-0.007,0.141-0.021l8.5-2.5
			C20.854,21.417,21,21.222,21,21V9.5C21,9.224,20.776,9,20.5,9z M17.002,3.5V9h-1V2.093C16.583,2.3,17.002,2.85,17.002,3.5z M13,1
			h2.002v4H13V1z M13,6h2.002v3H13V6z M7.499,0.998c0.827,0.001,1.499,0.674,1.499,1.5V3h-3V2.5
			C5.999,1.673,6.673,0.999,7.499,0.998z M5.999,4h3v5h-3V4z M20,20.626l-8.007,2.355L3,20.615V10h14.002v2
			c0,0.276,0.224,0.5,0.5,0.5c0.276,0,0.5-0.224,0.5-0.5v-2H20V20.626z"/>
	</g>
</g>

</svg>
