<?xml version="1.0" encoding="utf-8"?>
<!-- Generator: Adobe Illustrator 16.0.3, SVG Export Plug-In . SVG Version: 6.00 Build 0)  -->
<!DOCTYPE svg PUBLIC "-//W3C//DTD SVG 1.1//EN" "http://www.w3.org/Graphics/SVG/1.1/DTD/svg11.dtd">
<svg version="1.1" xmlns="http://www.w3.org/2000/svg" xmlns:xlink="http://www.w3.org/1999/xlink" x="0px" y="0px" width="24px"
	 height="24px" viewBox="0 0 24 24" enable-background="new 0 0 24 24" xml:space="preserve">
<g id="Outline_Icons">
	<g>
		<path d="M12,0C5.383,0,0,5.383,0,12c0,6.617,5.383,12,12,12s12-5.383,12-12C24,5.383,18.617,0,12,0z M12,23
			C5.935,23,1,18.065,1,12S5.935,1,12,1s11,4.935,11,11S18.065,23,12,23z"/>
		<path d="M12.5,7C13.327,7,14,7.673,14,8.5C14,8.776,14.224,9,14.5,9S15,8.776,15,8.5C15,7.122,13.879,6,12.5,6S10,7.122,10,8.5V11
			H8c-0.276,0-0.5,0.224-0.5,0.5S7.724,12,8,12h2v1c0,3-1.129,3-1.5,3C8.224,16,8,16.224,8,16.5S8.224,17,8.5,17h6
			c0.276,0,0.5-0.224,0.5-0.5S14.776,16,14.5,16h-4.148C10.739,15.394,11,14.446,11,13v-1h2c0.276,0,0.5-0.224,0.5-0.5
			S13.276,11,13,11h-2V8.5C11,7.673,11.673,7,12.5,7z"/>
	</g>
</g>

</svg>
