<?xml version="1.0" encoding="utf-8"?>
<!-- Generator: Adobe Illustrator 16.0.3, SVG Export Plug-In . SVG Version: 6.00 Build 0)  -->
<!DOCTYPE svg PUBLIC "-//W3C//DTD SVG 1.1//EN" "http://www.w3.org/Graphics/SVG/1.1/DTD/svg11.dtd">
<svg version="1.1" xmlns="http://www.w3.org/2000/svg" xmlns:xlink="http://www.w3.org/1999/xlink" x="0px" y="0px" width="24px"
	 height="24px" viewBox="0 0 24 24" enable-background="new 0 0 24 24" xml:space="preserve">
<g id="Outline_Icons">
	<g>
		<path d="M22.5,4C22.776,4,23,3.776,23,3.5v-3C23,0.224,22.776,0,22.5,0h-22C0.224,0,0,0.224,0,0.5v3C0,3.776,0.224,4,0.5,4H2v13
			H0.521c-0.276,0-0.5,0.224-0.5,0.5s0.224,0.5,0.5,0.5H2.5H11v2.071c-0.86,0.223-1.5,1-1.5,1.929c0,1.103,0.897,2,2,2s2-0.897,2-2
			c0-0.929-0.64-1.706-1.5-1.929V18h8.5h1.979c0.276,0,0.5-0.224,0.5-0.5s-0.224-0.5-0.5-0.5H21V4H22.5z M12.5,22
			c0,0.551-0.448,1-1,1s-1-0.449-1-1s0.448-1,1-1S12.5,21.449,12.5,22z M1,1h21v2h-1.5h-18H1V1z M20,17H3V4h17V17z"/>
		<path d="M4.562,15h13.969c0.276,0,0.5-0.224,0.5-0.5s-0.224-0.5-0.5-0.5h-1.76l-2.808-7.018c-0.074-0.187-0.252-0.31-0.452-0.315
			c-0.195-0.007-0.385,0.111-0.467,0.293l-2.171,4.775l-1.99-2.389c-0.103-0.124-0.267-0.19-0.422-0.178
			C8.3,9.181,8.154,9.271,8.071,9.41L5.317,14H4.562c-0.276,0-0.5,0.224-0.5,0.5S4.286,15,4.562,15z M8.566,10.528l2.05,2.459
			c0.11,0.132,0.288,0.196,0.45,0.175c0.171-0.023,0.317-0.132,0.389-0.289l2.016-4.434L15.695,14H6.483L8.566,10.528z"/>
		<circle cx="7" cy="7" r="1"/>
	</g>
</g>
<g id="Invisibla_Shape">
	<rect fill="none" width="24" height="24"/>
</g>
</svg>
