<?xml version="1.0" encoding="utf-8"?>
<!-- Generator: Adobe Illustrator 16.0.3, SVG Export Plug-In . SVG Version: 6.00 Build 0)  -->
<!DOCTYPE svg PUBLIC "-//W3C//DTD SVG 1.1//EN" "http://www.w3.org/Graphics/SVG/1.1/DTD/svg11.dtd">
<svg version="1.1" xmlns="http://www.w3.org/2000/svg" xmlns:xlink="http://www.w3.org/1999/xlink" x="0px" y="0px" width="24px"
	 height="24px" viewBox="0 0 24 24" enable-background="new 0 0 24 24" xml:space="preserve">
<g id="Outline_Icons">
	<g>
		<path d="M6.619,11.255c-0.034,0.128-0.016,0.265,0.051,0.379l1,1.732c0.065,0.115,0.175,0.199,0.304,0.233
			c0.128,0.034,0.266,0.016,0.379-0.05l0.694-0.401c0.288,0.223,0.607,0.405,0.953,0.543V14.5c0,0.276,0.224,0.5,0.5,0.5h2
			c0.276,0,0.5-0.224,0.5-0.5v-0.809c0.344-0.139,0.665-0.322,0.952-0.542l0.695,0.401c0.24,0.137,0.546,0.057,0.683-0.183l1-1.732
			c0.066-0.115,0.085-0.251,0.051-0.379c-0.035-0.128-0.118-0.237-0.233-0.304l-0.69-0.398c0.058-0.377,0.058-0.727,0-1.105
			l0.689-0.398c0.115-0.066,0.198-0.176,0.233-0.304c0.034-0.127,0.016-0.265-0.051-0.379l-1-1.732
			c-0.138-0.24-0.444-0.322-0.683-0.183l-0.693,0.4C13.664,6.628,13.346,6.446,13,6.308V5.5C13,5.224,12.776,5,12.5,5h-2
			C10.224,5,10,5.224,10,5.5v0.808c-0.346,0.139-0.664,0.32-0.953,0.544l-0.693-0.4C8.115,6.314,7.809,6.396,7.671,6.635l-1,1.732
			C6.604,8.482,6.586,8.619,6.62,8.747C6.655,8.875,6.738,8.984,6.854,9.05l0.689,0.398c-0.058,0.378-0.058,0.728,0,1.105
			l-0.69,0.398C6.737,11.018,6.654,11.127,6.619,11.255z M8.589,9.309C8.64,9.094,8.544,8.871,8.353,8.761L7.786,8.434l0.501-0.867
			l0.565,0.326c0.191,0.11,0.433,0.083,0.593-0.068c0.335-0.316,0.738-0.546,1.198-0.684C10.855,7.077,11,6.883,11,6.662V6h1v0.662
			c0,0.221,0.145,0.415,0.356,0.479c0.46,0.138,0.863,0.368,1.198,0.684c0.161,0.15,0.401,0.179,0.593,0.068l0.565-0.326
			l0.501,0.867l-0.566,0.327c-0.191,0.11-0.287,0.333-0.236,0.548c0.119,0.504,0.119,0.879,0,1.384
			c-0.051,0.215,0.045,0.438,0.236,0.548l0.567,0.328l-0.501,0.866l-0.567-0.328c-0.19-0.109-0.432-0.082-0.593,0.07
			c-0.333,0.314-0.736,0.544-1.198,0.683C12.145,12.923,12,13.117,12,13.338V14h-1v-0.662c0-0.221-0.145-0.415-0.355-0.479
			c-0.462-0.139-0.865-0.369-1.199-0.684c-0.162-0.152-0.402-0.178-0.593-0.069l-0.567,0.328l-0.5-0.866l0.567-0.328
			c0.191-0.11,0.287-0.333,0.236-0.548C8.47,10.188,8.47,9.813,8.589,9.309z"/>
		<path d="M11.5,12c1.103,0,2-0.897,2-2c0-1.103-0.897-2-2-2s-2,0.897-2,2C9.5,11.103,10.397,12,11.5,12z M11.5,9
			c0.552,0,1,0.449,1,1s-0.448,1-1,1s-1-0.449-1-1S10.948,9,11.5,9z"/>
		<path d="M22.5,4C22.776,4,23,3.776,23,3.5v-3C23,0.224,22.776,0,22.5,0h-22C0.224,0,0,0.224,0,0.5v3C0,3.776,0.224,4,0.5,4H2v13
			H0.521c-0.276,0-0.5,0.224-0.5,0.5s0.224,0.5,0.5,0.5H2.5H11v2.071c-0.86,0.223-1.5,1-1.5,1.929c0,1.103,0.897,2,2,2s2-0.897,2-2
			c0-0.929-0.64-1.706-1.5-1.929V18h8.5h1.979c0.276,0,0.5-0.224,0.5-0.5s-0.224-0.5-0.5-0.5H21V4H22.5z M12.5,22
			c0,0.551-0.448,1-1,1s-1-0.449-1-1s0.448-1,1-1S12.5,21.449,12.5,22z M1,1h21v2h-1.5h-18H1V1z M20,17H3V4h17V17z"/>
	</g>
</g>
<g id="Invisibla_Shape">
	<rect fill="none" width="24" height="24"/>
</g>
</svg>
