<?xml version="1.0" encoding="utf-8"?>
<!-- Generator: Adobe Illustrator 16.0.3, SVG Export Plug-In . SVG Version: 6.00 Build 0)  -->
<!DOCTYPE svg PUBLIC "-//W3C//DTD SVG 1.1//EN" "http://www.w3.org/Graphics/SVG/1.1/DTD/svg11.dtd">
<svg version="1.1" xmlns="http://www.w3.org/2000/svg" xmlns:xlink="http://www.w3.org/1999/xlink" x="0px" y="0px" width="24px"
	 height="24px" viewBox="0 0 24 24" enable-background="new 0 0 24 24" xml:space="preserve">
<g id="Outline_Icons">
	<g>
		<path d="M21.5,6h-19C1.121,6,0,7.121,0,8.5v6C0,15.879,1.121,17,2.5,17H5v4.5C5,21.776,5.224,22,5.5,22h5
			c0.276,0,0.5-0.224,0.5-0.5S10.776,21,10.5,21H6v-7h4.5c0.276,0,0.5-0.224,0.5-0.5S10.776,13,10.5,13h-5C5.224,13,5,13.224,5,13.5
			V16H2.5C1.673,16,1,15.327,1,14.5v-6C1,7.673,1.673,7,2.5,7h19C22.327,7,23,7.673,23,8.5v3c0,0.276,0.224,0.5,0.5,0.5
			s0.5-0.224,0.5-0.5v-3C24,7.121,22.879,6,21.5,6z"/>
		<path d="M5.5,5C5.776,5,6,4.776,6,4.5V1h9v2.5C15,3.776,15.224,4,15.5,4H18v0.5C18,4.776,18.224,5,18.5,5S19,4.776,19,4.5v-1
			c0-0.066-0.014-0.132-0.039-0.192c-0.025-0.062-0.062-0.116-0.108-0.161l-2.998-3c-0.046-0.045-0.101-0.082-0.162-0.107
			C15.632,0.014,15.566,0,15.5,0h-10C5.224,0,5,0.224,5,0.5v4C5,4.776,5.224,5,5.5,5z M16,1.707L17.293,3H16V1.707z"/>
		<path d="M2,9.5C2,10.327,2.673,11,3.5,11S5,10.327,5,9.5S4.327,8,3.5,8S2,8.673,2,9.5z M4,9.5C4,9.775,3.775,10,3.5,10
			S3,9.775,3,9.5S3.225,9,3.5,9S4,9.225,4,9.5z"/>
		<path d="M21,20.293c0.616-0.77,1-1.732,1-2.793c0-2.481-2.019-4.5-4.5-4.5S13,15.019,13,17.5s2.019,4.5,4.5,4.5
			c1.061,0,2.023-0.384,2.793-1l2.854,2.854C23.244,23.951,23.372,24,23.5,24s0.256-0.049,0.354-0.146
			c0.195-0.195,0.195-0.512,0-0.707L21,20.293z M17.5,21c-1.93,0-3.5-1.57-3.5-3.5s1.57-3.5,3.5-3.5s3.5,1.57,3.5,3.5
			S19.43,21,17.5,21z"/>
	</g>
</g>

</svg>
