<?xml version="1.0" encoding="utf-8"?>
<!-- Generator: Adobe Illustrator 16.0.3, SVG Export Plug-In . SVG Version: 6.00 Build 0)  -->
<!DOCTYPE svg PUBLIC "-//W3C//DTD SVG 1.1//EN" "http://www.w3.org/Graphics/SVG/1.1/DTD/svg11.dtd">
<svg version="1.1" xmlns="http://www.w3.org/2000/svg" xmlns:xlink="http://www.w3.org/1999/xlink" x="0px" y="0px" width="24px"
	 height="24px" viewBox="0 0 24 24" enable-background="new 0 0 24 24" xml:space="preserve">
<g id="Outline_Icons">
	<g>
		<path d="M22,2H2C0.897,2,0,2.938,0,4.089v14.822C0,20.062,0.897,21,2,21h9v1H5c-0.276,0-0.5,0.224-0.5,0.5S4.724,23,5,23h14
			c0.276,0,0.5-0.224,0.5-0.5S19.276,22,19,22h-7v-1h10c1.103,0,2-0.938,2-2.089V4.089C24,2.938,23.103,2,22,2z M2,3h20
			c0.552,0,1,0.488,1,1.089V16H1V4.089C1,3.488,1.448,3,2,3z M22,20H2c-0.552,0-1-0.488-1-1.089V17h22v1.911
			C23,19.512,22.552,20,22,20z"/>
		<circle cx="12" cy="18.5" r="1"/>
		<path d="M7.536,12.701c0.655,0,1.497-0.284,1.786-1.636c0.058-0.271-0.115-0.536-0.385-0.594c-0.266-0.05-0.535,0.114-0.594,0.385
			c-0.166,0.779-0.504,0.845-0.808,0.845c-0.461,0-0.91-0.166-0.91-2.15S7.075,7.4,7.536,7.4c0.304,0,0.642,0.065,0.808,0.848
			c0.058,0.271,0.328,0.437,0.594,0.385C9.207,8.575,9.38,8.31,9.322,8.039C9.034,6.685,8.191,6.4,7.536,6.4
			c-1.91,0-1.91,2.208-1.91,3.15S5.626,12.701,7.536,12.701z"/>
		<path d="M11.988,10.02l0.125-0.484l-0.007,0.516c0.482,0.128,0.805,0.316,0.805,0.826c0,0.454-0.332,0.824-0.741,0.824
			c-0.39,0-0.715-0.338-0.74-0.77c-0.016-0.275-0.251-0.495-0.528-0.47c-0.276,0.017-0.486,0.253-0.47,0.528
			c0.057,0.96,0.82,1.711,1.738,1.711c0.96,0,1.741-0.818,1.741-1.824c0-0.632-0.269-1.455-1.55-1.793
			c-0.001,0-0.122-0.032-0.123-0.033c-0.484-0.125-0.808-0.313-0.808-0.824c0-0.455,0.332-0.826,0.741-0.826
			c0.39,0,0.715,0.339,0.74,0.771c0.017,0.275,0.256,0.494,0.528,0.47c0.276-0.017,0.486-0.253,0.47-0.528
			C13.854,7.152,13.09,6.4,12.172,6.4c-0.96,0-1.741,0.819-1.741,1.826C10.431,8.86,10.701,9.687,11.988,10.02z"/>
		<path d="M16.452,10.02l0.125-0.484l-0.007,0.516c0.482,0.128,0.805,0.316,0.805,0.826c0,0.454-0.332,0.824-0.741,0.824
			c-0.39,0-0.715-0.338-0.74-0.77c-0.017-0.275-0.26-0.495-0.528-0.47c-0.276,0.017-0.486,0.253-0.47,0.528
			c0.057,0.96,0.82,1.711,1.738,1.711c0.96,0,1.741-0.818,1.741-1.824c0-0.632-0.269-1.455-1.55-1.793
			c-0.001,0-0.122-0.032-0.123-0.033c-0.484-0.125-0.808-0.313-0.808-0.824c0-0.455,0.332-0.826,0.741-0.826
			c0.39,0,0.715,0.339,0.74,0.771c0.017,0.275,0.26,0.494,0.528,0.47c0.276-0.017,0.486-0.253,0.47-0.528
			c-0.057-0.96-0.82-1.712-1.738-1.712c-0.96,0-1.741,0.819-1.741,1.826C14.895,8.86,15.165,9.687,16.452,10.02z"/>
	</g>
</g>

</svg>
