<?xml version="1.0" encoding="utf-8"?>
<!-- Generator: Adobe Illustrator 19.2.1, SVG Export Plug-In . SVG Version: 6.00 Build 0)  -->
<svg version="1.1" xmlns="http://www.w3.org/2000/svg" xmlns:xlink="http://www.w3.org/1999/xlink" x="0px" y="0px" width="24px"
	 height="24px" viewBox="0 0 24 24" enable-background="new 0 0 24 24" xml:space="preserve">
<g id="Outline_Icons_1_">
	<g id="Outline_Icons">
		<g>
			<path d="M9.017,18.07V17h0.5c0.276,0,0.5-0.224,0.5-0.5v-2c0-0.276-0.224-0.5-0.5-0.5h-5c-0.276,0-0.5,0.224-0.5,0.5v2
				c0,0.276,0.224,0.5,0.5,0.5h0.5v1.07c-3.129,0.539-4.766,2.307-4.999,5.393c-0.011,0.139,0.037,0.275,0.132,0.377
				C0.245,23.942,0.377,24,0.517,24h13.074c0.139,0,0.272-0.058,0.367-0.16c0.095-0.102,0.143-0.239,0.132-0.377
				C13.857,20.381,12.196,18.613,9.017,18.07z M1.074,23c0.346-2.401,1.756-3.644,4.508-4.004c0.249-0.032,0.435-0.245,0.435-0.496
				v-2c0-0.276-0.224-0.5-0.5-0.5h-0.5v-1h4v1h-0.5c-0.276,0-0.5,0.224-0.5,0.5v2c0,0.251,0.186,0.463,0.435,0.496
				c2.759,0.361,4.227,1.639,4.581,4.004H1.074z"/>
			<path d="M23.269,0.428c-0.195-0.195-0.512-0.195-0.707,0c-0.008,0.008-0.011,0.019-0.018,0.028l-2.527,2.526V0.5
				c0-0.173-0.089-0.333-0.236-0.425c-0.146-0.091-0.331-0.1-0.485-0.023c-1.055,0.522-2.734,1.634-4.286,3.188
				c-1.438,1.437-2.555,3.101-3.145,4.686c-0.524,1.408-0.559,2.564-0.122,3.332l-1.304,1.304c-0.195,0.195-0.195,0.512,0,0.707
				s0.512,0.195,0.707,0l1.293-1.293c0.449,0.261,1.038,0.395,1.714,0.395c1.66,0,3.835-0.804,5.701-2.5
				c0.153-0.139,0.205-0.358,0.13-0.55C19.909,9.127,19.723,9,19.517,9h-4.104l1-1h4.604c0.276,0,0.5-0.224,0.5-0.5
				S21.293,7,21.017,7h-3.604l1-1h4.058c0.179,0,0.345-0.096,0.434-0.252C24.201,3.486,24.337,1.498,23.269,0.428z M12.801,8.275
				c0.533-1.432,1.596-3.01,2.915-4.329c1.139-1.141,2.369-2.038,3.3-2.599v2.635l-6.513,6.513
				C12.365,9.973,12.463,9.182,12.801,8.275z M18.076,10c-1.97,1.33-3.909,1.547-4.875,1.211L14.413,10H18.076z M22.176,5h-2.764
				l0.428-0.428c0.018-0.016,0.034-0.031,0.05-0.049l2.947-2.947C23.161,2.354,22.934,3.589,22.176,5z"/>
		</g>
	</g>
	<g id="New_icons_1_">
	</g>
</g>

</svg>
