<?xml version="1.0" encoding="utf-8"?>
<!-- Generator: Adobe Illustrator 19.2.1, SVG Export Plug-In . SVG Version: 6.00 Build 0)  -->
<svg version="1.1" xmlns="http://www.w3.org/2000/svg" xmlns:xlink="http://www.w3.org/1999/xlink" x="0px" y="0px" width="24px"
	 height="24px" viewBox="0 0 24 24" enable-background="new 0 0 24 24" xml:space="preserve">
<g id="Outline_Icons_1_">
	<g id="Outline_Icons">
		<g>
			<path d="M12,0C5.383,0,0,5.383,0,12s5.383,12,12,12s12-5.383,12-12S18.617,0,12,0z M12,23C5.935,23,1,18.065,1,12S5.935,1,12,1
				s11,4.935,11,11S18.065,23,12,23z"/>
			<path d="M17.58,5.456l-2.526,2.526V5.5c0-0.173-0.089-0.333-0.236-0.425c-0.147-0.091-0.331-0.1-0.486-0.023
				c-1.056,0.523-2.736,1.635-4.286,3.186c-1.438,1.438-2.555,3.102-3.145,4.688c-0.524,1.409-0.559,2.565-0.122,3.332l-1.303,1.303
				c-0.195,0.195-0.195,0.512,0,0.707c0.195,0.195,0.512,0.195,0.707,0l1.293-1.294c0.449,0.261,1.038,0.395,1.714,0.395
				c1.66,0,3.835-0.803,5.7-2.499c0.153-0.139,0.205-0.358,0.13-0.55c-0.074-0.193-0.26-0.32-0.466-0.32h-4.104l1-1h4.604
				c0.276,0,0.5-0.224,0.5-0.5s-0.224-0.5-0.5-0.5h-3.604l1-1h4.058c0.179,0,0.345-0.096,0.434-0.252
				c1.297-2.262,1.433-4.251,0.365-5.321C18.114,5.234,17.78,5.219,17.58,5.456z M7.839,13.274c0.533-1.433,1.596-3.01,2.915-4.33
				c1.139-1.139,2.368-2.036,3.301-2.597v2.634l-6.513,6.514C7.403,14.974,7.501,14.182,7.839,13.274z M13.114,15
				c-1.968,1.328-3.907,1.546-4.873,1.211L9.451,15H13.114z M17.214,10h-2.764l0.43-0.43c0.017-0.015,0.032-0.03,0.047-0.047
				l2.948-2.948C18.199,7.354,17.972,8.59,17.214,10z"/>
		</g>
	</g>
	<g id="New_icons_1_">
	</g>
</g>

</svg>
