<?xml version="1.0" encoding="utf-8"?>
<!-- Generator: Adobe Illustrator 16.0.3, SVG Export Plug-In . SVG Version: 6.00 Build 0)  -->
<!DOCTYPE svg PUBLIC "-//W3C//DTD SVG 1.1//EN" "http://www.w3.org/Graphics/SVG/1.1/DTD/svg11.dtd">
<svg version="1.1" xmlns="http://www.w3.org/2000/svg" xmlns:xlink="http://www.w3.org/1999/xlink" x="0px" y="0px" width="24px"
	 height="24px" viewBox="0 0 24 24" enable-background="new 0 0 24 24" xml:space="preserve">
<g id="Outline_Icons">
	<g>
		<path d="M21.5,14H12v-2h1c1.794,0,3-1.406,3-3.5v-5C16,1.406,14.794,0,13,0h-3C8.206,0,7,1.406,7,3.5v5c0,2.094,1.206,3.5,3,3.5h1
			v2H2.5C1.122,14,0,15.121,0,16.5v5C0,22.879,1.122,24,2.5,24h19c1.378,0,2.5-1.121,2.5-2.5v-5C24,15.121,22.878,14,21.5,14z
			 M10,11c-1.475,0-2-1.291-2-2.5V7h2.5C10.776,7,11,6.776,11,6.5S10.776,6,10.5,6H8V5h2.5C10.776,5,11,4.776,11,4.5
			S10.776,4,10.5,4H8V3.5C8,2.291,8.525,1,10,1h3c1.475,0,2,1.291,2,2.5V4h-1.5C13.224,4,13,4.224,13,4.5S13.224,5,13.5,5H15v1h-1.5
			C13.224,6,13,6.224,13,6.5S13.224,7,13.5,7H15v1.5c0,1.209-0.525,2.5-2,2.5h-1V9c0-0.276-0.224-0.5-0.5-0.5S11,8.724,11,9v2H10z
			 M23,21.5c0,0.827-0.673,1.5-1.5,1.5h-19C1.673,23,1,22.327,1,21.5v-5C1,15.673,1.673,15,2.5,15h19c0.827,0,1.5,0.673,1.5,1.5
			V21.5z"/>
		<path d="M9.5,17C9.224,17,9,17.224,9,17.5v1.349l-1.084-1.626c-0.122-0.184-0.35-0.265-0.561-0.201S7,17.279,7,17.5v3
			C7,20.776,7.224,21,7.5,21S8,20.776,8,20.5v-1.349l1.084,1.626C9.178,20.919,9.336,21,9.5,21c0.048,0,0.097-0.007,0.145-0.021
			C9.856,20.915,10,20.721,10,20.5v-3C10,17.224,9.776,17,9.5,17z"/>
		<path d="M4.5,17C3,17,3,18.062,3,19s0,2,1.5,2S6,19.938,6,19S6,17,4.5,17z M4.5,20C4.009,20,4,20,4,19s0.009-1,0.5-1S5,18,5,19
			S4.991,20,4.5,20z"/>
		<path d="M16.5,17c-0.276,0-0.5,0.224-0.5,0.5v3c0,0.276,0.224,0.5,0.5,0.5s0.5-0.224,0.5-0.5v-3C17,17.224,16.776,17,16.5,17z"/>
		<path d="M14.064,17.328c-0.145-0.395-0.795-0.395-0.939,0l-1.095,3c-0.095,0.26,0.039,0.547,0.298,0.642
			c0.259,0.093,0.546-0.039,0.641-0.298l0.062-0.172h1.125l0.062,0.172C14.294,20.874,14.485,21,14.689,21
			c0.057,0,0.115-0.01,0.171-0.03c0.259-0.095,0.393-0.382,0.298-0.642L14.064,17.328z M13.397,19.5l0.197-0.541l0.197,0.541H13.397
			z"/>
		<path d="M20.72,18.031c0-0.206,0-0.688-0.438-0.91C20.047,17.001,19.773,17,19.307,17c-0.004,0-0.008,0-0.013,0H18.5
			c-0.276,0-0.5,0.224-0.5,0.5v3c0,0.276,0.224,0.5,0.5,0.5s0.5-0.224,0.5-0.5v-1h0.015l0.779,1.263
			C19.889,20.916,20.053,21,20.22,21c0.089,0,0.18-0.024,0.262-0.074c0.235-0.146,0.308-0.453,0.163-0.688l-0.563-0.913
			C20.442,19.133,20.72,18.755,20.72,18.031z M19,18h0.311c0.154,0.013,0.302,0,0.409,0.005c0,0.009,0,0.018,0,0.026
			c0,0.416-0.048,0.469-0.426,0.469H19V18z"/>
	</g>
</g>

</svg>
