<?xml version="1.0" encoding="utf-8"?>
<!-- Generator: Adobe Illustrator 16.0.3, SVG Export Plug-In . SVG Version: 6.00 Build 0)  -->
<!DOCTYPE svg PUBLIC "-//W3C//DTD SVG 1.1//EN" "http://www.w3.org/Graphics/SVG/1.1/DTD/svg11.dtd">
<svg version="1.1" xmlns="http://www.w3.org/2000/svg" xmlns:xlink="http://www.w3.org/1999/xlink" x="0px" y="0px" width="24px"
	 height="24px" viewBox="0 0 24 24" enable-background="new 0 0 24 24" xml:space="preserve">
<g id="Outline_Icons_1_">
	<g id="Outline_Icons">
		<g>
			<path d="M11.536,4.314L9.661,9H5.5C5.298,9,5.115,9.122,5.038,9.309C4.961,9.496,5.004,9.71,5.146,9.854l3.295,3.295
				l-1.424,5.221c-0.057,0.207,0.026,0.428,0.205,0.547c0.178,0.119,0.414,0.111,0.584-0.021L12,15.633l4.193,3.261
				C16.283,18.965,16.392,19,16.5,19c0.097,0,0.193-0.028,0.277-0.084c0.179-0.119,0.262-0.34,0.205-0.547l-1.424-5.221l3.295-3.295
				c0.143-0.143,0.186-0.358,0.108-0.544C18.885,9.122,18.702,9,18.5,9h-4.161l-1.875-4.686C12.313,3.935,11.687,3.935,11.536,4.314
				z M13.536,9.686C13.611,9.875,13.796,10,14,10h3.293l-2.646,2.646c-0.127,0.127-0.176,0.312-0.129,0.485l1.105,4.054l-3.316-2.58
				C12.217,14.535,12.108,14.5,12,14.5s-0.217,0.035-0.307,0.105l-3.316,2.58l1.105-4.054c0.047-0.173-0.002-0.357-0.129-0.485
				L6.707,10H10c0.204,0,0.389-0.125,0.464-0.314L12,5.847L13.536,9.686z"/>
			<path d="M21.732,5.058l-9.5-5c-0.145-0.077-0.32-0.077-0.465,0l-9.5,5C2.103,5.144,2,5.314,2,5.5v16C2,21.776,2.224,22,2.5,22h19
				c0.276,0,0.5-0.224,0.5-0.5v-16C22,5.314,21.897,5.144,21.732,5.058z M21,21H3V5.802l9-4.737l9,4.737V21z"/>
			<path d="M21.5,23h-19C2.224,23,2,23.224,2,23.5S2.224,24,2.5,24h19c0.276,0,0.5-0.224,0.5-0.5S21.776,23,21.5,23z"/>
		</g>
	</g>
	<g id="New_icons_1_">
	</g>
</g>

</svg>
