<?xml version="1.0" encoding="utf-8"?>
<!-- Generator: Adobe Illustrator 16.0.3, SVG Export Plug-In . SVG Version: 6.00 Build 0)  -->
<!DOCTYPE svg PUBLIC "-//W3C//DTD SVG 1.1//EN" "http://www.w3.org/Graphics/SVG/1.1/DTD/svg11.dtd">
<svg version="1.1" xmlns="http://www.w3.org/2000/svg" xmlns:xlink="http://www.w3.org/1999/xlink" x="0px" y="0px" width="24px"
	 height="24px" viewBox="0 0 24 24" enable-background="new 0 0 24 24" xml:space="preserve">
<g id="Outline_Icons_1_">
	<g id="Outline_Icons">
		<g>
			<path d="M20.5,0h-17C3.224,0,3,0.224,3,0.5v23c0,0.184,0.101,0.352,0.261,0.439c0.162,0.087,0.357,0.079,0.511-0.02L12,18.596
				l8.229,5.324C20.311,23.974,20.405,24,20.5,24c0.082,0,0.164-0.02,0.239-0.061C20.899,23.852,21,23.684,21,23.5v-23
				C21,0.224,20.776,0,20.5,0z M20,22.581l-7.729-5.001C12.189,17.527,12.095,17.5,12,17.5s-0.189,0.027-0.271,0.08L4,22.581V1h16
				V22.581z"/>
			<path d="M8.938,11.184l-0.924,3.695c-0.051,0.203,0.031,0.417,0.204,0.534c0.173,0.118,0.401,0.117,0.572-0.006L12,13.114
				l3.209,2.293c0.087,0.062,0.189,0.093,0.291,0.093c0.099,0,0.196-0.029,0.281-0.087c0.173-0.118,0.255-0.331,0.204-0.534
				l-0.924-3.695l2.759-2.299c0.161-0.135,0.222-0.356,0.149-0.555C17.898,8.132,17.711,8,17.5,8h-3.653l-1.379-3.676
				c-0.146-0.39-0.789-0.39-0.936,0L10.153,8H6.5C6.289,8,6.102,8.132,6.03,8.33C5.958,8.528,6.019,8.75,6.18,8.885L8.938,11.184z
				 M10.5,9c0.208,0,0.395-0.129,0.468-0.324L12,5.924l1.032,2.752C13.105,8.871,13.292,9,13.5,9h2.619l-1.939,1.616
				c-0.147,0.124-0.211,0.32-0.165,0.505l0.671,2.683l-2.395-1.71C12.204,12.031,12.102,12,12,12s-0.204,0.031-0.291,0.093
				l-2.395,1.71l0.671-2.683c0.046-0.186-0.018-0.382-0.165-0.505L7.881,9H10.5z"/>
		</g>
	</g>
	<g id="New_icons_1_">
	</g>
</g>

</svg>
