<?xml version="1.0" encoding="utf-8"?>
<!-- Generator: Adobe Illustrator 16.0.3, SVG Export Plug-In . SVG Version: 6.00 Build 0)  -->
<!DOCTYPE svg PUBLIC "-//W3C//DTD SVG 1.1//EN" "http://www.w3.org/Graphics/SVG/1.1/DTD/svg11.dtd">
<svg version="1.1" xmlns="http://www.w3.org/2000/svg" xmlns:xlink="http://www.w3.org/1999/xlink" x="0px" y="0px" width="24px"
	 height="24px" viewBox="0 0 24 24" enable-background="new 0 0 24 24" xml:space="preserve">
<g id="Outline_Icons">
	<g>
		<path d="M6.5,8c2.206,0,4-1.794,4-4c0-2.206-1.794-4-4-4s-4,1.794-4,4C2.5,6.206,4.295,8,6.5,8z M6.5,1c1.654,0,3,1.346,3,3
			s-1.346,3-3,3s-3-1.346-3-3S4.846,1,6.5,1z"/>
		<path d="M23.5,13h-0.55c-0.255-2.52-2.364-4.5-4.95-4.5s-4.694,1.98-4.95,4.5h-1.032c0.312-1.053,0.482-2.227,0.482-3.5
			C12.5,9.224,12.277,9,12,9H1C0.724,9,0.5,9.224,0.5,9.5c0,3.555,1.271,6.37,3.5,7.783V23.5C4,23.776,4.224,24,4.5,24h4
			C8.777,24,9,23.776,9,23.5v-6.217c1.166-0.74,2.062-1.871,2.659-3.283H23.5c0.276,0,0.5-0.224,0.5-0.5S23.777,13,23.5,13z
			 M8.253,16.565C8.097,16.654,8,16.82,8,17v6H5v-6c0-0.18-0.097-0.346-0.253-0.435C2.789,15.452,1.623,13.075,1.51,10h9.981
			C11.378,13.074,10.212,15.451,8.253,16.565z M18,9.5c2.035,0,3.7,1.532,3.95,3.5h-7.899C14.3,11.032,15.966,9.5,18,9.5z"/>
		<path d="M18,7.5c1.654,0,3-1.346,3-3s-1.346-3-3-3s-3,1.346-3,3S16.346,7.5,18,7.5z M18,2.5c1.103,0,2,0.896,2,2
			c0,1.103-0.897,2-2,2s-2-0.897-2-2C16,3.396,16.897,2.5,18,2.5z"/>
	</g>
</g>

</svg>
