<?xml version="1.0" encoding="utf-8"?>
<!-- Generator: Adobe Illustrator 16.0.3, SVG Export Plug-In . SVG Version: 6.00 Build 0)  -->
<!DOCTYPE svg PUBLIC "-//W3C//DTD SVG 1.1//EN" "http://www.w3.org/Graphics/SVG/1.1/DTD/svg11.dtd">
<svg version="1.1" xmlns="http://www.w3.org/2000/svg" xmlns:xlink="http://www.w3.org/1999/xlink" x="0px" y="0px" width="24px"
	 height="24px" viewBox="0 0 24 24" enable-background="new 0 0 24 24" xml:space="preserve">
<g id="Outline_Icons">
	<g>
		<path d="M11.5,0C5.159,0,0,5.159,0,11.5S5.159,23,11.5,23S23,17.841,23,11.5S17.841,0,11.5,0z M11.5,22C5.71,22,1,17.29,1,11.5
			S5.71,1,11.5,1S22,5.71,22,11.5S17.29,22,11.5,22z"/>
		<path d="M18.218,7.611l-2.829-2.828c-0.195-0.195-0.512-0.195-0.707,0L11.5,7.966L8.318,4.783c-0.195-0.195-0.512-0.195-0.707,0
			L4.783,7.611c-0.195,0.195-0.195,0.512,0,0.707L7.965,11.5l-3.182,3.183c-0.195,0.195-0.195,0.512,0,0.707l2.828,2.829
			c0.188,0.188,0.52,0.188,0.707,0l3.182-3.184l3.182,3.184c0.195,0.195,0.512,0.195,0.707,0l2.829-2.829
			c0.195-0.195,0.195-0.512,0-0.707L15.035,11.5l3.183-3.182C18.413,8.123,18.413,7.807,18.218,7.611z M13.975,11.146
			c-0.094,0.094-0.146,0.221-0.146,0.354s0.053,0.26,0.146,0.354l3.183,3.183l-2.122,2.122l-3.182-3.184
			c-0.094-0.094-0.221-0.146-0.354-0.146s-0.26,0.053-0.354,0.146l-3.182,3.184l-2.121-2.122l3.182-3.183
			c0.195-0.195,0.195-0.512,0-0.707L5.844,7.965l2.121-2.121l3.182,3.183c0.188,0.188,0.52,0.188,0.707,0l3.182-3.183l2.122,2.121
			L13.975,11.146z"/>
	</g>
</g>

</svg>
