<?xml version="1.0" encoding="utf-8"?>
<!-- Generator: Adobe Illustrator 16.0.3, SVG Export Plug-In . SVG Version: 6.00 Build 0)  -->
<!DOCTYPE svg PUBLIC "-//W3C//DTD SVG 1.1//EN" "http://www.w3.org/Graphics/SVG/1.1/DTD/svg11.dtd">
<svg version="1.1" xmlns="http://www.w3.org/2000/svg" xmlns:xlink="http://www.w3.org/1999/xlink" x="0px" y="0px" width="24px"
	 height="24px" viewBox="0 0 24 24" enable-background="new 0 0 24 24" xml:space="preserve">
<g id="Outline_Icons">
	<g>
		<path d="M16.096,6.904c-0.195-0.195-0.512-0.195-0.707,0l-3.889,3.89l-3.89-3.89c-0.195-0.195-0.512-0.195-0.707,0
			s-0.195,0.512,0,0.707l3.89,3.889l-3.89,3.89c-0.195,0.195-0.195,0.512,0,0.707s0.512,0.195,0.707,0l3.89-3.89l3.889,3.89
			c0.195,0.195,0.512,0.195,0.707,0s0.195-0.512,0-0.707l-3.889-3.89l3.889-3.889C16.291,7.416,16.291,7.1,16.096,6.904z"/>
		<path d="M0.5,23h22c0.276,0,0.5-0.224,0.5-0.5v-22C23,0.224,22.776,0,22.5,0h-22C0.224,0,0,0.224,0,0.5v22
			C0,22.776,0.224,23,0.5,23z M1,1h21v21H1V1z"/>
	</g>
</g>

</svg>
