<?xml version="1.0" encoding="utf-8"?>
<!-- Generator: Adobe Illustrator 16.0.3, SVG Export Plug-In . SVG Version: 6.00 Build 0)  -->
<!DOCTYPE svg PUBLIC "-//W3C//DTD SVG 1.1//EN" "http://www.w3.org/Graphics/SVG/1.1/DTD/svg11.dtd">
<svg version="1.1" xmlns="http://www.w3.org/2000/svg" xmlns:xlink="http://www.w3.org/1999/xlink" x="0px" y="0px" width="24px"
	 height="24px" viewBox="0 0 24 24" enable-background="new 0 0 24 24" xml:space="preserve">
<g id="Outline_Icons">
	<path d="M19.925,9.037C19.969,8.696,20,8.352,20,8c0-4.411-3.589-8-8-8S4,3.589,4,8c0,0.352,0.031,0.696,0.075,1.037
		C1.646,10.412,0,13.015,0,16c0,4.411,3.589,8,8,8c1.458,0,2.822-0.398,4-1.082C13.178,23.602,14.542,24,16,24c4.411,0,8-3.589,8-8
		C24,13.015,22.354,10.412,19.925,9.037z M5,8c0-3.86,3.14-7,7-7s7,3.14,7,7c0,0.195-0.014,0.387-0.029,0.578
		C18.051,8.209,17.05,8,16,8c-1.458,0-2.822,0.398-4,1.083C10.822,8.398,9.458,8,8,8C6.95,8,5.949,8.209,5.029,8.578
		C5.014,8.387,5,8.195,5,8z M15,16c0,2.373-1.189,4.47-3,5.736C10.189,20.47,9,18.373,9,16c0-0.195,0.014-0.387,0.029-0.578
		C9.949,15.791,10.95,16,12,16s2.051-0.209,2.971-0.578C14.986,15.613,15,15.805,15,16z M12,15c-1,0-1.949-0.214-2.81-0.593
		c0.399-1.704,1.418-3.169,2.81-4.143c1.392,0.974,2.411,2.439,2.81,4.143C13.949,14.786,13,15,12,15z M8.284,13.922
		c-1.536-0.968-2.668-2.511-3.094-4.329C6.051,9.214,7,9,8,9c1.1,0,2.138,0.263,3.065,0.716C9.729,10.768,8.739,12.234,8.284,13.922
		z M12.935,9.716C13.862,9.263,14.9,9,16,9c1,0,1.949,0.214,2.81,0.593c-0.425,1.817-1.558,3.361-3.094,4.329
		C15.261,12.234,14.271,10.768,12.935,9.716z M8,23c-3.86,0-7-3.14-7-7c0-2.494,1.315-4.681,3.284-5.921
		c0.563,2.089,1.948,3.841,3.792,4.885C8.031,15.304,8,15.648,8,16c0,2.549,1.202,4.818,3.065,6.284C10.138,22.738,9.1,23,8,23z
		 M16,23c-1.1,0-2.138-0.262-3.065-0.716C14.798,20.818,16,18.549,16,16c0-0.352-0.031-0.696-0.075-1.037
		c1.843-1.043,3.228-2.795,3.792-4.885C21.685,11.319,23,13.506,23,16C23,19.86,19.86,23,16,23z"/>
</g>

</svg>
