<?xml version="1.0" encoding="utf-8"?>
<!-- Generator: Adobe Illustrator 16.0.3, SVG Export Plug-In . SVG Version: 6.00 Build 0)  -->
<!DOCTYPE svg PUBLIC "-//W3C//DTD SVG 1.1//EN" "http://www.w3.org/Graphics/SVG/1.1/DTD/svg11.dtd">
<svg version="1.1" xmlns="http://www.w3.org/2000/svg" xmlns:xlink="http://www.w3.org/1999/xlink" x="0px" y="0px" width="24px"
	 height="24px" viewBox="0 0 24 24" enable-background="new 0 0 24 24" xml:space="preserve">
<g id="Outline_Icons">
	<g>
		<path d="M12,1C6.701,1,3,4.29,3,9v9.5C3,20.981,5.019,23,7.5,23h9c2.481,0,4.5-2.019,4.5-4.5V9C21,4.29,17.299,1,12,1z M12,2
			c4.71,0,8,2.879,8,7H4C4,4.879,7.29,2,12,2z M19.949,19H16v-5.5c0-0.276-0.224-0.5-0.5-0.5h-7C8.224,13,8,13.224,8,13.5V19H4.051
			C4.026,18.835,4,18.672,4,18.5V10h16v8.5C20,18.672,19.974,18.835,19.949,19z M15,19H9v-5h6V19z M16.5,22h-9
			c-1.391,0-2.585-0.822-3.148-2H8.5h7h4.148C19.085,21.178,17.891,22,16.5,22z"/>
		<path d="M12,3C9.047,3,6.706,4.722,6.035,7.386c-0.037,0.149-0.004,0.308,0.091,0.43c0.095,0.121,0.24,0.192,0.395,0.192l11-0.004
			c0.154,0,0.3-0.071,0.395-0.192c0.095-0.122,0.128-0.28,0.09-0.43C17.334,4.72,14.977,3,12,3z M7.203,7.008
			C8.06,4.804,10.188,4,12,4c2.259,0,4.089,1.159,4.833,3.004L7.203,7.008z"/>
		<path d="M11,18h2c0.276,0,0.5-0.224,0.5-0.5S13.276,17,13,17h-2c-0.276,0-0.5,0.224-0.5,0.5S10.724,18,11,18z"/>
		<path d="M11,16h2c0.276,0,0.5-0.224,0.5-0.5S13.276,15,13,15h-2c-0.276,0-0.5,0.224-0.5,0.5S10.724,16,11,16z"/>
	</g>
</g>

</svg>
