<?xml version="1.0" encoding="utf-8"?>
<!-- Generator: Adobe Illustrator 16.0.3, SVG Export Plug-In . SVG Version: 6.00 Build 0)  -->
<!DOCTYPE svg PUBLIC "-//W3C//DTD SVG 1.1//EN" "http://www.w3.org/Graphics/SVG/1.1/DTD/svg11.dtd">
<svg version="1.1" xmlns="http://www.w3.org/2000/svg" xmlns:xlink="http://www.w3.org/1999/xlink" x="0px" y="0px" width="24px"
	 height="24px" viewBox="0 0 24 24" enable-background="new 0 0 24 24" xml:space="preserve">
<g id="Outline_Icons_1_">
	<g id="Outline_Icons">
	</g>
	<g id="New_icons_1_">
		<g>
			<path d="M2.854,4.354L5,2.207V11c0,0.276,0.224,0.5,0.5,0.5S6,11.276,6,11V2.207l2.146,2.146C8.244,4.451,8.372,4.5,8.5,4.5
				s0.256-0.049,0.354-0.146c0.195-0.195,0.195-0.512,0-0.707l-3-2.999C5.808,0.601,5.752,0.563,5.691,0.538
				c-0.122-0.05-0.26-0.05-0.382,0C5.248,0.563,5.192,0.601,5.146,0.647l-3,2.999c-0.195,0.195-0.195,0.512,0,0.707
				S2.658,4.549,2.854,4.354z"/>
			<path d="M14.146,11.353c0.046,0.047,0.102,0.084,0.163,0.109C14.37,11.486,14.435,11.5,14.5,11.5s0.13-0.014,0.191-0.038
				c0.062-0.025,0.117-0.062,0.163-0.109l3-2.999c0.195-0.195,0.195-0.512,0-0.707s-0.512-0.195-0.707,0L15,9.793V1
				c0-0.276-0.224-0.5-0.5-0.5S14,0.724,14,1v8.793l-2.146-2.146c-0.195-0.195-0.512-0.195-0.707,0s-0.195,0.512,0,0.707
				L14.146,11.353z"/>
			<path d="M6.5,22H3v-8.5C3,13.224,2.776,13,2.5,13S2,13.224,2,13.5v9C2,22.776,2.224,23,2.5,23h4C6.776,23,7,22.776,7,22.5
				S6.776,22,6.5,22z"/>
			<path d="M12.5,13h-6C6.224,13,6,13.224,6,13.5S6.224,14,6.5,14H9v8.5C9,22.776,9.224,23,9.5,23s0.5-0.224,0.5-0.5V14h2.5
				c0.276,0,0.5-0.224,0.5-0.5S12.776,13,12.5,13z"/>
			<path d="M19.5,22H15v-3h4c0.276,0,0.5-0.224,0.5-0.5S19.276,18,19,18h-4v-4h4.5c0.276,0,0.5-0.224,0.5-0.5S19.776,13,19.5,13h-5
				c-0.276,0-0.5,0.224-0.5,0.5v9c0,0.276,0.224,0.5,0.5,0.5h5c0.276,0,0.5-0.224,0.5-0.5S19.776,22,19.5,22z"/>
		</g>
	</g>
</g>

</svg>
