<?xml version="1.0" encoding="utf-8"?>
<!-- Generator: Adobe Illustrator 16.0.3, SVG Export Plug-In . SVG Version: 6.00 Build 0)  -->
<!DOCTYPE svg PUBLIC "-//W3C//DTD SVG 1.1//EN" "http://www.w3.org/Graphics/SVG/1.1/DTD/svg11.dtd">
<svg version="1.1" xmlns="http://www.w3.org/2000/svg" xmlns:xlink="http://www.w3.org/1999/xlink" x="0px" y="0px" width="24px"
	 height="24px" viewBox="0 0 24 24" enable-background="new 0 0 24 24" xml:space="preserve">
<g id="Outline_Icons_1_">
	<g id="Outline_Icons">
	</g>
	<g id="New_icons_1_">
		<g>
			<path d="M6.854,0.647C6.808,0.601,6.752,0.563,6.691,0.538c-0.122-0.05-0.26-0.05-0.382,0C6.248,0.563,6.192,0.601,6.146,0.647
				l-3,2.999c-0.195,0.195-0.195,0.512,0,0.707s0.512,0.195,0.707,0L6,2.207V11c0,0.276,0.224,0.5,0.5,0.5S7,11.276,7,11V2.207
				l2.146,2.146C9.244,4.451,9.372,4.5,9.5,4.5s0.256-0.049,0.354-0.146c0.195-0.195,0.195-0.512,0-0.707L6.854,0.647z"/>
			<path d="M18.854,7.646c-0.195-0.195-0.512-0.195-0.707,0L16,9.793V1c0-0.276-0.224-0.5-0.5-0.5S15,0.724,15,1v8.793l-2.146-2.146
				c-0.195-0.195-0.512-0.195-0.707,0s-0.195,0.512,0,0.707l3,2.999c0.046,0.047,0.102,0.084,0.163,0.109
				C15.37,11.486,15.435,11.5,15.5,11.5s0.13-0.014,0.191-0.038c0.062-0.025,0.117-0.062,0.163-0.109l3-2.999
				C19.049,8.158,19.049,7.842,18.854,7.646z"/>
			<path d="M9,15.75C9,14.233,7.767,13,6.25,13S3.5,14.233,3.5,15.75c0,0.276,0.224,0.5,0.5,0.5s0.5-0.224,0.5-0.5
				C4.5,14.785,5.285,14,6.25,14S8,14.785,8,15.75S7.215,17.5,6.25,17.5c-0.276,0-0.5,0.224-0.5,0.5s0.224,0.5,0.5,0.5
				C7.215,18.5,8,19.285,8,20.25S7.215,22,6.25,22S4.5,21.215,4.5,20.25c0-0.276-0.224-0.5-0.5-0.5s-0.5,0.224-0.5,0.5
				C3.5,21.767,4.733,23,6.25,23S9,21.767,9,20.25c0-0.931-0.467-1.752-1.177-2.25C8.533,17.502,9,16.681,9,15.75z"/>
			<path d="M15.5,13h-1c-1.378,0-2.5,1.121-2.5,2.5v5c0,1.379,1.122,2.5,2.5,2.5h1c1.378,0,2.5-1.121,2.5-2.5v-2.001
				c0-0.276-0.224-0.5-0.5-0.5h-3c-0.276,0-0.5,0.224-0.5,0.5s0.224,0.5,0.5,0.5H17V20.5c0,0.827-0.673,1.5-1.5,1.5h-1
				c-0.827,0-1.5-0.673-1.5-1.5v-5c0-0.827,0.673-1.5,1.5-1.5h1c0.827,0,1.5,0.673,1.5,1.5v1c0,0.276,0.224,0.5,0.5,0.5
				s0.5-0.224,0.5-0.5v-1C18,14.121,16.878,13,15.5,13z"/>
		</g>
	</g>
</g>

</svg>
