<?xml version="1.0" encoding="utf-8"?>
<!-- Generator: Adobe Illustrator 16.0.3, SVG Export Plug-In . SVG Version: 6.00 Build 0)  -->
<!DOCTYPE svg PUBLIC "-//W3C//DTD SVG 1.1//EN" "http://www.w3.org/Graphics/SVG/1.1/DTD/svg11.dtd">
<svg version="1.1" xmlns="http://www.w3.org/2000/svg" xmlns:xlink="http://www.w3.org/1999/xlink" x="0px" y="0px" width="24px"
	 height="24px" viewBox="0 0 24 24" enable-background="new 0 0 24 24" xml:space="preserve">
<g id="Outline_Icons">
	<path d="M22.999,12.493c-0.001-0.016-0.008-0.031-0.01-0.047c-0.006-0.05-0.012-0.1-0.031-0.145c-0.001,0-0.001-0.002-0.001-0.003
		L19.765,5H20.5C20.776,5,21,4.776,21,4.5S20.776,4,20.5,4h-7.312c-0.34-0.583-0.965-0.98-1.688-0.98
		c-0.722,0-1.348,0.397-1.687,0.98H2.5C2.224,4,2,4.224,2,4.5S2.224,5,2.5,5h0.735l-3.192,7.298c0,0,0,0.002-0.001,0.003
		c-0.02,0.046-0.026,0.097-0.032,0.148c-0.001,0.015-0.008,0.029-0.008,0.044C0.001,12.495,0,12.498,0,12.5c0,2.206,1.794,4,4,4
		s4-1.794,4-4c0-0.091-0.031-0.172-0.074-0.246L4.763,5h4.78C9.553,5.896,10.17,6.644,11,6.865V21.02H8.581
		c-0.276,0-0.5,0.224-0.5,0.5s0.224,0.5,0.5,0.5h5.811c0.276,0,0.5-0.224,0.5-0.5s-0.224-0.5-0.5-0.5H12V6.865
		C12.831,6.644,13.448,5.896,13.458,5h4.779l-3.163,7.254C15.031,12.328,15,12.409,15,12.5c0,2.206,1.794,4,4,4s4-1.794,4-4
		C23,12.498,22.999,12.496,22.999,12.493z M3.999,5.749L6.726,12H1.265L3.999,5.749z M4,15.5c-1.483,0-2.72-1.083-2.958-2.5h5.916
		C6.72,14.417,5.483,15.5,4,15.5z M11.5,5.938c-0.528,0-0.959-0.43-0.959-0.959S10.972,4.02,11.5,4.02c0.529,0,0.96,0.43,0.96,0.959
		S12.029,5.938,11.5,5.938z M21.735,12h-5.461l2.727-6.251L21.735,12z M19,15.5c-1.483,0-2.72-1.083-2.958-2.5h5.916
		C21.72,14.417,20.483,15.5,19,15.5z"/>
</g>
<g id="Invisibla_Shape">
	<rect fill="none" width="24" height="24"/>
</g>
</svg>
