<?xml version="1.0" encoding="utf-8"?>
<!-- Generator: Adobe Illustrator 16.0.3, SVG Export Plug-In . SVG Version: 6.00 Build 0)  -->
<!DOCTYPE svg PUBLIC "-//W3C//DTD SVG 1.1//EN" "http://www.w3.org/Graphics/SVG/1.1/DTD/svg11.dtd">
<svg version="1.1" xmlns="http://www.w3.org/2000/svg" xmlns:xlink="http://www.w3.org/1999/xlink" x="0px" y="0px" width="24px"
	 height="24px" viewBox="0 0 24 24" enable-background="new 0 0 24 24" xml:space="preserve">
<g id="Outline_Icons">
	<g>
		<path d="M12,0C5.383,0,0,5.383,0,12s5.383,12,12,12s12-5.383,12-12S18.617,0,12,0z M12,23C5.935,23,1,18.065,1,12S5.935,1,12,1
			s11,4.935,11,11S18.065,23,12,23z"/>
		<path d="M12.26,3.072c-0.16-0.096-0.359-0.096-0.52,0C7.219,5.82,4.519,10.598,4.519,15.852h0.009
			c0.001,0.163,0.072,0.318,0.208,0.412C6.865,17.727,9.378,18.5,12,18.5c2.621,0,5.133-0.773,7.265-2.236
			c0.136-0.094,0.207-0.249,0.208-0.412h0.009C19.481,10.596,16.781,5.818,12.26,3.072z M18.431,15.039l-3.106-1.463
			c-0.103-2.018-1.135-3.834-2.824-4.966V4.452C16.027,6.916,18.185,10.768,18.431,15.039z M12,9.465
			c1.4,0.96,2.256,2.484,2.338,4.169c-1.4,0.844-3.275,0.844-4.676,0C9.744,11.95,10.601,10.425,12,9.465z M11.5,4.453V8.61
			c-1.689,1.133-2.722,2.948-2.823,4.966l-3.107,1.463C5.815,10.769,7.973,6.918,11.5,4.453z M6.056,15.916l3.077-1.45
			c0.86,0.523,1.841,0.812,2.867,0.812s2.007-0.288,2.867-0.812l3.077,1.45C14.36,17.995,9.636,17.994,6.056,15.916z"/>
	</g>
</g>

</svg>
