<?xml version="1.0" encoding="utf-8"?>
<!-- Generator: Adobe Illustrator 16.0.3, SVG Export Plug-In . SVG Version: 6.00 Build 0)  -->
<!DOCTYPE svg PUBLIC "-//W3C//DTD SVG 1.1//EN" "http://www.w3.org/Graphics/SVG/1.1/DTD/svg11.dtd">
<svg version="1.1" xmlns="http://www.w3.org/2000/svg" xmlns:xlink="http://www.w3.org/1999/xlink" x="0px" y="0px" width="24px"
	 height="24px" viewBox="0 0 24 24" enable-background="new 0 0 24 24" xml:space="preserve">
<g id="Outline_Icons">
	<g>
		<path d="M14.5,4C14.776,4,15,3.776,15,3.5V1h2v2.5C17,3.776,17.224,4,17.5,4S18,3.776,18,3.5v-3C18,0.224,17.776,0,17.5,0h-3
			C14.224,0,14,0.224,14,0.5v3C14,3.776,14.224,4,14.5,4z"/>
		<path d="M18,8.348V7.5C18,7.224,17.776,7,17.5,7S17,7.224,17,7.5v1.213c0,0.224,0.148,0.42,0.364,0.481
			c1.461,0.413,2.607,1.473,3.196,2.806h-9.121c0.589-1.333,1.735-2.393,3.196-2.806C14.852,9.133,15,8.937,15,8.713V7.5
			C15,7.224,14.776,7,14.5,7S14,7.224,14,7.5v0.848c-2.373,0.84-4,3.111-4,5.652c0,3.309,2.691,6,6,6s6-2.691,6-6
			C22,11.459,20.373,9.188,18,8.348z M16,19c-2.757,0-5-2.243-5-5c0-0.342,0.047-0.674,0.114-1h9.771C20.953,13.326,21,13.658,21,14
			C21,16.757,18.757,19,16,19z"/>
		<path d="M18.5,14c-0.827,0-1.5,0.673-1.5,1.5s0.673,1.5,1.5,1.5s1.5-0.673,1.5-1.5S19.327,14,18.5,14z M18.5,16
			c-0.275,0-0.5-0.225-0.5-0.5s0.225-0.5,0.5-0.5s0.5,0.225,0.5,0.5S18.775,16,18.5,16z"/>
		<path d="M13.25,14c-0.413,0-0.75,0.337-0.75,0.75s0.337,0.75,0.75,0.75S14,15.163,14,14.75S13.663,14,13.25,14z M13,14.75
			c0-0.138,0.112-0.25,0.25-0.25s0.25,0.112,0.25,0.25C13.5,15.025,13,15.025,13,14.75z"/>
		<circle cx="15.5" cy="16.5" r="1"/>
		<path d="M10.4,21.2C10.306,21.074,10.157,21,10,21H3V4h5v1.5C8,5.776,8.224,6,8.5,6h12C20.776,6,21,5.776,21,5.5S20.776,5,20.5,5
			H9V3h3c0.276,0,0.5-0.224,0.5-0.5S12.276,2,12,2H8.5C8.224,2,8,2.224,8,2.5V3H3V1c0-0.276-0.224-0.5-0.5-0.5S2,0.724,2,1v20.5v2
			C2,23.776,2.224,24,2.5,24h9c0.189,0,0.362-0.107,0.447-0.276s0.066-0.372-0.047-0.523L10.4,21.2z M3,23v-1h6.75l0.75,1H3z"/>
	</g>
</g>

</svg>
