<?xml version="1.0" encoding="utf-8"?>
<!-- Generator: Adobe Illustrator 16.0.3, SVG Export Plug-In . SVG Version: 6.00 Build 0)  -->
<!DOCTYPE svg PUBLIC "-//W3C//DTD SVG 1.1//EN" "http://www.w3.org/Graphics/SVG/1.1/DTD/svg11.dtd">
<svg version="1.1" xmlns="http://www.w3.org/2000/svg" xmlns:xlink="http://www.w3.org/1999/xlink" x="0px" y="0px" width="24px"
	 height="24px" viewBox="0 0 24 24" enable-background="new 0 0 24 24" xml:space="preserve">
<g id="Outline_Icons">
	<path d="M20.5,13c-1.378,0-2.5,1.121-2.5,2.5v0.955l-0.689-3.444C17.079,11.846,16.048,11,14.86,11H13V6h1.5
		c1.208,0,2.217-0.86,2.45-2H21.5C21.776,4,22,3.776,22,3.5v-2C22,1.224,21.776,1,21.5,1h-5c-0.004,0-0.007,0.002-0.011,0.002
		C16.032,0.397,15.314,0,14.5,0h-6C7.685,0,6.967,0.397,6.51,1.002C6.507,1.002,6.504,1,6.5,1h-5C1.224,1,1,1.224,1,1.5v2
		C1,3.776,1.224,4,1.5,4h4.55C6.282,5.14,7.292,6,8.5,6H10v5H8.139c-1.188,0-2.219,0.846-2.451,2.011L5,16.45V15.5
		C5,14.121,3.878,13,2.5,13S0,14.121,0,15.5v6C0,22.879,1.122,24,2.5,24S5,22.879,5,21.5v-0.424
		c0.002,0.002,0.003,0.006,0.006,0.009C5.483,21.666,6.188,22,6.939,22h9.121c0.751,0,1.456-0.333,1.933-0.915
		c0.003-0.003,0.004-0.008,0.007-0.011V21.5c0,1.379,1.122,2.5,2.5,2.5s2.5-1.121,2.5-2.5v-6C23,14.121,21.878,13,20.5,13z M4,21.5
		C4,22.327,3.327,23,2.5,23S1,22.327,1,21.5v-6C1,14.673,1.673,14,2.5,14S4,14.673,4,15.5V21.5z M17,2h4v1h-4V2z M2,2h4v0.495
		C6,2.497,6,2.498,6,2.5V3H2V2z M7,3.502V3.5V2.495C7.003,1.67,7.674,1,8.5,1h6C15.327,1,16,1.673,16,2.5v1
		C16,4.327,15.327,5,14.5,5h-6C7.673,5,7,4.328,7,3.502z M12,6v15h-1V6H12z M5.779,20.451c-0.286-0.349-0.399-0.803-0.311-1.245
		l1.2-6C6.808,12.507,7.426,12,8.139,12H10v9H6.939C6.488,21,6.065,20.8,5.779,20.451z M17.219,20.451
		C16.934,20.8,16.511,21,16.06,21H13v-9h1.86c0.713,0,1.331,0.507,1.471,1.206l1.2,6C17.619,19.648,17.505,20.103,17.219,20.451z
		 M22,21.5c0,0.827-0.673,1.5-1.5,1.5S19,22.327,19,21.5v-6c0-0.827,0.673-1.5,1.5-1.5s1.5,0.673,1.5,1.5V21.5z"/>
</g>

</svg>
