<?xml version="1.0" encoding="utf-8"?>
<!-- Generator: Adobe Illustrator 16.0.3, SVG Export Plug-In . SVG Version: 6.00 Build 0)  -->
<!DOCTYPE svg PUBLIC "-//W3C//DTD SVG 1.1//EN" "http://www.w3.org/Graphics/SVG/1.1/DTD/svg11.dtd">
<svg version="1.1" xmlns="http://www.w3.org/2000/svg" xmlns:xlink="http://www.w3.org/1999/xlink" x="0px" y="0px" width="24px"
	 height="24px" viewBox="0 0 24 24" enable-background="new 0 0 24 24" xml:space="preserve">
<g id="Outline_Icons_1_">
	<g id="Outline_Icons">
		<g>
			<path d="M20.777,13c-0.951,0-2.071,0.491-2.777,1.784C17.294,13.491,16.174,13,15.223,13C13.639,13,12,14.323,12,16.537
				c0,3.181,5.473,7.198,5.706,7.367C17.794,23.968,17.896,24,18,24s0.206-0.032,0.294-0.096C18.527,23.735,24,19.718,24,16.537
				C24,14.323,22.361,13,20.777,13z M18,22.876c-1.63-1.246-5-4.253-5-6.339C13,14.949,14.13,14,15.223,14
				c1.087,0,1.943,0.864,2.291,2.312c0.109,0.449,0.863,0.449,0.973,0C18.834,14.864,19.69,14,20.777,14
				C21.87,14,23,14.949,23,16.537C23,18.621,19.63,21.63,18,22.876z"/>
			<path d="M10,12c-5.304,0-9-1.845-9-3.5V6.482C2.603,7.984,5.985,9,10,9c4.016,0,7.397-1.016,9-2.518V9c0,0.276,0.224,0.5,0.5,0.5
				S20,9.276,20,9V4.5C20,1.977,15.607,0,10,0S0,1.977,0,4.5v13c0,2.365,3.775,4.248,8.978,4.479c0.315,0,0.511-0.226,0.521-0.478
				c0.013-0.276-0.201-0.51-0.477-0.522C4.067,20.76,1,19.003,1,17.5v-2.488c1.375,1.287,4.07,2.21,7.467,2.437
				c0.262,0.021,0.514-0.181,0.532-0.466c0.019-0.275-0.19-0.514-0.466-0.532C4.309,16.168,1,14.652,1,13v-2.518
				C2.603,11.984,5.985,13,10,13c0.276,0,0.5-0.224,0.5-0.5S10.276,12,10,12z M10,1c5.304,0,9,1.845,9,3.5S15.304,8,10,8
				S1,6.155,1,4.5S4.696,1,10,1z"/>
		</g>
	</g>
	<g id="New_icons_1_">
	</g>
</g>

</svg>
