<?xml version="1.0" encoding="utf-8"?>
<!-- Generator: Adobe Illustrator 16.0.3, SVG Export Plug-In . SVG Version: 6.00 Build 0)  -->
<!DOCTYPE svg PUBLIC "-//W3C//DTD SVG 1.1//EN" "http://www.w3.org/Graphics/SVG/1.1/DTD/svg11.dtd">
<svg version="1.1" xmlns="http://www.w3.org/2000/svg" xmlns:xlink="http://www.w3.org/1999/xlink" x="0px" y="0px" width="24px"
	 height="24px" viewBox="0 0 24 24" enable-background="new 0 0 24 24" xml:space="preserve">
<g id="Outline_Icons_1_">
	<g id="Outline_Icons">
		<g>
			<path d="M22.378,19.161c-1.099-0.412-2.373,0.054-2.992,1.012l-3.426-1.284c0.054-0.341,0.067-0.575-0.056-1.033l3.644-1.822
				c0.758,0.967,2.024,1.224,3.068,0.703c1.232-0.616,1.734-2.121,1.119-3.354c-0.602-1.201-2.146-1.721-3.354-1.118
				c-1.08,0.539-1.599,1.76-1.298,2.884l-3.629,1.814C14.997,16.381,14.295,16,13.499,16c-1.379,0-2.5,1.121-2.5,2.5
				s1.121,2.5,2.5,2.5c0.891,0,1.669-0.472,2.111-1.175l3.421,1.281c-0.184,1.149,0.459,2.31,1.589,2.734
				c1.296,0.488,2.739-0.182,3.219-1.462C24.325,21.088,23.673,19.646,22.378,19.161z M20.829,13.158
				C21.039,13.053,21.265,13,21.497,13c0.573,0,1.088,0.317,1.344,0.829c0.369,0.74,0.068,1.643-0.672,2.013
				c-0.726,0.364-1.646,0.05-2.008-0.664c-0.001-0.003-0.001-0.006-0.002-0.009s-0.004-0.004-0.005-0.007
				C19.791,14.425,20.092,13.527,20.829,13.158z M13.499,20c-0.827,0-1.5-0.673-1.5-1.5s0.673-1.5,1.5-1.5s1.5,0.673,1.5,1.5
				S14.326,20,13.499,20z M22.903,22.027c-0.281,0.749-1.169,1.163-1.932,0.878c-0.773-0.291-1.166-1.157-0.878-1.931
				c0.001-0.001,0.002-0.001,0.002-0.002s0-0.002,0-0.002C20.315,20.39,20.878,20,21.498,20c0.18,0,0.357,0.033,0.528,0.097
				c0.376,0.142,0.674,0.42,0.839,0.784S23.044,21.652,22.903,22.027z"/>
			<path d="M10,12c-5.304,0-9-1.845-9-3.5V6.482C2.603,7.984,5.985,9,10,9c4.016,0,7.397-1.016,9-2.518V9c0,0.276,0.224,0.5,0.5,0.5
				S20,9.276,20,9V4.5C20,1.977,15.607,0,10,0S0,1.977,0,4.5v13c0,2.365,3.775,4.248,8.978,4.479c0.315,0,0.511-0.226,0.521-0.478
				c0.013-0.276-0.201-0.51-0.477-0.522C4.067,20.76,1,19.003,1,17.5v-2.488c1.375,1.287,4.07,2.21,7.467,2.437
				c0.262,0.021,0.514-0.181,0.532-0.466c0.019-0.275-0.19-0.514-0.466-0.532C4.309,16.168,1,14.652,1,13v-2.518
				C2.603,11.984,5.985,13,10,13c0.276,0,0.5-0.224,0.5-0.5S10.276,12,10,12z M10,1c5.304,0,9,1.845,9,3.5S15.304,8,10,8
				S1,6.155,1,4.5S4.696,1,10,1z"/>
		</g>
	</g>
	<g id="New_icons_1_">
	</g>
</g>

</svg>
