<?xml version="1.0" encoding="utf-8"?>
<!-- Generator: Adobe Illustrator 16.0.3, SVG Export Plug-In . SVG Version: 6.00 Build 0)  -->
<!DOCTYPE svg PUBLIC "-//W3C//DTD SVG 1.1//EN" "http://www.w3.org/Graphics/SVG/1.1/DTD/svg11.dtd">
<svg version="1.1" xmlns="http://www.w3.org/2000/svg" xmlns:xlink="http://www.w3.org/1999/xlink" x="0px" y="0px" width="24px"
	 height="24px" viewBox="0 0 24 24" enable-background="new 0 0 24 24" xml:space="preserve">
<g id="Outline_Icons_1_">
	<g id="Outline_Icons">
		<g>
			<path d="M23.854,23.146L21,20.293c0.616-0.77,1-1.732,1-2.793c0-2.481-2.019-4.5-4.499-4.5C15.02,13,13,15.019,13,17.5
				s2.02,4.5,4.501,4.5c1.06,0,2.022-0.384,2.792-1l2.854,2.854C23.244,23.951,23.372,24,23.5,24s0.256-0.049,0.354-0.146
				C24.049,23.658,24.049,23.342,23.854,23.146z M14,17.5c0-1.93,1.57-3.5,3.501-3.5C19.431,14,21,15.57,21,17.5
				S19.431,21,17.501,21C15.57,21,14,19.43,14,17.5z"/>
			<path d="M11.466,11.95C10.988,11.982,10.498,12,10,12c-5.304,0-9-1.845-9-3.5V6.482C2.603,7.984,5.985,9,10,9
				c4.016,0,7.397-1.016,9-2.518V10c0,0.276,0.224,0.5,0.5,0.5S20,10.276,20,10V4.5C20,1.977,15.607,0,10,0S0,1.977,0,4.5v13
				C0,20.023,4.393,22,10,22c0.276,0,0.5-0.224,0.5-0.5S10.276,21,10,21c-5.304,0-9-1.845-9-3.5v-2.518
				c1.603,1.502,4.985,2.518,9,2.518c0.276,0,0.5-0.224,0.5-0.5s-0.224-0.5-0.5-0.5c-5.304,0-9-1.845-9-3.5v-2.518
				C2.603,11.984,5.985,13,10,13c0.521,0,1.033-0.018,1.534-0.052c0.275-0.019,0.483-0.258,0.465-0.533
				C11.979,12.139,11.735,11.924,11.466,11.95z M10,1c5.304,0,9,1.845,9,3.5S15.304,8,10,8S1,6.155,1,4.5S4.696,1,10,1z"/>
		</g>
	</g>
	<g id="New_icons_1_">
	</g>
</g>

</svg>
