<?xml version="1.0" encoding="utf-8"?>
<!-- Generator: Adobe Illustrator 16.0.3, SVG Export Plug-In . SVG Version: 6.00 Build 0)  -->
<!DOCTYPE svg PUBLIC "-//W3C//DTD SVG 1.1//EN" "http://www.w3.org/Graphics/SVG/1.1/DTD/svg11.dtd">
<svg version="1.1" xmlns="http://www.w3.org/2000/svg" xmlns:xlink="http://www.w3.org/1999/xlink" x="0px" y="0px" width="24px"
	 height="24px" viewBox="0 0 24 24" enable-background="new 0 0 24 24" xml:space="preserve">
<g id="Outline_Icons_1_">
	<g id="Outline_Icons">
		<g>
			<path d="M17.5,11c-3.584,0-6.5,2.916-6.5,6.5s2.916,6.5,6.5,6.5s6.5-2.916,6.5-6.5S21.084,11,17.5,11z M17.5,23
				c-3.032,0-5.5-2.468-5.5-5.5s2.468-5.5,5.5-5.5s5.5,2.468,5.5,5.5S20.532,23,17.5,23z"/>
			<path d="M17.5,15.146c0.491,0,0.891,0.399,0.891,0.891c0,0.276,0.224,0.5,0.5,0.5s0.5-0.224,0.5-0.5
				c0-0.869-0.592-1.594-1.391-1.815v-0.503c0-0.276-0.224-0.5-0.5-0.5s-0.5,0.224-0.5,0.5v0.503
				c-0.799,0.222-1.391,0.946-1.391,1.815c0,1.043,0.848,1.891,1.891,1.891c0.491,0,0.891,0.4,0.891,0.893
				c0,0.491-0.399,0.891-0.891,0.891s-0.891-0.399-0.891-0.891c0-0.276-0.224-0.5-0.5-0.5s-0.5,0.224-0.5,0.5
				c0,0.869,0.592,1.595,1.391,1.815v0.501c0,0.276,0.224,0.5,0.5,0.5s0.5-0.224,0.5-0.5v-0.501
				c0.799-0.221,1.391-0.946,1.391-1.815c0-1.044-0.848-1.893-1.891-1.893c-0.491,0-0.891-0.399-0.891-0.891
				S17.009,15.146,17.5,15.146z"/>
			<path d="M10,12c-5.304,0-9-1.845-9-3.5V6.482C2.603,7.984,5.985,9,10,9c4.016,0,7.397-1.016,9-2.518V9c0,0.276,0.224,0.5,0.5,0.5
				S20,9.276,20,9V4.5C20,1.977,15.607,0,10,0S0,1.977,0,4.5v13c0,2.365,3.775,4.248,8.978,4.479c0.315,0,0.511-0.226,0.521-0.478
				c0.013-0.276-0.201-0.51-0.477-0.522C4.067,20.76,1,19.003,1,17.5v-2.488c1.375,1.287,4.07,2.21,7.467,2.437
				c0.262,0.021,0.514-0.181,0.532-0.466c0.019-0.275-0.19-0.514-0.466-0.532C4.309,16.168,1,14.652,1,13v-2.518
				C2.603,11.984,5.985,13,10,13c0.276,0,0.5-0.224,0.5-0.5S10.276,12,10,12z M10,1c5.304,0,9,1.845,9,3.5S15.304,8,10,8
				S1,6.155,1,4.5S4.696,1,10,1z"/>
		</g>
	</g>
	<g id="New_icons_1_">
	</g>
</g>

</svg>
