<?xml version="1.0" encoding="utf-8"?>
<!-- Generator: Adobe Illustrator 16.0.3, SVG Export Plug-In . SVG Version: 6.00 Build 0)  -->
<!DOCTYPE svg PUBLIC "-//W3C//DTD SVG 1.1//EN" "http://www.w3.org/Graphics/SVG/1.1/DTD/svg11.dtd">
<svg version="1.1" xmlns="http://www.w3.org/2000/svg" xmlns:xlink="http://www.w3.org/1999/xlink" x="0px" y="0px" width="24px"
	 height="24px" viewBox="0 0 24 24" enable-background="new 0 0 24 24" xml:space="preserve">
<g id="Outline_Icons_1_">
	<g id="Outline_Icons">
	</g>
	<g id="New_icons_1_">
		<g>
			<path d="M11.466,11.95C10.988,11.982,10.498,12,10,12c-5.304,0-9-1.845-9-3.5V6.482C2.603,7.984,5.985,9,10,9
				c4.016,0,7.397-1.016,9-2.518V10c0,0.276,0.224,0.5,0.5,0.5S20,10.276,20,10V4.5C20,1.977,15.607,0,10,0S0,1.977,0,4.5v13
				C0,20.023,4.393,22,10,22c0.276,0,0.5-0.224,0.5-0.5S10.276,21,10,21c-5.304,0-9-1.845-9-3.5v-2.518
				c1.603,1.502,4.985,2.518,9,2.518c0.276,0,0.5-0.224,0.5-0.5s-0.224-0.5-0.5-0.5c-5.304,0-9-1.845-9-3.5v-2.518
				C2.603,11.984,5.985,13,10,13c0.521,0,1.033-0.018,1.534-0.052c0.275-0.019,0.483-0.258,0.465-0.533
				C11.979,12.139,11.738,11.924,11.466,11.95z M10,1c5.304,0,9,1.845,9,3.5S15.304,8,10,8S1,6.155,1,4.5S4.696,1,10,1z"/>
			<path d="M20.5,16H18v-4.5c0-0.516-0.684-0.684-0.935-0.248l-4,7C12.877,18.583,13.114,19,13.5,19H16v4.5
				c0,0.509,0.68,0.692,0.935,0.248l4-7C21.123,16.417,20.886,16,20.5,16z M17,21.617V18.5c0-0.276-0.224-0.5-0.5-0.5h-2.139
				L17,13.383V16.5c0,0.276,0.224,0.5,0.5,0.5h2.139L17,21.617z"/>
		</g>
	</g>
</g>

</svg>
