<?xml version="1.0" encoding="utf-8"?>
<!-- Generator: Adobe Illustrator 16.0.3, SVG Export Plug-In . SVG Version: 6.00 Build 0)  -->
<!DOCTYPE svg PUBLIC "-//W3C//DTD SVG 1.1//EN" "http://www.w3.org/Graphics/SVG/1.1/DTD/svg11.dtd">
<svg version="1.1" xmlns="http://www.w3.org/2000/svg" xmlns:xlink="http://www.w3.org/1999/xlink" x="0px" y="0px" width="24px"
	 height="24px" viewBox="0 0 24 24" enable-background="new 0 0 24 24" xml:space="preserve">
<g id="Outline_Icons_1_">
	<g id="Outline_Icons">
		<g>
			<path d="M22.5,13.5c-0.276,0-0.5,0.224-0.5,0.5v0.77C21.013,13.695,19.538,13,18,13c-2.198,0-4.289,1.402-4.972,3.333
				c-0.092,0.261,0.045,0.546,0.305,0.639c0.259,0.091,0.545-0.043,0.639-0.305C14.509,15.146,16.24,14,18,14
				c1.489,0,2.95,0.826,3.692,2H20c-0.276,0-0.5,0.224-0.5,0.5S19.724,17,20,17h2.5c0.276,0,0.5-0.224,0.5-0.5V14
				C23,13.724,22.776,13.5,22.5,13.5z"/>
			<path d="M22.666,19.028c-0.256-0.091-0.546,0.045-0.638,0.306C21.492,20.854,19.76,22,18,22c-1.49,0-2.952-0.826-3.693-2H16
				c0.276,0,0.5-0.224,0.5-0.5S16.276,19,16,19h-2.5c-0.276,0-0.5,0.224-0.5,0.5V22c0,0.276,0.224,0.5,0.5,0.5S14,22.276,14,22
				v-0.77c0.987,1.074,2.462,1.77,4,1.77c2.198,0,4.289-1.402,4.972-3.334C23.063,19.406,22.927,19.12,22.666,19.028z"/>
			<path d="M8,6h10c0.276,0,0.5-0.224,0.5-0.5S18.276,5,18,5H8C7.724,5,7.5,5.224,7.5,5.5S7.724,6,8,6z"/>
			<path d="M8,4h10c0.276,0,0.5-0.224,0.5-0.5S18.276,3,18,3H8C7.724,3,7.5,3.224,7.5,3.5S7.724,4,8,4z"/>
			<path d="M4,5.5c0.827,0,1.5-0.673,1.5-1.5S4.827,2.5,4,2.5S2.5,3.173,2.5,4S3.173,5.5,4,5.5z M4,3.5c0.275,0,0.5,0.225,0.5,0.5
				S4.275,4.5,4,4.5S3.5,4.275,3.5,4S3.725,3.5,4,3.5z"/>
			<path d="M10,12H8c-0.276,0-0.5,0.224-0.5,0.5S7.724,13,8,13h2c0.276,0,0.5-0.224,0.5-0.5S10.276,12,10,12z"/>
			<path d="M11,10H8c-0.276,0-0.5,0.224-0.5,0.5S7.724,11,8,11h3c0.276,0,0.5-0.224,0.5-0.5S11.276,10,11,10z"/>
			<path d="M2.5,11c0,0.827,0.673,1.5,1.5,1.5s1.5-0.673,1.5-1.5S4.827,9.5,4,9.5S2.5,10.173,2.5,11z M4.5,11
				c0,0.275-0.225,0.5-0.5,0.5S3.5,11.275,3.5,11s0.225-0.5,0.5-0.5S4.5,10.725,4.5,11z"/>
			<path d="M10,21H1.5C1.225,21,1,20.775,1,20.5v-5C1,15.225,1.225,15,1.5,15H9c0.276,0,0.5-0.224,0.5-0.5S9.276,14,9,14H1.5
				C1.225,14,1,13.775,1,13.5v-5C1,8.225,1.225,8,1.5,8h19C20.775,8,21,8.225,21,8.5V11c0,0.276,0.224,0.5,0.5,0.5S22,11.276,22,11
				V8.5c0-0.386-0.15-0.734-0.39-1C21.85,7.234,22,6.886,22,6.5v-5C22,0.673,21.327,0,20.5,0h-19C0.673,0,0,0.673,0,1.5v5
				c0,0.386,0.15,0.734,0.391,1C0.15,7.766,0,8.114,0,8.5v5c0,0.386,0.15,0.734,0.391,1C0.15,14.766,0,15.114,0,15.5v5
				C0,21.327,0.673,22,1.5,22H10c0.276,0,0.5-0.224,0.5-0.5S10.276,21,10,21z M1,1.5C1,1.225,1.225,1,1.5,1h19
				C20.775,1,21,1.225,21,1.5v5C21,6.775,20.775,7,20.5,7h-19C1.225,7,1,6.775,1,6.5V1.5z"/>
			<path d="M2.5,18c0,0.827,0.673,1.5,1.5,1.5s1.5-0.673,1.5-1.5S4.827,16.5,4,16.5S2.5,17.173,2.5,18z M4.5,18
				c0,0.275-0.225,0.5-0.5,0.5S3.5,18.275,3.5,18s0.225-0.5,0.5-0.5S4.5,17.725,4.5,18z"/>
		</g>
	</g>
	<g id="New_icons_1_">
	</g>
</g>

</svg>
