<?xml version="1.0" encoding="utf-8"?>
<!-- Generator: Adobe Illustrator 16.0.3, SVG Export Plug-In . SVG Version: 6.00 Build 0)  -->
<!DOCTYPE svg PUBLIC "-//W3C//DTD SVG 1.1//EN" "http://www.w3.org/Graphics/SVG/1.1/DTD/svg11.dtd">
<svg version="1.1" xmlns="http://www.w3.org/2000/svg" xmlns:xlink="http://www.w3.org/1999/xlink" x="0px" y="0px" width="24px"
	 height="24px" viewBox="0 0 24 24" enable-background="new 0 0 24 24" xml:space="preserve">
<g id="Outline_Icons_1_">
	<g id="Outline_Icons">
		<g>
			<path d="M14,19h-1.786l-0.021-0.022C11.589,18.336,10.331,17,8,17H5v-0.5C5,16.224,4.776,16,4.5,16h-4C0.224,16,0,16.224,0,16.5
				v7C0,23.776,0.224,24,0.5,24h4C4.776,24,5,23.776,5,23.5V23h16.5c0.276,0,0.5-0.224,0.5-0.5C22,20.438,17.784,19,14,19z M4,23H1
				v-6h3V23z M5,22v-4h3c1.289,0,2.165,0.498,2.77,1H7c-0.276,0-0.5,0.224-0.5,0.5S6.724,20,7,20h7c3.36,0,6.021,1.074,6.781,2H5z"
				/>
			<path d="M22.5,7h-5.929l-2.1-5.949c-0.141-0.399-0.803-0.399-0.943,0L11.429,7H5.5C5.029,7,4.822,7.592,5.184,7.887l4.909,4.006
				l-0.945,2.9l0.951,0.309l1.051-3.225c0.063-0.196,0.001-0.412-0.159-0.542L6.903,8h4.879c0.212,0,0.401-0.134,0.472-0.333
				L14,2.72l1.746,4.947C15.816,7.866,16.006,8,16.218,8h4.881l-4.089,3.345c-0.16,0.131-0.224,0.347-0.158,0.543l1.732,5.265
				l-4.29-3.113c-0.177-0.128-0.414-0.127-0.591,0.002l-2.111,1.556l0.594,0.805l1.816-1.339l5.247,3.808
				c0.394,0.285,0.92-0.104,0.769-0.561l-2.109-6.408l4.908-4.015C23.179,7.592,22.969,7,22.5,7z"/>
		</g>
	</g>
	<g id="New_icons_1_">
	</g>
</g>

</svg>
