<?xml version="1.0" encoding="utf-8"?>
<!-- Generator: Adobe Illustrator 16.0.3, SVG Export Plug-In . SVG Version: 6.00 Build 0)  -->
<!DOCTYPE svg PUBLIC "-//W3C//DTD SVG 1.1//EN" "http://www.w3.org/Graphics/SVG/1.1/DTD/svg11.dtd">
<svg version="1.1" xmlns="http://www.w3.org/2000/svg" xmlns:xlink="http://www.w3.org/1999/xlink" x="0px" y="0px" width="24px"
	 height="24px" viewBox="0 0 24 24" enable-background="new 0 0 24 24" xml:space="preserve">
<g id="Outline_Icons">
	<g>
		<path d="M18.5,13c-3.032,0-5.5,2.467-5.5,5.5c0,3.032,2.468,5.5,5.501,5.501C21.533,24,24,21.532,24,18.5
			C24,15.467,21.532,13,18.5,13z M18.501,23.001C16.02,23,14,20.981,14,18.5c0-2.481,2.019-4.5,4.5-4.5s4.5,2.019,4.5,4.5
			C23,20.981,20.981,23,18.501,23.001z"/>
		<path d="M21.104,15.896c-0.195-0.195-0.512-0.195-0.707,0L18.5,17.793l-1.896-1.896c-0.195-0.195-0.512-0.195-0.707,0
			c-0.195,0.196-0.195,0.512,0,0.707l1.896,1.896l-1.896,1.896c-0.195,0.196-0.195,0.512,0,0.707
			c0.098,0.098,0.226,0.146,0.354,0.146s0.256-0.049,0.354-0.146l1.896-1.897l1.896,1.897c0.098,0.098,0.226,0.146,0.354,0.146
			s0.256-0.049,0.354-0.146c0.195-0.195,0.195-0.511,0-0.707L19.207,18.5l1.896-1.896C21.299,16.408,21.299,16.092,21.104,15.896z"
			/>
		<path d="M12,17.002H8.396l-0.471-2h4.049c0.276,0,0.5-0.224,0.5-0.5s-0.224-0.5-0.5-0.5H7.69l-1.647-7h16.764l-1.297,3.887
			c-0.087,0.262,0.055,0.545,0.316,0.632c0.053,0.018,0.105,0.026,0.158,0.026c0.209,0,0.404-0.133,0.475-0.342l1.516-4.545
			C24.025,6.508,24,6.34,23.905,6.21c-0.094-0.131-0.244-0.208-0.405-0.208H5.808L4.486,0.387C4.434,0.162,4.232,0.002,4,0.002H0.5
			c-0.276,0-0.5,0.224-0.5,0.5s0.224,0.5,0.5,0.5h3.104l3.789,16.103C6.588,17.363,6,18.11,6,19c0,1.103,0.897,2,2,2s2-0.897,2-2
			c0-0.365-0.105-0.703-0.277-0.998H12c0.276,0,0.5-0.224,0.5-0.5S12.276,17.002,12,17.002z M9,19c0,0.551-0.448,1-1,1s-1-0.449-1-1
			c0-0.549,0.445-0.996,0.995-0.999c0.001,0,0.003,0.001,0.005,0.001h0.01C8.557,18.007,9,18.452,9,19z"/>
	</g>
</g>

</svg>
