<?xml version="1.0" encoding="utf-8"?>
<!-- Generator: Adobe Illustrator 16.0.3, SVG Export Plug-In . SVG Version: 6.00 Build 0)  -->
<!DOCTYPE svg PUBLIC "-//W3C//DTD SVG 1.1//EN" "http://www.w3.org/Graphics/SVG/1.1/DTD/svg11.dtd">
<svg version="1.1" xmlns="http://www.w3.org/2000/svg" xmlns:xlink="http://www.w3.org/1999/xlink" x="0px" y="0px" width="24px"
	 height="24px" viewBox="0 0 24 24" enable-background="new 0 0 24 24" xml:space="preserve">
<g id="Outline_Icons">
	<g>
		<path d="M23.5,7H17V6c0-2.757-2.243-5-5-5S7,3.243,7,6v1H0.5C0.224,7,0,7.224,0,7.5v16C0,23.776,0.224,24,0.5,24h23
			c0.276,0,0.5-0.224,0.5-0.5v-16C24,7.224,23.776,7,23.5,7z M8,6c0-2.206,1.794-4,4-4s4,1.794,4,4v1H8V6z M23,23H1V8h6.5h9H23V23z"
			/>
		<path d="M8.261,9.561C8.101,9.648,8,9.817,8,10v11c0,0.183,0.101,0.352,0.261,0.44C8.336,21.48,8.418,21.5,8.5,21.5
			c0.095,0,0.189-0.027,0.271-0.08l8.5-5.5c0.143-0.092,0.229-0.25,0.229-0.42c0-0.169-0.086-0.328-0.229-0.42l-8.5-5.5
			C8.618,9.48,8.423,9.473,8.261,9.561z M9,10.919l7.08,4.581L9,20.082V10.919z"/>
	</g>
</g>

</svg>
