<?xml version="1.0" encoding="utf-8"?>
<!-- Generator: Adobe Illustrator 16.0.3, SVG Export Plug-In . SVG Version: 6.00 Build 0)  -->
<!DOCTYPE svg PUBLIC "-//W3C//DTD SVG 1.1//EN" "http://www.w3.org/Graphics/SVG/1.1/DTD/svg11.dtd">
<svg version="1.1" xmlns="http://www.w3.org/2000/svg" xmlns:xlink="http://www.w3.org/1999/xlink" x="0px" y="0px" width="24px"
	 height="24px" viewBox="0 0 24 24" enable-background="new 0 0 24 24" xml:space="preserve">
<g id="Outline_Icons">
	<g>
		<path d="M15.672,12.888l-4.696,5.38l-2.122-2.122c-0.195-0.195-0.512-0.195-0.707,0s-0.195,0.512,0,0.707l2.5,2.5
			C10.74,19.447,10.867,19.5,11,19.5c0.006,0,0.012,0,0.017,0c0.139-0.004,0.269-0.066,0.36-0.17l5.049-5.784
			c0.182-0.208,0.16-0.524-0.048-0.705C16.17,12.657,15.855,12.679,15.672,12.888z"/>
		<path d="M23.973,8.362c-0.006-0.02-0.006-0.042-0.014-0.06c-0.01-0.022-0.027-0.04-0.04-0.06
			c-0.022-0.036-0.042-0.072-0.071-0.101c-0.002-0.002-0.003-0.004-0.005-0.006l-2.125-2C21.626,6.049,21.504,6,21.378,6
			l-2.882-0.016c-0.001,0-0.002,0-0.003,0c-0.275,0-0.498,0.222-0.5,0.498c-0.002,0.276,0.221,0.501,0.497,0.502l2.686,0.014
			L22.239,8H17V6c0-2.757-2.243-5-5-5S7,3.243,7,6v2H1.815l1.126-1.001l2.555-0.014c0.276-0.001,0.499-0.227,0.497-0.502
			c-0.002-0.275-0.226-0.498-0.5-0.498c-0.001,0-0.002,0-0.003,0L2.747,6C2.626,6,2.509,6.046,2.418,6.126l-2.25,2
			C0.164,8.13,0.163,8.135,0.16,8.137c-0.028,0.026-0.047,0.059-0.068,0.09C0.076,8.25,0.057,8.271,0.045,8.296
			C0.034,8.32,0.032,8.348,0.025,8.374c-0.01,0.038-0.021,0.075-0.022,0.113C0.003,8.491,0,8.495,0,8.5v15C0,23.776,0.224,24,0.5,24
			h23c0.276,0,0.5-0.224,0.5-0.5v-15c0-0.002-0.001-0.004-0.001-0.007C23.998,8.449,23.984,8.406,23.973,8.362z M8,6
			c0-2.206,1.794-4,4-4s4,1.794,4,4v2H8V6z M23,23H1V9h6.5h9H23V23z"/>
		<path d="M14.493,5.984h-5c-0.276,0-0.5,0.223-0.5,0.5c0,0.276,0.224,0.5,0.5,0.5h5c0.276,0,0.5-0.224,0.5-0.5
			C14.993,6.208,14.77,5.984,14.493,5.984z"/>
	</g>
</g>

</svg>
