<?xml version="1.0" encoding="utf-8"?>
<!-- Generator: Adobe Illustrator 16.0.3, SVG Export Plug-In . SVG Version: 6.00 Build 0)  -->
<!DOCTYPE svg PUBLIC "-//W3C//DTD SVG 1.1//EN" "http://www.w3.org/Graphics/SVG/1.1/DTD/svg11.dtd">
<svg version="1.1" xmlns="http://www.w3.org/2000/svg" xmlns:xlink="http://www.w3.org/1999/xlink" x="0px" y="0px" width="24px"
	 height="24px" viewBox="0 0 24 24" enable-background="new 0 0 24 24" xml:space="preserve">
<g id="Outline_Icons_1_">
	<g>
		<g>
			<path d="M11.646,9.354l-8.5-8.5c-0.195-0.195-0.195-0.512,0-0.707s0.512-0.195,0.707,0L12,8.293l8.146-8.146
				c0.195-0.195,0.512-0.195,0.707,0s0.195,0.512,0,0.707l-8.5,8.5C12.158,9.549,11.842,9.549,11.646,9.354z"/>
		</g>
		<g>
			<path d="M20.146,23.854L12,15.707l-8.146,8.146c-0.195,0.195-0.512,0.195-0.707,0s-0.195-0.512,0-0.707l8.5-8.5
				c0.195-0.195,0.512-0.195,0.707,0l8.5,8.5c0.195,0.195,0.195,0.512,0,0.707S20.342,24.049,20.146,23.854z"/>
		</g>
	</g>
</g>

</svg>
