<?xml version="1.0" encoding="utf-8"?>
<!-- Generator: Adobe Illustrator 16.0.3, SVG Export Plug-In . SVG Version: 6.00 Build 0)  -->
<!DOCTYPE svg PUBLIC "-//W3C//DTD SVG 1.1//EN" "http://www.w3.org/Graphics/SVG/1.1/DTD/svg11.dtd">
<svg version="1.1" xmlns="http://www.w3.org/2000/svg" xmlns:xlink="http://www.w3.org/1999/xlink" x="0px" y="0px" width="24px"
	 height="24px" viewBox="0 0 24 24" enable-background="new 0 0 24 24" xml:space="preserve">
<g id="Outline_Icons_1_">
	<g>
		<path d="M12.854,13.146c-0.195-0.195-0.512-0.195-0.707,0l-4,4c-0.195,0.195-0.195,0.512,0,0.707s0.512,0.195,0.707,0L12,14.707
			V22.5c0,0.276,0.224,0.5,0.5,0.5s0.5-0.224,0.5-0.5v-7.793l3.146,3.146c0.195,0.195,0.512,0.195,0.707,0s0.195-0.512,0-0.707
			L12.854,13.146z"/>
		<path d="M12.146,9.854c0.195,0.195,0.512,0.195,0.707,0l4-4c0.195-0.195,0.195-0.512,0-0.707s-0.512-0.195-0.707,0L13,8.293V0.5
			C13,0.224,12.776,0,12.5,0S12,0.224,12,0.5v7.793L8.854,5.146c-0.195-0.195-0.512-0.195-0.707,0s-0.195,0.512,0,0.707
			L12.146,9.854z"/>
		<path d="M21.5,11h-19C2.224,11,2,11.224,2,11.5S2.224,12,2.5,12h19c0.276,0,0.5-0.224,0.5-0.5S21.776,11,21.5,11z"/>
	</g>
</g>

</svg>
