<?xml version="1.0" encoding="utf-8"?>
<!-- Generator: Adobe Illustrator 16.0.3, SVG Export Plug-In . SVG Version: 6.00 Build 0)  -->
<!DOCTYPE svg PUBLIC "-//W3C//DTD SVG 1.1//EN" "http://www.w3.org/Graphics/SVG/1.1/DTD/svg11.dtd">
<svg version="1.1" xmlns="http://www.w3.org/2000/svg" xmlns:xlink="http://www.w3.org/1999/xlink" x="0px" y="0px" width="24px"
	 height="24px" viewBox="0 0 24 24" enable-background="new 0 0 24 24" xml:space="preserve">
<g id="Outline_Icons">
	<g>
		<path d="M18.992,0.415C18.951,0.175,18.743,0,18.5,0h-13C5.257,0,5.049,0.175,5.008,0.415l-4,23
			c-0.025,0.145,0.015,0.294,0.109,0.407S1.353,24,1.5,24h5c0.215,0,0.406-0.138,0.475-0.341L7.86,21h8.279l0.886,2.659
			C17.094,23.862,17.285,24,17.5,24h5c0.147,0,0.288-0.065,0.383-0.178s0.135-0.262,0.109-0.407L18.992,0.415z M8,4h8v0.5
			C16,5.327,15.327,6,14.5,6h-5C8.673,6,8,5.327,8,4.5V4z M16,1v2H8V1H16z M17.86,23l-0.886-2.658C16.906,20.138,16.715,20,16.5,20
			h-9c-0.215,0-0.406,0.138-0.475,0.342L6.14,23H2.095L5.921,1H7v3.5C7,5.878,8.121,7,9.5,7h5C15.879,7,17,5.878,17,4.5V1h1.079
			l3.826,22H17.86z"/>
		<path d="M12,9c-2.481,0-4.5,2.019-4.5,4.5c0,2.482,2.019,4.5,4.5,4.5s4.5-2.018,4.5-4.5C16.5,11.019,14.481,9,12,9z M12,10
			c0.776,0,1.488,0.263,2.069,0.693l-4.877,4.876C8.763,14.988,8.5,14.277,8.5,13.5C8.5,11.57,10.07,10,12,10z M12,17
			c-0.792,0-1.516-0.275-2.104-0.721l4.883-4.882c0.446,0.587,0.721,1.311,0.721,2.103C15.5,15.43,13.93,17,12,17z"/>
	</g>
</g>

</svg>
