<?xml version="1.0" encoding="utf-8"?>
<!-- Generator: Adobe Illustrator 16.0.3, SVG Export Plug-In . SVG Version: 6.00 Build 0)  -->
<!DOCTYPE svg PUBLIC "-//W3C//DTD SVG 1.1//EN" "http://www.w3.org/Graphics/SVG/1.1/DTD/svg11.dtd">
<svg version="1.1" xmlns="http://www.w3.org/2000/svg" xmlns:xlink="http://www.w3.org/1999/xlink" x="0px" y="0px" width="24px"
	 height="24px" viewBox="0 0 24 24" enable-background="new 0 0 24 24" xml:space="preserve">
<g id="Outline_Icons_1_">
	<g id="Outline_Icons">
	</g>
	<g id="New_icons_1_">
		<g>
			<path d="M13,9.911V7.5C13,7.224,12.776,7,12.5,7S12,7.224,12,7.5v2.411L7.031,23.326C6.911,23.653,7.151,24,7.5,24h10
				c0.349,0,0.589-0.347,0.469-0.674L13,9.911z M12.5,11.439L13.448,14h-1.896L12.5,11.439z M13.818,15l0.548,1.478L12.5,18.202
				l-1.866-1.724L11.182,15H13.818z M11.764,18.882l-3.07,2.835l1.565-4.225L11.764,18.882z M12.5,19.562L16.223,23H8.777
				L12.5,19.562z M13.236,18.882l1.505-1.39l1.565,4.225L13.236,18.882z"/>
			<path d="M12.5,3C12.776,3,13,2.776,13,2.5v-2C13,0.224,12.776,0,12.5,0S12,0.224,12,0.5v2C12,2.776,12.224,3,12.5,3z"/>
			<path d="M8.646,4.354c0.195,0.195,0.512,0.195,0.707,0s0.195-0.512,0-0.707l-1.5-1.5c-0.195-0.195-0.512-0.195-0.707,0
				s-0.195,0.512,0,0.707L8.646,4.354z"/>
			<path d="M8,7.5C8,7.224,7.776,7,7.5,7h-2C5.224,7,5,7.224,5,7.5S5.224,8,5.5,8h2C7.776,8,8,7.776,8,7.5z"/>
			<path d="M7.854,12.854l1.5-1.5c0.195-0.195,0.195-0.512,0-0.707s-0.512-0.195-0.707,0l-1.5,1.5c-0.195,0.195-0.195,0.512,0,0.707
				S7.658,13.049,7.854,12.854z"/>
			<path d="M16.354,10.646c-0.195-0.195-0.512-0.195-0.707,0s-0.195,0.512,0,0.707l1.5,1.5c0.195,0.195,0.512,0.195,0.707,0
				s0.195-0.512,0-0.707L16.354,10.646z"/>
			<path d="M16.354,4.354l1.5-1.5c0.195-0.195,0.195-0.512,0-0.707s-0.512-0.195-0.707,0l-1.5,1.5c-0.195,0.195-0.195,0.512,0,0.707
				S16.158,4.549,16.354,4.354z"/>
			<path d="M19.5,7h-2C17.224,7,17,7.224,17,7.5S17.224,8,17.5,8h2C19.776,8,20,7.776,20,7.5S19.776,7,19.5,7z"/>
		</g>
	</g>
</g>

</svg>
