<?xml version="1.0" encoding="utf-8"?>
<!-- Generator: Adobe Illustrator 16.0.3, SVG Export Plug-In . SVG Version: 6.00 Build 0)  -->
<!DOCTYPE svg PUBLIC "-//W3C//DTD SVG 1.1//EN" "http://www.w3.org/Graphics/SVG/1.1/DTD/svg11.dtd">
<svg version="1.1" xmlns="http://www.w3.org/2000/svg" xmlns:xlink="http://www.w3.org/1999/xlink" x="0px" y="0px" width="24px"
	 height="24px" viewBox="0 0 24 24" enable-background="new 0 0 24 24" xml:space="preserve">
<g id="Outline_Icons_1_">
	<g id="Outline_Icons">
	</g>
	<g id="New_icons_1_">
		<g>
			<path d="M9,15.75C9,14.233,7.767,13,6.25,13S3.5,14.233,3.5,15.75c0,0.276,0.224,0.5,0.5,0.5s0.5-0.224,0.5-0.5
				C4.5,14.785,5.285,14,6.25,14S8,14.785,8,15.75S7.215,17.5,6.25,17.5c-0.276,0-0.5,0.224-0.5,0.5s0.224,0.5,0.5,0.5
				C7.215,18.5,8,19.285,8,20.25S7.215,22,6.25,22S4.5,21.215,4.5,20.25c0-0.276-0.224-0.5-0.5-0.5s-0.5,0.224-0.5,0.5
				C3.5,21.767,4.733,23,6.25,23S9,21.767,9,20.25c0-0.931-0.467-1.752-1.177-2.25C8.533,17.502,9,16.681,9,15.75z"/>
			<path d="M15.5,13h-1c-1.378,0-2.5,1.121-2.5,2.5v5c0,1.379,1.122,2.5,2.5,2.5h1c1.378,0,2.5-1.121,2.5-2.5v-2.001
				c0-0.276-0.224-0.5-0.5-0.5h-3c-0.276,0-0.5,0.224-0.5,0.5s0.224,0.5,0.5,0.5H17V20.5c0,0.827-0.673,1.5-1.5,1.5h-1
				c-0.827,0-1.5-0.673-1.5-1.5v-5c0-0.827,0.673-1.5,1.5-1.5h1c0.827,0,1.5,0.673,1.5,1.5v1c0,0.276,0.224,0.5,0.5,0.5
				s0.5-0.224,0.5-0.5v-1C18,14.121,16.878,13,15.5,13z"/>
			<path d="M15.258,10.326c0.099,0.127,0.246,0.193,0.396,0.193c0.107,0,0.215-0.034,0.306-0.104
				c0.218-0.17,0.258-0.483,0.089-0.702C14.712,7.989,12.695,7,10.515,7C8.333,7,6.315,7.989,4.979,9.713
				C4.81,9.932,4.85,10.245,5.068,10.415c0.218,0.169,0.534,0.13,0.701-0.089C6.915,8.848,8.645,8,10.515,8
				C12.383,8,14.112,8.848,15.258,10.326z"/>
			<path d="M10.515,3.979c-2.89,0-5.588,1.292-7.403,3.544c-0.173,0.215-0.14,0.529,0.075,0.703C3.28,8.3,3.391,8.336,3.5,8.336
				c0.146,0,0.291-0.063,0.39-0.187c1.624-2.015,4.039-3.171,6.625-3.171c2.581,0,4.992,1.153,6.617,3.163
				c0.174,0.215,0.487,0.249,0.703,0.074c0.215-0.174,0.248-0.488,0.074-0.703C16.094,5.267,13.399,3.979,10.515,3.979z"/>
			<path d="M19.929,5.557C17.637,2.661,14.206,1,10.515,1C6.828,1,3.399,2.656,1.108,5.545c-0.172,0.216-0.135,0.53,0.081,0.702
				C1.406,6.42,1.721,6.383,1.892,6.166C3.992,3.519,7.135,2,10.515,2c3.383,0,6.529,1.522,8.63,4.178
				c0.099,0.124,0.245,0.189,0.393,0.189c0.108,0,0.218-0.035,0.31-0.108C20.064,6.088,20.101,5.773,19.929,5.557z"/>
		</g>
	</g>
</g>

</svg>
