<?xml version="1.0" encoding="utf-8"?>
<!-- Generator: Adobe Illustrator 16.0.3, SVG Export Plug-In . SVG Version: 6.00 Build 0)  -->
<!DOCTYPE svg PUBLIC "-//W3C//DTD SVG 1.1//EN" "http://www.w3.org/Graphics/SVG/1.1/DTD/svg11.dtd">
<svg version="1.1" xmlns="http://www.w3.org/2000/svg" xmlns:xlink="http://www.w3.org/1999/xlink" x="0px" y="0px" width="24px"
	 height="24px" viewBox="0 0 24 24" enable-background="new 0 0 24 24" xml:space="preserve">
<g id="Outline_Icons">
	<path d="M22,2c-0.929,0-1.705,0.64-1.929,1.5H19.5C18.121,3.5,17,4.622,17,6c0,0.643-0.05,1.292-0.149,1.929
		c-0.042,0.272,0.145,0.528,0.417,0.571c0.284,0.042,0.53-0.153,0.571-0.417C17.945,7.395,18,6.694,18,6c0-0.827,0.673-1.5,1.5-1.5
		H20v0.548c0,1.423-0.45,2.771-1.303,3.898c-0.564,0.745-1.83,0.745-2.395,0C15.45,7.818,15,6.471,15,5.048V4c0-1.103-0.897-2-2-2
		c-0.929,0-1.705,0.64-1.929,1.5H10.5C9.121,3.5,8,4.622,8,6c0,2.394-1.055,4.645-2.894,6.177l-2.37,1.975
		c-0.033-0.466-0.019-0.939,0.055-1.41c0.079-0.508-0.576-0.792-0.891-0.381c-1.823,2.376-1.6,5.766,0.519,7.884
		C3.551,21.377,5.055,22,6.654,22c1.314,0,2.61-0.439,3.65-1.236c0.405-0.312,0.14-0.964-0.382-0.892
		c-0.339,0.053-0.678,0.067-1.016,0.064c1.64-1.45,4.268-3.874,4.994-5.123c0.139-0.239,0.058-0.545-0.182-0.684
		c-0.238-0.138-0.545-0.059-0.684,0.181c-0.626,1.078-3.229,3.527-5.47,5.472c-1.132-0.258-2.188-0.821-3.026-1.659
		c-0.789-0.789-1.33-1.774-1.607-2.833l2.814-2.346C7.814,11.223,9,8.691,9,6c0-0.827,0.673-1.5,1.5-1.5H11v0.548
		c0,2.997,1.274,5.851,3.497,7.832C14.816,13.164,15,13.573,15,14v8.5c0,0.827,0.673,1.5,1.5,1.5h2c0.827,0,1.5-0.673,1.5-1.5V14
		c0-0.427,0.184-0.835,0.503-1.12C22.726,10.899,24,8.045,24,5.048V4C24,2.897,23.103,2,22,2z M7.822,20.861
		c-1.666,0.4-3.475-0.101-4.696-1.323c-1.26-1.26-1.715-3.059-1.32-4.706c0.236,1.5,0.937,2.908,2.027,4
		C4.929,19.927,6.316,20.627,7.822,20.861z M23,5.048c0,2.712-1.152,5.294-3.163,7.085C19.305,12.608,19,13.29,19,14v8.5
		c0,0.276-0.225,0.5-0.5,0.5h-2c-0.275,0-0.5-0.224-0.5-0.5V14c0-0.712-0.306-1.393-0.837-1.867C13.152,10.342,12,7.76,12,5.048V4
		c0-0.551,0.448-1,1-1s1,0.449,1,1v1.048c0,1.642,0.521,3.198,1.506,4.5c0.47,0.622,1.216,0.993,1.996,0.993
		c0.777,0,1.522-0.371,1.992-0.992C20.479,8.247,21,6.69,21,5.048V4c0-0.551,0.448-1,1-1s1,0.449,1,1V5.048z"/>
</g>

</svg>
