<?xml version="1.0" encoding="utf-8"?>
<!-- Generator: Adobe Illustrator 16.0.3, SVG Export Plug-In . SVG Version: 6.00 Build 0)  -->
<!DOCTYPE svg PUBLIC "-//W3C//DTD SVG 1.1//EN" "http://www.w3.org/Graphics/SVG/1.1/DTD/svg11.dtd">
<svg version="1.1" xmlns="http://www.w3.org/2000/svg" xmlns:xlink="http://www.w3.org/1999/xlink" x="0px" y="0px" width="24px"
	 height="24px" viewBox="0 0 24 24" enable-background="new 0 0 24 24" xml:space="preserve">
<g id="Outline_Icons_1_">
	<g id="Outline_Icons">
	</g>
	<g id="New_icons_1_">
		<g>
			<path d="M18.5,12c0-2.664-1.4-5.003-3.5-6.333V0.5C15,0.224,14.776,0,14.5,0h-7C7.224,0,7,0.224,7,0.5v5.167
				C4.9,6.997,3.5,9.336,3.5,12s1.4,5.003,3.5,6.333V23.5C7,23.776,7.224,24,7.5,24h7c0.276,0,0.5-0.224,0.5-0.5v-5.167
				C17.1,17.003,18.5,14.664,18.5,12z M8,1h6v4.131C13.08,4.728,12.067,4.5,11,4.5S8.92,4.728,8,5.131V1z M14,23H8v-4.131
				c0.92,0.403,1.933,0.631,3,0.631s2.08-0.228,3-0.631V23z M11,18.5c-3.584,0-6.5-2.916-6.5-6.5S7.416,5.5,11,5.5
				s6.5,2.916,6.5,6.5S14.584,18.5,11,18.5z"/>
			<path d="M12.5,11h2c0.276,0,0.5-0.224,0.5-0.5S14.776,10,14.5,10h-2c-1.378,0-2.5,1.121-2.5,2.5v1c0,1.379,1.122,2.5,2.5,2.5h2
				c0.276,0,0.5-0.224,0.5-0.5S14.776,15,14.5,15h-2c-0.827,0-1.5-0.673-1.5-1.5v-1C11,11.673,11.673,11,12.5,11z"/>
			<path d="M8,8C7.173,8,6.5,8.673,6.5,9.5S7.173,11,8,11s1.5-0.673,1.5-1.5S8.827,8,8,8z M8,10c-0.276,0-0.5-0.225-0.5-0.5
				S7.724,9,8,9s0.5,0.225,0.5,0.5S8.276,10,8,10z"/>
		</g>
	</g>
</g>

</svg>
