<?xml version="1.0" encoding="utf-8"?>
<!-- Generator: Adobe Illustrator 16.0.3, SVG Export Plug-In . SVG Version: 6.00 Build 0)  -->
<!DOCTYPE svg PUBLIC "-//W3C//DTD SVG 1.1//EN" "http://www.w3.org/Graphics/SVG/1.1/DTD/svg11.dtd">
<svg version="1.1" xmlns="http://www.w3.org/2000/svg" xmlns:xlink="http://www.w3.org/1999/xlink" x="0px" y="0px" width="24px"
	 height="24px" viewBox="0 0 24 24" enable-background="new 0 0 24 24" xml:space="preserve">
<g id="Outline_Icons_1_">
	<g id="Outline_Icons">
	</g>
	<g id="New_icons_1_">
		<g>
			<path d="M17.825,5.033L17,3.382V0.5C17,0.224,16.776,0,16.5,0h-9C7.224,0,7,0.224,7,0.5v2.882L6.175,5.033
				C4.951,5.194,4,6.232,4,7.5v9c0,1.268,0.951,2.306,2.175,2.467L7,20.618V23.5C7,23.776,7.224,24,7.5,24h9
				c0.276,0,0.5-0.224,0.5-0.5v-2.882l0.825-1.651C19.049,18.806,20,17.768,20,16.5v-9C20,6.232,19.049,5.194,17.825,5.033z
				 M7.809,4h8.382l0.5,1H7.309L7.809,4z M8,1h8v2H8V1z M16.191,20H7.809l-0.5-1h9.382L16.191,20z M16,23H8v-2h8V23z M19,16.5
				c0,0.827-0.673,1.5-1.5,1.5h-11C5.673,18,5,17.327,5,16.5v-9C5,6.673,5.673,6,6.5,6h11C18.327,6,19,6.673,19,7.5V16.5z"/>
			<path d="M16,12h-2V7.5C14,7.224,13.776,7,13.5,7h-3C10.224,7,10,7.224,10,7.5V12H7.958c-0.202,0-0.385,0.122-0.462,0.309
				c-0.078,0.187-0.035,0.402,0.108,0.545l4,4C11.702,16.951,11.83,17,11.958,17c0.127,0,0.254-0.048,0.352-0.145l4.042-4
				c0.144-0.143,0.188-0.358,0.111-0.546S16.203,12,16,12z M11.96,15.795L9.165,13H10.5c0.276,0,0.5-0.224,0.5-0.5V8h2v4.5
				c0,0.276,0.224,0.5,0.5,0.5h1.284L11.96,15.795z"/>
		</g>
	</g>
</g>

</svg>
