<?xml version="1.0" encoding="utf-8"?>
<!-- Generator: Adobe Illustrator 16.0.3, SVG Export Plug-In . SVG Version: 6.00 Build 0)  -->
<!DOCTYPE svg PUBLIC "-//W3C//DTD SVG 1.1//EN" "http://www.w3.org/Graphics/SVG/1.1/DTD/svg11.dtd">
<svg version="1.1" xmlns="http://www.w3.org/2000/svg" xmlns:xlink="http://www.w3.org/1999/xlink" x="0px" y="0px" width="24px"
	 height="24px" viewBox="0 0 24 24" enable-background="new 0 0 24 24" xml:space="preserve">
<g id="Outline_Icons_1_">
	<g id="Outline_Icons">
	</g>
	<g id="New_icons_1_">
		<g>
			<path d="M19.5,12c0-2.664-1.4-5.003-3.5-6.333V0.5C16,0.224,15.776,0,15.5,0h-7C8.224,0,8,0.224,8,0.5v5.167
				C5.9,6.997,4.5,9.336,4.5,12s1.4,5.003,3.5,6.333V23.5C8,23.776,8.224,24,8.5,24h7c0.276,0,0.5-0.224,0.5-0.5v-5.167
				C18.1,17.003,19.5,14.664,19.5,12z M9,1h6v4.131C14.08,4.728,13.067,4.5,12,4.5S9.92,4.728,9,5.131V1z M15,23H9v-4.131
				c0.92,0.403,1.933,0.631,3,0.631s2.08-0.228,3-0.631V23z M12,18.5c-3.584,0-6.5-2.916-6.5-6.5S8.416,5.5,12,5.5
				s6.5,2.916,6.5,6.5S15.584,18.5,12,18.5z"/>
			<path d="M14.5,14h-3.793l4.146-4.146c0.143-0.143,0.186-0.358,0.108-0.545C14.885,9.122,14.702,9,14.5,9h-5
				C9.224,9,9,9.224,9,9.5S9.224,10,9.5,10h3.793l-4.146,4.146c-0.143,0.143-0.186,0.358-0.108,0.545C9.115,14.878,9.298,15,9.5,15
				h5c0.276,0,0.5-0.224,0.5-0.5S14.776,14,14.5,14z"/>
		</g>
	</g>
</g>

</svg>
