<?xml version="1.0" encoding="utf-8"?>
<!-- Generator: Adobe Illustrator 16.0.3, SVG Export Plug-In . SVG Version: 6.00 Build 0)  -->
<!DOCTYPE svg PUBLIC "-//W3C//DTD SVG 1.1//EN" "http://www.w3.org/Graphics/SVG/1.1/DTD/svg11.dtd">
<svg version="1.1" xmlns="http://www.w3.org/2000/svg" xmlns:xlink="http://www.w3.org/1999/xlink" x="0px" y="0px" width="24px"
	 height="24px" viewBox="0 0 24 24" enable-background="new 0 0 24 24" xml:space="preserve">
<g id="Outline_Icons">
	<g>
		<path d="M10.5,8.5c0-1.103-0.897-2-2-2s-2,0.897-2,2s0.897,2,2,2S10.5,9.603,10.5,8.5z M7.5,8.5c0-0.552,0.449-1,1-1s1,0.448,1,1
			s-0.449,1-1,1S7.5,9.052,7.5,8.5z"/>
		<path d="M15.5,6.5c-1.103,0-2,0.897-2,2s0.897,2,2,2s2-0.897,2-2S16.603,6.5,15.5,6.5z M15.5,9.5c-0.551,0-1-0.448-1-1
			s0.449-1,1-1s1,0.448,1,1S16.051,9.5,15.5,9.5z"/>
		<path d="M12,0C5.383,0,0,5.383,0,12s5.383,12,12,12s12-5.383,12-12S18.617,0,12,0z M12,23C5.935,23,1,18.065,1,12S5.935,1,12,1
			s11,4.935,11,11S18.065,23,12,23z"/>
		<path d="M16.136,14.038c-0.151-0.23-0.461-0.295-0.692-0.144L12,16.152l-3.445-2.258c-0.229-0.151-0.541-0.087-0.692,0.144
			c-0.151,0.231-0.087,0.541,0.144,0.692l3.081,2.02l-3.081,2.02c-0.231,0.151-0.295,0.461-0.144,0.692
			c0.096,0.146,0.255,0.226,0.418,0.226c0.094,0,0.189-0.026,0.273-0.082L12,17.348l3.445,2.258
			c0.084,0.056,0.179,0.082,0.273,0.082c0.163,0,0.323-0.079,0.418-0.226c0.151-0.231,0.087-0.541-0.144-0.692l-3.081-2.02
			l3.081-2.02C16.223,14.579,16.288,14.27,16.136,14.038z"/>
	</g>
</g>

</svg>
