<?xml version="1.0" encoding="utf-8"?>
<!-- Generator: Adobe Illustrator 16.0.3, SVG Export Plug-In . SVG Version: 6.00 Build 0)  -->
<!DOCTYPE svg PUBLIC "-//W3C//DTD SVG 1.1//EN" "http://www.w3.org/Graphics/SVG/1.1/DTD/svg11.dtd">
<svg version="1.1" xmlns="http://www.w3.org/2000/svg" xmlns:xlink="http://www.w3.org/1999/xlink" x="0px" y="0px" width="24px"
	 height="24px" viewBox="0 0 24 24" enable-background="new 0 0 24 24" xml:space="preserve">
<g id="Outline_Icons">
	<g>
		<path d="M12,0C5.383,0,0,5.383,0,12s5.383,12,12,12s12-5.383,12-12S18.617,0,12,0z M12,23C5.935,23,1,18.065,1,12S5.935,1,12,1
			s11,4.935,11,11S18.065,23,12,23z"/>
		<path d="M19.5,13h-15C4.224,13,4,13.224,4,13.5c0,4.065,3.664,7.5,8,7.5s8-3.435,8-7.5C20,13.224,19.776,13,19.5,13z M12,20
			c-3.548,0-6.682-2.75-6.977-6h13.954C18.682,17.25,15.548,20,12,20z"/>
		<path d="M5.5,10.5C5.776,10.5,6,10.276,6,10c0-1.568,1.774-1.795,2.545-1.112C8.847,9.153,9,9.528,9,10c0,0.276,0.224,0.5,0.5,0.5
			S10,10.276,10,10c0-3.263-5-3.26-5,0C5,10.276,5.224,10.5,5.5,10.5z"/>
		<path d="M14.5,10.5c0.276,0,0.5-0.224,0.5-0.5c0-1.024,0.753-1.483,1.499-1.483C17.246,8.517,18,8.976,18,10
			c0,0.276,0.224,0.5,0.5,0.5S19,10.276,19,10c0-3.258-5-3.261-5,0C14,10.276,14.224,10.5,14.5,10.5z"/>
	</g>
</g>

</svg>
