<?xml version="1.0" encoding="utf-8"?>
<!-- Generator: Adobe Illustrator 16.0.3, SVG Export Plug-In . SVG Version: 6.00 Build 0)  -->
<!DOCTYPE svg PUBLIC "-//W3C//DTD SVG 1.1//EN" "http://www.w3.org/Graphics/SVG/1.1/DTD/svg11.dtd">
<svg version="1.1" xmlns="http://www.w3.org/2000/svg" xmlns:xlink="http://www.w3.org/1999/xlink" x="0px" y="0px" width="24px"
	 height="24px" viewBox="0 0 24 24" enable-background="new 0 0 24 24" xml:space="preserve">
<g id="Outline_Icons">
	<g>
		<path d="M12,0C5.383,0,0,5.383,0,12s5.383,12,12,12s12-5.383,12-12S18.617,0,12,0z M12,23C5.935,23,1,18.065,1,12S5.935,1,12,1
			s11,4.935,11,11S18.065,23,12,23z"/>
		<path d="M7,9v1c0,0.276,0.224,0.5,0.5,0.5S8,10.276,8,10V9h1c0.276,0,0.5-0.224,0.5-0.5S9.276,8,9,8H8V7
			c0-0.276-0.224-0.5-0.5-0.5S7,6.724,7,7v1H6C5.724,8,5.5,8.224,5.5,8.5S5.724,9,6,9H7z"/>
		<path d="M18,8h-1V7c0-0.276-0.224-0.5-0.5-0.5S16,6.724,16,7v1h-1c-0.276,0-0.5,0.224-0.5,0.5S14.724,9,15,9h1v1
			c0,0.276,0.224,0.5,0.5,0.5S17,10.276,17,10V9h1c0.276,0,0.5-0.224,0.5-0.5S18.276,8,18,8z"/>
		<path d="M17.5,14c-0.276,0-0.5,0.224-0.5,0.5c0,2.355-0.818,3.5-2.5,3.5c-1.15,0-1.529-0.653-2.052-1.721
			C11.95,15.264,11.33,14,9.5,14C8.193,14,6,14.585,6,18.5C6,18.776,6.224,19,6.5,19S7,18.776,7,18.5C7,16.145,7.818,15,9.5,15
			c1.148,0,1.527,0.653,2.05,1.72C12.048,17.735,12.668,19,14.5,19c1.307,0,3.5-0.585,3.5-4.5C18,14.224,17.776,14,17.5,14z"/>
	</g>
</g>

</svg>
