<?xml version="1.0" encoding="utf-8"?>
<!-- Generator: Adobe Illustrator 16.0.3, SVG Export Plug-In . SVG Version: 6.00 Build 0)  -->
<!DOCTYPE svg PUBLIC "-//W3C//DTD SVG 1.1//EN" "http://www.w3.org/Graphics/SVG/1.1/DTD/svg11.dtd">
<svg version="1.1" xmlns="http://www.w3.org/2000/svg" xmlns:xlink="http://www.w3.org/1999/xlink" x="0px" y="0px" width="24px"
	 height="24px" viewBox="0 0 24 24" enable-background="new 0 0 24 24" xml:space="preserve">
<g id="Outline_Icons">
	<g>
		<path d="M16.438,14.376c-0.093-0.139-0.249-0.222-0.415-0.222h0c-0.167,0-0.322,0.083-0.415,0.221l-1.603,2.38l-1.577-2.377
			c-0.092-0.139-0.248-0.223-0.414-0.224c-0.175,0.024-0.323,0.081-0.417,0.22l-1.612,2.381l-1.566-2.376
			c-0.092-0.139-0.247-0.224-0.414-0.225c-0.149-0.017-0.323,0.082-0.417,0.219l-1.597,2.346c-0.155,0.229-0.096,0.539,0.132,0.694
			c0.229,0.157,0.539,0.097,0.695-0.132l1.177-1.729l1.567,2.377c0.092,0.14,0.215,0.219,0.417,0.225
			c0.166,0,0.321-0.082,0.414-0.22l1.613-2.382l1.578,2.378c0.092,0.139,0.248,0.223,0.415,0.224c0.001,0,0.001,0,0.002,0
			c0.167,0,0.322-0.083,0.415-0.221l1.605-2.383l1.158,1.729c0.154,0.228,0.463,0.29,0.694,0.137
			c0.229-0.153,0.291-0.464,0.137-0.693L16.438,14.376z"/>
		<path d="M12,0C5.383,0,0,5.383,0,12s5.383,12,12,12s12-5.383,12-12S18.617,0,12,0z M12,23C5.935,23,1,18.065,1,12S5.935,1,12,1
			s11,4.935,11,11S18.065,23,12,23z"/>
		<path d="M17.688,6.855l-3.083,3.084c-0.195,0.195-0.195,0.512,0,0.707c0.098,0.098,0.226,0.146,0.354,0.146
			s0.256-0.049,0.354-0.146l3.083-3.084c0.195-0.195,0.195-0.512,0-0.707S17.883,6.66,17.688,6.855z"/>
		<path d="M9.022,10.773c0.128,0,0.256-0.049,0.354-0.146c0.195-0.195,0.195-0.512,0-0.707L6.312,6.855
			C6.116,6.66,5.8,6.66,5.604,6.855s-0.195,0.512,0,0.707l3.064,3.064C8.766,10.725,8.894,10.773,9.022,10.773z"/>
	</g>
</g>

</svg>
