<?xml version="1.0" encoding="utf-8"?>
<!-- Generator: Adobe Illustrator 16.0.3, SVG Export Plug-In . SVG Version: 6.00 Build 0)  -->
<!DOCTYPE svg PUBLIC "-//W3C//DTD SVG 1.1//EN" "http://www.w3.org/Graphics/SVG/1.1/DTD/svg11.dtd">
<svg version="1.1" xmlns="http://www.w3.org/2000/svg" xmlns:xlink="http://www.w3.org/1999/xlink" x="0px" y="0px" width="24px"
	 height="24px" viewBox="0 0 24 24" enable-background="new 0 0 24 24" xml:space="preserve">
<g id="Outline_Icons">
	<path d="M17.5,1.001h-7c-1.379,0-2.5,1.121-2.5,2.5v2c0,1.208,0.86,2.218,2,2.449v5.908l-3.674,1.413
		c-2.047,0.741-3.046,2.991-2.274,5.122c0.571,1.579,2.107,2.64,3.823,2.64c0.472,0,0.966-0.085,1.398-0.242l6.321-2.372
		C17.101,19.874,18,18.468,18,16.657V7.95c1.14-0.231,2-1.241,2-2.449v-2C20,2.122,18.879,1.001,17.5,1.001z M10.68,14.669
		c0.192-0.074,0.32-0.26,0.32-0.467V8.001h6v6.156c-2.481,0-4.5,2.019-4.5,4.5c0,0.595,0.118,1.183,0.344,1.726L9.418,21.67
		C9.471,21.336,9.5,20.998,9.5,20.657c0-1.812-0.762-3.521-2.065-4.741L10.68,14.669z M4.991,20.054
		c-0.542-1.499,0.074-3.06,1.404-3.71C7.715,17.383,8.5,18.967,8.5,20.657c0,0.454-0.069,0.901-0.179,1.338
		c-0.148,0.021-0.298,0.038-0.446,0.038C6.6,22.033,5.414,21.219,4.991,20.054z M17,16.657c0,1.371-0.652,2.426-1.751,2.823
		l-1.466,0.551C13.599,19.6,13.5,19.132,13.5,18.657c0-1.93,1.57-3.5,3.5-3.5V16.657z M19,5.501c0,0.827-0.673,1.5-1.5,1.5h-7
		c-0.827,0-1.5-0.673-1.5-1.5v-2c0-0.827,0.673-1.5,1.5-1.5h7c0.827,0,1.5,0.673,1.5,1.5V5.501z"/>
</g>

</svg>
