<?xml version="1.0" encoding="utf-8"?>
<!-- Generator: Adobe Illustrator 16.0.3, SVG Export Plug-In . SVG Version: 6.00 Build 0)  -->
<!DOCTYPE svg PUBLIC "-//W3C//DTD SVG 1.1//EN" "http://www.w3.org/Graphics/SVG/1.1/DTD/svg11.dtd">
<svg version="1.1" xmlns="http://www.w3.org/2000/svg" xmlns:xlink="http://www.w3.org/1999/xlink" x="0px" y="0px" width="24px"
	 height="24px" viewBox="0 0 24 24" enable-background="new 0 0 24 24" xml:space="preserve">
<g id="Outline_Icons">
	<path d="M19,21.5v-4c0-1.768-1.757-3.117-3-3.431V10.5c0-1.561-0.837-2.519-1.5-3.202V4.5C14.5,3.424,13.012,0,12,0
		S9.5,3.424,9.5,4.5v2.797C8.864,7.949,8,8.913,8,10.5v3.569c-1.243,0.313-3,1.663-3,3.431v4C5,21.776,5.224,22,5.5,22h0.191
		l-0.638,1.276c-0.078,0.155-0.069,0.339,0.022,0.486S5.327,24,5.5,24h3c0.173,0,0.334-0.09,0.425-0.237s0.1-0.331,0.022-0.486
		L8.309,22H8.5C8.776,22,9,21.776,9,21.5V20h1v1.5c0,0.276,0.224,0.5,0.5,0.5h0.191l-0.638,1.276
		c-0.078,0.155-0.069,0.339,0.022,0.486S10.327,24,10.5,24h3c0.173,0,0.334-0.09,0.425-0.237s0.1-0.331,0.022-0.486L13.309,22H13.5
		c0.276,0,0.5-0.224,0.5-0.5V20h1v1.5c0,0.276,0.224,0.5,0.5,0.5h0.191l-0.638,1.276c-0.078,0.155-0.069,0.339,0.022,0.486
		S15.327,24,15.5,24h3c0.173,0,0.334-0.09,0.425-0.237s0.1-0.331,0.022-0.486L18.309,22H18.5C18.776,22,19,21.776,19,21.5z M18,17.5
		V21h-2v-1.5v-4.377C16.822,15.438,18,16.37,18,17.5z M12,1.101c0.502,0.579,1.5,2.598,1.5,3.399V7h-3V4.5
		C10.5,3.698,11.498,1.68,12,1.101z M6,17.5c0-1.13,1.178-2.062,2-2.377V19.5V21H6V17.5z M7.691,23H6.309l0.5-1h0.382L7.691,23z
		 M13,21h-2v-7c0-0.562,0.742-1.437,0.977-1.502C12.258,12.563,13,13.438,13,14V21z M12.691,23h-1.382l0.5-1h0.382L12.691,23z
		 M12,11.5c-0.841,0-2,1.448-2,2.5v5H9v-8.5C9,9.33,9.624,8.604,10.21,8h3.579C14.354,8.581,15,9.312,15,10.5V19h-1v-5
		C14,12.948,12.841,11.5,12,11.5z M17.691,23h-1.382l0.5-1h0.382L17.691,23z"/>
</g>

</svg>
