<?xml version="1.0" encoding="utf-8"?>
<!-- Generator: Adobe Illustrator 16.0.3, SVG Export Plug-In . SVG Version: 6.00 Build 0)  -->
<!DOCTYPE svg PUBLIC "-//W3C//DTD SVG 1.1//EN" "http://www.w3.org/Graphics/SVG/1.1/DTD/svg11.dtd">
<svg version="1.1" xmlns="http://www.w3.org/2000/svg" xmlns:xlink="http://www.w3.org/1999/xlink" x="0px" y="0px" width="24px"
	 height="24px" viewBox="0 0 24 24" enable-background="new 0 0 24 24" xml:space="preserve">
<g id="Outline_Icons">
	<g>
		<path d="M19.5,4C17.57,4,16,5.57,16,7.5v3c0,0.276,0.224,0.5,0.5,0.5h6c0.276,0,0.5-0.224,0.5-0.5v-3C23,5.57,21.43,4,19.5,4z
			 M22,10h-5V7.5C17,6.121,18.121,5,19.5,5S22,6.121,22,7.5V10z"/>
		<path d="M8.5,7h6C14.776,7,15,6.776,15,6.5v-3C15,1.57,13.43,0,11.5,0S8,1.57,8,3.5v3C8,6.776,8.224,7,8.5,7z M9,3.5
			C9,2.121,10.121,1,11.5,1S14,2.121,14,3.5V6H9V3.5z"/>
		<path d="M7,10.5v-3C7,5.57,5.43,4,3.5,4S0,5.57,0,7.5v3C0,10.776,0.224,11,0.5,11h6C6.776,11,7,10.776,7,10.5z M6,10H1V7.5
			C1,6.121,2.121,5,3.5,5S6,6.121,6,7.5V10z"/>
		<path d="M14,19.396V17.5c0-1.379-1.121-2.5-2.5-2.5S9,16.121,9,17.5v1.883l-4.806,3.722c-0.17,0.131-0.236,0.355-0.167,0.558
			C4.096,23.864,4.286,24,4.5,24h5h4h5c0.214,0,0.404-0.136,0.474-0.339c0.068-0.202,0.001-0.427-0.168-0.557L14,19.396z M9,20.647
			V23H5.962L9,20.647z M10,23v-5.5c0-0.827,0.673-1.5,1.5-1.5s1.5,0.673,1.5,1.5V23H10z M14,23v-2.341L17.033,23H14z"/>
		<path d="M11,11v2c0,0.276,0.224,0.5,0.5,0.5S12,13.276,12,13v-2c0-0.276-0.224-0.5-0.5-0.5S11,10.724,11,11z"/>
		<circle cx="10.5" cy="3.5" r="0.5"/>
		<circle cx="12.5" cy="3.5" r="0.5"/>
		<circle cx="2.5" cy="7.5" r="0.5"/>
		<circle cx="4.5" cy="7.5" r="0.5"/>
		<circle cx="18.5" cy="7.5" r="0.5"/>
		<circle cx="20.5" cy="7.5" r="0.5"/>
	</g>
</g>

</svg>
