<?xml version="1.0" encoding="utf-8"?>
<!-- Generator: Adobe Illustrator 16.0.3, SVG Export Plug-In . SVG Version: 6.00 Build 0)  -->
<!DOCTYPE svg PUBLIC "-//W3C//DTD SVG 1.1//EN" "http://www.w3.org/Graphics/SVG/1.1/DTD/svg11.dtd">
<svg version="1.1" xmlns="http://www.w3.org/2000/svg" xmlns:xlink="http://www.w3.org/1999/xlink" x="0px" y="0px" width="24px"
	 height="24px" viewBox="0 0 24 24" enable-background="new 0 0 24 24" xml:space="preserve">
<g id="Outline_Icons">
	<g>
		<path d="M10.684,12l1.347,3.672C12.104,15.875,12.296,16,12.5,16c0.058,0,0.115-0.01,0.172-0.03
			c0.26-0.096,0.393-0.383,0.298-0.642l-5.5-15c-0.145-0.395-0.795-0.395-0.939,0l-5.5,15c-0.095,0.259,0.038,0.546,0.298,0.642
			c0.259,0.095,0.546-0.037,0.642-0.298L3.316,12H10.684z M7,1.952L10.317,11H3.683L7,1.952z"/>
		<path d="M22.791,9.093c-0.227-0.159-0.537-0.107-0.698,0.116l-9.656,13.521l-4.583-4.583c-0.195-0.195-0.512-0.195-0.707,0
			s-0.195,0.512,0,0.707l5,5C12.24,23.947,12.368,24,12.5,24c0.014,0,0.027-0.001,0.041-0.002c0.146-0.012,0.28-0.088,0.366-0.207
			l10-14C23.067,9.565,23.016,9.254,22.791,9.093z"/>
	</g>
</g>

</svg>
