<?xml version="1.0" encoding="utf-8"?>
<!-- Generator: Adobe Illustrator 16.0.3, SVG Export Plug-In . SVG Version: 6.00 Build 0)  -->
<!DOCTYPE svg PUBLIC "-//W3C//DTD SVG 1.1//EN" "http://www.w3.org/Graphics/SVG/1.1/DTD/svg11.dtd">
<svg version="1.1" xmlns="http://www.w3.org/2000/svg" xmlns:xlink="http://www.w3.org/1999/xlink" x="0px" y="0px" width="24px"
	 height="24px" viewBox="0 0 24 24" enable-background="new 0 0 24 24" xml:space="preserve">
<g id="Outline_Icons">
	<g>
		<path d="M3,13c-1.103,0-2,0.897-2,2v2c0,0.276,0.224,0.5,0.5,0.5S2,17.276,2,17v-2c0-0.552,0.448-1,1-1s1,0.448,1,1v2.5
			C4,18.879,5.121,20,6.5,20S9,18.879,9,17.5V16h1v4c0,1.654-1.346,3-3,3c-1.738,0-3-1.156-3-2.75c0-0.276-0.224-0.5-0.5-0.5
			S3,19.974,3,20.25C3,22.388,4.72,24,7,24c2.206,0,4-1.794,4-4v-4h1v4c0,2.168,1.889,4,4.125,4c2.281,0,3.938-1.577,3.938-3.75
			c0-0.276-0.224-0.5-0.5-0.5s-0.5,0.224-0.5,0.5c0,1.594-1.235,2.75-2.938,2.75C14.431,23,13,21.626,13,20v-4h1v1.5
			c0,1.379,1.121,2.5,2.5,2.5s2.5-1.121,2.5-2.5V15c0-0.552,0.448-1,1-1s1,0.448,1,1v1c0,0.276,0.224,0.5,0.5,0.5S22,16.276,22,16
			v-1c0-1.103-0.897-2-2-2s-2,0.897-2,2v2.5c0,0.827-0.673,1.5-1.5,1.5S15,18.327,15,17.5V9h2.031c1.009,0,1.347-0.453,1.458-0.724
			c0.112-0.27,0.192-0.83-0.522-1.543l-6.114-6.088c-0.195-0.193-0.511-0.194-0.706,0.001L5.061,6.732
			C4.348,7.445,4.43,8.005,4.541,8.275C4.653,8.546,4.992,9,6,9h2v8.5C8,18.327,7.327,19,6.5,19S5,18.327,5,17.5V15
			C5,13.897,4.103,13,3,13z M9,15V8.596l2.5-6.249L14,8.596V15H9z M17.569,7.887C17.546,7.916,17.396,8,17.031,8h-2.193
			l-1.975-4.938l4.397,4.379C17.52,7.7,17.566,7.865,17.569,7.887z M6,8C5.634,8,5.484,7.915,5.468,7.901
			c-0.005-0.038,0.041-0.203,0.3-0.462l4.364-4.364L8.162,8H6z"/>
	</g>
</g>

</svg>
