<?xml version="1.0" encoding="utf-8"?>
<!-- Generator: Adobe Illustrator 16.0.3, SVG Export Plug-In . SVG Version: 6.00 Build 0)  -->
<!DOCTYPE svg PUBLIC "-//W3C//DTD SVG 1.1//EN" "http://www.w3.org/Graphics/SVG/1.1/DTD/svg11.dtd">
<svg version="1.1" xmlns="http://www.w3.org/2000/svg" xmlns:xlink="http://www.w3.org/1999/xlink" x="0px" y="0px" width="24px"
	 height="24px" viewBox="0 0 24 24" enable-background="new 0 0 24 24" xml:space="preserve">
<g id="Outline_Icons">
	<path d="M22.971,18.137L10.969,9.983l3.275-0.527c0.214-0.034,0.381-0.201,0.415-0.415c0.033-0.214-0.074-0.425-0.267-0.523
		l-4.389-2.247l0.721-4.886c0.031-0.214-0.078-0.423-0.271-0.52c-0.192-0.098-0.426-0.06-0.578,0.093l-3.459,3.46l-4.36-2.222
		c-0.191-0.1-0.428-0.061-0.58,0.092c-0.153,0.153-0.19,0.388-0.092,0.58l2.222,4.36l-3.46,3.459
		c-0.152,0.152-0.19,0.386-0.093,0.578c0.096,0.193,0.309,0.301,0.52,0.27l4.883-0.723l2.27,4.41
		c0.086,0.169,0.259,0.271,0.444,0.271c0.026,0,0.053-0.002,0.079-0.007c0.214-0.034,0.381-0.202,0.415-0.416l0.537-3.423
		l8.123,12.13c0.094,0.14,0.25,0.222,0.415,0.222c0.026,0,0.054-0.002,0.08-0.007c0.193-0.031,0.351-0.172,0.402-0.36l0.996-3.625
		l3.603-0.975c0.188-0.051,0.33-0.207,0.362-0.399C23.215,18.44,23.132,18.247,22.971,18.137z M7.914,13.403l-1.732-3.366
		C6.096,9.868,5.923,9.766,5.737,9.766c-0.024,0-0.049,0.002-0.073,0.006l-3.74,0.554L4.57,7.679c0.153-0.153,0.19-0.388,0.092-0.58
		L2.975,3.786l3.312,1.688c0.191,0.1,0.427,0.061,0.58-0.092l2.647-2.647L8.962,6.479C8.931,6.69,9.038,6.899,9.229,6.997
		l3.349,1.715L8.907,9.304C8.693,9.338,8.526,9.506,8.492,9.72L7.914,13.403z M18.681,19.117c-0.171,0.046-0.305,0.179-0.352,0.35
		l-0.782,2.847L9.453,10.228l0.075-0.012l11.979,8.137L18.681,19.117z"/>
</g>

</svg>
