<?xml version="1.0" encoding="utf-8"?>
<!-- Generator: Adobe Illustrator 16.0.3, SVG Export Plug-In . SVG Version: 6.00 Build 0)  -->
<!DOCTYPE svg PUBLIC "-//W3C//DTD SVG 1.1//EN" "http://www.w3.org/Graphics/SVG/1.1/DTD/svg11.dtd">
<svg version="1.1" xmlns="http://www.w3.org/2000/svg" xmlns:xlink="http://www.w3.org/1999/xlink" x="0px" y="0px" width="24px"
	 height="24px" viewBox="0 0 24 24" enable-background="new 0 0 24 24" xml:space="preserve">
<g id="Outline_Icons">
	<g>
		<path d="M23.998,0.492c0-0.039-0.013-0.075-0.022-0.113c-0.007-0.026-0.007-0.054-0.018-0.078
			c-0.008-0.018-0.023-0.031-0.032-0.048c-0.023-0.04-0.047-0.08-0.08-0.111c-0.002-0.001-0.002-0.004-0.004-0.006
			c-0.017-0.016-0.038-0.021-0.056-0.034c-0.033-0.024-0.065-0.049-0.104-0.064c-0.035-0.014-0.072-0.017-0.109-0.022
			C23.549,0.011,23.526,0,23.5,0h-7C16.224,0,16,0.224,16,0.5S16.224,1,16.5,1h5.846l-6.395,6.821L11.312,4.11
			c-0.198-0.159-0.486-0.144-0.666,0.037l-9,9c-0.195,0.195-0.195,0.512,0,0.707C1.744,13.951,1.872,14,2,14
			s0.256-0.049,0.354-0.146l8.684-8.684l4.65,3.721c0.203,0.163,0.498,0.142,0.678-0.049L23,1.765V7c0,0.276,0.224,0.5,0.5,0.5
			S24,7.276,24,7V0.5C24,0.497,23.998,0.495,23.998,0.492z"/>
		<path d="M21.748,12h-1.312c-0.271,0-0.669-0.739-0.829-1.375c-0.044-0.17-0.173-0.305-0.34-0.356
			c-0.169-0.052-0.352-0.011-0.48,0.107c-0.061,0.055-1.479,1.351-1.479,2.87c0,0.607,0.177,1.169,0.461,1.63
			c-0.183,0.076-0.381,0.13-0.769,0.13c-0.432,0-0.583-0.063-0.751-0.15c0.274-0.458,0.443-1.013,0.443-1.61
			c0-1.519-1.418-2.815-1.479-2.87c-0.13-0.118-0.312-0.158-0.48-0.107c-0.167,0.051-0.296,0.186-0.34,0.356
			C14.233,11.261,13.836,12,13.564,12h-1.312C10.963,12,10,13.351,10,14.559c0,1.541,0.583,2.135,1.59,2.638l0.568,0.284
			C12.063,17.818,12,18.159,12,18.5c0,0.114,0.039,0.224,0.109,0.312l1.932,2.415l0.474,1.894c0.021,0.079,0.059,0.153,0.113,0.213
			C15.082,23.84,16.85,24,17,24s1.918-0.16,2.372-0.666c0.055-0.06,0.093-0.134,0.113-0.213l0.474-1.894l1.932-2.415
			C21.961,18.724,22,18.614,22,18.5c0-0.351-0.053-0.693-0.134-1.031l0.544-0.272C23.417,16.694,24,16.1,24,14.559
			C24,13.351,23.037,12,21.748,12z M12.037,16.303C11.316,15.942,11,15.668,11,14.559C11,13.858,11.578,13,12.252,13h1.312
			c0.749,0,1.228-0.686,1.504-1.29c0.314,0.423,0.624,0.989,0.624,1.536c0,1.037-0.66,1.76-1.252,1.76
			c-0.874,0-1.938-0.006-1.938-0.006l-0.006,1c0,0,0.147,0.001,0.377,0.002c-0.13,0.184-0.229,0.369-0.33,0.554L12.037,16.303z
			 M19.109,20.688c-0.045,0.056-0.077,0.122-0.095,0.191l-0.452,1.81C18.234,22.827,17.344,23,17,23c-0.351,0-1.267-0.18-1.56-0.3
			l-0.455-1.821c-0.018-0.07-0.05-0.135-0.095-0.191l-1.885-2.356c0.049-0.77,0.447-1.551,1.162-2.325c0.092,0,0.184,0,0.272,0
			c0.399,0,0.774-0.146,1.104-0.381c0.065,0.027,0.124,0.056,0.19,0.091c0.31,0.165,0.6,0.29,1.265,0.29
			c0.708,0,1.038-0.15,1.329-0.283c0.06-0.028,0.114-0.051,0.171-0.073c0.319,0.215,0.678,0.35,1.06,0.35h0.399
			c0.641,0.703,0.997,1.483,1.037,2.33L19.109,20.688z M21.963,16.303l-0.446,0.223c-0.088-0.179-0.179-0.355-0.291-0.526H21.5
			c0.276,0,0.5-0.224,0.5-0.5S21.776,15,21.5,15h-1.94c-0.592,0-1.252-0.72-1.252-1.754c0-0.569,0.321-1.131,0.624-1.535
			C19.208,12.315,19.687,13,20.436,13h1.312C22.422,13,23,13.858,23,14.559C23,15.668,22.684,15.942,21.963,16.303z"/>
		<circle cx="19" cy="17.5" r="0.5"/>
		<circle cx="15" cy="17.5" r="0.5"/>
	</g>
</g>
<g id="Invisibla_Shape">
</g>
</svg>
