<?xml version="1.0" encoding="utf-8"?>
<!-- Generator: Adobe Illustrator 16.0.3, SVG Export Plug-In . SVG Version: 6.00 Build 0)  -->
<!DOCTYPE svg PUBLIC "-//W3C//DTD SVG 1.1//EN" "http://www.w3.org/Graphics/SVG/1.1/DTD/svg11.dtd">
<svg version="1.1" xmlns="http://www.w3.org/2000/svg" xmlns:xlink="http://www.w3.org/1999/xlink" x="0px" y="0px" width="24px"
	 height="24px" viewBox="0 0 24 24" enable-background="new 0 0 24 24" xml:space="preserve">
<g id="Outline_Icons">
	<path d="M24.046,10.098c0.035-0.175-0.025-0.354-0.159-0.473c-0.134-0.117-0.321-0.155-0.488-0.1C23.384,9.53,21.942,10,20.056,10
		h-0.769c0.844-0.401,1.987-1.012,2.622-1.646c0.96-0.96,1.141-2.613,0.844-3.33C22.558,4.551,22.2,4.5,22.056,4.5h-4.023
		c-0.433-0.436-1.263-0.916-2.2-0.447c-0.479,0.239-0.721,0.552-0.721,0.929c0,0.129,0.03,0.246,0.079,0.351
		c-0.551,0.21-1.122,0.361-1.68,0.508c-0.716,0.189-1.456,0.385-2.161,0.704c-1.092,0.494-1.723,1.08-2.229,1.551
		C8.578,8.599,8.187,8.964,7.415,9.093c-1.868,0.312-3.524,1.374-4.602,2.92c-0.016,0.014-0.035,0.022-0.05,0.04
		C2.526,12.337,2.177,12.5,1.806,12.5h-1.25c-0.244,0-0.453,0.177-0.493,0.418c-0.033,0.197-0.297,1.956,0.541,2.945
		c0.252,0.298,0.581,0.495,0.966,0.583c0.122,1.951,1.039,3.739,2.564,4.98l0.432,2.17C4.611,23.832,4.817,24,5.056,24H8.5
		C8.776,24,9,23.776,9,23.5v-3.286c0.08-0.082,0.14-0.174,0.211-0.261l0.858,3.661C10.122,23.84,10.323,24,10.556,24h3.5
		c0.158,0,0.307-0.074,0.4-0.201c0.095-0.126,0.124-0.29,0.079-0.441l-0.779-2.632c0.518-0.626,0.8-1.405,0.8-2.226
		c0-0.522-0.048-0.909-0.242-1.326c0.113-0.141,0.204-0.27,0.282-0.39c0.062,0.044,0.116,0.088,0.183,0.132
		C16.386,17.988,19.427,18,19.556,18c0.133,0,0.26-0.053,0.354-0.146l2-2c0.123-0.123,0.173-0.3,0.133-0.468
		c-0.039-0.169-0.164-0.304-0.328-0.359c-0.378-0.126-1.077-0.398-1.771-0.75c1.19-0.215,2.58-0.536,2.967-0.923
		C23.473,12.79,23.922,10.719,24.046,10.098z M12.718,20.742L13.387,23h-2.435l-0.84-3.579c0.576-0.119,1.38-0.337,2.275-0.742
		c0.444-0.201,0.819-0.447,1.134-0.705c0.023,0.147,0.034,0.309,0.034,0.526c0,0.658-0.254,1.279-0.716,1.75
		C12.713,20.379,12.666,20.567,12.718,20.742z M19.353,16.996c-0.677-0.021-2.876-0.149-4.02-0.912
		c-1.339-0.893-1.816-1.782-1.831-1.81c-0.124-0.246-0.422-0.343-0.67-0.222c-0.247,0.124-0.347,0.424-0.224,0.671
		c0.017,0.035,0.345,0.67,1.196,1.438c-0.26,0.416-0.83,1.154-1.829,1.606c-0.793,0.358-1.512,0.556-2.027,0.666
		c0.064-0.296,0.107-0.604,0.107-0.933c0-1.086-0.428-2.102-1.205-2.861c-0.198-0.192-0.515-0.189-0.707,0.008
		c-0.193,0.198-0.189,0.515,0.008,0.708c0.583,0.569,0.904,1.332,0.904,2.146c0,0.46-0.08,0.865-0.236,1.226
		c-0.048,0.054-0.083,0.117-0.104,0.188c-0.141,0.261-0.314,0.504-0.549,0.715C8.061,19.723,8,19.858,8,20v3H5.466l-0.387-1.947
		c-0.023-0.119-0.089-0.225-0.185-0.299C3.408,19.607,2.556,17.875,2.556,16c0-0.276-0.224-0.5-0.5-0.5
		c-0.306,0-0.524-0.089-0.688-0.282c-0.348-0.409-0.39-1.186-0.36-1.718h0.799c0.524,0,1.021-0.187,1.42-0.513
		c0.104-0.036,0.198-0.098,0.261-0.198c0.916-1.441,2.407-2.429,4.093-2.71c1.068-0.179,1.629-0.7,2.223-1.251
		c0.5-0.465,1.017-0.946,1.96-1.372c0.629-0.284,1.298-0.461,2.005-0.648c0.826-0.219,1.682-0.445,2.513-0.86
		c0.169-0.085,0.276-0.257,0.276-0.447c0-0.189-0.107-0.362-0.276-0.447c-0.023-0.012-0.057-0.033-0.089-0.057
		c0.023-0.014,0.054-0.031,0.089-0.049c0.595-0.299,1.076,0.288,1.126,0.353c0.095,0.125,0.243,0.2,0.4,0.2h4.054
		c0.085,0.399-0.028,1.518-0.657,2.146c-0.915,0.915-3.309,1.88-3.332,1.889c-0.096,0.039-0.178,0.105-0.233,0.192
		c-0.058,0.088-1.393,2.177-0.353,3.753c0.67,1.016,2.365,1.814,3.367,2.217L19.353,16.996z M22.208,12.641
		c-0.279,0.229-2.019,0.604-3.554,0.832c-0.22-0.177-0.414-0.358-0.536-0.543c-0.389-0.589-0.216-1.367,0.003-1.93h1.935
		c1.172,0,2.175-0.164,2.833-0.309C22.666,11.6,22.385,12.463,22.208,12.641z"/>
</g>
<g id="Invisibla_Shape">
</g>
</svg>
