<?xml version="1.0" encoding="utf-8"?>
<!-- Generator: Adobe Illustrator 16.0.3, SVG Export Plug-In . SVG Version: 6.00 Build 0)  -->
<!DOCTYPE svg PUBLIC "-//W3C//DTD SVG 1.1//EN" "http://www.w3.org/Graphics/SVG/1.1/DTD/svg11.dtd">
<svg version="1.1" xmlns="http://www.w3.org/2000/svg" xmlns:xlink="http://www.w3.org/1999/xlink" x="0px" y="0px" width="24px"
	 height="24px" viewBox="0 0 24 24" enable-background="new 0 0 24 24" xml:space="preserve">
<g id="Outline_Icons">
	<g>
		<path d="M3.3,12.671c0.265,4.748,4.698,11.354,8.7,11.354s8.436-6.606,8.7-11.354C20.882,9.419,19.188,7.354,16,7L7.944,7.003
			C4.812,7.354,3.118,9.419,3.3,12.671z M8,8l7.944-0.003c3.298,0.368,3.863,2.715,3.758,4.618c-0.261,4.67-4.507,10.41-7.702,10.41
			s-7.441-5.74-7.702-10.41C4.192,10.712,4.758,8.365,8,8z"/>
		<path d="M17.75,1.438c0-0.276-0.224-0.5-0.5-0.5c-2.757,0-5,2.243-5,5c0,0.276,0.224,0.5,0.5,0.5
			C15.507,6.438,17.75,4.194,17.75,1.438z M16.714,1.974c-0.238,1.777-1.65,3.189-3.428,3.428
			C13.524,3.624,14.937,2.212,16.714,1.974z"/>
		<path d="M11.75,5.938c0-2.757-2.243-5-5-5c-0.276,0-0.5,0.224-0.5,0.5c0,2.757,2.243,5,5,5C11.526,6.438,11.75,6.214,11.75,5.938z
			 M7.286,1.974c1.777,0.238,3.189,1.65,3.428,3.428C8.937,5.163,7.524,3.751,7.286,1.974z"/>
		<path d="M9.896,16.359c0.098,0.098,0.226,0.146,0.354,0.146s0.256-0.049,0.354-0.146c0.195-0.195,0.195-0.512,0-0.707l-1-1
			c-0.195-0.195-0.512-0.195-0.707,0s-0.195,0.512,0,0.707L9.896,16.359z"/>
		<path d="M14.396,16.359c0.098,0.098,0.226,0.146,0.354,0.146s0.256-0.049,0.354-0.146c0.195-0.195,0.195-0.512,0-0.707l-1-1
			c-0.195-0.195-0.512-0.195-0.707,0s-0.195,0.512,0,0.707L14.396,16.359z"/>
		<path d="M7.646,12.359C7.744,12.457,7.872,12.506,8,12.506s0.256-0.049,0.354-0.146c0.195-0.195,0.195-0.512,0-0.707l-1-1
			c-0.195-0.195-0.512-0.195-0.707,0s-0.195,0.512,0,0.707L7.646,12.359z"/>
		<path d="M12.146,12.359c0.098,0.098,0.226,0.146,0.354,0.146s0.256-0.049,0.354-0.146c0.195-0.195,0.195-0.512,0-0.707l-1-1
			c-0.195-0.195-0.512-0.195-0.707,0s-0.195,0.512,0,0.707L12.146,12.359z"/>
		<path d="M16.646,12.359c0.098,0.098,0.226,0.146,0.354,0.146s0.256-0.049,0.354-0.146c0.195-0.195,0.195-0.512,0-0.707l-1-1
			c-0.195-0.195-0.512-0.195-0.707,0s-0.195,0.512,0,0.707L16.646,12.359z"/>
		<path d="M12.146,19.859c0.098,0.098,0.226,0.146,0.354,0.146s0.256-0.049,0.354-0.146c0.195-0.195,0.195-0.512,0-0.707l-1-1
			c-0.195-0.195-0.512-0.195-0.707,0s-0.195,0.512,0,0.707L12.146,19.859z"/>
	</g>
</g>

</svg>
