<?xml version="1.0" encoding="utf-8"?>
<!-- Generator: Adobe Illustrator 16.0.3, SVG Export Plug-In . SVG Version: 6.00 Build 0)  -->
<!DOCTYPE svg PUBLIC "-//W3C//DTD SVG 1.1//EN" "http://www.w3.org/Graphics/SVG/1.1/DTD/svg11.dtd">
<svg version="1.1" xmlns="http://www.w3.org/2000/svg" xmlns:xlink="http://www.w3.org/1999/xlink" x="0px" y="0px" width="24px"
	 height="24px" viewBox="0 0 24 24" enable-background="new 0 0 24 24" xml:space="preserve">
<g id="Outline_Icons">
	<g>
		<path d="M23.498,10h-11h-0.5V9.75c0-2.067-1.683-3.75-3.75-3.75c-0.955,0-1.85,0.356-2.547,1.009
			C4.271,6.885,2.998,8.053,2.998,9.5V10h-0.5c-0.276,0-0.5,0.224-0.5,0.5v1c0,3.032,2.468,5.5,5.5,5.5s5.5-2.468,5.5-5.5V11h10.5
			c0.276,0,0.5-0.224,0.5-0.5S23.774,10,23.498,10z M3.998,9.5c0-0.827,0.673-1.5,1.5-1.5C5.595,8,5.689,8.012,5.78,8.029
			C5.955,8.064,6.126,8.007,6.243,7.88C6.772,7.312,7.484,7,8.248,7c1.517,0,2.75,1.233,2.75,2.75V10h-7V9.5z M11.998,11.5
			c0,2.481-2.019,4.5-4.5,4.5s-4.5-2.019-4.5-4.5V11h9V11.5z"/>
		<path d="M7.498,18c-0.276,0-0.5,0.224-0.5,0.5V20c0,0.276,0.224,0.5,0.5,0.5s0.5-0.224,0.5-0.5v-1.5
			C7.998,18.224,7.774,18,7.498,18z"/>
		<path d="M7.498,21.5c-0.276,0-0.5,0.224-0.5,0.5v1.5c0,0.276,0.224,0.5,0.5,0.5s0.5-0.224,0.5-0.5V22
			C7.998,21.724,7.774,21.5,7.498,21.5z"/>
		<path d="M11.498,16.5c-0.276,0-0.5,0.224-0.5,0.5v1.5c0,0.276,0.224,0.5,0.5,0.5s0.5-0.224,0.5-0.5V17
			C11.998,16.724,11.774,16.5,11.498,16.5z"/>
		<path d="M11.498,20c-0.276,0-0.5,0.224-0.5,0.5V22c0,0.276,0.224,0.5,0.5,0.5s0.5-0.224,0.5-0.5v-1.5
			C11.998,20.224,11.774,20,11.498,20z"/>
		<path d="M3.498,16.5c-0.276,0-0.5,0.224-0.5,0.5v1.5c0,0.276,0.224,0.5,0.5,0.5s0.5-0.224,0.5-0.5V17
			C3.998,16.724,3.774,16.5,3.498,16.5z"/>
		<path d="M3.498,20c-0.276,0-0.5,0.224-0.5,0.5V22c0,0.276,0.224,0.5,0.5,0.5s0.5-0.224,0.5-0.5v-1.5
			C3.998,20.224,3.774,20,3.498,20z"/>
	</g>
</g>

</svg>
