<?xml version="1.0" encoding="utf-8"?>
<!-- Generator: Adobe Illustrator 16.0.3, SVG Export Plug-In . SVG Version: 6.00 Build 0)  -->
<!DOCTYPE svg PUBLIC "-//W3C//DTD SVG 1.1//EN" "http://www.w3.org/Graphics/SVG/1.1/DTD/svg11.dtd">
<svg version="1.1" xmlns="http://www.w3.org/2000/svg" xmlns:xlink="http://www.w3.org/1999/xlink" x="0px" y="0px" width="24px"
	 height="24px" viewBox="0 0 24 24" enable-background="new 0 0 24 24" xml:space="preserve">
<g id="Outline_Icons">
	<g>
		<path d="M11.5,19C7.364,19,4,15.636,4,11.5S7.364,4,11.5,4S19,7.364,19,11.5S15.636,19,11.5,19z M11.5,5C7.916,5,5,7.916,5,11.5
			S7.916,18,11.5,18s6.5-2.916,6.5-6.5S15.084,5,11.5,5z"/>
		<path d="M11.5,23c-0.276,0-0.5-0.224-0.5-0.5v-2c0-0.276,0.224-0.5,0.5-0.5s0.5,0.224,0.5,0.5v2C12,22.776,11.776,23,11.5,23z"/>
		<path d="M22.5,12h-2c-0.276,0-0.5-0.224-0.5-0.5s0.224-0.5,0.5-0.5h2c0.276,0,0.5,0.224,0.5,0.5S22.776,12,22.5,12z"/>
		<path d="M11.5,3C11.224,3,11,2.776,11,2.5v-2C11,0.224,11.224,0,11.5,0S12,0.224,12,0.5v2C12,2.776,11.776,3,11.5,3z"/>
		<path d="M2.5,12h-2C0.224,12,0,11.776,0,11.5S0.224,11,0.5,11h2C2.776,11,3,11.224,3,11.5S2.776,12,2.5,12z"/>
		<path d="M3.722,19.779c-0.128,0-0.256-0.049-0.354-0.146c-0.195-0.195-0.195-0.512,0-0.707l1.415-1.415
			c0.195-0.195,0.512-0.195,0.707,0s0.195,0.512,0,0.707l-1.415,1.415C3.978,19.73,3.85,19.779,3.722,19.779z"/>
		<path d="M19.278,19.778c-0.128,0-0.256-0.049-0.354-0.146l-1.414-1.414c-0.195-0.195-0.195-0.512,0-0.707s0.512-0.195,0.707,0
			l1.414,1.414c0.195,0.195,0.195,0.512,0,0.707C19.534,19.729,19.406,19.778,19.278,19.778z"/>
		<path d="M17.865,5.637c-0.128,0-0.256-0.049-0.354-0.146c-0.195-0.195-0.195-0.512,0-0.707l1.414-1.414
			c0.195-0.195,0.512-0.195,0.707,0s0.195,0.512,0,0.707L18.218,5.49C18.121,5.588,17.993,5.637,17.865,5.637z"/>
		<path d="M5.136,5.637c-0.128,0-0.256-0.049-0.354-0.146L3.369,4.076c-0.195-0.195-0.195-0.512,0-0.707s0.512-0.195,0.707,0
			L5.49,4.783c0.195,0.195,0.195,0.512,0,0.707C5.392,5.588,5.264,5.637,5.136,5.637z"/>
	</g>
</g>

</svg>
