<?xml version="1.0" encoding="utf-8"?>
<!-- Generator: Adobe Illustrator 16.0.3, SVG Export Plug-In . SVG Version: 6.00 Build 0)  -->
<!DOCTYPE svg PUBLIC "-//W3C//DTD SVG 1.1//EN" "http://www.w3.org/Graphics/SVG/1.1/DTD/svg11.dtd">
<svg version="1.1" xmlns="http://www.w3.org/2000/svg" xmlns:xlink="http://www.w3.org/1999/xlink" x="0px" y="0px" width="24px"
	 height="24px" viewBox="0 0 24 24" enable-background="new 0 0 24 24" xml:space="preserve">
<g id="Outline_Icons_1_">
	<g id="Outline_Icons">
		<g>
			<path d="M20.44,9.743c-0.214-0.24-0.618-0.218-0.796,0.072l-2.686,4.344c-0.146,0.234-0.073,0.543,0.162,0.688
				c0.237,0.147,0.545,0.071,0.688-0.162l1.977-3.197c0.562,4.68-2.323,9.133-6.932,10.3c-0.268,0.067-0.43,0.339-0.361,0.607
				c0.067,0.269,0.342,0.43,0.607,0.361c4.988-1.261,8.179-6.049,7.704-11.114l2.312,2.566c0.184,0.205,0.5,0.223,0.706,0.036
				c0.205-0.185,0.222-0.501,0.036-0.706L20.44,9.743z"/>
			<path d="M17.659,6.631c0.179,0.211,0.494,0.236,0.705,0.059c0.211-0.179,0.237-0.494,0.059-0.705
				c-3.335-3.941-9.021-4.689-13.354-2.08l1.274-3.165c0.104-0.256-0.021-0.547-0.277-0.65c-0.254-0.103-0.548,0.02-0.65,0.277
				L3.509,5.103C3.386,5.409,3.591,5.755,3.923,5.786l5.081,0.506c0.269,0.03,0.52-0.169,0.547-0.447
				c0.027-0.275-0.173-0.52-0.447-0.547L5.327,4.922C9.27,2.375,14.575,2.986,17.659,6.631z"/>
			<path d="M5.603,17.409c-0.115-0.252-0.414-0.361-0.662-0.246c-0.251,0.114-0.361,0.411-0.246,0.662l1.578,3.446
				C2.047,19.165-0.062,14.271,1.53,9.765c0.092-0.261-0.045-0.546-0.305-0.639C0.965,9.035,0.681,9.171,0.587,9.431
				C-1.15,14.35,1.09,19.62,5.53,22.011l-3.38,0.494c-0.273,0.04-0.463,0.294-0.423,0.567c0.038,0.256,0.268,0.459,0.567,0.423
				l5.053-0.739c0.334-0.051,0.521-0.405,0.382-0.703L5.603,17.409z"/>
		</g>
	</g>
	<g id="New_icons_1_">
	</g>
</g>

</svg>
