<?xml version="1.0" encoding="utf-8"?>
<!-- Generator: Adobe Illustrator 16.0.3, SVG Export Plug-In . SVG Version: 6.00 Build 0)  -->
<!DOCTYPE svg PUBLIC "-//W3C//DTD SVG 1.1//EN" "http://www.w3.org/Graphics/SVG/1.1/DTD/svg11.dtd">
<svg version="1.1" xmlns="http://www.w3.org/2000/svg" xmlns:xlink="http://www.w3.org/1999/xlink" x="0px" y="0px" width="24px"
	 height="24px" viewBox="0 0 24 24" enable-background="new 0 0 24 24" xml:space="preserve">
<g id="Outline_Icons_1_">
	<g id="Outline_Icons">
		<g>
			<path d="M3.084,14.778c0.185,0.275,0.583,0.3,0.799,0.042l3.205-3.838c0.177-0.212,0.148-0.527-0.063-0.704
				S6.497,10.13,6.32,10.342l-2.514,3.01c-0.218-1.862,0.19-3.738,1.197-5.372c1.171-1.899,3.049-3.273,5.153-3.771
				c2.875-0.681,5.878,0.272,7.836,2.485c0.184,0.208,0.5,0.227,0.705,0.043c0.207-0.183,0.227-0.498,0.043-0.705
				c-2.202-2.49-5.58-3.564-8.814-2.796c-2.36,0.557-4.466,2.095-5.774,4.219c-0.95,1.543-1.42,3.279-1.399,5.037l-1.626-2.421
				C0.972,9.839,0.66,9.781,0.434,9.935c-0.229,0.154-0.291,0.465-0.137,0.693L3.084,14.778z"/>
			<path d="M16.972,13.722c0.212,0.178,0.527,0.149,0.704-0.063l2.514-3.01c0.218,1.862-0.19,3.738-1.196,5.372
				c-1.17,1.899-3.049,3.274-5.154,3.772c-2.871,0.676-5.875-0.272-7.836-2.485c-0.185-0.209-0.501-0.228-0.705-0.043
				c-0.207,0.183-0.227,0.499-0.043,0.705c2.238,2.53,5.639,3.551,8.814,2.796c2.362-0.559,4.467-2.097,5.775-4.221
				c0.95-1.543,1.419-3.279,1.398-5.036l1.626,2.422c0.156,0.233,0.47,0.288,0.693,0.137c0.229-0.153,0.291-0.465,0.137-0.693
				l-2.787-4.152c-0.182-0.271-0.578-0.305-0.799-0.042l-3.205,3.838C16.731,13.229,16.76,13.545,16.972,13.722z"/>
			<path d="M14.498,12c0-1.376-1.12-2.498-2.499-2.5c-1.379,0.002-2.5,1.125-2.5,2.502S10.62,14.5,11.998,14.5
				C13.377,14.5,14.498,13.379,14.498,12z M10.499,12.002c0-0.827,0.674-1.501,1.5-1.502c0.826,0.001,1.499,0.675,1.499,1.5
				c0,0.827-0.673,1.5-1.5,1.5C11.172,13.5,10.499,12.828,10.499,12.002z"/>
		</g>
	</g>
	<g id="New_icons_1_">
	</g>
</g>

</svg>
