<?xml version="1.0" encoding="utf-8"?>
<!-- Generator: Adobe Illustrator 16.0.3, SVG Export Plug-In . SVG Version: 6.00 Build 0)  -->
<!DOCTYPE svg PUBLIC "-//W3C//DTD SVG 1.1//EN" "http://www.w3.org/Graphics/SVG/1.1/DTD/svg11.dtd">
<svg version="1.1" xmlns="http://www.w3.org/2000/svg" xmlns:xlink="http://www.w3.org/1999/xlink" x="0px" y="0px" width="24px"
	 height="24px" viewBox="0 0 24 24" enable-background="new 0 0 24 24" xml:space="preserve">
<g id="Outline_Icons_1_">
	<g id="Outline_Icons">
		<g>
			<path d="M6.5,20C5.121,20,4,18.879,4,17.5v-11C4,5.121,5.121,4,6.5,4h7.066l-1.482,2.223c-0.153,0.229-0.091,0.54,0.139,0.693
				c0.228,0.152,0.539,0.093,0.693-0.139l2-3c0.006-0.009,0.004-0.021,0.009-0.029c0.1-0.17,0.1-0.326,0-0.496
				c-0.005-0.009-0.003-0.021-0.009-0.029l-2-3c-0.155-0.23-0.466-0.292-0.693-0.139c-0.229,0.153-0.292,0.464-0.139,0.693L13.566,3
				H6.5C4.57,3,3,4.57,3,6.5v11C3,19.43,4.57,21,6.5,21C6.776,21,7,20.776,7,20.5S6.776,20,6.5,20z"/>
			<path d="M17.5,3C17.224,3,17,3.224,17,3.5S17.224,4,17.5,4C18.879,4,20,5.121,20,6.5v11c0,1.379-1.121,2.5-2.5,2.5h-7.066
				l1.482-2.223c0.153-0.229,0.091-0.54-0.139-0.693c-0.228-0.151-0.539-0.092-0.693,0.139l-2,3
				c-0.006,0.009-0.004,0.021-0.009,0.029c-0.1,0.17-0.1,0.326,0,0.496c0.005,0.009,0.003,0.021,0.009,0.029l2,3
				c0.155,0.231,0.466,0.291,0.693,0.139c0.229-0.153,0.292-0.464,0.139-0.693L10.434,21H17.5c1.93,0,3.5-1.57,3.5-3.5v-11
				C21,4.57,19.43,3,17.5,3z"/>
		</g>
	</g>
	<g id="New_icons_1_">
	</g>
</g>

</svg>
