<?xml version="1.0" encoding="utf-8"?>
<!-- Generator: Adobe Illustrator 16.0.3, SVG Export Plug-In . SVG Version: 6.00 Build 0)  -->
<!DOCTYPE svg PUBLIC "-//W3C//DTD SVG 1.1//EN" "http://www.w3.org/Graphics/SVG/1.1/DTD/svg11.dtd">
<svg version="1.1" xmlns="http://www.w3.org/2000/svg" xmlns:xlink="http://www.w3.org/1999/xlink" x="0px" y="0px" width="24px"
	 height="24px" viewBox="0 0 24 24" enable-background="new 0 0 24 24" xml:space="preserve">
<g id="Outline_Icons">
	<path d="M23.5,8h-2.14l-1.386-4.158c-0.019-0.055-0.05-0.101-0.083-0.144l0.589-2.061c0.043-0.151,0.014-0.313-0.081-0.438
		C20.305,1.074,20.157,1,20,1h-5c-0.224,0-0.419,0.148-0.48,0.363L12.623,8H0.5C0.224,8,0,8.224,0,8.5C0,10.43,1.57,12,3.5,12h5.051
		c0.164,0.804,0.715,1.466,1.449,1.788v6.762C8.86,20.783,8,21.792,8,23v0.5C8,23.776,8.224,24,8.5,24h7c0.276,0,0.5-0.224,0.5-0.5
		V23c0-1.208-0.86-2.217-2-2.45v-6.762c0.734-0.322,1.285-0.984,1.449-1.788H20.5c1.93,0,3.5-1.57,3.5-3.5C24,8.224,23.776,8,23.5,8
		z M20.306,8h-1.644l0.759-2.655L20.306,8z M15.377,2h3.96l-1.714,6h-3.96L15.377,2z M13.5,21.5c0.827,0,1.5,0.673,1.5,1.5H9
		c0-0.827,0.673-1.5,1.5-1.5c0.276,0,0.5-0.224,0.5-0.5v-7h2v7C13,21.276,13.224,21.5,13.5,21.5z M13,13h-2
		c-0.652,0-1.208-0.418-1.414-1h4.828C14.208,12.582,13.652,13,13,13z M20.5,11h-17c-1.207,0-2.218-0.86-2.45-2h21.9
		C22.718,10.14,21.707,11,20.5,11z"/>
</g>

</svg>
