<?xml version="1.0" encoding="utf-8"?>
<!-- Generator: Adobe Illustrator 16.0.3, SVG Export Plug-In . SVG Version: 6.00 Build 0)  -->
<!DOCTYPE svg PUBLIC "-//W3C//DTD SVG 1.1//EN" "http://www.w3.org/Graphics/SVG/1.1/DTD/svg11.dtd">
<svg version="1.1" xmlns="http://www.w3.org/2000/svg" xmlns:xlink="http://www.w3.org/1999/xlink" x="0px" y="0px" width="24px"
	 height="24px" viewBox="0 0 24 24" enable-background="new 0 0 24 24" xml:space="preserve">
<g id="Outline_Icons">
	<g>
		<path d="M12.046,0C5.491,0,2,8.131,2,14c0,5.899,4.112,10.02,10,10.02S22,19.899,22,14C22,5.353,16.833,0,12.046,0z M12,23.02
			c-5.383,0-9-3.625-9-9.02C3,8.55,6.144,1,12.046,1C17.889,1,21,8.55,21,14C21,19.395,17.383,23.02,12,23.02z"/>
		<path d="M17.5,7h-11C6.224,7,6,7.224,6,7.5v9C6,16.776,6.224,17,6.5,17h11c0.276,0,0.5-0.224,0.5-0.5v-9C18,7.224,17.776,7,17.5,7
			z M17,16H7V8h10V16z"/>
		<circle cx="8" cy="19" r="1"/>
		<circle cx="12" cy="20" r="1"/>
		<circle cx="16" cy="19" r="1"/>
	</g>
</g>

</svg>
