<?xml version="1.0" encoding="utf-8"?>
<!-- Generator: Adobe Illustrator 16.0.3, SVG Export Plug-In . SVG Version: 6.00 Build 0)  -->
<!DOCTYPE svg PUBLIC "-//W3C//DTD SVG 1.1//EN" "http://www.w3.org/Graphics/SVG/1.1/DTD/svg11.dtd">
<svg version="1.1" xmlns="http://www.w3.org/2000/svg" xmlns:xlink="http://www.w3.org/1999/xlink" x="0px" y="0px" width="24px"
	 height="24px" viewBox="0 0 24 24" enable-background="new 0 0 24 24" xml:space="preserve">
<g id="Outline_Icons">
	<path d="M19.854,9.646C18.485,8.278,18,6.408,18,2.5C18,2.224,17.776,2,17.5,2h-2C15.224,2,15,2.224,15,2.5v3.8
		C14.469,6.78,13.362,7,12.5,7S10.531,6.78,10,6.3V2.5C10,2.224,9.776,2,9.5,2h-2C7.224,2,7,2.224,7,2.5
		c0,3.908-0.485,5.778-1.854,7.146C5.053,9.74,5,9.867,5,10v12.5C5,22.776,5.224,23,5.5,23h14c0.276,0,0.5-0.224,0.5-0.5V10
		C20,9.867,19.947,9.74,19.854,9.646z M19,22H6V10.202C7.412,8.703,7.954,6.752,7.997,3H9v3.5c0,0.117,0.041,0.23,0.116,0.32
		C10.051,7.943,12.099,8,12.5,8s2.449-0.057,3.384-1.18C15.959,6.73,16,6.617,16,6.5V3h1.003c0.043,3.752,0.585,5.703,1.997,7.202
		V22z"/>
</g>

</svg>
