<?xml version="1.0" encoding="utf-8"?>
<!-- Generator: Adobe Illustrator 16.0.3, SVG Export Plug-In . SVG Version: 6.00 Build 0)  -->
<!DOCTYPE svg PUBLIC "-//W3C//DTD SVG 1.1//EN" "http://www.w3.org/Graphics/SVG/1.1/DTD/svg11.dtd">
<svg version="1.1" xmlns="http://www.w3.org/2000/svg" xmlns:xlink="http://www.w3.org/1999/xlink" x="0px" y="0px" width="24px"
	 height="24px" viewBox="0 0 24 24" enable-background="new 0 0 24 24" xml:space="preserve">
<g id="Outline_Icons">
	<g>
		<path d="M12.312,2.891L14,1.541V8.5C14,8.776,14.224,9,14.5,9S15,8.776,15,8.5V1.541l1.688,1.35C16.78,2.964,16.89,3,17,3
			c0.147,0,0.292-0.064,0.391-0.188c0.172-0.216,0.137-0.53-0.078-0.703l-2.5-2c-0.008-0.007-0.02-0.004-0.029-0.01
			c-0.081-0.058-0.174-0.098-0.281-0.099c-0.002,0-0.004,0-0.006,0c-0.106,0.001-0.2,0.041-0.281,0.099
			c-0.009,0.006-0.021,0.003-0.029,0.01l-2.5,2c-0.215,0.173-0.25,0.487-0.078,0.703C11.782,3.027,12.096,3.062,12.312,2.891z"/>
		<path d="M13,10c-1.323,0-2.612,0.371-3.727,1.073c-0.233,0.146-0.304,0.456-0.157,0.689c0.148,0.232,0.456,0.306,0.69,0.156
			C10.761,11.317,11.866,11,13,11c3.309,0,6,2.691,6,6s-2.691,6-6,6c-1.126,0-2.226-0.315-3.18-0.912
			c-0.235-0.147-0.543-0.075-0.689,0.158c-0.146,0.234-0.076,0.543,0.159,0.689C10.402,23.632,11.686,24,13,24c3.86,0,7-3.141,7-7
			S16.86,10,13,10z"/>
		<path d="M17,17c0-2.206-1.794-4-4-4H3.5C3.224,13,3,13.224,3,13.5S3.224,14,3.5,14H13c1.654,0,3,1.346,3,3s-1.346,3-3,3H3.5
			C3.224,20,3,20.224,3,20.5S3.224,21,3.5,21H13C15.206,21,17,19.206,17,17z"/>
		<path d="M13,19c1.103,0,2-0.897,2-2s-0.897-2-2-2h-1.5c-0.276,0-0.5,0.224-0.5,0.5v3c0,0.276,0.224,0.5,0.5,0.5H13z M12,16h1
			c0.551,0,1,0.448,1,1s-0.449,1-1,1h-1V16z"/>
	</g>
</g>

</svg>
