<?xml version="1.0" encoding="utf-8"?>
<!-- Generator: Adobe Illustrator 16.0.3, SVG Export Plug-In . SVG Version: 6.00 Build 0)  -->
<!DOCTYPE svg PUBLIC "-//W3C//DTD SVG 1.1//EN" "http://www.w3.org/Graphics/SVG/1.1/DTD/svg11.dtd">
<svg version="1.1" xmlns="http://www.w3.org/2000/svg" xmlns:xlink="http://www.w3.org/1999/xlink" x="0px" y="0px" width="24px"
	 height="24px" viewBox="0 0 24 24" enable-background="new 0 0 24 24" xml:space="preserve">
<g id="Outline_Icons">
	<g>
		<path d="M24,14c0-0.276-0.224-0.5-0.5-0.5S23,13.724,23,14v0.77C22.013,13.696,20.538,13,19,13c-2.198,0-4.289,1.402-4.972,3.333
			c-0.092,0.261,0.045,0.547,0.305,0.639c0.26,0.093,0.546-0.045,0.638-0.305C15.508,15.146,17.24,14,19,14
			c1.489,0,2.951,0.826,3.692,2H21c-0.276,0-0.5,0.224-0.5,0.5S20.724,17,21,17h2.5c0.055,0,0.111-0.009,0.167-0.028
			c0.005-0.002,0.008-0.006,0.013-0.008c0.034-0.013,0.062-0.035,0.093-0.056c0.024-0.016,0.051-0.028,0.072-0.049
			c0.023-0.021,0.039-0.05,0.057-0.076c0.018-0.026,0.04-0.049,0.053-0.078c0.012-0.025,0.014-0.055,0.021-0.083
			c0.009-0.036,0.021-0.069,0.021-0.107c0-0.005,0.003-0.01,0.003-0.015V14z"/>
		<path d="M23.667,19.028c-0.26-0.092-0.546,0.044-0.638,0.306C22.492,20.854,20.76,22,19,22c-1.49,0-2.951-0.826-3.693-2H17
			c0.276,0,0.5-0.224,0.5-0.5S17.276,19,17,19h-2.5c-0.03,0-0.056,0.012-0.084,0.018c-0.027,0.004-0.055,0.001-0.083,0.011
			c-0.005,0.002-0.008,0.007-0.013,0.008c-0.034,0.013-0.062,0.035-0.092,0.056c-0.024,0.016-0.051,0.028-0.072,0.049
			c-0.023,0.021-0.038,0.049-0.056,0.076c-0.019,0.025-0.041,0.049-0.054,0.078c-0.011,0.025-0.014,0.055-0.021,0.082
			c-0.009,0.036-0.021,0.071-0.022,0.109C14.003,19.49,14,19.495,14,19.5V22c0,0.276,0.224,0.5,0.5,0.5S15,22.276,15,22v-0.77
			c0.987,1.074,2.461,1.77,4,1.77c2.199,0,4.29-1.402,4.972-3.334C24.063,19.406,23.927,19.12,23.667,19.028z"/>
		<path d="M14,6v6c0,0.276,0.224,0.5,0.5,0.5S15,12.276,15,12V5.5C15,5.224,14.776,5,14.5,5H13V4h3v7c0,0.276,0.224,0.5,0.5,0.5
			S17,11.276,17,11V3.5C17,3.224,16.776,3,16.5,3H13V2.5C13,2.224,12.776,2,12.5,2h-1.545C10.766,0.963,9.98,0,8.5,0
			S6.234,0.963,6.045,2H4.5C4.224,2,4,2.224,4,2.5V3H0.5C0.224,3,0,3.224,0,3.5v16C0,20.879,1.122,22,2.5,22H12
			c0.276,0,0.5-0.224,0.5-0.5S12.276,21,12,21H2.5C1.673,21,1,20.327,1,19.5V4h3v1H2.5C2.224,5,2,5.224,2,5.5v14
			C2,19.776,2.224,20,2.5,20H12c0.276,0,0.5-0.224,0.5-0.5S12.276,19,12,19H3V6h1v0.5C4,6.776,4.224,7,4.5,7h8
			C12.776,7,13,6.776,13,6.5V6H14z M12,6H5V3h1.5C6.776,3,7,2.776,7,2.5C7,2.347,7.042,1,8.5,1S10,2.347,10,2.5
			C10,2.776,10.224,3,10.5,3H12V6z"/>
		<path d="M10.5,9h-5C5.224,9,5,9.224,5,9.5S5.224,10,5.5,10h5c0.276,0,0.5-0.224,0.5-0.5S10.776,9,10.5,9z"/>
		<path d="M10.5,11h-5C5.224,11,5,11.224,5,11.5S5.224,12,5.5,12h5c0.276,0,0.5-0.224,0.5-0.5S10.776,11,10.5,11z"/>
		<path d="M11,13.5c0-0.276-0.224-0.5-0.5-0.5h-5C5.224,13,5,13.224,5,13.5S5.224,14,5.5,14h5C10.776,14,11,13.776,11,13.5z"/>
		<path d="M5.5,15C5.224,15,5,15.224,5,15.5S5.224,16,5.5,16h3C8.776,16,9,15.776,9,15.5S8.776,15,8.5,15H5.5z"/>
	</g>
</g>

</svg>
