<?xml version="1.0" encoding="utf-8"?>
<!-- Generator: Adobe Illustrator 16.0.3, SVG Export Plug-In . SVG Version: 6.00 Build 0)  -->
<!DOCTYPE svg PUBLIC "-//W3C//DTD SVG 1.1//EN" "http://www.w3.org/Graphics/SVG/1.1/DTD/svg11.dtd">
<svg version="1.1" xmlns="http://www.w3.org/2000/svg" xmlns:xlink="http://www.w3.org/1999/xlink" x="0px" y="0px" width="24px"
	 height="24px" viewBox="0 0 24 24" enable-background="new 0 0 24 24" xml:space="preserve">
<g id="Outline_Icons">
	<g>
		<path d="M23.854,23.146L21,20.294c0.616-0.771,1-1.733,1-2.794c0-2.481-2.018-4.5-4.499-4.5C15.019,13,13,15.019,13,17.5
			c0,2.482,2.019,4.5,4.501,4.5c1.06,0,2.022-0.384,2.792-1l2.853,2.854C23.244,23.951,23.372,24,23.5,24s0.256-0.049,0.354-0.146
			C24.049,23.658,24.049,23.342,23.854,23.146z M14,17.5c0-1.93,1.57-3.5,3.501-3.5C19.43,14,21,15.57,21,17.5S19.43,21,17.501,21
			C15.57,21,14,19.43,14,17.5z"/>
		<path d="M12.999,21H2.5C1.673,21,1,20.327,1,19.5V4h3v1H2.5C2.224,5,2,5.224,2,5.5v14C2,19.776,2.224,20,2.5,20h8.999
			c0.276,0,0.5-0.224,0.5-0.5s-0.224-0.5-0.5-0.5H3V6h1v0.5C4,6.776,4.224,7,4.5,7h8C12.776,7,13,6.776,13,6.5V6h1l-0.001,6
			c0,0.276,0.224,0.5,0.5,0.5c0.276,0,0.5-0.224,0.5-0.5L15,5.5c0-0.133-0.053-0.26-0.146-0.354S14.633,5,14.5,5H13V4h3l-0.001,7.5
			c0,0.276,0.224,0.5,0.5,0.5c0.276,0,0.5-0.224,0.5-0.5L17,3.5c0-0.133-0.053-0.26-0.146-0.354S16.633,3,16.5,3H13V2.5
			C13,2.224,12.776,2,12.5,2h-1.545C10.766,0.963,9.98,0,8.5,0S6.234,0.963,6.045,2H4.5C4.224,2,4,2.224,4,2.5V3H0.5
			C0.224,3,0,3.224,0,3.5v16C0,20.879,1.122,22,2.5,22h10.499c0.276,0,0.5-0.224,0.5-0.5S13.275,21,12.999,21z M5,3h1.5
			C6.776,3,7,2.776,7,2.5C7,2.347,7.042,1,8.5,1S10,2.347,10,2.5C10,2.776,10.224,3,10.5,3H12v3H5V3z"/>
		<path d="M10.5,9h-5C5.224,9,5,9.224,5,9.5S5.224,10,5.5,10h5c0.276,0,0.5-0.224,0.5-0.5S10.776,9,10.5,9z"/>
		<path d="M10.5,11h-5C5.224,11,5,11.224,5,11.5S5.224,12,5.5,12h5c0.276,0,0.5-0.224,0.5-0.5S10.776,11,10.5,11z"/>
		<path d="M11,13.5c0-0.276-0.224-0.5-0.5-0.5h-5C5.224,13,5,13.224,5,13.5S5.224,14,5.5,14h5C10.776,14,11,13.776,11,13.5z"/>
		<path d="M5.5,15C5.224,15,5,15.224,5,15.5S5.224,16,5.5,16h3C8.776,16,9,15.776,9,15.5S8.776,15,8.5,15H5.5z"/>
	</g>
</g>

</svg>
