<?xml version="1.0" encoding="utf-8"?>
<!-- Generator: Adobe Illustrator 16.0.3, SVG Export Plug-In . SVG Version: 6.00 Build 0)  -->
<!DOCTYPE svg PUBLIC "-//W3C//DTD SVG 1.1//EN" "http://www.w3.org/Graphics/SVG/1.1/DTD/svg11.dtd">
<svg version="1.1" xmlns="http://www.w3.org/2000/svg" xmlns:xlink="http://www.w3.org/1999/xlink" x="0px" y="0px" width="24px"
	 height="24px" viewBox="0 0 24 24" enable-background="new 0 0 24 24" xml:space="preserve">
<g id="Outline_Icons">
	<g>
		<path d="M23.947,23.276l-6-12c-0.17-0.338-0.725-0.338-0.895,0l-6,12c-0.078,0.155-0.069,0.339,0.022,0.486S11.327,24,11.5,24h12
			c0.173,0,0.334-0.09,0.425-0.237S24.025,23.432,23.947,23.276z M12.309,23L17.5,12.619L22.691,23H12.309z"/>
		<path d="M17,16.5V20c0,0.276,0.224,0.5,0.5,0.5S18,20.276,18,20v-3.5c0-0.276-0.224-0.5-0.5-0.5S17,16.224,17,16.5z"/>
		<circle cx="17.5" cy="21.5" r="0.5"/>
		<path d="M2.5,5C2.224,5,2,5.224,2,5.5v14C2,19.776,2.224,20,2.5,20H11c0.276,0,0.5-0.224,0.5-0.5S11.276,19,11,19H3V6h1v0.5
			C4,6.776,4.224,7,4.5,7h8C12.776,7,13,6.776,13,6.5V6h1v7c0,0.276,0.224,0.5,0.5,0.5S15,13.276,15,13V5.5
			C15,5.224,14.776,5,14.5,5H13V4h3v6c0,0.276,0.224,0.5,0.5,0.5S17,10.276,17,10V3.5C17,3.224,16.776,3,16.5,3H13V2.5
			C13,2.224,12.776,2,12.5,2h-1.545C10.766,0.963,9.98,0,8.5,0S6.234,0.963,6.045,2H4.5C4.224,2,4,2.224,4,2.5V3H0.5
			C0.224,3,0,3.224,0,3.5v16C0,20.879,1.122,22,2.5,22H10c0.276,0,0.5-0.224,0.5-0.5S10.276,21,10,21H2.5C1.673,21,1,20.327,1,19.5
			V4h3v1H2.5z M5,3h1.5C6.776,3,7,2.776,7,2.5C7,2.347,7.042,1,8.5,1S10,2.347,10,2.5C10,2.776,10.224,3,10.5,3H12v3H5V3z"/>
		<path d="M10.5,9h-5C5.224,9,5,9.224,5,9.5S5.224,10,5.5,10h5c0.276,0,0.5-0.224,0.5-0.5S10.776,9,10.5,9z"/>
		<path d="M10.5,11h-5C5.224,11,5,11.224,5,11.5S5.224,12,5.5,12h5c0.276,0,0.5-0.224,0.5-0.5S10.776,11,10.5,11z"/>
		<path d="M11,13.5c0-0.276-0.224-0.5-0.5-0.5h-5C5.224,13,5,13.224,5,13.5S5.224,14,5.5,14h5C10.776,14,11,13.776,11,13.5z"/>
		<path d="M5.5,15C5.224,15,5,15.224,5,15.5S5.224,16,5.5,16h3C8.776,16,9,15.776,9,15.5S8.776,15,8.5,15H5.5z"/>
	</g>
</g>

</svg>
