<?xml version="1.0" encoding="utf-8"?>
<!-- Generator: Adobe Illustrator 16.0.3, SVG Export Plug-In . SVG Version: 6.00 Build 0)  -->
<!DOCTYPE svg PUBLIC "-//W3C//DTD SVG 1.1//EN" "http://www.w3.org/Graphics/SVG/1.1/DTD/svg11.dtd">
<svg version="1.1" xmlns="http://www.w3.org/2000/svg" xmlns:xlink="http://www.w3.org/1999/xlink" x="0px" y="0px" width="24px"
	 height="24px" viewBox="0 0 24 24" enable-background="new 0 0 24 24" xml:space="preserve">
<g id="Outline_Icons">
	<g>
		<path d="M20.777,13c-0.951,0-2.071,0.491-2.777,1.784C17.294,13.491,16.174,13,15.223,13C13.639,13,12,14.323,12,16.537
			c0,3.181,5.473,7.198,5.706,7.367C17.793,23.969,17.897,24,18,24s0.207-0.031,0.294-0.096C18.527,23.735,24,19.718,24,16.537
			C24,14.323,22.361,13,20.777,13z M18,22.876c-1.63-1.246-5-4.253-5-6.339C13,14.949,14.13,14,15.223,14
			c1.086,0,1.942,0.865,2.291,2.312c0.108,0.449,0.864,0.449,0.973,0C18.834,14.865,19.691,14,20.777,14
			C21.87,14,23,14.949,23,16.537C23,18.621,19.63,21.63,18,22.876z"/>
		<path d="M12,21H2.5C1.673,21,1,20.327,1,19.5V4h3v1H2.5C2.224,5,2,5.224,2,5.5v14C2,19.776,2.224,20,2.5,20h8
			c0.276,0,0.5-0.224,0.5-0.5S10.776,19,10.5,19H3V6h1v0.5C4,6.776,4.224,7,4.5,7h8C12.776,7,13,6.776,13,6.5V6h1v5
			c0,0.276,0.224,0.5,0.5,0.5S15,11.276,15,11V5.5C15,5.224,14.776,5,14.5,5H13V4h3v7.5c0,0.276,0.224,0.5,0.5,0.5
			s0.5-0.224,0.5-0.5v-8C17,3.224,16.776,3,16.5,3H13V2.5C13,2.224,12.776,2,12.5,2h-1.545C10.766,0.963,9.98,0,8.5,0
			S6.234,0.963,6.045,2H4.5C4.224,2,4,2.224,4,2.5V3H0.5C0.224,3,0,3.224,0,3.5v16C0,20.879,1.122,22,2.5,22H12
			c0.276,0,0.5-0.224,0.5-0.5S12.276,21,12,21z M5,3h1.5C6.776,3,7,2.776,7,2.5C7,2.347,7.042,1,8.5,1S10,2.347,10,2.5
			C10,2.776,10.224,3,10.5,3H12v3H5V3z"/>
		<path d="M10.5,9h-5C5.224,9,5,9.224,5,9.5S5.224,10,5.5,10h5c0.276,0,0.5-0.224,0.5-0.5S10.776,9,10.5,9z"/>
		<path d="M10.5,11h-5C5.224,11,5,11.224,5,11.5S5.224,12,5.5,12h5c0.276,0,0.5-0.224,0.5-0.5S10.776,11,10.5,11z"/>
		<path d="M11,13.5c0-0.276-0.224-0.5-0.5-0.5h-5C5.224,13,5,13.224,5,13.5S5.224,14,5.5,14h5C10.776,14,11,13.776,11,13.5z"/>
		<path d="M5.5,15C5.224,15,5,15.224,5,15.5S5.224,16,5.5,16h3C8.776,16,9,15.776,9,15.5S8.776,15,8.5,15H5.5z"/>
	</g>
</g>

</svg>
