<?xml version="1.0" encoding="utf-8"?>
<!-- Generator: Adobe Illustrator 16.0.3, SVG Export Plug-In . SVG Version: 6.00 Build 0)  -->
<!DOCTYPE svg PUBLIC "-//W3C//DTD SVG 1.1//EN" "http://www.w3.org/Graphics/SVG/1.1/DTD/svg11.dtd">
<svg version="1.1" xmlns="http://www.w3.org/2000/svg" xmlns:xlink="http://www.w3.org/1999/xlink" x="0px" y="0px" width="24px"
	 height="24px" viewBox="0 0 24 24" enable-background="new 0 0 24 24" xml:space="preserve">
<g id="Outline_Icons_1_">
	<g id="Outline_Icons">
		<g>
			<path d="M17,6c0-0.276-0.224-0.5-0.5-0.5c-2.984,0-3.486-0.841-3.819-1.396c-0.099-0.165-0.192-0.321-0.328-0.457
				c-0.188-0.188-0.52-0.188-0.707,0c-0.135,0.136-0.229,0.292-0.328,0.457C10.987,4.659,10.484,5.5,7.5,5.5C7.224,5.5,7,5.724,7,6
				s0.224,0.5,0.5,0.5c2.945,0,3.935-0.785,4.5-1.606C12.566,5.715,13.556,6.5,16.5,6.5C16.777,6.5,17,6.276,17,6z"/>
			<path d="M21.042,16.773l-6.27-1.78c-0.095-0.027-0.311-0.008-0.427,0.074C13.487,15.68,12.516,16,12,16c-1.342,0-4.5-1.9-4.5-4.5
				C7.5,11.224,7.277,11,7,11c-0.542,0-0.861-0.543-0.971-1.008C5.917,9.518,6.002,9.058,6.224,8.947
				C6.42,8.849,6.53,8.635,6.494,8.418L5.998,5.45c-0.001-0.015-0.139-1.531,0.99-2.778C7.992,1.562,9.679,1,12,1
				c2.313,0,3.996,0.559,5.001,1.66c1.108,1.214,1.006,2.721,1.013,2.72l-0.5,1.999c0,0.001-0.015,0.12-0.015,0.121v3
				c0,0.276,0.224,0.5,0.5,0.5h1c0.002,0,0.003,0,0.005,0l0.004,0.401C18.862,12.141,18.17,13,17.5,13h-3.153
				c-0.174-0.293-0.48-0.5-0.847-0.5h-2c-0.552,0-1,0.447-1,1s0.448,1,1,1h2c0.366,0,0.673-0.206,0.847-0.5H17.5
				c1.202,0,2.258-1.242,2.5-2.5v-0.778c0.595-0.347,1-0.985,1-1.722c0-1.103-0.897-2-2-2h-0.361l0.359-1.45
				c0.008-0.08,0.179-1.977-1.244-3.549C16.552,0.673,14.617,0,12,0S7.449,0.673,6.247,2.001C4.824,3.573,4.995,5.47,5.007,5.582
				l0.45,2.699C5.03,8.7,4.869,9.429,5.056,10.223c0.209,0.887,0.762,1.517,1.466,1.713c0.135,1.345,0.885,2.471,1.819,3.318
				l-5.42,1.533C1.174,17.441,0,19.134,0,21v2.5C0,23.776,0.224,24,0.5,24h23c0.276,0,0.5-0.224,0.5-0.5V21
				C24,19.134,22.827,17.441,21.042,16.773z M20,9c0,0.552-0.449,1-1,1h-0.5V8H19C19.552,8,20,8.448,20,9z M23,23H1v-2
				c0-1.451,0.913-2.768,2.231-3.264l6.102-1.723C10.319,16.648,11.342,17,12,17c0.752,0,1.81-0.395,2.708-0.984l6.021,1.707
				C22.088,18.232,23,19.549,23,21V23z"/>
			<path d="M9.003,9.473c0.254,0,0.467-0.214,0.498-0.464c0.095-0.013,0.905-0.013,1,0C10.505,9.28,10.727,9.5,11,9.5
				c0.276,0,0.5-0.224,0.5-0.5c0-0.298-0.089-0.538-0.266-0.713c-0.296-0.294-0.709-0.285-1.105-0.288H9.871
				C9.48,8.003,9.063,7.993,8.766,8.287C8.59,8.462,8.5,8.702,8.5,9C8.5,9.276,8.727,9.473,9.003,9.473z"/>
			<path d="M13.871,7.999c-0.393,0.004-0.808-0.006-1.105,0.288C12.59,8.462,12.5,8.702,12.5,9c0,0.276,0.226,0.473,0.502,0.473
				c0.254,0,0.467-0.214,0.498-0.464c0.095-0.013,0.905-0.013,1,0C14.505,9.28,14.727,9.5,15,9.5c0.276,0,0.5-0.224,0.5-0.5
				c0-0.298-0.089-0.538-0.266-0.713c-0.296-0.294-0.71-0.285-1.105-0.288H13.871z"/>
		</g>
	</g>
	<g id="New_icons_1_">
	</g>
</g>

</svg>
