<?xml version="1.0" encoding="utf-8"?>
<!-- Generator: Adobe Illustrator 16.0.3, SVG Export Plug-In . SVG Version: 6.00 Build 0)  -->
<!DOCTYPE svg PUBLIC "-//W3C//DTD SVG 1.1//EN" "http://www.w3.org/Graphics/SVG/1.1/DTD/svg11.dtd">
<svg version="1.1" xmlns="http://www.w3.org/2000/svg" xmlns:xlink="http://www.w3.org/1999/xlink" x="0px" y="0px" width="24px"
	 height="24px" viewBox="0 0 24 24" enable-background="new 0 0 24 24" xml:space="preserve">
<g id="Outline_Icons">
	<g>
		<path d="M22.5,5C22.776,5,23,4.776,23,4.5v-4C23,0.224,22.776,0,22.5,0h-4C18.224,0,18,0.224,18,0.5V2H5V0.5
			C5,0.224,4.776,0,4.5,0h-4C0.224,0,0,0.224,0,0.5v4C0,4.776,0.224,5,0.5,5H2v13H0.5C0.224,18,0,18.224,0,18.5v4
			C0,22.776,0.224,23,0.5,23h4C4.776,23,5,22.776,5,22.5V21h13v1.5c0,0.276,0.224,0.5,0.5,0.5h4c0.276,0,0.5-0.224,0.5-0.5v-4
			c0-0.276-0.224-0.5-0.5-0.5H21V5H22.5z M19,1h3v3h-3V1z M1,1h3v3H1V1z M4,22H1v-3h3V22z M22,22h-3v-3h3V22z M20,18h-1.5
			c-0.276,0-0.5,0.224-0.5,0.5V20H5v-1.5C5,18.224,4.776,18,4.5,18H3V5h1.5C4.776,5,5,4.776,5,4.5V3h13v1.5
			C18,4.776,18.224,5,18.5,5H20V18z"/>
		<path d="M16.5,6h-10C6.224,6,6,6.224,6,6.5v2C6,8.776,6.224,9,6.5,9S7,8.776,7,8.5V7h4v10h-1c-0.276,0-0.5,0.224-0.5,0.5
			S9.724,18,10,18h3c0.276,0,0.5-0.224,0.5-0.5S13.276,17,13,17h-1V7h4v1.5C16,8.776,16.224,9,16.5,9S17,8.776,17,8.5v-2
			C17,6.224,16.776,6,16.5,6z"/>
	</g>
</g>

</svg>
