<?xml version="1.0" encoding="utf-8"?>
<!-- Generator: Adobe Illustrator 16.0.3, SVG Export Plug-In . SVG Version: 6.00 Build 0)  -->
<!DOCTYPE svg PUBLIC "-//W3C//DTD SVG 1.1//EN" "http://www.w3.org/Graphics/SVG/1.1/DTD/svg11.dtd">
<svg version="1.1" xmlns="http://www.w3.org/2000/svg" xmlns:xlink="http://www.w3.org/1999/xlink" x="0px" y="0px" width="24px"
	 height="24px" viewBox="0 0 24 24" enable-background="new 0 0 24 24" xml:space="preserve">
<g id="Outline_Icons">
	<g>
		<path d="M14,15.764V2.5C14,1.121,12.878,0,11.5,0S9,1.121,9,2.5v13.264c-1.241,0.831-2,2.237-2,3.736c0,2.481,2.019,4.5,4.5,4.5
			s4.5-2.019,4.5-4.5C16,18.001,15.241,16.595,14,15.764z M11.5,23C9.57,23,8,21.43,8,19.5c0-1.241,0.671-2.401,1.75-3.026
			C9.905,16.385,10,16.22,10,16.041V2.5C10,1.673,10.673,1,11.5,1S13,1.673,13,2.5v13.541c0,0.179,0.095,0.344,0.25,0.433
			C14.329,17.099,15,18.259,15,19.5C15,21.43,13.43,23,11.5,23z"/>
		<path d="M12,18.092V7.5C12,7.224,11.776,7,11.5,7S11,7.224,11,7.5v10.592c-0.581,0.207-1,0.758-1,1.408c0,0.827,0.673,1.5,1.5,1.5
			s1.5-0.673,1.5-1.5C13,18.85,12.581,18.299,12,18.092z M11.5,20c-0.276,0-0.5-0.225-0.5-0.5s0.224-0.5,0.5-0.5s0.5,0.225,0.5,0.5
			S11.776,20,11.5,20z"/>
	</g>
</g>

</svg>
