<?xml version="1.0" encoding="utf-8"?>
<!-- Generator: Adobe Illustrator 16.0.3, SVG Export Plug-In . SVG Version: 6.00 Build 0)  -->
<!DOCTYPE svg PUBLIC "-//W3C//DTD SVG 1.1//EN" "http://www.w3.org/Graphics/SVG/1.1/DTD/svg11.dtd">
<svg version="1.1" xmlns="http://www.w3.org/2000/svg" xmlns:xlink="http://www.w3.org/1999/xlink" x="0px" y="0px" width="24px"
	 height="24px" viewBox="0 0 24 24" enable-background="new 0 0 24 24" xml:space="preserve">
<g id="Outline_Icons">
	<g>
		<path d="M23.5,0h-23C0.224,0,0,0.224,0,0.5v23C0,23.776,0.224,24,0.5,24h23c0.276,0,0.5-0.224,0.5-0.5v-23
			C24,0.224,23.776,0,23.5,0z M23,23H1V1h22V23z"/>
		<path d="M3.5,21h17c0.276,0,0.5-0.224,0.5-0.5S20.776,20,20.5,20h-17C3.224,20,3,20.224,3,20.5S3.224,21,3.5,21z"/>
		<path d="M4.854,7.854L7,5.707V17.5C7,17.776,7.224,18,7.5,18S8,17.776,8,17.5V5.707l2.146,2.146C10.244,7.951,10.372,8,10.5,8
			s0.256-0.049,0.354-0.146c0.195-0.195,0.195-0.512,0-0.707l-2.999-3C7.808,4.101,7.752,4.064,7.691,4.039
			c-0.123-0.05-0.26-0.05-0.383,0C7.248,4.064,7.192,4.101,7.146,4.147l-2.999,3c-0.195,0.195-0.195,0.512,0,0.707
			C4.342,8.049,4.658,8.049,4.854,7.854z"/>
		<path d="M13.854,7.854L16,5.707V17.5c0,0.276,0.224,0.5,0.5,0.5s0.5-0.224,0.5-0.5V5.707l2.146,2.146
			C19.244,7.951,19.372,8,19.5,8s0.256-0.049,0.354-0.146c0.195-0.195,0.195-0.512,0-0.707l-2.999-3
			c-0.047-0.046-0.103-0.083-0.163-0.108c-0.123-0.05-0.26-0.05-0.383,0c-0.061,0.025-0.116,0.062-0.163,0.108l-2.999,3
			c-0.195,0.195-0.195,0.512,0,0.707C13.342,8.049,13.658,8.049,13.854,7.854z"/>
	</g>
</g>

</svg>
