<?xml version="1.0" encoding="utf-8"?>
<!-- Generator: Adobe Illustrator 16.0.3, SVG Export Plug-In . SVG Version: 6.00 Build 0)  -->
<!DOCTYPE svg PUBLIC "-//W3C//DTD SVG 1.1//EN" "http://www.w3.org/Graphics/SVG/1.1/DTD/svg11.dtd">
<svg version="1.1" xmlns="http://www.w3.org/2000/svg" xmlns:xlink="http://www.w3.org/1999/xlink" x="0px" y="0px" width="24px"
	 height="24px" viewBox="0 0 24 24" enable-background="new 0 0 24 24" xml:space="preserve">
<g id="Outline_Icons">
	<g>
		<path d="M20.306,4.674c-1.958-1.818-4.502-2.779-7.174-2.667c-2.78,0.103-5.435,1.407-7.284,3.579
			c-1.488,1.749-2.306,3.898-2.4,6.183L1.416,8.724c-0.153-0.23-0.463-0.292-0.693-0.139c-0.23,0.153-0.292,0.463-0.139,0.693l3,4.5
			c0.017,0.025,0.043,0.038,0.062,0.06c0.024,0.026,0.048,0.052,0.078,0.072c0.025,0.018,0.052,0.028,0.08,0.041
			c0.039,0.018,0.078,0.03,0.122,0.037C3.94,13.989,3.952,13.999,3.967,14C3.978,14,3.989,14,4,14s0.02-0.006,0.03-0.006
			c0.013-0.001,0.024,0.004,0.037,0.003c0.033-0.005,0.06-0.021,0.09-0.03c0.021-0.008,0.043-0.012,0.063-0.021
			c0.056-0.027,0.104-0.064,0.146-0.108c0.003-0.003,0.007-0.004,0.01-0.007l0.004-0.005c0.009-0.01,0.018-0.019,0.025-0.029
			l3.47-3.965c0.182-0.208,0.161-0.523-0.047-0.706S7.306,8.962,7.124,9.171l-2.69,3.074C4.427,10.021,5.175,7.92,6.609,6.234
			c1.667-1.959,4.059-3.136,6.56-3.228c2.399-0.078,4.695,0.764,6.457,2.4c1.761,1.636,2.78,3.86,2.868,6.263
			c0.089,2.402-0.763,4.695-2.399,6.457c-1.637,1.761-3.861,2.78-6.264,2.868c-0.276,0.01-0.491,0.242-0.481,0.519
			c0.01,0.27,0.231,0.481,0.499,0.481c0.006,0,0.013,0,0.019,0c2.669-0.098,5.141-1.23,6.959-3.187s2.765-4.505,2.666-7.174
			C23.395,8.963,22.263,6.492,20.306,4.674z"/>
		<path d="M16,13.5v-4C16,8.122,14.878,7,13.5,7S11,8.122,11,9.5v4c0,1.378,1.122,2.5,2.5,2.5S16,14.878,16,13.5z M12,13.5v-4
			C12,8.673,12.673,8,13.5,8S15,8.673,15,9.5v4c0,0.827-0.673,1.5-1.5,1.5S12,14.327,12,13.5z"/>
	</g>
</g>

</svg>
