<?xml version="1.0" encoding="utf-8"?>
<!-- Generator: Adobe Illustrator 16.0.3, SVG Export Plug-In . SVG Version: 6.00 Build 0)  -->
<!DOCTYPE svg PUBLIC "-//W3C//DTD SVG 1.1//EN" "http://www.w3.org/Graphics/SVG/1.1/DTD/svg11.dtd">
<svg version="1.1" xmlns="http://www.w3.org/2000/svg" xmlns:xlink="http://www.w3.org/1999/xlink" x="0px" y="0px" width="24px"
	 height="24px" viewBox="0 0 24 24" enable-background="new 0 0 24 24" xml:space="preserve">
<g id="Outline_Icons">
	<g>
		<path d="M19.5,0h-15C2.57,0,1,1.57,1,3.5c0,1.633,1.123,3.007,2.638,3.393l-0.05,0.074C3.203,7.544,3,8.215,3,8.908V23.5
			C3,23.776,3.224,24,3.5,24h17c0.276,0,0.5-0.224,0.5-0.5V8.908c0-0.693-0.203-1.364-0.588-1.941l-0.05-0.074
			C21.877,6.507,23,5.133,23,3.5C23,1.57,21.43,0,19.5,0z M19.5,6c-0.185,0-0.354,0.102-0.44,0.264
			c-0.088,0.163-0.078,0.36,0.024,0.514l0.496,0.744C19.854,7.934,20,8.413,20,8.908V23H4V8.908c0-0.495,0.146-0.975,0.42-1.387
			l0.496-0.744C5.019,6.624,5.028,6.427,4.94,6.264C4.854,6.102,4.685,6,4.5,6C3.121,6,2,4.879,2,3.5S3.121,1,4.5,1h15
			C20.879,1,22,2.121,22,3.5S20.879,6,19.5,6z"/>
		<path d="M11.755,8.548c-0.195-0.195-0.512-0.195-0.707,0l-4.5,4.5c-0.195,0.195-0.195,0.512,0,0.707
			c0.098,0.098,0.226,0.146,0.354,0.146s0.256-0.049,0.354-0.146l4.5-4.5C11.95,9.06,11.95,8.743,11.755,8.548z"/>
		<path d="M16.065,9.894c-0.195-0.195-0.512-0.195-0.707,0l-7.424,7.425c-0.195,0.195-0.195,0.512,0,0.707
			c0.098,0.098,0.226,0.146,0.354,0.146s0.256-0.049,0.354-0.146l7.424-7.425C16.261,10.405,16.261,10.089,16.065,9.894z"/>
		<path d="M16.705,14.205l-4.5,4.5c-0.195,0.195-0.195,0.512,0,0.707c0.098,0.098,0.226,0.146,0.354,0.146s0.256-0.049,0.354-0.146
			l4.5-4.5c0.195-0.195,0.195-0.512,0-0.707S16.9,14.01,16.705,14.205z"/>
	</g>
</g>

</svg>
