<?xml version="1.0" encoding="utf-8"?>
<!-- Generator: Adobe Illustrator 16.0.3, SVG Export Plug-In . SVG Version: 6.00 Build 0)  -->
<!DOCTYPE svg PUBLIC "-//W3C//DTD SVG 1.1//EN" "http://www.w3.org/Graphics/SVG/1.1/DTD/svg11.dtd">
<svg version="1.1" xmlns="http://www.w3.org/2000/svg" xmlns:xlink="http://www.w3.org/1999/xlink" x="0px" y="0px" width="24px"
	 height="24px" viewBox="0 0 24 24" enable-background="new 0 0 24 24" xml:space="preserve">
<g id="Outline_Icons">
	<g>
		<path d="M22.913,4.115c-0.072-0.141-0.206-0.239-0.361-0.266c-0.159-0.022-0.314,0.023-0.429,0.131L18.956,7H17V5.196l3.089-3.332
			c0.106-0.116,0.152-0.273,0.125-0.428c-0.027-0.154-0.125-0.287-0.265-0.358c-0.979-0.501-2.087-0.766-3.202-0.766
			c-1.887,0-3.653,0.728-4.975,2.048c-2.074,2.075-2.64,5.168-1.46,7.804l-9.577,9.568C0.261,20.207,0,20.837,0,21.506
			c0,0.666,0.26,1.292,0.73,1.761C1.202,23.74,1.83,24,2.497,24c0.666,0,1.294-0.26,1.766-0.733l9.566-9.567
			c0.895,0.399,1.875,0.609,2.858,0.609c1.867,0,3.623-0.728,4.943-2.047C23.787,10.104,24.303,6.831,22.913,4.115z M13.953,12.651
			c-0.193-0.099-0.429-0.062-0.581,0.092L3.556,22.56c-0.567,0.568-1.553,0.566-2.118,0C1.155,22.279,1,21.904,1,21.506
			c0-0.402,0.157-0.781,0.442-1.066l9.827-9.819c0.153-0.153,0.19-0.388,0.092-0.582c-1.186-2.316-0.736-5.118,1.118-6.972
			c1.133-1.133,2.648-1.756,4.268-1.756c0.73,0,1.456,0.132,2.132,0.385L16.133,4.66C16.048,4.752,16,4.874,16,5v2.5
			c0,0.132,0.054,0.25,0.137,0.339l-0.002,0.002l4.052,4.333c-1.014,0.733-2.224,1.134-3.499,1.134
			C15.738,13.309,14.793,13.082,13.953,12.651z M20.948,11.526L17.652,8h1.504c0.129,0,0.252-0.049,0.345-0.138l2.798-2.667
			C23.12,7.373,22.612,9.84,20.948,11.526z"/>
		<path d="M14.354,7.146c-0.195-0.195-0.512-0.195-0.707,0l-1.5,1.5c-0.195,0.195-0.195,0.512,0,0.707
			C12.244,9.451,12.372,9.5,12.5,9.5s0.256-0.049,0.354-0.146l1.5-1.5C14.549,7.659,14.549,7.342,14.354,7.146z"/>
		<path d="M15.604,8.396c-0.195-0.195-0.512-0.195-0.707,0l-1.5,1.5c-0.195,0.196-0.195,0.512,0,0.707
			c0.098,0.098,0.226,0.146,0.354,0.146s0.256-0.049,0.354-0.146l1.5-1.5C15.799,8.908,15.799,8.592,15.604,8.396z"/>
		<path d="M16.854,9.646c-0.195-0.195-0.512-0.195-0.707,0l-1.5,1.5c-0.195,0.195-0.195,0.512,0,0.707
			C14.744,11.951,14.872,12,15,12s0.256-0.049,0.354-0.146l1.5-1.5C17.049,10.159,17.049,9.842,16.854,9.646z"/>
	</g>
</g>

</svg>
