<?xml version="1.0" encoding="utf-8"?>
<!-- Generator: Adobe Illustrator 16.0.3, SVG Export Plug-In . SVG Version: 6.00 Build 0)  -->
<!DOCTYPE svg PUBLIC "-//W3C//DTD SVG 1.1//EN" "http://www.w3.org/Graphics/SVG/1.1/DTD/svg11.dtd">
<svg version="1.1" xmlns="http://www.w3.org/2000/svg" xmlns:xlink="http://www.w3.org/1999/xlink" x="0px" y="0px" width="24px"
	 height="24px" viewBox="0 0 24 24" enable-background="new 0 0 24 24" xml:space="preserve">
<g id="Outline_Icons">
	<path d="M22.213,4.615l-3.535-3.536c-0.094-0.094-0.221-0.146-0.354-0.146s-0.26,0.053-0.354,0.146l-5.657,5.657
		c-0.195,0.195-0.195,0.512,0,0.707l3.182,3.182l-1.606,1.606l-4.588,1.817c-0.063,0.025-0.121,0.063-0.169,0.111l-8.485,8.486
		c-0.195,0.195-0.195,0.512,0,0.707C0.744,23.451,0.872,23.5,1,23.5s0.256-0.049,0.354-0.146l8.412-8.413l4.588-1.817
		c0.063-0.025,0.121-0.063,0.169-0.111l2.03-2.03c0.001-0.001,0.002-0.001,0.003-0.002l5.656-5.657
		C22.408,5.127,22.408,4.811,22.213,4.615z M19.032,7.089C19.032,7.09,19.032,7.09,19.032,7.089l-2.83,2.829L13.374,7.09
		l0.718-0.718l1.756,1.776c0.098,0.099,0.227,0.148,0.355,0.148c0.127,0,0.254-0.048,0.352-0.145
		c0.196-0.194,0.198-0.511,0.004-0.707l-1.759-1.781l0.709-0.709l1.752,1.778c0.098,0.1,0.227,0.149,0.356,0.149
		c0.127,0,0.253-0.048,0.351-0.144c0.197-0.194,0.199-0.511,0.005-0.707l-1.758-1.784l0.701-0.7l1.76,1.773
		c0.098,0.099,0.227,0.147,0.355,0.147c0.127,0,0.255-0.048,0.352-0.146c0.196-0.194,0.197-0.511,0.003-0.707L17.624,2.84l0.7-0.7
		l2.828,2.829L19.032,7.089z"/>
</g>

</svg>
