<?xml version="1.0" encoding="utf-8"?>
<!-- Generator: Adobe Illustrator 16.0.3, SVG Export Plug-In . SVG Version: 6.00 Build 0)  -->
<!DOCTYPE svg PUBLIC "-//W3C//DTD SVG 1.1//EN" "http://www.w3.org/Graphics/SVG/1.1/DTD/svg11.dtd">
<svg version="1.1" xmlns="http://www.w3.org/2000/svg" xmlns:xlink="http://www.w3.org/1999/xlink" x="0px" y="0px" width="24px"
	 height="24px" viewBox="0 0 24 24" enable-background="new 0 0 24 24" xml:space="preserve">
<g id="Outline_Icons">
	<g>
		<path d="M23.5,11H22V5h1.5C23.776,5,24,4.776,24,4.5S23.776,4,23.5,4h-12C11.223,4,11,4.224,11,4.5S11.223,5,11.5,5H12v5H7V7h0.5
			C7.776,7,8,6.776,8,6.5S7.776,6,7.5,6h-4C3.223,6,3,6.224,3,6.5S3.223,7,3.5,7H4v3H3c-0.415,0-0.98,0.253-1.325,1.456
			c-0.193,0.679-0.3,1.582-0.3,2.544c0,0.65,0.057,2.319,0.594,3.283l-1.666,1.325c-0.216,0.172-0.251,0.487-0.08,0.703
			C0.322,19.436,0.467,19.5,0.615,19.5c0.109,0,0.219-0.035,0.311-0.108L2.674,18H4.05C4.017,18.162,4,18.328,4,18.5
			C4,19.879,5.121,21,6.5,21S9,19.879,9,18.5c0-0.172-0.018-0.338-0.05-0.5h1.101C10.017,18.162,10,18.328,10,18.5
			c0,1.379,1.122,2.5,2.5,2.5s2.5-1.121,2.5-2.5c0-0.172-0.018-0.338-0.05-0.5h1.101C16.017,18.162,16,18.328,16,18.5
			c0,1.379,1.122,2.5,2.5,2.5s2.5-1.121,2.5-2.5c0-0.172-0.018-0.338-0.05-0.5h2.55c0.276,0,0.5-0.224,0.5-0.5v-6
			C24,11.224,23.776,11,23.5,11z M5,7h1v3H5V7z M6.5,20C5.672,20,5,19.327,5,18.5c0-0.289,0.086-0.559,0.229-0.787
			c0.004-0.009,0.01-0.016,0.014-0.025C5.509,17.275,5.972,17,6.5,17C7.327,17,8,17.673,8,18.5S7.327,20,6.5,20z M12.5,20
			c-0.827,0-1.5-0.673-1.5-1.5s0.673-1.5,1.5-1.5s1.5,0.673,1.5,1.5S13.327,20,12.5,20z M18.5,20c-0.827,0-1.5-0.673-1.5-1.5
			s0.673-1.5,1.5-1.5s1.5,0.673,1.5,1.5S19.327,20,18.5,20z M18.5,16c-0.813,0-1.531,0.396-1.987,1h-2.025
			c-0.457-0.604-1.174-1-1.987-1s-1.531,0.396-1.987,1H8.487C8.03,16.396,7.313,16,6.5,16s-1.531,0.396-1.987,1H3.007
			c-0.228-0.089-0.632-1.165-0.632-3c0-1.838,0.406-2.915,0.625-3h9.5c0.276,0,0.5-0.224,0.5-0.5V5h8v6.5c0,0.276,0.224,0.5,0.5,0.5
			H23v5h-2.513C20.03,16.396,19.313,16,18.5,16z"/>
		<path d="M19.5,6h-5C14.223,6,14,6.224,14,6.5v3c0,0.276,0.224,0.5,0.5,0.5h5c0.276,0,0.5-0.224,0.5-0.5v-3
			C20,6.224,19.776,6,19.5,6z M19,9h-4V7h4V9z"/>
	</g>
</g>

</svg>
