<?xml version="1.0" encoding="utf-8"?>
<!-- Generator: Adobe Illustrator 16.0.3, SVG Export Plug-In . SVG Version: 6.00 Build 0)  -->
<!DOCTYPE svg PUBLIC "-//W3C//DTD SVG 1.1//EN" "http://www.w3.org/Graphics/SVG/1.1/DTD/svg11.dtd">
<svg version="1.1" xmlns="http://www.w3.org/2000/svg" xmlns:xlink="http://www.w3.org/1999/xlink" x="0px" y="0px" width="24px"
	 height="24px" viewBox="0 0 24 24" enable-background="new 0 0 24 24" xml:space="preserve">
<g id="Outline_Icons">
	<g>
		<path d="M2.531,5h1.117C4.094,6.357,4.814,7.562,5.76,8.543c-0.841,0.673-1.814,1.182-2.891,1.475
			c-0.267,0.072-0.424,0.347-0.352,0.613C2.578,10.854,2.779,11,3,11c0.043,0,0.087-0.006,0.131-0.018
			c1.263-0.343,2.397-0.955,3.369-1.76c0.972,0.805,2.106,1.417,3.369,1.76C9.913,10.994,9.957,11,10,11
			c0.221,0,0.422-0.146,0.482-0.369c0.072-0.267-0.085-0.541-0.352-0.613C9.055,9.725,8.081,9.216,7.24,8.543
			C8.186,7.562,8.906,6.357,9.352,5H10.5C10.776,5,11,4.776,11,4.5S10.776,4,10.5,4H7V2.5C7,2.224,6.776,2,6.5,2S6,2.224,6,2.5V4
			H2.531c-0.276,0-0.5,0.224-0.5,0.5S2.255,5,2.531,5z M6.5,7.872C5.721,7.069,5.113,6.094,4.706,5h3.588
			C7.887,6.094,7.279,7.069,6.5,7.872z"/>
		<path d="M14.324,21.968c0.256,0.1,0.547-0.034,0.644-0.292L15.597,20h3.807l0.629,1.676C20.107,21.876,20.298,22,20.5,22
			c0.059,0,0.118-0.01,0.176-0.032c0.259-0.097,0.39-0.385,0.292-0.644l-3-8c-0.146-0.391-0.789-0.391-0.936,0l-3,8
			C13.935,21.583,14.065,21.871,14.324,21.968z M17.5,14.924L19.028,19h-3.057L17.5,14.924z"/>
		<path d="M13,12.5v-12C13,0.224,12.776,0,12.5,0h-12C0.224,0,0,0.224,0,0.5v12C0,12.776,0.224,13,0.5,13h12
			C12.776,13,13,12.776,13,12.5z M12,12H1V1h11V12z"/>
		<path d="M23.5,11H15c-0.276,0-0.5,0.224-0.5,0.5S14.724,12,15,12h8v11H12v-8c0-0.276-0.224-0.5-0.5-0.5S11,14.724,11,15v8.5
			c0,0.276,0.224,0.5,0.5,0.5h12c0.276,0,0.5-0.224,0.5-0.5v-12C24,11.224,23.776,11,23.5,11z"/>
		<path d="M8.462,20.809c-0.025-0.061-0.062-0.116-0.109-0.162l-1.999-2c-0.195-0.195-0.512-0.195-0.707,0s-0.195,0.512,0,0.707
			l1.123,1.123C4.397,20.354,2.5,18.402,2.5,16c0-0.276-0.224-0.5-0.5-0.5S1.5,15.724,1.5,16c0,2.966,2.362,5.385,5.303,5.49
			l-1.156,1.156c-0.195,0.195-0.195,0.512,0,0.707C5.744,23.451,5.872,23.5,6,23.5s0.256-0.049,0.354-0.146l1.999-2
			c0.047-0.046,0.084-0.102,0.109-0.162C8.512,21.068,8.512,20.932,8.462,20.809z"/>
		<path d="M15.538,3.191c0.025,0.061,0.062,0.116,0.109,0.162l1.999,2C17.744,5.451,17.872,5.5,18,5.5s0.256-0.049,0.354-0.146
			c0.195-0.195,0.195-0.512,0-0.707L17.23,3.523C19.603,3.646,21.5,5.598,21.5,8c0,0.276,0.224,0.5,0.5,0.5s0.5-0.224,0.5-0.5
			c0-2.966-2.362-5.385-5.303-5.49l1.156-1.156c0.195-0.195,0.195-0.512,0-0.707s-0.512-0.195-0.707,0l-1.999,2
			c-0.047,0.046-0.084,0.102-0.109,0.162C15.488,2.932,15.488,3.068,15.538,3.191z"/>
	</g>
</g>

</svg>
