<?xml version="1.0" encoding="utf-8"?>
<!-- Generator: Adobe Illustrator 16.0.3, SVG Export Plug-In . SVG Version: 6.00 Build 0)  -->
<!DOCTYPE svg PUBLIC "-//W3C//DTD SVG 1.1//EN" "http://www.w3.org/Graphics/SVG/1.1/DTD/svg11.dtd">
<svg version="1.1" xmlns="http://www.w3.org/2000/svg" xmlns:xlink="http://www.w3.org/1999/xlink" x="0px" y="0px" width="24px"
	 height="24px" viewBox="0 0 24 24" enable-background="new 0 0 24 24" xml:space="preserve">
<g id="Outline_Icons">
	<path d="M21,5h-1.212c-0.364-0.574-1.346-1.846-2.987-1.987C16.332,2.229,14.756,0,12,0S7.668,2.229,7.2,3.013
		C5.559,3.154,4.576,4.426,4.212,5H3C1.777,5,0,6.169,0,8c0,1.767,1.233,3,3,3h4.293L11,14.707V17H7
		c-0.161,0-0.312,0.077-0.406,0.208c-0.094,0.13-0.12,0.298-0.068,0.45l2,6C8.594,23.862,8.785,24,9,24h5
		c0.215,0,0.406-0.138,0.474-0.342l2-6c0.051-0.152,0.025-0.32-0.068-0.45C16.312,17.077,16.161,17,16,17h-4v-2.293L15.707,11H21
		c1.767,0,3-1.233,3-3C24,6.169,22.223,5,21,5z M13.64,23H9.36l-1.667-5h7.612L13.64,23z M8.707,11H11v2.293L8.707,11z M12,13.293
		V11h2.293L12,13.293z M21,10H3c-1.215,0-2-0.785-2-2c0-1.24,1.295-2,2-2h1.5c0.188,0,0.361-0.107,0.446-0.275
		C4.955,5.708,5.842,4,7.5,4c0.188,0,0.362-0.107,0.447-0.275C7.96,3.697,9.354,1,12,1s4.04,2.697,4.053,2.725
		C16.138,3.893,16.312,4,16.5,4c1.658,0,2.545,1.708,2.554,1.725C19.139,5.893,19.312,6,19.5,6H21c0.705,0,2,0.76,2,2
		C23,9.215,22.215,10,21,10z"/>
</g>

</svg>
