<?xml version="1.0" encoding="utf-8"?>
<!-- Generator: Adobe Illustrator 16.0.3, SVG Export Plug-In . SVG Version: 6.00 Build 0)  -->
<!DOCTYPE svg PUBLIC "-//W3C//DTD SVG 1.1//EN" "http://www.w3.org/Graphics/SVG/1.1/DTD/svg11.dtd">
<svg version="1.1" xmlns="http://www.w3.org/2000/svg" xmlns:xlink="http://www.w3.org/1999/xlink" x="0px" y="0px" width="24px"
	 height="24px" viewBox="0 0 24 24" enable-background="new 0 0 24 24" xml:space="preserve">
<g id="Outline_Icons_1_">
	<g id="Outline_Icons">
	</g>
	<g id="New_icons_1_">
		<g>
			<path d="M7.5,10h-7C0.224,10,0,10.224,0,10.5v5c0,1.208,0.86,2.217,2,2.45v5.55C2,23.776,2.224,24,2.5,24h3
				C5.776,24,6,23.776,6,23.5v-5.55c1.14-0.232,2-1.242,2-2.45v-5C8,10.224,7.776,10,7.5,10z M7,15.5C7,16.327,6.327,17,5.5,17
				C5.224,17,5,17.224,5,17.5V23H3v-5.5C3,17.224,2.776,17,2.5,17C1.673,17,1,16.327,1,15.5V11h6V15.5z"/>
			<path d="M4,9c1.654,0,3-1.346,3-3S5.654,3,4,3S1,4.346,1,6S2.346,9,4,9z M4,4c1.103,0,2,0.896,2,2c0,1.103-0.897,2-2,2
				S2,7.103,2,6C2,4.896,2.897,4,4,4z"/>
			<path d="M18.382,12.192c0.861-0.367,1.673-0.877,2.254-2.249C23.275,9.494,24,6.268,24,4.5C24,4.224,23.776,4,23.5,4h-2.007
				C21.495,3.832,21.5,3.676,21.5,3.5C21.5,3.224,21.276,3,21,3H11c-0.276,0-0.5,0.224-0.5,0.5c0,0.176,0.005,0.332,0.007,0.5H8.5
				C8.224,4,8,4.224,8,4.5c0,1.768,0.725,4.994,3.364,5.443c0.581,1.372,1.394,1.882,2.254,2.249
				c0.624,0.266,0.882,0.376,0.882,1.308c0,2.535-2.015,2.992-2.098,3.01C12.168,16.557,12,16.762,12,17v1h-1.5
				c-0.276,0-0.5,0.224-0.5,0.5v5c0,0.276,0.224,0.5,0.5,0.5h11c0.276,0,0.5-0.224,0.5-0.5v-5c0-0.276-0.224-0.5-0.5-0.5H20v-1
				c0-0.238-0.168-0.443-0.402-0.49c-0.085-0.017-2.098-0.449-2.098-3.01C17.5,12.568,17.758,12.458,18.382,12.192z M22.972,5
				c-0.089,0.98-0.46,3.114-1.96,3.787C21.248,7.839,21.409,6.609,21.47,5H22.972z M9.025,5h1.505
				c0.062,1.612,0.223,2.843,0.46,3.792C9.468,8.126,9.108,5.988,9.025,5z M11,23v-1h10v1H11z M21,21H11v-2h1.5h7H21V21z M19,17.376
				V18h-6v-0.624c1.036-0.376,2.5-1.507,2.5-3.876c0-1.593-0.791-1.931-1.489-2.228c-1.033-0.44-2.438-1.038-2.508-7.272h8.994
				c-0.07,6.234-1.475,6.833-2.508,7.272C17.291,11.569,16.5,11.907,16.5,13.5C16.5,15.869,17.964,17,19,17.376z"/>
		</g>
	</g>
</g>

</svg>
