<?xml version="1.0" encoding="utf-8"?>
<!-- Generator: Adobe Illustrator 16.0.3, SVG Export Plug-In . SVG Version: 6.00 Build 0)  -->
<!DOCTYPE svg PUBLIC "-//W3C//DTD SVG 1.1//EN" "http://www.w3.org/Graphics/SVG/1.1/DTD/svg11.dtd">
<svg version="1.1" xmlns="http://www.w3.org/2000/svg" xmlns:xlink="http://www.w3.org/1999/xlink" x="0px" y="0px" width="24px"
	 height="24px" viewBox="0 0 24 24" enable-background="new 0 0 24 24" xml:space="preserve">
<g id="Outline_Icons">
	<g>
		<path d="M16,13c-0.827,0-1.5,0.673-1.5,1.5S15.172,16,16,16s1.5-0.673,1.5-1.5S16.827,13,16,13z M16,15
			c-0.276,0-0.5-0.225-0.5-0.5S15.724,14,16,14s0.5,0.225,0.5,0.5S16.275,15,16,15z"/>
		<path d="M8,13c-0.827,0-1.5,0.673-1.5,1.5S7.172,16,8,16s1.5-0.673,1.5-1.5S8.827,13,8,13z M8,15c-0.276,0-0.5-0.225-0.5-0.5
			S7.724,14,8,14s0.5,0.225,0.5,0.5S8.275,15,8,15z"/>
		<path d="M20.5,14c-0.565,0-1.081,0.195-1.5,0.513V10.5c0-0.056-0.009-0.111-0.028-0.164c0,0-1.738-4.992-2.207-6.336H18
			c0.276,0,0.5-0.224,0.5-0.5S18.276,3,18,3h-2.292H15V0.5C15,0.224,14.776,0,14.5,0h-5C9.224,0,9,0.224,9,0.5V3H8.352H6
			C5.723,3,5.5,3.224,5.5,3.5S5.723,4,6,4h1.328C7.101,4.533,6.774,5.445,6.22,6.997l-1.191,3.335C5.01,10.386,5,10.442,5,10.5
			v4.013C4.581,14.195,4.064,14,3.5,14C2.121,14,1,15.121,1,16.5v3V22c0,1.103,0.897,2,2,2s2-0.897,2-2v-2h0.5
			c0.004,0,0.007-0.002,0.011-0.002C5.967,20.603,6.685,21,7.5,21H10v1c0,1.103,0.897,2,2,2s2-0.897,2-2v-1h2.5
			c0.814,0,1.533-0.397,1.989-1.002c0.003,0,0.007,0.002,0.011,0.002H19v2c0,1.103,0.897,2,2,2s2-0.897,2-2v-2.5v-3
			C23,15.121,21.878,14,20.5,14z M10,1h4v2h-4V1z M8.352,4H9.5h5h1.207c0.038,0.109,1.511,4.34,2.09,6H6.209L8.352,4z M4,22
			c0,0.552-0.449,1-1,1s-1-0.448-1-1v-2h2V22z M5,19H2v-2.5C2,15.673,2.672,15,3.5,15S5,15.673,5,16.5V19z M13,22
			c0,0.552-0.449,1-1,1s-1-0.448-1-1v-3c0-0.552,0.449-1,1-1s1,0.448,1,1V22z M16.5,20H14v-1c0-1.103-0.897-2-2-2s-2,0.897-2,2v1
			H7.5C6.672,20,6,19.327,6,18.5L6,11h12l0,7.5C18,19.327,17.327,20,16.5,20z M19,16.499C19,15.672,19.673,15,20.5,15
			c0.827,0,1.5,0.673,1.5,1.5V19h-3v-0.5V16.499z M21,23c-0.551,0-1-0.448-1-1v-2h2v2C22,22.552,21.551,23,21,23z"/>
	</g>
</g>

</svg>
