<?xml version="1.0" encoding="utf-8"?>
<!-- Generator: Adobe Illustrator 16.0.3, SVG Export Plug-In . SVG Version: 6.00 Build 0)  -->
<!DOCTYPE svg PUBLIC "-//W3C//DTD SVG 1.1//EN" "http://www.w3.org/Graphics/SVG/1.1/DTD/svg11.dtd">
<svg version="1.1" xmlns="http://www.w3.org/2000/svg" xmlns:xlink="http://www.w3.org/1999/xlink" x="0px" y="0px" width="24px"
	 height="24px" viewBox="0 0 24 24" enable-background="new 0 0 24 24" xml:space="preserve">
<g id="Outline_Icons">
	<g>
		<path d="M23.5,3H22V2.5C22,1.122,20.878,0,19.5,0S17,1.122,17,2.5V3H0.5C0.224,3,0,3.224,0,3.5v19C0,22.776,0.224,23,0.5,23h23
			c0.276,0,0.5-0.224,0.5-0.5v-19C24,3.224,23.776,3,23.5,3z M18,2.5C18,1.673,18.673,1,19.5,1S21,1.673,21,2.5V5h-3V2.5z M23,22H1
			V4h16v1.5C17,5.776,17.224,6,17.5,6H19v5.819l-2.306,2.762l-0.632-0.632c-0.195-0.195-0.512-0.195-0.707,0l-1.418,1.418
			c-0.236,0.236-0.785,0.871-0.779,1.662c0.004,0.476,0.21,0.926,0.598,1.303c0.403,0.391,0.841,0.589,1.302,0.589
			c0.804,0,1.381-0.613,1.643-0.892l1.367-1.367c0.094-0.094,0.146-0.221,0.146-0.354s-0.053-0.26-0.146-0.354l-0.665-0.665
			l2.48-2.97C19.959,12.23,20,12.117,20,12V6h1.5C21.776,6,22,5.776,22,5.5V4h1V22z M17.008,16.31l-1.08,1.082
			c-0.149,0.158-0.499,0.529-0.87,0.529c-0.191,0-0.396-0.103-0.605-0.307c-0.196-0.191-0.292-0.384-0.294-0.592
			c-0.003-0.425,0.372-0.833,0.486-0.947l1.064-1.064L17.008,16.31z"/>
		<path d="M12.332,19.603C11.584,19.866,10.799,20,10,20c-3.86,0-7-3.14-7-7c0-3.86,3.14-7,7-7c2.989,0,5.649,1.897,6.621,4.721
			c0.09,0.261,0.374,0.4,0.635,0.31s0.4-0.374,0.31-0.636C16.456,7.168,13.416,5,10,5c-4.411,0-8,3.589-8,8s3.589,8,8,8
			c0.913,0,1.809-0.152,2.664-0.454c0.261-0.092,0.397-0.377,0.306-0.638C12.877,19.647,12.591,19.513,12.332,19.603z"/>
		<path d="M10,10c-1.654,0-3,1.346-3,3s1.346,3,3,3s3-1.346,3-3S11.654,10,10,10z M10,15c-1.103,0-2-0.897-2-2c0-1.104,0.897-2,2-2
			s2,0.896,2,2C12,14.103,11.103,15,10,15z"/>
		<circle cx="10" cy="13" r="1"/>
	</g>
</g>

</svg>
