<?xml version="1.0" encoding="utf-8"?>
<!-- Generator: Adobe Illustrator 16.0.3, SVG Export Plug-In . SVG Version: 6.00 Build 0)  -->
<!DOCTYPE svg PUBLIC "-//W3C//DTD SVG 1.1//EN" "http://www.w3.org/Graphics/SVG/1.1/DTD/svg11.dtd">
<svg version="1.1" xmlns="http://www.w3.org/2000/svg" xmlns:xlink="http://www.w3.org/1999/xlink" x="0px" y="0px" width="24px"
	 height="24px" viewBox="0 0 24 24" enable-background="new 0 0 24 24" xml:space="preserve">
<g id="Outline_Icons">
	<path d="M22.5,6.001h-21c-0.276,0-0.5,0.224-0.5,0.5v10c0,0.276,0.224,0.5,0.5,0.5c2.597,0.003,6.408,0.925,7.924,2.61
		c0.204,0.374,0.417,0.754,0.645,1.143c0.022,0.039,0.061,0.06,0.092,0.09c0.022,0.022,0.039,0.047,0.065,0.064
		c0.083,0.056,0.176,0.093,0.274,0.093h3c0.095,0,0.185-0.034,0.266-0.086c0.025-0.017,0.043-0.039,0.065-0.062
		c0.03-0.028,0.068-0.047,0.092-0.085c0.193-0.306,0.415-0.67,0.649-1.08c1.562-1.738,5.379-2.688,7.928-2.688
		c0.133,0,0.26-0.053,0.354-0.146S23,16.634,23,16.501v-10C23,6.225,22.776,6.001,22.5,6.001z M22,7.001v1H2v-1H22z M13.749,19.104
		c-0.24,0.279-0.439,0.577-0.587,0.896h-2.305c-0.14-0.343-0.342-0.661-0.589-0.957c-2.421-4.479-3.07-7.854-1.918-10.043h7.303
		C17.225,12.079,15.116,16.682,13.749,19.104z M2,16.011v-7.01h5.233c-0.883,2.136-0.498,4.972,1.175,8.598
		C6.543,16.597,4.035,16.085,2,16.011z M15.626,17.657c1.213-2.61,2.214-5.974,1.133-8.656H22v7.01
		C20.041,16.089,17.523,16.626,15.626,17.657z"/>
</g>

</svg>
