<?xml version="1.0" encoding="utf-8"?>
<!-- Generator: Adobe Illustrator 16.0.3, SVG Export Plug-In . SVG Version: 6.00 Build 0)  -->
<!DOCTYPE svg PUBLIC "-//W3C//DTD SVG 1.1//EN" "http://www.w3.org/Graphics/SVG/1.1/DTD/svg11.dtd">
<svg version="1.1" xmlns="http://www.w3.org/2000/svg" xmlns:xlink="http://www.w3.org/1999/xlink" x="0px" y="0px" width="24px"
	 height="24px" viewBox="0 0 24 24" enable-background="new 0 0 24 24" xml:space="preserve">
<g id="Outline_Icons_1_">
	<g id="Outline_Icons">
		<g>
			<path d="M18.394-0.018c-1.359,0-2.481,0.447-3.505,1.403c-1.273-0.526-2.699-0.496-3.966,0.091
				C9.53,2.121,8.486,3.374,8.131,4.827l0.972,0.237c0.283-1.16,1.121-2.162,2.24-2.681c1.115-0.518,2.333-0.501,3.428,0.046
				c0.195,0.097,0.431,0.058,0.583-0.1c0.904-0.932,1.841-1.348,3.041-1.348C21.418,0.982,23,3.348,23,5.685
				c0,1.151-0.388,2.207-1.093,2.972c-0.8,0.867-1.98,1.326-3.413,1.326c-0.165,0-0.319,0.081-0.413,0.218
				c-0.424,0.62-1.195,1.282-2.087,1.282c-0.889,0-1.675-0.469-2.053-1.224l-0.895,0.447c0.548,1.096,1.677,1.776,2.947,1.776
				c1.014,0,2.029-0.558,2.758-1.504c1.605-0.055,2.946-0.62,3.89-1.645C23.518,8.384,24,7.088,24,5.685
				C24,2.92,22.035-0.018,18.394-0.018z"/>
			<path d="M10.5,17.646v-1.384c0.371-0.285,0.917-0.952,0.991-2.429c0.417-0.277,0.655-0.896,0.655-1.498
				c0-0.334-0.076-0.631-0.22-0.86c-0.068-0.108-0.151-0.201-0.245-0.275c0.22-0.514,0.54-1.394,0.304-2.338
				C11.638,7.475,9.891,6.982,8.5,6.982c-1.239,0-2.761,0.391-3.323,1.455c-0.464-0.016-0.795,0.108-1.02,0.384
				c-0.512,0.626-0.102,1.653,0.199,2.365c-0.104,0.077-0.194,0.174-0.269,0.29c-0.149,0.233-0.229,0.535-0.229,0.875
				c0,0.596,0.235,1.206,0.649,1.481c0.075,1.477,0.62,2.144,0.991,2.429v1.384C3.624,18.41,0,20.013,0,20.982v2.5
				c0,0.276,0.224,0.5,0.5,0.5h15c0.276,0,0.5-0.224,0.5-0.5v-2.5C16,20.013,12.376,18.41,10.5,17.646z M15,22.982H1v-1.896
				c0.387-0.428,2.605-1.608,5.186-2.641c0.19-0.075,0.314-0.26,0.314-0.464v-2c0-0.196-0.137-0.383-0.315-0.465
				C6.178,15.515,5.5,15.187,5.5,13.482c0-0.276-0.164-0.485-0.44-0.485c-0.115-0.078-0.271-0.562-0.168-0.895
				c0.037-0.12,0.068-0.12,0.108-0.12c0.276,0,0.5-0.224,0.5-0.5c0-0.16-0.064-0.312-0.192-0.612c-0.42-0.99-0.436-1.317-0.383-1.41
				C4.926,9.458,5.031,9.396,5.4,9.473c0.26,0.051,0.52-0.109,0.585-0.369C6.147,8.454,7.205,7.982,8.5,7.982
				s2.353,0.472,2.515,1.121c0.181,0.726-0.135,1.437-0.323,1.86c-0.1,0.225-0.16,0.359-0.16,0.519c0,0.276,0.253,0.503,0.53,0.503
				c0.021,0.015,0.082,0.12,0.084,0.337c0.004,0.343-0.134,0.626-0.146,0.66c-0.276,0-0.5,0.224-0.5,0.5
				c0,1.693-0.669,2.028-0.665,2.028C9.634,15.581,9.5,15.77,9.5,15.982v2c0,0.204,0.125,0.389,0.314,0.464
				c2.58,1.032,4.799,2.213,5.186,2.641V22.982z"/>
			<path d="M17,13.482c-0.827,0-1.5,0.673-1.5,1.5s0.673,1.5,1.5,1.5s1.5-0.673,1.5-1.5S17.827,13.482,17,13.482z M17,15.482
				c-0.276,0-0.5-0.225-0.5-0.5s0.224-0.5,0.5-0.5s0.5,0.225,0.5,0.5S17.276,15.482,17,15.482z"/>
			<path d="M13.5,6.982c0.551,0,1-0.448,1-1s-0.449-1-1-1s-1,0.448-1,1S12.949,6.982,13.5,6.982z M14,5.982h-0.5l0-0.001L14,5.982z"
				/>
			<path d="M13.5,17.482c0.551,0,1-0.448,1-1s-0.449-1-1-1s-1,0.448-1,1S12.949,17.482,13.5,17.482z M14,16.482h-0.5l0-0.001
				L14,16.482z"/>
			<path d="M17.5,5.982c0-0.552-0.449-1-1-1s-1,0.448-1,1s0.449,1,1,1S17.5,6.534,17.5,5.982z M17,5.982h-0.5l0-0.001L17,5.982z"/>
			<path d="M20.5,5.982c0-0.552-0.449-1-1-1s-1,0.448-1,1s0.449,1,1,1S20.5,6.534,20.5,5.982z M20,5.982h-0.5l0-0.001L20,5.982z"/>
		</g>
	</g>
	<g id="New_icons_1_">
	</g>
</g>

</svg>
