<?xml version="1.0" encoding="utf-8"?>
<!-- Generator: Adobe Illustrator 16.0.3, SVG Export Plug-In . SVG Version: 6.00 Build 0)  -->
<!DOCTYPE svg PUBLIC "-//W3C//DTD SVG 1.1//EN" "http://www.w3.org/Graphics/SVG/1.1/DTD/svg11.dtd">
<svg version="1.1" xmlns="http://www.w3.org/2000/svg" xmlns:xlink="http://www.w3.org/1999/xlink" x="0px" y="0px" width="24px"
	 height="24px" viewBox="0 0 24 24" enable-background="new 0 0 24 24" xml:space="preserve">
<g id="Outline_Icons_1_">
	<g id="Outline_Icons">
	</g>
	<g id="New_icons_1_">
		<g>
			<path d="M6.5,8c2.206,0,4-1.794,4-4s-1.794-4-4-4s-4,1.794-4,4S4.294,8,6.5,8z M6.5,1c1.654,0,3,1.346,3,3s-1.346,3-3,3
				s-3-1.346-3-3S4.846,1,6.5,1z"/>
			<path d="M12,9H1C0.724,9,0.5,9.224,0.5,9.5c0,4.828,2.083,6.923,3.5,7.79v6.21C4,23.776,4.224,24,4.5,24h4
				C8.776,24,9,23.776,9,23.5v-6.211c1.417-0.867,3.5-2.962,3.5-7.789C12.5,9.224,12.276,9,12,9z M8.262,16.561
				C8.101,16.648,8,16.816,8,17v6H5v-6c0-0.184-0.101-0.352-0.262-0.439C2.753,15.486,1.616,13.167,1.508,10h9.983
				C11.384,13.166,10.247,15.484,8.262,16.561z"/>
			<path d="M23.853,7.146l-3-3c-0.195-0.195-0.512-0.195-0.707,0s-0.195,0.512,0,0.707L22.293,7H14.5C14.224,7,14,7.224,14,7.5
				S14.224,8,14.5,8h7.793l-2.146,2.146c-0.195,0.195-0.195,0.512,0,0.707c0.195,0.195,0.512,0.195,0.707,0l3-3
				C24.047,7.659,24.048,7.342,23.853,7.146z"/>
		</g>
	</g>
</g>

</svg>
