<?xml version="1.0" encoding="utf-8"?>
<!-- Generator: Adobe Illustrator 16.0.3, SVG Export Plug-In . SVG Version: 6.00 Build 0)  -->
<!DOCTYPE svg PUBLIC "-//W3C//DTD SVG 1.1//EN" "http://www.w3.org/Graphics/SVG/1.1/DTD/svg11.dtd">
<svg version="1.1" xmlns="http://www.w3.org/2000/svg" xmlns:xlink="http://www.w3.org/1999/xlink" x="0px" y="0px" width="24px"
	 height="24px" viewBox="0 0 24 24" enable-background="new 0 0 24 24" xml:space="preserve">
<g id="Outline_Icons">
	<path d="M23.5,0h-5C18.224,0,18,0.224,18,0.5v4.793L5.293,18H0.5C0.224,18,0,18.224,0,18.5v5C0,23.776,0.224,24,0.5,24h5
		C5.776,24,6,23.776,6,23.5v-4.793L18.707,6H23.5C23.776,6,24,5.776,24,5.5v-5C24,0.224,23.776,0,23.5,0z M5,23H1v-4h4V23z M23,5h-4
		V1h4V5z"/>
</g>

</svg>
