<?xml version="1.0" encoding="utf-8"?>
<!-- Generator: Adobe Illustrator 16.0.3, SVG Export Plug-In . SVG Version: 6.00 Build 0)  -->
<!DOCTYPE svg PUBLIC "-//W3C//DTD SVG 1.1//EN" "http://www.w3.org/Graphics/SVG/1.1/DTD/svg11.dtd">
<svg version="1.1" xmlns="http://www.w3.org/2000/svg" xmlns:xlink="http://www.w3.org/1999/xlink" x="0px" y="0px" width="24px"
	 height="24px" viewBox="0 0 24 24" enable-background="new 0 0 24 24" xml:space="preserve">
<g id="Outline_Icons_1_">
	<g id="Outline_Icons">
		<g>
			<path d="M14.5,5h-13C0.673,5,0,5.673,0,6.5v11C0,18.327,0.673,19,1.5,19h13c0.827,0,1.5-0.673,1.5-1.5v-11
				C16,5.673,15.327,5,14.5,5z M15,17.5c0,0.275-0.224,0.5-0.5,0.5h-13C1.224,18,1,17.775,1,17.5v-11C1,6.225,1.224,6,1.5,6h13
				C14.776,6,15,6.225,15,6.5V17.5z"/>
			<path d="M23.763,6.074c-0.147-0.09-0.332-0.099-0.486-0.021l-6,3C17.107,9.138,17,9.311,17,9.5v5
				c0,0.189,0.107,0.362,0.276,0.447l6,3C23.347,17.982,23.423,18,23.5,18c0.091,0,0.183-0.025,0.263-0.074
				C23.91,17.834,24,17.673,24,17.5v-11C24,6.327,23.91,6.166,23.763,6.074z M23,16.691l-5-2.5V9.809l5-2.5V16.691z"/>
		</g>
	</g>
	<g id="New_icons_1_">
	</g>
</g>

</svg>
