<?xml version="1.0" encoding="utf-8"?>
<!-- Generator: Adobe Illustrator 16.0.3, SVG Export Plug-In . SVG Version: 6.00 Build 0)  -->
<!DOCTYPE svg PUBLIC "-//W3C//DTD SVG 1.1//EN" "http://www.w3.org/Graphics/SVG/1.1/DTD/svg11.dtd">
<svg version="1.1" xmlns="http://www.w3.org/2000/svg" xmlns:xlink="http://www.w3.org/1999/xlink" x="0px" y="0px" width="24px"
	 height="24px" viewBox="0 0 24 24" enable-background="new 0 0 24 24" xml:space="preserve">
<g id="Outline_Icons_1_">
	<g id="Outline_Icons">
	</g>
	<g id="New_icons_1_">
		<g>
			<path d="M23.763,1.074c-0.148-0.091-0.332-0.1-0.486-0.021L21,2.191V0.5C21,0.224,20.776,0,20.5,0h-7C13.224,0,13,0.224,13,0.5v7
				C13,7.776,13.224,8,13.5,8h7C20.776,8,21,7.776,21,7.5V5.809l2.276,1.139c0.155,0.077,0.339,0.068,0.486-0.021
				C23.91,6.834,24,6.673,24,6.5v-5C24,1.327,23.91,1.166,23.763,1.074z M23,5.691l-2.276-1.139
				c-0.155-0.076-0.339-0.068-0.486,0.021C20.09,4.666,20,4.827,20,5v2h-6V1h6v2c0,0.173,0.09,0.334,0.237,0.426
				c0.146,0.089,0.331,0.098,0.486,0.021L23,2.309V5.691z"/>
			<path d="M18.5,9C18.224,9,18,9.224,18,9.5V18h-3c0-0.771-0.582-1.543-1.325-1.755L11.5,15.623v-0.765
				c0.904-0.683,1.5-1.811,1.5-3.088c0-0.179-0.026-0.35-0.049-0.521c0.003-0.047-0.003-0.093-0.013-0.139
				C12.646,9.346,11.22,8,9.5,8C7.57,8,6,9.691,6,11.771c0,1.277,0.596,2.405,1.5,3.088v0.765l-2.177,0.622
				C4.581,16.457,4,17.229,4,18H1V8.088C1,7.488,1.449,7,2,7h9.5C11.776,7,12,6.776,12,6.5S11.776,6,11.5,6H2
				C0.897,6,0,6.937,0,8.088V20c0,1.103,0.897,2,2,2h7v1H5c-0.276,0-0.5,0.224-0.5,0.5S4.724,24,5,24h9c0.276,0,0.5-0.224,0.5-0.5
				S14.276,23,14,23h-4v-1h7c1.103,0,2-0.937,2-2.088V9.5C19,9.224,18.776,9,18.5,9z M9.5,9c1.126,0,2.07,0.836,2.382,1.973
				c-0.149,0.047-0.343,0.071-0.56,0.039c-0.232-0.034-0.654-0.154-0.881-0.577c-0.075-0.14-0.211-0.235-0.368-0.259
				c-0.157-0.02-0.314,0.029-0.426,0.142c-0.729,0.73-1.821,0.788-2.492,0.527C7.5,9.773,8.416,9,9.5,9z M7.007,11.852
				c0.885,0.268,2.016,0.159,2.911-0.464c0.326,0.324,0.763,0.54,1.257,0.613c0.12,0.018,0.24,0.026,0.357,0.026
				c0.156,0,0.304-0.02,0.448-0.049c-0.097,1.43-1.167,2.564-2.481,2.564C8.146,14.543,7.047,13.342,7.007,11.852z M5.598,17.206
				l2.539-0.726C8.352,16.419,8.5,16.224,8.5,16v-0.633c0.319,0.104,0.65,0.176,1,0.176s0.681-0.072,1-0.176V16
				c0,0.224,0.148,0.419,0.363,0.48l2.538,0.726C13.714,17.296,14,17.675,14,18H5C5,17.675,5.285,17.296,5.598,17.206z M17,21H2
				c-0.551,0-1-0.448-1-1v-1h17v0.912C18,20.512,17.551,21,17,21z"/>
		</g>
	</g>
</g>

</svg>
