<?xml version="1.0" encoding="utf-8"?>
<!-- Generator: Adobe Illustrator 16.0.3, SVG Export Plug-In . SVG Version: 6.00 Build 0)  -->
<!DOCTYPE svg PUBLIC "-//W3C//DTD SVG 1.1//EN" "http://www.w3.org/Graphics/SVG/1.1/DTD/svg11.dtd">
<svg version="1.1" xmlns="http://www.w3.org/2000/svg" xmlns:xlink="http://www.w3.org/1999/xlink" x="0px" y="0px" width="24px"
	 height="24px" viewBox="0 0 24 24" enable-background="new 0 0 24 24" xml:space="preserve">
<g id="Outline_Icons">
	<g>
		<path d="M14.5,14h-10C4.224,14,4,14.224,4,14.5S4.224,15,4.5,15h10c0.276,0,0.5-0.224,0.5-0.5S14.776,14,14.5,14z"/>
		<path d="M4.5,10C6.981,10,9,7.981,9,5.5S6.981,1,4.5,1S0,3.019,0,5.5S2.019,10,4.5,10z M4.5,2C6.43,2,8,3.57,8,5.5S6.43,9,4.5,9
			S1,7.43,1,5.5S2.57,2,4.5,2z"/>
		<path d="M13,10c1.654,0,3-1.346,3-3s-1.346-3-3-3s-3,1.346-3,3S11.346,10,13,10z M13,5c1.103,0,2,0.896,2,2c0,1.103-0.897,2-2,2
			s-2-0.897-2-2C11,5.896,11.897,5,13,5z"/>
		<path d="M23.505,12.49c-0.314-0.208-0.723-0.233-1.121-0.067L18,14.25V12.5c0-0.827-0.673-1.5-1.5-1.5h-14
			C1.673,11,1,11.673,1,12.5v8C1,21.327,1.673,22,2.5,22h14c0.827,0,1.5-0.673,1.5-1.5v-1.75l4.384,1.827
			c0.175,0.073,0.352,0.108,0.522,0.108c0.217,0,0.423-0.059,0.599-0.176C23.82,20.301,24,19.933,24,19.5v-6
			C24,13.067,23.82,12.7,23.505,12.49z M16.5,21h-14C2.224,21,2,20.776,2,20.5v-8C2,12.224,2.224,12,2.5,12h14
			c0.276,0,0.5,0.224,0.5,0.5v2.497c0,0.001,0,0.001,0,0.001v3.004v0.001V20.5C17,20.776,16.776,21,16.5,21z M23,19.5
			c0,0.106-0.029,0.164-0.049,0.177c-0.02,0.014-0.083,0.018-0.182-0.023L18,17.667v-2.334l4.77-1.986
			c0.098-0.041,0.162-0.037,0.181-0.023C22.971,13.336,23,13.394,23,13.5V19.5z"/>
	</g>
</g>

</svg>
