<?xml version="1.0" encoding="utf-8"?>
<!-- Generator: Adobe Illustrator 16.0.3, SVG Export Plug-In . SVG Version: 6.00 Build 0)  -->
<!DOCTYPE svg PUBLIC "-//W3C//DTD SVG 1.1//EN" "http://www.w3.org/Graphics/SVG/1.1/DTD/svg11.dtd">
<svg version="1.1" xmlns="http://www.w3.org/2000/svg" xmlns:xlink="http://www.w3.org/1999/xlink" x="0px" y="0px" width="24px"
	 height="24px" viewBox="0 0 24 24" enable-background="new 0 0 24 24" xml:space="preserve">
<g id="Outline_Icons">
	<g>
		<path d="M23.892,11.69c-0.207-0.262-4.965-6.162-11.106-6.643C12.527,5.018,12.266,5,12,5s-0.527,0.018-0.785,0.047
			C5.073,5.528,0.315,11.428,0.108,11.69c-0.145,0.182-0.145,0.438,0,0.621c0.207,0.262,4.965,6.161,11.106,6.643
			C11.473,18.982,11.734,19,12,19s0.527-0.018,0.785-0.047c6.142-0.481,10.899-6.38,11.106-6.643
			C24.036,12.128,24.036,11.872,23.892,11.69z M18,12c0,3.093-2.353,5.645-5.361,5.965C12.426,17.98,12.215,18,12,18
			s-0.427-0.02-0.639-0.035C8.352,17.645,6,15.093,6,12s2.352-5.645,5.361-5.965C11.573,6.02,11.785,6,12,6s0.427,0.02,0.639,0.035
			C15.647,6.355,18,8.907,18,12z M1.154,12c0.7-0.8,2.739-2.969,5.463-4.469C5.608,8.745,5,10.303,5,12
			c0,1.698,0.608,3.255,1.617,4.469C3.894,14.97,1.854,12.8,1.154,12z M17.379,16.473C18.39,15.259,19,13.7,19,12
			c0-1.697-0.608-3.255-1.617-4.469C20.106,9.03,22.146,11.2,22.846,12C22.146,12.801,20.106,14.975,17.379,16.473z"/>
		<path d="M11.5,7.501v0.687c-0.965,0.228-1.687,1.092-1.687,2.126c0,1.206,0.98,2.186,2.187,2.186c0.655,0,1.188,0.533,1.188,1.188
			c0,0.655-0.533,1.188-1.188,1.188c-0.654,0-1.187-0.533-1.187-1.188c0-0.276-0.224-0.5-0.5-0.5s-0.5,0.224-0.5,0.5
			c0,1.034,0.722,1.897,1.687,2.125V16.5c0,0.276,0.224,0.5,0.5,0.5s0.5-0.224,0.5-0.5v-0.688c0.966-0.228,1.688-1.091,1.688-2.125
			c0-1.206-0.981-2.188-2.188-2.188c-0.654,0-1.187-0.532-1.187-1.186c0-0.655,0.532-1.189,1.187-1.189
			c0.655,0,1.188,0.534,1.188,1.189c0,0.276,0.224,0.5,0.5,0.5s0.5-0.224,0.5-0.5c0-1.034-0.723-1.898-1.688-2.126V7.501
			c0-0.276-0.224-0.5-0.5-0.5S11.5,7.225,11.5,7.501z"/>
	</g>
</g>
<g id="Invisibla_Shape">
	<rect fill="none" width="24" height="24"/>
</g>
</svg>
