<?xml version="1.0" encoding="utf-8"?>
<!-- Generator: Adobe Illustrator 16.0.3, SVG Export Plug-In . SVG Version: 6.00 Build 0)  -->
<!DOCTYPE svg PUBLIC "-//W3C//DTD SVG 1.1//EN" "http://www.w3.org/Graphics/SVG/1.1/DTD/svg11.dtd">
<svg version="1.1" xmlns="http://www.w3.org/2000/svg" xmlns:xlink="http://www.w3.org/1999/xlink" x="0px" y="0px" width="24px"
	 height="24px" viewBox="0 0 24 24" enable-background="new 0 0 24 24" xml:space="preserve">
<g id="Outline_Icons">
	<g>
		<path d="M11.313,14.987c-0.012,0-0.024,0-0.037-0.001C5.097,14.537,0.309,8.575,0.108,8.322c-0.144-0.182-0.144-0.439,0-0.621
			C0.324,7.428,5.481,1.011,12,1.011s11.676,6.417,11.892,6.689c0.144,0.182,0.144,0.439,0,0.621
			c-0.059,0.075-1.471,1.847-3.745,3.559c-0.22,0.167-0.534,0.122-0.7-0.099s-0.122-0.534,0.099-0.7
			c1.623-1.223,2.802-2.497,3.3-3.069C21.736,6.743,17.248,2.011,12,2.011c-5.247,0-9.735,4.729-10.845,6
			c1.064,1.218,5.231,5.617,10.194,5.978c0.275,0.02,0.482,0.259,0.462,0.534C11.792,14.786,11.573,14.987,11.313,14.987z"/>
		<path d="M12,12.511c-2.481,0-4.5-2.018-4.5-4.5c0-2.481,2.019-4.5,4.5-4.5s4.5,2.019,4.5,4.5C16.5,10.493,14.481,12.511,12,12.511
			z M12,4.511c-1.93,0-3.5,1.57-3.5,3.5s1.57,3.5,3.5,3.5s3.5-1.57,3.5-3.5S13.93,4.511,12,4.511z"/>
		<path d="M12,10.511c-1.378,0-2.5-1.122-2.5-2.5c0-0.276,0.224-0.5,0.5-0.5s0.5,0.224,0.5,0.5c0,0.827,0.673,1.5,1.5,1.5
			s1.5-0.673,1.5-1.5s-0.673-1.5-1.5-1.5c-0.276,0-0.5-0.224-0.5-0.5s0.224-0.5,0.5-0.5c1.378,0,2.5,1.122,2.5,2.5
			S13.378,10.511,12,10.511z"/>
		<g>
			<path d="M21.5,24h-9c-0.276,0-0.5-0.224-0.5-0.5v-7c0-0.276,0.224-0.5,0.5-0.5h9c0.276,0,0.5,0.224,0.5,0.5v7
				C22,23.776,21.776,24,21.5,24z M13,23h8v-6h-8V23z"/>
			<path d="M17,22c-0.276,0-0.5-0.224-0.5-0.5v-2c0-0.276,0.224-0.5,0.5-0.5s0.5,0.224,0.5,0.5v2C17.5,21.776,17.276,22,17,22z"/>
			<path d="M20,17c-0.276,0-0.5-0.224-0.5-0.5v-1c0-1.378-1.122-2.5-2.5-2.5s-2.5,1.122-2.5,2.5v1c0,0.276-0.224,0.5-0.5,0.5
				s-0.5-0.224-0.5-0.5v-1c0-1.93,1.57-3.5,3.5-3.5s3.5,1.57,3.5,3.5v1C20.5,16.776,20.276,17,20,17z"/>
			<circle cx="17" cy="19" r="1"/>
		</g>
	</g>
</g>

</svg>
