<?xml version="1.0" encoding="utf-8"?>
<!-- Generator: Adobe Illustrator 16.0.3, SVG Export Plug-In . SVG Version: 6.00 Build 0)  -->
<!DOCTYPE svg PUBLIC "-//W3C//DTD SVG 1.1//EN" "http://www.w3.org/Graphics/SVG/1.1/DTD/svg11.dtd">
<svg version="1.1" xmlns="http://www.w3.org/2000/svg" xmlns:xlink="http://www.w3.org/1999/xlink" x="0px" y="0px" width="24px"
	 height="24px" viewBox="0 0 24 24" enable-background="new 0 0 24 24" xml:space="preserve">
<g id="Outline_Icons">
	<g>
		<circle cx="17" cy="14" r="1"/>
		<path d="M5.5,7h-1C4.224,7,4,7.224,4,7.5S4.224,8,4.5,8h1C5.776,8,6,7.776,6,7.5S5.776,7,5.5,7z"/>
		<path d="M8.5,7h-1C7.224,7,7,7.224,7,7.5S7.224,8,7.5,8h1C8.776,8,9,7.776,9,7.5S8.776,7,8.5,7z"/>
		<path d="M11.5,7h-1C10.224,7,10,7.224,10,7.5S10.224,8,10.5,8h1C11.776,8,12,7.776,12,7.5S11.776,7,11.5,7z"/>
		<path d="M13.5,8h1C14.776,8,15,7.776,15,7.5S14.776,7,14.5,7h-1C13.224,7,13,7.224,13,7.5S13.224,8,13.5,8z"/>
		<path d="M16.5,8h1C17.776,8,18,7.776,18,7.5S17.776,7,17.5,7h-1C16.224,7,16,7.224,16,7.5S16.224,8,16.5,8z"/>
		<path d="M5.5,20h-1C4.224,20,4,20.224,4,20.5S4.224,21,4.5,21h1C5.776,21,6,20.776,6,20.5S5.776,20,5.5,20z"/>
		<path d="M8.5,20h-1C7.224,20,7,20.224,7,20.5S7.224,21,7.5,21h1C8.776,21,9,20.776,9,20.5S8.776,20,8.5,20z"/>
		<path d="M11.5,20h-1c-0.276,0-0.5,0.224-0.5,0.5s0.224,0.5,0.5,0.5h1c0.276,0,0.5-0.224,0.5-0.5S11.776,20,11.5,20z"/>
		<path d="M14.5,20h-1c-0.276,0-0.5,0.224-0.5,0.5s0.224,0.5,0.5,0.5h1c0.276,0,0.5-0.224,0.5-0.5S14.776,20,14.5,20z"/>
		<path d="M16,20.5c0,0.276,0.224,0.5,0.5,0.5h1c0.276,0,0.5-0.224,0.5-0.5S17.776,20,17.5,20h-1C16.224,20,16,20.224,16,20.5z"/>
		<path d="M21.498,11H21V8.5c0-1.39-0.822-2.585-2-3.149V3.5C19,2.122,17.43,1,15.5,1h-12C1.57,1,0,2.57,0,4.5v15
			C0,21.43,1.57,23,3.5,23h14c1.93,0,3.5-1.57,3.5-3.5V17h0.498c1.379,0,2.5-1.122,2.5-2.5v-1C23.998,12.122,22.877,11,21.498,11z
			 M20,19.5c0,1.378-1.121,2.5-2.5,2.5h-14C2.121,22,1,20.878,1,19.5v-15C1,3.122,2.121,2,3.5,2h12C16.832,2,18,2.701,18,3.5v1.551
			C17.835,5.027,17.671,5,17.5,5h-14C3.032,5,3.008,4.583,3.008,4.5S3.032,4,3.5,4h12C15.776,4,16,3.776,16,3.5S15.776,3,15.5,3h-12
			C3.053,3,2.655,3.171,2.381,3.482C2.141,3.754,2.008,4.116,2.008,4.5C2.008,5.245,2.521,6,3.5,6h14C18.879,6,20,7.122,20,8.5V11
			h-3.502c-1.379,0-2.5,1.122-2.5,2.5v1c0,1.378,1.121,2.5,2.5,2.5H20V19.5z M22.998,14.5c0,0.827-0.673,1.5-1.5,1.5h-5
			c-0.827,0-1.5-0.673-1.5-1.5v-1c0-0.827,0.673-1.5,1.5-1.5h5c0.827,0,1.5,0.673,1.5,1.5V14.5z"/>
	</g>
</g>

</svg>
