<?xml version="1.0" encoding="utf-8"?>
<!-- Generator: Adobe Illustrator 16.0.3, SVG Export Plug-In . SVG Version: 6.00 Build 0)  -->
<!DOCTYPE svg PUBLIC "-//W3C//DTD SVG 1.1//EN" "http://www.w3.org/Graphics/SVG/1.1/DTD/svg11.dtd">
<svg version="1.1" xmlns="http://www.w3.org/2000/svg" xmlns:xlink="http://www.w3.org/1999/xlink" x="0px" y="0px" width="24px"
	 height="24px" viewBox="0 0 24 24" enable-background="new 0 0 24 24" xml:space="preserve">
<g id="Outline_Icons_1_">
	<g id="Outline_Icons">
		<g>
			<path d="M12,12.293V10c0-0.276-0.224-0.5-0.5-0.5S11,9.724,11,10v2.5c0,0.133,0.053,0.26,0.146,0.354l3,3
				c0.195,0.195,0.512,0.195,0.707,0c0.195-0.195,0.195-0.512,0-0.707L12,12.293z"/>
			<path d="M23.854,4.146l-4-4c-0.195-0.195-0.512-0.195-0.707,0l-2,2l-3.252,3.252C13.142,5.144,12.338,5,11.5,5
				C7.364,5,4,8.365,4,12.5c0,0.85,0.149,1.665,0.411,2.427l-4.262,4.218C0.053,19.238,0,19.367,0,19.5v4C0,23.776,0.224,24,0.5,24
				h4c0.132,0,0.259-0.052,0.353-0.146l4.264-4.249C9.866,19.858,10.666,20,11.5,20c4.136,0,7.5-3.364,7.5-7.5
				c0-0.838-0.144-1.641-0.398-2.395l3.252-3.252l2-2C24.049,4.659,24.049,4.342,23.854,4.146z M19.5,1.207L20.793,2.5L19.5,3.793
				L18.207,2.5L19.5,1.207z M4.293,23H1v-3.292l3.832-3.792c0.724,1.407,1.877,2.554,3.289,3.27L4.293,23z M11.5,19
				C7.916,19,5,16.084,5,12.5S7.916,6,11.5,6S18,8.916,18,12.5S15.084,19,11.5,19z M18.182,9.111
				c-0.721-1.417-1.876-2.572-3.293-3.293L17.5,3.207L20.793,6.5L18.182,9.111z M21.5,5.793L20.207,4.5L21.5,3.207L22.793,4.5
				L21.5,5.793z"/>
			<circle cx="3.5" cy="20.5" r="0.5"/>
			<circle cx="5" cy="19" r="0.5"/>
		</g>
	</g>
	<g id="New_icons_1_">
	</g>
</g>

</svg>
