<?xml version="1.0" encoding="utf-8"?>
<!-- Generator: Adobe Illustrator 16.0.3, SVG Export Plug-In . SVG Version: 6.00 Build 0)  -->
<!DOCTYPE svg PUBLIC "-//W3C//DTD SVG 1.1//EN" "http://www.w3.org/Graphics/SVG/1.1/DTD/svg11.dtd">
<svg version="1.1" xmlns="http://www.w3.org/2000/svg" xmlns:xlink="http://www.w3.org/1999/xlink" x="0px" y="0px" width="24px"
	 height="24px" viewBox="0 0 24 24" enable-background="new 0 0 24 24" xml:space="preserve">
<g id="Outline_Icons">
	<g>
		<path d="M22.459,9.271l-1.821-4.215C20.522,4.791,20.371,4.55,20.2,4.327l1.743-2.544c0.114-0.167,0.117-0.386,0.007-0.555
			c-0.109-0.17-0.314-0.254-0.51-0.219l-1.866,0.346l-1.785-1.262c-0.172-0.121-0.401-0.123-0.573-0.003l-1.831,1.268l-1.798-0.318
			c-0.189-0.036-0.383,0.045-0.495,0.204C12.979,1.4,12.97,1.609,13.065,1.777l1.536,2.708C14.223,5.04,14,5.709,14,6.43
			c0,1.407-1.642,2.54-3,2.54c-3.409,0-7.04-5.708-7.077-5.766C3.805,3.015,3.575,2.925,3.361,2.989C3.147,3.051,3,3.247,3,3.469
			v5.984c0,0.341,0.025,0.674,0.064,1.004c0,0.002-0.001,0.004-0.001,0.007c0,0.016,0.008,0.03,0.009,0.045
			c0.093,0.739,0.277,1.449,0.547,2.117c0.007,0.02,0.013,0.039,0.021,0.057C4.854,15.63,7.673,17.74,11,17.936v2.049L8.053,19.98
			l-1.119-1.777c-0.092-0.145-0.251-0.233-0.423-0.233H2.5c-0.173,0-0.334,0.09-0.426,0.237c-0.091,0.147-0.099,0.332-0.021,0.486
			l0.639,1.278l-0.69-0.001H2c-0.275,0-0.499,0.223-0.5,0.5c0,0.276,0.223,0.5,0.499,0.5l0.691,0.001l-0.638,1.275
			c-0.077,0.155-0.069,0.339,0.021,0.486c0.092,0.147,0.253,0.237,0.426,0.237h4.011c0.172,0,0.331-0.088,0.423-0.233L8.04,20.98
			L11,20.985v2.505c0,0.276,0.224,0.5,0.5,0.5s0.5-0.224,0.5-0.5v-2.503l6.064,0.011l-1.344,1.063
			c-0.216,0.172-0.253,0.486-0.082,0.703c0.1,0.125,0.245,0.19,0.393,0.19c0.109,0,0.219-0.035,0.311-0.108l2.469-1.953
			c0.007-0.005,0.01-0.015,0.017-0.021c0.035-0.031,0.062-0.068,0.088-0.108c0.012-0.02,0.028-0.035,0.037-0.056
			c0.026-0.057,0.041-0.12,0.044-0.186c0-0.006,0.004-0.011,0.004-0.017c0,0,0,0,0,0c0-0.001,0-0.001,0-0.002
			c0-0.073-0.018-0.142-0.046-0.205c-0.008-0.018-0.022-0.031-0.032-0.048c-0.026-0.042-0.055-0.083-0.092-0.117
			c-0.006-0.005-0.008-0.014-0.015-0.019l-2.5-2.031c-0.214-0.174-0.529-0.143-0.703,0.072c-0.175,0.214-0.142,0.529,0.072,0.704
			l1.403,1.14L12,19.987v-2.052c4.149-0.268,7.716-3.819,7.983-7.965H22c0.168,0,0.325-0.084,0.418-0.226S22.525,9.425,22.459,9.271
			z M6.234,18.969l0.63,1H3.809l-0.5-1H6.234z M6.234,21.969H3.309l0.498-0.996l3.053,0.004L6.234,21.969z M15.413,2.377
			c0.127,0.023,0.263-0.006,0.371-0.081l1.713-1.186l1.672,1.183c0.11,0.077,0.246,0.106,0.38,0.083l0.889-0.165l-0.966,1.41
			C18.896,3.21,18.2,2.969,17.461,2.969c-0.811,0-1.548,0.292-2.139,0.761l-0.863-1.522L15.413,2.377z M19.5,8.969
			c-0.276,0-0.5,0.224-0.5,0.5c0,3.537-3.207,7.492-7.5,7.492c-2.867,0-5.36-1.62-6.622-3.992H7.5c0.276,0,0.5-0.224,0.5-0.5
			s-0.224-0.5-0.5-0.5H4.442c-0.116-0.326-0.219-0.659-0.289-1.003l2.346,0.003H6.5c0.275,0,0.5-0.223,0.5-0.499
			c0-0.277-0.223-0.501-0.499-0.501L4.026,9.965C4.015,9.795,4,9.626,4,9.453V8.969h1.5c0.276,0,0.5-0.224,0.5-0.5
			s-0.224-0.5-0.5-0.5H4V5.05c1.391,1.833,4.154,4.919,7,4.919c1.889,0,4-1.514,4-3.54c0-1.357,1.104-2.46,2.461-2.46
			c0.982,0,1.869,0.583,2.259,1.484l1.52,3.516H19.5z"/>
		<path d="M17.5,5.219c-0.827,0-1.5,0.673-1.5,1.5s0.673,1.5,1.5,1.5s1.5-0.673,1.5-1.5S18.327,5.219,17.5,5.219z M17.5,7.219
			c-0.275,0-0.5-0.224-0.5-0.5s0.225-0.5,0.5-0.5s0.5,0.224,0.5,0.5S17.775,7.219,17.5,7.219z"/>
	</g>
</g>

</svg>
