<?xml version="1.0" encoding="utf-8"?>
<!-- Generator: Adobe Illustrator 16.0.3, SVG Export Plug-In . SVG Version: 6.00 Build 0)  -->
<!DOCTYPE svg PUBLIC "-//W3C//DTD SVG 1.1//EN" "http://www.w3.org/Graphics/SVG/1.1/DTD/svg11.dtd">
<svg version="1.1" xmlns="http://www.w3.org/2000/svg" xmlns:xlink="http://www.w3.org/1999/xlink" x="0px" y="0px" width="24px"
	 height="24px" viewBox="0 0 24 24" enable-background="new 0 0 24 24" xml:space="preserve">
<g id="Outline_Icons">
	<g>
		<path d="M17.685,10.07c-4.428,0-6.065,3.31-7.381,5.969c-1.028,2.079-1.726,3.354-3.028,3.354c-0.677,0-1.196-0.198-1.587-0.605
			c-0.624-0.649-0.759-1.67-0.786-2.167c0.619-0.319,1.941-1.143,2.1-2.419c0.04-0.32-0.101-0.632-0.368-0.815
			c-0.259-0.177-0.607-0.198-0.896-0.044c-1.588,0.87-3.054,0.896-4.442,0.067c-0.277-0.164-0.643-0.153-0.914,0.026
			c-0.275,0.184-0.422,0.514-0.373,0.839c0.201,1.396,1.432,2.104,2.071,2.381c-0.048,1.074-0.022,4.108,1.628,5.932
			C4.557,23.524,5.698,24,7.101,24h10.561c3.464,0,6.282-2.809,6.282-6.26v-1.434C23.943,12.868,21.136,10.07,17.685,10.07z
			 M22.943,17.74c0,0.805-0.197,1.559-0.522,2.241c-1.186-0.045-2.118-0.329-2.624-0.835c-0.195-0.195-0.512-0.195-0.707,0
			s-0.195,0.512,0,0.707c0.603,0.603,1.545,0.965,2.732,1.088C20.855,22.185,19.358,23,17.661,23H7.101
			c-1.123,0-1.989-0.354-2.649-1.082c-1.69-1.865-1.354-5.514-1.35-5.551c0.023-0.238-0.127-0.461-0.357-0.528
			c-0.014-0.005-1.313-0.397-1.672-1.409c1.522,0.797,3.165,0.778,4.86-0.062c-0.301,0.739-1.315,1.305-1.728,1.477
			c-0.179,0.074-0.3,0.246-0.308,0.439c-0.004,0.081-0.076,1.997,1.064,3.19c0.583,0.609,1.36,0.918,2.313,0.918
			c1.99,0,2.93-1.899,3.925-3.91c1.255-2.537,2.678-5.412,6.484-5.412c2.899,0,5.259,2.349,5.259,5.236V17.74z"/>
		<path d="M14.111,9.082c0.052,0.017,0.105,0.025,0.158,0.025c0.156,0,0.307-0.073,0.402-0.204c0.241-0.326,2.334-3.243,1.783-4.977
			c-0.298-0.937-1.075-1.541-1.979-1.541c-0.52,0-0.999,0.207-1.35,0.584c-0.15,0.161-0.311,0.391-0.423,0.705
			c-0.438-0.308-0.859-0.37-1.13-0.37c-0.588,0-1.152,0.293-1.511,0.783c-0.399,0.546-0.501,1.26-0.279,1.959
			C10.335,7.778,13.727,8.953,14.111,9.082z M10.869,4.678c0.174-0.236,0.43-0.373,0.704-0.373c0.387,0,0.764,0.271,1.062,0.764
			c0.119,0.198,0.362,0.289,0.579,0.218c0.221-0.07,0.364-0.282,0.348-0.513c-0.035-0.488,0.067-0.876,0.296-1.122
			c0.16-0.172,0.379-0.266,0.618-0.266c0.35,0,0.828,0.221,1.026,0.844c0.273,0.861-0.656,2.655-1.423,3.78
			c-1.274-0.477-3.068-1.403-3.343-2.266C10.61,5.347,10.657,4.968,10.869,4.678z"/>
		<path d="M5.587,6.645C5.675,6.708,5.777,6.74,5.881,6.74s0.206-0.032,0.294-0.096C6.538,6.381,8.35,5,8.35,3.747
			c0-0.993-0.75-1.587-1.475-1.587c-0.327,0-0.696,0.121-0.994,0.421C5.583,2.281,5.214,2.16,4.887,2.16
			c-0.725,0-1.475,0.594-1.475,1.587C3.412,5,5.224,6.381,5.587,6.645z M4.887,3.16c0.234,0,0.419,0.212,0.508,0.582
			c0.054,0.225,0.255,0.383,0.486,0.383s0.432-0.158,0.486-0.383C6.456,3.372,6.642,3.16,6.875,3.16c0.23,0,0.475,0.206,0.475,0.587
			c0,0.477-0.794,1.311-1.469,1.861C5.206,5.058,4.412,4.224,4.412,3.747C4.412,3.366,4.657,3.16,4.887,3.16z"/>
		<path d="M18.762,5.64c0.034,0.005,0.853,0.133,1.804,0.133c0.001,0,0.001,0,0.001,0c1.343,0,2.28-0.256,2.785-0.761
			c0.581-0.581,0.762-1.378,0.471-2.079c-0.287-0.693-0.983-1.098-1.743-1.027c0.034-0.363-0.033-0.711-0.204-1.017
			c-0.538-0.96-2.027-1.127-2.9-0.254c-1.136,1.136-0.684,4.238-0.629,4.589C18.38,5.438,18.548,5.605,18.762,5.64z M19.682,1.342
			c0.259-0.258,0.519-0.312,0.69-0.312c0.269,0,0.51,0.133,0.63,0.348c0.155,0.277,0.102,0.657-0.152,1.07
			c-0.12,0.197-0.09,0.452,0.073,0.615s0.418,0.191,0.614,0.073c0.255-0.156,0.505-0.239,0.722-0.239
			c0.421,0,0.588,0.293,0.64,0.419c0.104,0.251,0.092,0.644-0.254,0.989c-0.297,0.297-1.055,0.468-2.078,0.468
			c-0.504,0-0.975-0.04-1.282-0.074C19.15,3.545,19.154,1.869,19.682,1.342z"/>
		<path d="M19.5,14c-0.276,0-0.5,0.224-0.5,0.5V15c0,0.276,0.224,0.5,0.5,0.5S20,15.276,20,15v-0.5C20,14.224,19.776,14,19.5,14z"/>
	</g>
</g>

</svg>
