<?xml version="1.0" encoding="utf-8"?>
<!-- Generator: Adobe Illustrator 16.0.3, SVG Export Plug-In . SVG Version: 6.00 Build 0)  -->
<!DOCTYPE svg PUBLIC "-//W3C//DTD SVG 1.1//EN" "http://www.w3.org/Graphics/SVG/1.1/DTD/svg11.dtd">
<svg version="1.1" xmlns="http://www.w3.org/2000/svg" xmlns:xlink="http://www.w3.org/1999/xlink" x="0px" y="0px" width="24px"
	 height="24px" viewBox="0 0 24 24" enable-background="new 0 0 24 24" xml:space="preserve">
<g id="Outline_Icons">
	<g>
		<path d="M19.5,19c-0.552,0-1,0.448-1,1c0,0.365,0.207,0.672,0.5,0.847V21.5c0,0.276,0.224,0.5,0.5,0.5s0.5-0.224,0.5-0.5v-0.653
			c0.293-0.175,0.5-0.481,0.5-0.847C20.5,19.448,20.052,19,19.5,19z"/>
		<path d="M23.5,17H23v-0.5c0-1.93-1.57-3.5-3.5-3.5S16,14.57,16,16.5V17h-0.5c-0.276,0-0.5,0.224-0.5,0.5v6
			c0,0.276,0.224,0.5,0.5,0.5h8c0.276,0,0.5-0.224,0.5-0.5v-6C24,17.224,23.776,17,23.5,17z M17,16.5c0-1.379,1.121-2.5,2.5-2.5
			s2.5,1.121,2.5,2.5V17h-5V16.5z M23,23h-7v-5h7V23z"/>
		<path d="M17.989,4.557c0.098,0.098,0.226,0.146,0.354,0.146s0.256-0.049,0.354-0.146c0.195-0.195,0.195-0.512,0-0.707
			c-5.077-5.077-13.341-5.077-18.422,0c-0.195,0.195-0.195,0.512,0,0.707s0.512,0.195,0.707,0C5.673-0.13,13.302-0.132,17.989,4.557
			z"/>
		<path d="M9.486,8.984c-1.128,0-2.255,0.322-3.231,0.965c-0.325,0.215-0.634,0.465-0.92,0.751c-0.195,0.195-0.195,0.512,0,0.707
			s0.512,0.195,0.707,0c1.898-1.896,4.988-1.896,6.887,0c0.098,0.098,0.226,0.146,0.354,0.146s0.256-0.049,0.354-0.146
			c0.195-0.195,0.195-0.512,0-0.707C12.492,9.557,10.989,8.984,9.486,8.984z"/>
		<path d="M7.824,5.67c0.089-0.018,0.18-0.025,0.27-0.039c0.456-0.076,0.92-0.123,1.392-0.123c0,0,0.001,0,0.002,0
			c2.255,0,4.376,0.879,5.972,2.475c0.098,0.098,0.226,0.146,0.354,0.146s0.256-0.049,0.354-0.146c0.195-0.195,0.195-0.512,0-0.707
			c-1.75-1.75-4.065-2.723-6.533-2.761C9.585,4.514,9.537,4.508,9.488,4.508H9.487c-0.001,0-0.001,0-0.001,0
			c-0.002,0-0.002,0-0.002,0c-0.094,0-0.185,0.011-0.277,0.014c-2.418,0.07-4.684,1.035-6.401,2.754
			c-0.195,0.195-0.195,0.512,0,0.707s0.512,0.195,0.707,0C4.676,6.82,6.12,6.043,7.69,5.703C7.735,5.693,7.779,5.68,7.824,5.67z"/>
		<path d="M9.485,13.455c-1.262,0-2.289,1.027-2.289,2.289c0,1.263,1.027,2.29,2.289,2.29s2.289-1.027,2.289-2.29
			C11.774,14.482,10.747,13.455,9.485,13.455z M9.485,17.034c-0.711,0-1.289-0.579-1.289-1.29s0.578-1.289,1.289-1.289
			s1.289,0.578,1.289,1.289S10.196,17.034,9.485,17.034z"/>
	</g>
</g>

</svg>
