<?xml version="1.0" encoding="utf-8"?>
<!-- Generator: Adobe Illustrator 16.0.3, SVG Export Plug-In . SVG Version: 6.00 Build 0)  -->
<!DOCTYPE svg PUBLIC "-//W3C//DTD SVG 1.1//EN" "http://www.w3.org/Graphics/SVG/1.1/DTD/svg11.dtd">
<svg version="1.1" xmlns="http://www.w3.org/2000/svg" xmlns:xlink="http://www.w3.org/1999/xlink" x="0px" y="0px" width="24px"
	 height="24px" viewBox="0 0 24 24" enable-background="new 0 0 24 24" xml:space="preserve">
<g id="Outline_Icons">
	<g>
		<path d="M18,14h-1v-0.5c0-0.276-0.224-0.5-0.5-0.5h-10C6.224,13,6,13.224,6,13.5v6c0,2.481,2.019,4.5,4.5,4.5h2
			c2.311,0,4.197-1.756,4.449-4H18c1.654,0,3-1.346,3-3S19.654,14,18,14z M12.5,23h-2C8.57,23,7,21.43,7,19.5V14h9v5.5
			C16,21.43,14.43,23,12.5,23z M18,19h-1v-4h1c1.103,0,2,0.897,2,2S19.103,19,18,19z"/>
		<path d="M20.004,4.557c0.098,0.098,0.226,0.146,0.354,0.146s0.256-0.049,0.354-0.146c0.195-0.195,0.195-0.512,0-0.707
			c-5.078-5.078-13.344-5.078-18.422,0c-0.195,0.195-0.195,0.512,0,0.707s0.512,0.195,0.707,0
			C7.686-0.133,15.314-0.133,20.004,4.557z"/>
		<path d="M11.499,5.508h0.003c2.255,0,4.376,0.879,5.971,2.475c0.098,0.098,0.226,0.146,0.354,0.146s0.256-0.049,0.354-0.146
			c0.195-0.195,0.195-0.512,0-0.707c-1.784-1.785-4.155-2.768-6.678-2.768h-0.003h-0.001c-0.049,0-0.098,0.006-0.146,0.008
			c-2.467,0.037-4.782,1.01-6.531,2.76c-0.195,0.195-0.195,0.512,0,0.707C4.918,8.08,5.046,8.129,5.174,8.129S5.43,8.08,5.527,7.982
			c1.396-1.396,3.194-2.243,5.133-2.434C10.938,5.521,11.217,5.508,11.499,5.508z"/>
		<path d="M7.35,10.7c-0.195,0.195-0.195,0.512,0,0.707s0.512,0.195,0.707,0c1.898-1.898,4.988-1.898,6.887,0
			c0.098,0.098,0.226,0.146,0.354,0.146s0.256-0.049,0.354-0.146c0.195-0.195,0.195-0.512,0-0.707
			C13.361,8.413,9.639,8.413,7.35,10.7z"/>
	</g>
</g>

</svg>
