<?xml version="1.0" encoding="utf-8"?>
<!-- Generator: Adobe Illustrator 16.0.3, SVG Export Plug-In . SVG Version: 6.00 Build 0)  -->
<!DOCTYPE svg PUBLIC "-//W3C//DTD SVG 1.1//EN" "http://www.w3.org/Graphics/SVG/1.1/DTD/svg11.dtd">
<svg version="1.1" xmlns="http://www.w3.org/2000/svg" xmlns:xlink="http://www.w3.org/1999/xlink" x="0px" y="0px" width="24px"
	 height="24px" viewBox="0 0 24 24" enable-background="new 0 0 24 24" xml:space="preserve">
<g id="Outline_Icons">
	<g>
		<path d="M23.695,18.769l-0.763-0.44c0.09-0.562,0.09-1.093,0-1.655l0.765-0.441c0.115-0.066,0.198-0.175,0.233-0.304
			c0.034-0.128,0.016-0.264-0.051-0.379l-1.5-2.598c-0.138-0.239-0.444-0.32-0.683-0.184l-0.775,0.447
			c-0.426-0.339-0.902-0.611-1.422-0.814v-0.9c0-0.276-0.224-0.5-0.5-0.5h-3c-0.276,0-0.5,0.224-0.5,0.5v0.9
			c-0.52,0.203-0.996,0.476-1.422,0.814l-0.775-0.447c-0.238-0.136-0.545-0.056-0.683,0.184l-1.5,2.598
			c-0.066,0.115-0.085,0.251-0.051,0.379c0.035,0.129,0.118,0.237,0.233,0.304l0.765,0.441c-0.09,0.562-0.09,1.094,0,1.655
			l-0.763,0.44c-0.239,0.138-0.321,0.443-0.183,0.683l1.5,2.598c0.137,0.238,0.442,0.318,0.683,0.184l0.773-0.446
			c0.427,0.34,0.903,0.612,1.422,0.813v0.9c0,0.276,0.224,0.5,0.5,0.5h3c0.276,0,0.5-0.224,0.5-0.5v-0.9
			c0.519-0.201,0.995-0.474,1.422-0.813l0.773,0.446c0.24,0.136,0.546,0.056,0.683-0.184l1.5-2.598
			C24.017,19.212,23.935,18.906,23.695,18.769z M21.887,18.475c-0.047,0.213,0.049,0.433,0.238,0.541l0.638,0.368l-1.001,1.732
			l-0.646-0.373c-0.189-0.108-0.427-0.082-0.587,0.064c-0.478,0.437-1.043,0.76-1.681,0.962c-0.207,0.065-0.349,0.259-0.349,0.477
			V23h-2v-0.754c0-0.218-0.142-0.411-0.349-0.477c-0.638-0.202-1.203-0.525-1.681-0.962c-0.159-0.146-0.397-0.173-0.587-0.064
			l-0.646,0.373l-1.001-1.732l0.638-0.368c0.189-0.108,0.285-0.328,0.238-0.541c-0.149-0.673-0.149-1.273,0-1.948
			c0.047-0.213-0.049-0.433-0.238-0.541l-0.64-0.369l1.001-1.732l0.647,0.374c0.189,0.109,0.427,0.082,0.588-0.064
			c0.475-0.436,1.04-0.76,1.68-0.963c0.208-0.066,0.349-0.259,0.349-0.477V12h2v0.754c0,0.218,0.141,0.41,0.349,0.477
			c0.64,0.203,1.205,0.527,1.68,0.963c0.161,0.146,0.398,0.174,0.588,0.064l0.647-0.374l1.001,1.732l-0.64,0.369
			c-0.189,0.108-0.285,0.328-0.238,0.541C22.036,17.201,22.036,17.802,21.887,18.475z"/>
		<path d="M17.5,15c-1.379,0-2.5,1.121-2.5,2.5s1.121,2.5,2.5,2.5s2.5-1.121,2.5-2.5S18.879,15,17.5,15z M17.5,19
			c-0.827,0-1.5-0.673-1.5-1.5s0.673-1.5,1.5-1.5s1.5,0.673,1.5,1.5S18.327,19,17.5,19z"/>
		<circle cx="3.5" cy="2.5" r="0.5"/>
		<circle cx="5.5" cy="2.5" r="0.5"/>
		<circle cx="7.5" cy="2.5" r="0.5"/>
		<path d="M9.5,16h-7C1.673,16,1,15.327,1,14.5V5h19v5c0,0.276,0.224,0.5,0.5,0.5S21,10.276,21,10V2.5C21,1.121,19.879,0,18.5,0h-16
			C1.121,0,0,1.121,0,2.5v12C0,15.879,1.121,17,2.5,17h7c0.276,0,0.5-0.224,0.5-0.5S9.776,16,9.5,16z M2.5,1h16
			C19.327,1,20,1.673,20,2.5V4H1V2.5C1,1.673,1.673,1,2.5,1z"/>
	</g>
</g>

</svg>
