<?xml version="1.0" encoding="utf-8"?>
<!-- Generator: Adobe Illustrator 16.0.3, SVG Export Plug-In . SVG Version: 6.00 Build 0)  -->
<!DOCTYPE svg PUBLIC "-//W3C//DTD SVG 1.1//EN" "http://www.w3.org/Graphics/SVG/1.1/DTD/svg11.dtd">
<svg version="1.1" xmlns="http://www.w3.org/2000/svg" xmlns:xlink="http://www.w3.org/1999/xlink" x="0px" y="0px" width="24px"
	 height="24px" viewBox="0 0 24 24" enable-background="new 0 0 24 24" xml:space="preserve">
<g id="Outline_Icons">
	<g>
		<circle cx="3.5" cy="2.502" r="0.5"/>
		<circle cx="5.5" cy="2.502" r="0.5"/>
		<circle cx="7.5" cy="2.502" r="0.5"/>
		<path d="M9.5,16h-7C1.673,16,1,15.328,1,14.502V5h19v5.5c0,0.276,0.224,0.5,0.5,0.5s0.5-0.224,0.5-0.5V2.502
			C21,1.122,19.879,0,18.5,0h-16C1.121,0,0,1.122,0,2.502v12C0,15.879,1.121,17,2.5,17h7c0.276,0,0.5-0.224,0.5-0.5S9.776,16,9.5,16
			z M2.5,1h16C19.327,1,20,1.674,20,2.502V4H1V2.502C1,1.674,1.673,1,2.5,1z"/>
		<path d="M23.854,14.646l-2.5-2.5c-0.195-0.195-0.512-0.195-0.707,0l-7.502,7.501c-0.057,0.057-0.093,0.125-0.116,0.197
			c-0.002,0.007-0.009,0.012-0.011,0.019l-1,3.5c-0.05,0.175-0.002,0.363,0.127,0.491C12.239,23.948,12.367,24,12.498,24
			c0.046,0,0.092-0.006,0.138-0.02l3.5-1c0.007-0.002,0.012-0.009,0.019-0.011c0.071-0.024,0.141-0.06,0.197-0.116l7.502-7.501
			C23.947,15.259,24,15.132,24,14.999S23.947,14.739,23.854,14.646z M15.998,21.793L14.205,20L19,15.206l1.793,1.793L15.998,21.793z
			 M13.745,20.954l1.299,1.299l-1.818,0.52L13.745,20.954z M21.5,16.292l-1.793-1.793L21,13.206l1.793,1.793L21.5,16.292z"/>
	</g>
</g>

</svg>
