<?xml version="1.0" encoding="utf-8"?>
<!-- Generator: Adobe Illustrator 16.0.3, SVG Export Plug-In . SVG Version: 6.00 Build 0)  -->
<!DOCTYPE svg PUBLIC "-//W3C//DTD SVG 1.1//EN" "http://www.w3.org/Graphics/SVG/1.1/DTD/svg11.dtd">
<svg version="1.1" xmlns="http://www.w3.org/2000/svg" xmlns:xlink="http://www.w3.org/1999/xlink" x="0px" y="0px" width="24px"
	 height="24px" viewBox="0 0 24 24" enable-background="new 0 0 24 24" xml:space="preserve">
<g id="Outline_Icons">
	<path d="M22.854,12.646L16.957,6.75l5.896-5.896c0.143-0.143,0.186-0.358,0.108-0.545C22.885,0.122,22.702,0,22.5,0H13
		c-0.133,0-0.26,0.053-0.354,0.146L6.75,6.043L0.854,0.146C0.71,0.003,0.497-0.038,0.309,0.038C0.122,0.115,0,0.298,0,0.5V10
		c0,0.133,0.053,0.26,0.146,0.354l5.896,5.896l-5.896,5.896c-0.143,0.143-0.186,0.358-0.108,0.545C0.115,22.878,0.298,23,0.5,23H10
		c0.133,0,0.26-0.053,0.354-0.146l5.896-5.896l5.896,5.896C22.242,22.949,22.37,23,22.5,23c0.064,0,0.129-0.013,0.191-0.038
		C22.878,22.885,23,22.702,23,22.5V13C23,12.867,22.947,12.74,22.854,12.646z M19.793,11h-7.086l3.543-3.543L19.793,11z M13.207,1
		h8.086L12,10.293V2.207L13.207,1z M11,3.207v7.086L7.457,6.75L11,3.207z M1,1.707L10.293,11H2.207L1,9.793V1.707z M3.207,12h7.086
		L6.75,15.543L3.207,12z M9.793,22H1.707L11,12.707v8.086L9.793,22z M12,19.793v-7.086l3.543,3.543L12,19.793z M22,21.293L12.707,12
		h8.086L22,13.207V21.293z"/>
</g>

</svg>
