<?xml version="1.0" encoding="utf-8"?>
<!-- Generator: Adobe Illustrator 16.0.3, SVG Export Plug-In . SVG Version: 6.00 Build 0)  -->
<!DOCTYPE svg PUBLIC "-//W3C//DTD SVG 1.1//EN" "http://www.w3.org/Graphics/SVG/1.1/DTD/svg11.dtd">
<svg version="1.1" xmlns="http://www.w3.org/2000/svg" xmlns:xlink="http://www.w3.org/1999/xlink" x="0px" y="0px" width="24px"
	 height="24px" viewBox="0 0 24 24" enable-background="new 0 0 24 24" xml:space="preserve">
<g id="Outline_Icons">
	<g>
		<path d="M23.97,16.33C23.898,16.132,23.711,16,23.5,16h-3.19l-1.854-3.723c-0.168-0.34-0.727-0.34-0.895,0L15.706,16H12.5
			c-0.211,0-0.398,0.132-0.471,0.33c-0.071,0.198-0.011,0.42,0.151,0.555l2.752,2.282l-1.392,4.175
			c-0.067,0.204,0.002,0.429,0.174,0.558c0.171,0.13,0.405,0.134,0.584,0.013l3.709-2.545l3.709,2.545
			C21.803,23.971,21.901,24,22,24c0.106,0,0.212-0.033,0.301-0.101c0.172-0.129,0.241-0.354,0.174-0.558l-1.393-4.176l2.738-2.282
			C23.981,16.749,24.042,16.527,23.97,16.33z M20.18,18.616c-0.158,0.132-0.219,0.347-0.154,0.542l1.029,3.087l-2.764-1.896
			c-0.086-0.059-0.185-0.088-0.283-0.088s-0.197,0.029-0.283,0.088l-2.764,1.896l1.029-3.087c0.065-0.195,0.003-0.411-0.155-0.543
			L13.887,17h2.129c0.189,0,0.363-0.107,0.447-0.277l1.545-3.102l1.545,3.102C19.637,16.893,19.811,17,20,17h2.119L20.18,18.616z"/>
		<circle cx="3.5" cy="2.5" r="0.5"/>
		<circle cx="5.5" cy="2.5" r="0.5"/>
		<circle cx="7.5" cy="2.5" r="0.5"/>
		<path d="M9.5,16h-7C1.673,16,1,15.327,1,14.5V5h19v5.5c0,0.276,0.224,0.5,0.5,0.5s0.5-0.224,0.5-0.5v-8C21,1.121,19.879,0,18.5,0
			h-16C1.121,0,0,1.121,0,2.5v12C0,15.879,1.121,17,2.5,17h7c0.276,0,0.5-0.224,0.5-0.5S9.776,16,9.5,16z M2.5,1h16
			C19.327,1,20,1.673,20,2.5V4H1V2.5C1,1.673,1.673,1,2.5,1z"/>
	</g>
</g>

</svg>
