<?xml version="1.0" encoding="utf-8"?>
<!-- Generator: Adobe Illustrator 16.0.3, SVG Export Plug-In . SVG Version: 6.00 Build 0)  -->
<!DOCTYPE svg PUBLIC "-//W3C//DTD SVG 1.1//EN" "http://www.w3.org/Graphics/SVG/1.1/DTD/svg11.dtd">
<svg version="1.1" xmlns="http://www.w3.org/2000/svg" xmlns:xlink="http://www.w3.org/1999/xlink" x="0px" y="0px" width="24px"
	 height="24px" viewBox="0 0 24 24" enable-background="new 0 0 24 24" xml:space="preserve">
<g id="Outline_Icons">
	<g>
		<path d="M8.5,0h-6C1.121,0,0,1.121,0,2.5v6C0,9.879,1.121,11,2.5,11h6C9.879,11,11,9.879,11,8.5v-6C11,1.121,9.879,0,8.5,0z
			 M2.5,1h6C9.327,1,10,1.673,10,2.5V3H1V2.5C1,1.673,1.673,1,2.5,1z M8.5,10h-6C1.673,10,1,9.327,1,8.5V4h9v4.5
			C10,9.327,9.327,10,8.5,10z"/>
		<path d="M21.5,0h-6C14.121,0,13,1.121,13,2.5v6c0,1.379,1.121,2.5,2.5,2.5h6c1.379,0,2.5-1.121,2.5-2.5v-6
			C24,1.121,22.879,0,21.5,0z M15.5,1h6C22.327,1,23,1.673,23,2.5V3h-9V2.5C14,1.673,14.673,1,15.5,1z M21.5,10h-6
			C14.673,10,14,9.327,14,8.5V4h9v4.5C23,9.327,22.327,10,21.5,10z"/>
		<path d="M8.5,13h-6C1.121,13,0,14.121,0,15.5v6C0,22.879,1.121,24,2.5,24h6c1.379,0,2.5-1.121,2.5-2.5v-6
			C11,14.121,9.879,13,8.5,13z M2.5,14h6c0.827,0,1.5,0.673,1.5,1.5V16H1v-0.5C1,14.673,1.673,14,2.5,14z M8.5,23h-6
			C1.673,23,1,22.327,1,21.5V17h9v4.5C10,22.327,9.327,23,8.5,23z"/>
		<path d="M21.5,13h-6c-1.379,0-2.5,1.121-2.5,2.5v6c0,1.379,1.121,2.5,2.5,2.5h6c1.379,0,2.5-1.121,2.5-2.5v-6
			C24,14.121,22.879,13,21.5,13z M15.5,14h6c0.827,0,1.5,0.673,1.5,1.5V16h-9v-0.5C14,14.673,14.673,14,15.5,14z M21.5,23h-6
			c-0.827,0-1.5-0.673-1.5-1.5V17h9v4.5C23,22.327,22.327,23,21.5,23z"/>
	</g>
</g>

</svg>
