<?xml version="1.0" encoding="utf-8"?>
<!-- Generator: Adobe Illustrator 19.2.1, SVG Export Plug-In . SVG Version: 6.00 Build 0)  -->
<svg version="1.1" xmlns="http://www.w3.org/2000/svg" xmlns:xlink="http://www.w3.org/1999/xlink" x="0px" y="0px" width="24px"
	 height="24px" viewBox="0 0 24 24" enable-background="new 0 0 24 24" xml:space="preserve">
<g id="Outline_Icons_1_">
	<g id="Outline_Icons">
		<g>
			<path d="M23.854,23.147l-3.847-3.862C20.619,18.517,21,17.557,21,16.5c0-2.481-2.019-4.5-4.5-4.5S12,14.019,12,16.5
				s2.019,4.5,4.5,4.5c1.064,0,2.03-0.387,2.801-1.006l3.845,3.859c0.195,0.196,0.511,0.196,0.707,0.001
				C24.048,23.659,24.049,23.343,23.854,23.147z M13,16.5c0-1.93,1.57-3.5,3.5-3.5s3.5,1.57,3.5,3.5S18.43,20,16.5,20
				S13,18.43,13,16.5z"/>
			<path d="M18.5,16h-4c-0.276,0-0.5,0.224-0.5,0.5s0.224,0.5,0.5,0.5h4c0.276,0,0.5-0.224,0.5-0.5S18.776,16,18.5,16z"/>
			<path d="M0.5,6C0.776,6,1,5.776,1,5.5v-2C1,3.224,0.776,3,0.5,3S0,3.224,0,3.5v2C0,5.776,0.224,6,0.5,6z"/>
			<path d="M0.5,10C0.776,10,1,9.776,1,9.5v-2C1,7.224,0.776,7,0.5,7S0,7.224,0,7.5v2C0,9.776,0.224,10,0.5,10z"/>
			<path d="M0.5,14C0.776,14,1,13.776,1,13.5v-2C1,11.224,0.776,11,0.5,11S0,11.224,0,11.5v2C0,13.776,0.224,14,0.5,14z"/>
			<path d="M17,3.5C17,3.224,16.776,3,16.5,3S16,3.224,16,3.5v2C16,5.776,16.224,6,16.5,6S17,5.776,17,5.5V3.5z"/>
			<path d="M16.5,7C16.224,7,16,7.224,16,7.5v2c0,0.276,0.224,0.5,0.5,0.5S17,9.776,17,9.5v-2C17,7.224,16.776,7,16.5,7z"/>
			<path d="M1.5,16H1v-0.5C1,15.224,0.776,15,0.5,15S0,15.224,0,15.5v1C0,16.776,0.224,17,0.5,17h1C1.776,17,2,16.776,2,16.5
				S1.776,16,1.5,16z"/>
			<path d="M1.5,0h-1C0.224,0,0,0.224,0,0.5v1C0,1.776,0.224,2,0.5,2S1,1.776,1,1.5V1h0.5C1.776,1,2,0.776,2,0.5S1.776,0,1.5,0z"/>
			<path d="M5.5,0h-2C3.224,0,3,0.224,3,0.5S3.224,1,3.5,1h2C5.776,1,6,0.776,6,0.5S5.776,0,5.5,0z"/>
			<path d="M9.5,0h-2C7.224,0,7,0.224,7,0.5S7.224,1,7.5,1h2C9.776,1,10,0.776,10,0.5S9.776,0,9.5,0z"/>
			<path d="M5.5,16h-2C3.224,16,3,16.224,3,16.5S3.224,17,3.5,17h2C5.776,17,6,16.776,6,16.5S5.776,16,5.5,16z"/>
			<path d="M9.5,16h-2C7.224,16,7,16.224,7,16.5S7.224,17,7.5,17h2c0.276,0,0.5-0.224,0.5-0.5S9.776,16,9.5,16z"/>
			<path d="M14,0.5C14,0.224,13.776,0,13.5,0h-2C11.224,0,11,0.224,11,0.5S11.224,1,11.5,1h2C13.776,1,14,0.776,14,0.5z"/>
			<path d="M15.5,1H16v0.5C16,1.776,16.224,2,16.5,2S17,1.776,17,1.5v-1C17,0.224,16.776,0,16.5,0h-1C15.224,0,15,0.224,15,0.5
				S15.224,1,15.5,1z"/>
		</g>
	</g>
	<g id="New_icons_1_">
	</g>
</g>

</svg>
