<?xml version="1.0" encoding="utf-8"?>
<!-- Generator: Adobe Illustrator 16.0.3, SVG Export Plug-In . SVG Version: 6.00 Build 0)  -->
<!DOCTYPE svg PUBLIC "-//W3C//DTD SVG 1.1//EN" "http://www.w3.org/Graphics/SVG/1.1/DTD/svg11.dtd">
<svg version="1.1" xmlns="http://www.w3.org/2000/svg" xmlns:xlink="http://www.w3.org/1999/xlink" x="0px" y="0px" width="24px"
	 height="24px" viewBox="0 0 24 24" enable-background="new 0 0 24 24" xml:space="preserve">
<g id="Outline_Icons_1_">
	<g id="Outline_Icons">
	</g>
	<g id="New_icons_1_">
		<g>
			<g>
				<path fill="none" stroke="#000000" stroke-linecap="round" stroke-linejoin="round" stroke-miterlimit="10" d="M4.486,17.207
					C4.225,19.069,0.5,20,0.5,20L3,21.5l-1,2c0,0,4.5-0.5,4.5-2.5c0-1-1-1-1-1"/>
				<path fill="none" stroke="#000000" stroke-linecap="round" stroke-linejoin="round" stroke-miterlimit="10" d="M19.514,17.207
					C19.775,19.069,23.5,20,23.5,20L21,21.5l1,2c0,0-4.5-0.5-4.5-2.5c0-1,1-1,1-1"/>
				<path fill="none" stroke="#000000" stroke-linecap="round" stroke-linejoin="round" stroke-miterlimit="10" d="M12,17
					c5,0,6.5,3,6.5,3l2-5.5c0,0-3.5-2.5-8.5-2.5s-8.5,2.5-8.5,2.5l2,5.5C5.5,20,7,17,12,17z"/>
			</g>
			<path fill="none" stroke="#000000" stroke-linecap="round" stroke-linejoin="round" stroke-miterlimit="10" d="M4.109,11.102
				c-0.306-0.92,0.045-1.929,0.862-2.476l0.043-0.027L4.972,8.57C4.154,8.023,3.804,7.018,4.109,6.096
				c0.307-0.919,1.197-1.533,2.188-1.507l0.051,0.002L6.331,4.544c-0.332-0.911-0.01-1.928,0.793-2.497
				c0.802-0.568,1.892-0.554,2.677,0.036l0.04,0.03l0.015-0.047C10.136,1.138,11.009,0.5,12,0.5s1.864,0.638,2.145,1.566
				l0.015,0.047l0.04-0.03c0.785-0.59,1.875-0.604,2.677-0.036c0.803,0.569,1.125,1.586,0.793,2.497l-0.018,0.047l0.051-0.002
				c0.991-0.026,1.882,0.588,2.188,1.507c0.306,0.922-0.045,1.928-0.862,2.475l-0.043,0.028l0.043,0.027
				c0.817,0.547,1.168,1.556,0.862,2.476"/>
			<polygon fill="none" stroke="#000000" stroke-linecap="round" stroke-linejoin="round" stroke-miterlimit="10" points="12,3.5 
				13.166,6 15.5,6 13.556,7.944 14.334,10.667 12,9.208 9.666,10.667 10.444,7.944 8.5,6 10.834,6 			"/>
		</g>
	</g>
</g>

</svg>
