<?xml version="1.0" encoding="utf-8"?>
<!-- Generator: Adobe Illustrator 16.0.3, SVG Export Plug-In . SVG Version: 6.00 Build 0)  -->
<!DOCTYPE svg PUBLIC "-//W3C//DTD SVG 1.1//EN" "http://www.w3.org/Graphics/SVG/1.1/DTD/svg11.dtd">
<svg version="1.1" xmlns="http://www.w3.org/2000/svg" xmlns:xlink="http://www.w3.org/1999/xlink" x="0px" y="0px" width="24px"
	 height="24px" viewBox="0 0 24 24" enable-background="new 0 0 24 24" xml:space="preserve">
<g id="Outline_Icons_1_">
	<g id="Outline_Icons">
		<g>
			<path fill="none" stroke="#000000" stroke-linejoin="round" stroke-miterlimit="10" d="M23.5,20.5c0,0.549-0.45,1-1,1h-21
				c-0.55,0-1-0.451-1-1v-14c0-0.55,0.45-1,1-1h21c0.55,0,1,0.45,1,1V20.5z"/>
			<path fill="none" stroke="#000000" stroke-linejoin="round" stroke-miterlimit="10" d="M8.5,5.5V2c0-0.276,0.226-0.5,0.5-0.5h6
				c0.275,0,0.5,0.224,0.5,0.5v3.5"/>
			<line fill="none" stroke="#000000" stroke-linejoin="round" stroke-miterlimit="10" x1="8.5" y1="3.5" x2="15.5" y2="3.5"/>
			
				<line fill="none" stroke="#000000" stroke-linecap="square" stroke-linejoin="round" stroke-miterlimit="10" x1="3.5" y1="9.5" x2="20.5" y2="9.5"/>
			
				<line fill="none" stroke="#000000" stroke-linecap="square" stroke-linejoin="round" stroke-miterlimit="10" x1="3.5" y1="13.5" x2="20.5" y2="13.5"/>
			
				<line fill="none" stroke="#000000" stroke-linecap="square" stroke-linejoin="round" stroke-miterlimit="10" x1="3.5" y1="17.5" x2="20.5" y2="17.5"/>
		</g>
	</g>
	<g id="New_icons_1_">
	</g>
</g>

</svg>
