<?xml version="1.0" encoding="utf-8"?>
<!-- Generator: Adobe Illustrator 16.0.3, SVG Export Plug-In . SVG Version: 6.00 Build 0)  -->
<!DOCTYPE svg PUBLIC "-//W3C//DTD SVG 1.1//EN" "http://www.w3.org/Graphics/SVG/1.1/DTD/svg11.dtd">
<svg version="1.1" xmlns="http://www.w3.org/2000/svg" xmlns:xlink="http://www.w3.org/1999/xlink" x="0px" y="0px" width="24px"
	 height="24px" viewBox="0 0 24 24" enable-background="new 0 0 24 24" xml:space="preserve">
<g id="Outline_Icons">
	<g>
		<path fill="none" stroke="#000000" stroke-linejoin="round" stroke-miterlimit="10" d="M14.938,16.145
			c1.886-1.885-5.186-8.956-7.071-7.07c-1.414,4.95-4.755,7.532-7.081,9.903c-0.384,0.392-0.381,1.02,0.007,1.407l2.828,2.828
			c0.188,0.188,0.444,0.294,0.711,0.293s0.521-0.109,0.709-0.298C7.348,20.865,9.989,17.56,14.938,16.145z"/>
		<path fill="none" stroke="#000000" stroke-linejoin="round" stroke-miterlimit="10" d="M10.696,18.267
			c0.219,0.522,0.635,1.343,1.061,1.769c1.757,1.756,4.606,1.756,6.363,0c1.204-1.204,1.361-2.305,1.35-2.86
			c0.67-0.172,1.309-0.505,1.833-1.03c1.562-1.561,1.562-4.094,0-5.656c-0.461-0.46-1.009-0.768-1.589-0.957
			c0.257-1.404-0.154-2.907-1.24-3.993c-1.086-1.085-2.588-1.495-3.992-1.239c-0.189-0.579-0.497-1.128-0.957-1.588
			c-1.562-1.562-4.095-1.562-5.657,0C7.343,3.235,7.01,3.872,6.838,4.543c-0.556-0.012-1.656,0.146-2.859,1.35
			c-1.758,1.757-1.758,4.605,0,6.364c0.425,0.425,1.245,0.841,1.768,1.061"/>
		<path fill="none" stroke="#000000" stroke-linecap="round" stroke-linejoin="round" stroke-miterlimit="10" d="M16.265,18.403
			c-0.672-0.501-1.107-1.303-1.107-2.206c0-0.983,0.517-1.847,1.294-2.332"/>
		<path fill="none" stroke="#000000" stroke-linecap="round" stroke-linejoin="round" stroke-miterlimit="10" d="M5.609,7.759
			C6.11,8.432,6.912,8.867,7.814,8.867c0.984,0,1.848-0.517,2.333-1.294"/>
		
			<line fill="none" stroke="#000000" stroke-linecap="round" stroke-linejoin="round" stroke-miterlimit="10" x1="14.128" y1="12.72" x2="11.05" y2="15.791"/>
		
			<line fill="none" stroke="#000000" stroke-linecap="round" stroke-linejoin="round" stroke-miterlimit="10" x1="11.321" y1="9.905" x2="8.221" y2="12.963"/>
	</g>
</g>

</svg>
