<?xml version="1.0" encoding="utf-8"?>
<!-- Generator: Adobe Illustrator 16.0.3, SVG Export Plug-In . SVG Version: 6.00 Build 0)  -->
<!DOCTYPE svg PUBLIC "-//W3C//DTD SVG 1.1//EN" "http://www.w3.org/Graphics/SVG/1.1/DTD/svg11.dtd">
<svg version="1.1" xmlns="http://www.w3.org/2000/svg" xmlns:xlink="http://www.w3.org/1999/xlink" x="0px" y="0px" width="24px"
	 height="24px" viewBox="0 0 24 24" enable-background="new 0 0 24 24" xml:space="preserve">
<g id="Outline_Icons_1_">
	<g id="Outline_Icons">
		<g>
			<path fill="none" stroke="#000000" stroke-linejoin="round" stroke-miterlimit="10" d="M23.5,10.883
				c0,5.181-5.148,9.383-11.5,9.383c-1.418,0-2.775-0.21-4.029-0.593l-6.608,3.076l2.588-5.166c-2.129-1.703-3.45-4.076-3.45-6.7
				C0.5,5.701,5.648,1.5,12,1.5S23.5,5.701,23.5,10.883z"/>
		</g>
	</g>
	<g id="New_icons_1_">
	</g>
</g>

</svg>
