<?xml version="1.0" encoding="utf-8"?>
<!-- Generator: Adobe Illustrator 16.0.3, SVG Export Plug-In . SVG Version: 6.00 Build 0)  -->
<!DOCTYPE svg PUBLIC "-//W3C//DTD SVG 1.1//EN" "http://www.w3.org/Graphics/SVG/1.1/DTD/svg11.dtd">
<svg version="1.1" xmlns="http://www.w3.org/2000/svg" xmlns:xlink="http://www.w3.org/1999/xlink" x="0px" y="0px" width="24px"
	 height="24px" viewBox="0 0 24 24" enable-background="new 0 0 24 24" xml:space="preserve">
<g id="Outline_Icons">
	<g>
		<path fill="none" stroke="#000000" stroke-linejoin="round" stroke-miterlimit="10" d="M5,13.5c2,0,4.5,8,4.5,8H2.841
			c-0.907,0-1.702-0.611-1.934-1.487C0.293,17.687,0.109,13.5,5,13.5z"/>
		<path fill="none" stroke="#000000" stroke-linejoin="round" stroke-miterlimit="10" d="M19,13.5c-2,0-4.5,8-4.5,8h6.658
			c0.907,0,1.702-0.611,1.934-1.487C23.706,17.687,23.89,13.5,19,13.5z"/>
		<path fill="none" stroke="#000000" stroke-linejoin="round" stroke-miterlimit="10" d="M5.952,9.973C6.263,6.865,8.877,4.5,12,4.5
			s5.736,2.365,6.047,5.473l0.453,3.682c-4.333-2-8.667-2-13,0L5.952,9.973z"/>
		<path fill="none" stroke="#000000" stroke-linecap="round" stroke-linejoin="round" stroke-miterlimit="10" d="M8.976,9.736
			C9.131,8.184,10.438,7,12,7"/>
		<line fill="none" stroke="#000000" stroke-linejoin="round" stroke-miterlimit="10" x1="9.5" y1="21.5" x2="14.5" y2="21.5"/>
		<polyline fill="none" stroke="#000000" stroke-linejoin="round" stroke-miterlimit="10" points="6.5,21.5 6.5,23.5 2.5,23.5 
			2.5,21.47 		"/>
		<polyline fill="none" stroke="#000000" stroke-linejoin="round" stroke-miterlimit="10" points="17.5,21.5 17.5,23.5 21.5,23.5 
			21.5,21.47 		"/>
		<circle fill="none" stroke="#000000" stroke-linejoin="round" stroke-miterlimit="10" cx="20" cy="17.784" r="1.5"/>
		<circle fill="none" stroke="#000000" stroke-linejoin="round" stroke-miterlimit="10" cx="4" cy="17.784" r="1.5"/>
	</g>
</g>

</svg>
