<?xml version="1.0" encoding="utf-8"?>
<!-- Generator: Adobe Illustrator 16.0.3, SVG Export Plug-In . SVG Version: 6.00 Build 0)  -->
<!DOCTYPE svg PUBLIC "-//W3C//DTD SVG 1.1//EN" "http://www.w3.org/Graphics/SVG/1.1/DTD/svg11.dtd">
<svg version="1.1" xmlns="http://www.w3.org/2000/svg" xmlns:xlink="http://www.w3.org/1999/xlink" x="0px" y="0px" width="24px"
	 height="24px" viewBox="0 0 24 24" enable-background="new 0 0 24 24" xml:space="preserve">
<g id="Outline_Icons_1_">
	<g id="Outline_Icons">
		<g>
			<polyline fill="none" stroke="#000000" stroke-linecap="round" stroke-linejoin="round" stroke-miterlimit="10" points="17,8.5 
				9.5,15.5 7,13 			"/>
			<path fill="none" stroke="#000000" stroke-linejoin="round" stroke-miterlimit="10" d="M23.5,12c0-0.979-0.705-1.79-1.634-1.962
				c0.791-0.516,1.131-1.534,0.759-2.438c-0.375-0.905-1.337-1.385-2.262-1.188c0.535-0.779,0.459-1.851-0.233-2.543
				c-0.692-0.691-1.764-0.767-2.542-0.233c0.196-0.924-0.284-1.884-1.189-2.259c-0.904-0.375-1.923-0.035-2.438,0.757
				C13.788,1.204,12.979,0.5,12,0.5c-0.981,0-1.791,0.704-1.965,1.633C9.521,1.341,8.502,1.001,7.597,1.376
				C6.692,1.75,6.213,2.711,6.408,3.635C5.63,3.102,4.559,3.177,3.866,3.869C3.174,4.561,3.099,5.632,3.633,6.411
				C2.709,6.215,1.751,6.695,1.376,7.6S1.339,9.522,2.13,10.037C1.201,10.21,0.5,11.021,0.5,12s0.702,1.79,1.63,1.963
				c-0.791,0.516-1.129,1.535-0.755,2.439c0.375,0.903,1.334,1.383,2.258,1.188c-0.534,0.779-0.458,1.85,0.233,2.542
				c0.692,0.692,1.763,0.768,2.542,0.234c-0.195,0.923,0.285,1.883,1.189,2.258s1.924,0.035,2.438-0.757
				C10.209,22.797,11.021,23.5,12,23.5s1.788-0.703,1.961-1.632c0.515,0.792,1.533,1.13,2.438,0.757
				c0.904-0.375,1.384-1.335,1.188-2.26c0.778,0.535,1.85,0.459,2.542-0.233c0.692-0.692,0.769-1.763,0.233-2.542
				c0.924,0.196,1.887-0.284,2.262-1.188c0.375-0.905,0.033-1.924-0.759-2.439C22.794,13.791,23.5,12.979,23.5,12z"/>
		</g>
	</g>
	<g id="New_icons_1_">
	</g>
</g>

</svg>
