<?xml version="1.0" encoding="utf-8"?>
<!-- Generator: Adobe Illustrator 16.0.3, SVG Export Plug-In . SVG Version: 6.00 Build 0)  -->
<!DOCTYPE svg PUBLIC "-//W3C//DTD SVG 1.1//EN" "http://www.w3.org/Graphics/SVG/1.1/DTD/svg11.dtd">
<svg version="1.1" xmlns="http://www.w3.org/2000/svg" xmlns:xlink="http://www.w3.org/1999/xlink" x="0px" y="0px" width="24px"
	 height="24px" viewBox="0 0 24 24" enable-background="new 0 0 24 24" xml:space="preserve">
<g id="Outline_Icons_1_">
	<g id="Outline_Icons">
		<g>
			<polygon fill="none" stroke="#000000" stroke-linejoin="round" stroke-miterlimit="10" points="12,12 13.493,15.5 16.993,15.5 
				13.993,17.997 15.493,22 11.993,19.502 8.493,22 9.993,17.997 6.993,15.5 10.493,15.5 			"/>
			<g>
				<path fill="none" stroke="#000000" stroke-linecap="round" stroke-linejoin="round" stroke-miterlimit="10" d="M19.196,16.391
					c0,0,4.304-0.561,4.304-4.782c0-2.677-2.207-4.876-4.954-4.774C17.473,4.568,15.173,3,12.5,3C8.938,3,6.032,5.783,5.825,9.294
					C3.593,8.827,1.5,10.526,1.5,12.803c0,2.992,2.579,3.49,3.502,3.572"/>
			</g>
		</g>
	</g>
	<g id="New_icons_1_">
	</g>
</g>

</svg>
