<?xml version="1.0" encoding="utf-8"?>
<!-- Generator: Adobe Illustrator 16.0.3, SVG Export Plug-In . SVG Version: 6.00 Build 0)  -->
<!DOCTYPE svg PUBLIC "-//W3C//DTD SVG 1.1//EN" "http://www.w3.org/Graphics/SVG/1.1/DTD/svg11.dtd">
<svg version="1.1" xmlns="http://www.w3.org/2000/svg" xmlns:xlink="http://www.w3.org/1999/xlink" x="0px" y="0px" width="24px"
	 height="24px" viewBox="0 0 24 24" enable-background="new 0 0 24 24" xml:space="preserve">
<g id="Outline_Icons">
	<g>
		
			<line fill="none" stroke="#000000" stroke-linecap="round" stroke-linejoin="round" stroke-miterlimit="10" x1="9.5" y1="17.503" x2="14.5" y2="17.503"/>
		<path fill="none" stroke="#000000" stroke-linecap="round" stroke-linejoin="round" stroke-miterlimit="10" d="M4.5,22.503
			c0,0.552,0.448,1,1,1h3c0.553,0,1-0.448,1-1v-11c0-0.553-0.447-1-1-1h-3c-0.552,0-1,0.447-1,1V22.503z"/>
		<path fill="none" stroke="#000000" stroke-linecap="round" stroke-linejoin="round" stroke-miterlimit="10" d="M1.5,19.503
			c0,0.552,0.448,1,1,1h2v-7h-2c-0.552,0-1,0.447-1,1V19.503z"/>
		
			<line fill="none" stroke="#000000" stroke-linecap="round" stroke-linejoin="round" stroke-miterlimit="10" x1="1.5" y1="17.003" x2="0.5" y2="17.003"/>
		<path fill="none" stroke="#000000" stroke-linecap="round" stroke-linejoin="round" stroke-miterlimit="10" d="M19.5,22.503
			c0,0.552-0.447,1-1,1h-3c-0.552,0-1-0.448-1-1v-11c0-0.553,0.448-1,1-1h3c0.553,0,1,0.447,1,1V22.503z"/>
		<path fill="none" stroke="#000000" stroke-linecap="round" stroke-linejoin="round" stroke-miterlimit="10" d="M22.5,19.503
			c0,0.552-0.447,1-1,1h-2v-7h2c0.553,0,1,0.447,1,1V19.503z"/>
		
			<line fill="none" stroke="#000000" stroke-linecap="round" stroke-linejoin="round" stroke-miterlimit="10" x1="22.5" y1="17.003" x2="23.5" y2="17.003"/>
	</g>
</g>

</svg>
