<?xml version="1.0" encoding="utf-8"?>
<!-- Generator: Adobe Illustrator 16.0.3, SVG Export Plug-In . SVG Version: 6.00 Build 0)  -->
<!DOCTYPE svg PUBLIC "-//W3C//DTD SVG 1.1//EN" "http://www.w3.org/Graphics/SVG/1.1/DTD/svg11.dtd">
<svg version="1.1" xmlns="http://www.w3.org/2000/svg" xmlns:xlink="http://www.w3.org/1999/xlink" x="0px" y="0px" width="24px"
	 height="24px" viewBox="0 0 24 24" enable-background="new 0 0 24 24" xml:space="preserve">
<g id="Outline_Icons">
	<g>
		<path fill="none" stroke="#000000" stroke-linejoin="round" stroke-miterlimit="10" d="M17.945,6.096
			c0.826-3.76-4.392-7.34-8.487-3.244C5.821,6.67,8.772,15.27,8.772,15.27s8.599,2.948,12.417-0.688
			C25.284,10.488,21.704,5.27,17.945,6.096z"/>
		<path fill="none" stroke="#000000" stroke-linejoin="round" stroke-miterlimit="10" d="M16.179,7.861
			c0.458-2.082-2.432-4.064-4.699-1.797c-2.014,2.115-0.379,6.877-0.379,6.877s4.761,1.633,6.876-0.382
			C20.243,10.293,18.261,7.404,16.179,7.861z"/>
		
			<line fill="none" stroke="#000000" stroke-linecap="round" stroke-linejoin="round" stroke-miterlimit="10" x1="8.763" y1="15.236" x2="0.5" y2="23.5"/>
	</g>
</g>

</svg>
