<?xml version="1.0" encoding="utf-8"?>
<!-- Generator: Adobe Illustrator 16.0.3, SVG Export Plug-In . SVG Version: 6.00 Build 0)  -->
<!DOCTYPE svg PUBLIC "-//W3C//DTD SVG 1.1//EN" "http://www.w3.org/Graphics/SVG/1.1/DTD/svg11.dtd">
<svg version="1.1" xmlns="http://www.w3.org/2000/svg" xmlns:xlink="http://www.w3.org/1999/xlink" x="0px" y="0px" width="24px"
	 height="24px" viewBox="0 0 24 24" enable-background="new 0 0 24 24" xml:space="preserve">
<g id="Outline_Icons_1_">
	<g id="Outline_Icons">
		<g>
			<g>
				<path fill="none" stroke="#000000" stroke-linecap="round" stroke-linejoin="round" stroke-miterlimit="10" d="M7.491,10.014
					c0.781-0.781,0.781-2.047,0-2.828L5.37,5.064c-0.781-0.781-2.048-0.781-2.829,0L1.378,6.228
					c-1.009,1.009-1.166,2.584-0.379,3.774c3.381,5.111,7.89,9.62,13,13c1.188,0.786,2.768,0.629,3.774-0.379l1.164-1.163
					c0.781-0.781,0.781-2.048,0-2.828l-2.121-2.122c-0.781-0.78-2.048-0.78-2.829,0l-0.707,0.707
					c-2.326-1.906-4.59-4.17-6.496-6.496L7.491,10.014z"/>
			</g>
			<path fill="none" stroke="#000000" stroke-linecap="round" stroke-linejoin="round" stroke-miterlimit="10" d="M17.748,5.665
				l1.724,1.724c2.299-2.299,3.955-5.816,3.161-6.609L22.47,0.942l-9.492,9.492"/>
			<path fill="none" stroke="#000000" stroke-linecap="round" stroke-linejoin="round" stroke-miterlimit="10" d="M9.604,3.943
				l1.725,1.725c0.952,0.952,2.496,0.952,3.448,0s0.953-2.496,0-3.448l-1.724-1.725"/>
			
				<line fill="none" stroke="#000000" stroke-linecap="round" stroke-linejoin="round" stroke-miterlimit="10" x1="11.328" y1="2.22" x2="19.556" y2="10.446"/>
		</g>
	</g>
	<g id="New_icons_1_">
	</g>
</g>

</svg>
