<?xml version="1.0" encoding="utf-8"?>
<!-- Generator: Adobe Illustrator 16.0.3, SVG Export Plug-In . SVG Version: 6.00 Build 0)  -->
<!DOCTYPE svg PUBLIC "-//W3C//DTD SVG 1.1//EN" "http://www.w3.org/Graphics/SVG/1.1/DTD/svg11.dtd">
<svg version="1.1" xmlns="http://www.w3.org/2000/svg" xmlns:xlink="http://www.w3.org/1999/xlink" x="0px" y="0px" width="24px"
	 height="24px" viewBox="0 0 24 24" enable-background="new 0 0 24 24" xml:space="preserve">
<g id="Outline_Icons">
	<g>
		<path fill="none" stroke="#000000" stroke-linecap="round" stroke-linejoin="round" stroke-miterlimit="10" d="M16.487,2.875
			c-2.011,0-3.804-0.934-4.979-2.395h-0.017c-1.175,1.461-2.968,2.395-4.979,2.395C4.753,2.875,3.158,2.159,1.5,1v14.812
			c0,0,1.45,5.271,10,7.668c8.55-2.396,10-7.668,10-7.668V1C19.841,2.159,18.247,2.875,16.487,2.875z"/>
		<polygon fill="none" stroke="#000000" stroke-linejoin="round" stroke-miterlimit="10" points="11.839,5.5 15.523,5.5 12.5,10.5 
			16.284,10.5 8.347,18.967 10.895,12.5 7.872,12.5 		"/>
	</g>
</g>

</svg>
