<?xml version="1.0" encoding="utf-8"?>
<!-- Generator: Adobe Illustrator 16.0.3, SVG Export Plug-In . SVG Version: 6.00 Build 0)  -->
<!DOCTYPE svg PUBLIC "-//W3C//DTD SVG 1.1//EN" "http://www.w3.org/Graphics/SVG/1.1/DTD/svg11.dtd">
<svg version="1.1" xmlns="http://www.w3.org/2000/svg" xmlns:xlink="http://www.w3.org/1999/xlink" x="0px" y="0px" width="24px"
	 height="24px" viewBox="0 0 24 24" enable-background="new 0 0 24 24" xml:space="preserve">
<g id="Outline_Icons">
	<g>
		<path fill="none" stroke="#000000" stroke-linejoin="round" stroke-miterlimit="10" d="M15.053,10.021
			c0,3.878-3.053,7.021-3.053,7.021s-3.053-3.144-3.053-7.021C8.947,6.144,12,3,12,3S15.053,6.144,15.053,10.021z"/>
		<path fill="none" stroke="#000000" stroke-linejoin="round" stroke-miterlimit="10" d="M14.308,6.499
			c1.65-1.354,3.425-1.856,3.425-1.856s1.412,4.424-0.17,7.847C15.979,15.914,12,17.042,12,17.042"/>
		<path fill="none" stroke="#000000" stroke-linejoin="round" stroke-miterlimit="10" d="M18.305,8.983
			c2.024-0.316,3.818,0.203,3.818,0.203s-0.559,4.668-3.354,6.838C15.974,18.193,12,17.042,12,17.042"/>
		<path fill="none" stroke="#000000" stroke-linejoin="round" stroke-miterlimit="10" d="M9.788,6.578
			C8.111,5.165,6.268,4.643,6.268,4.643s-1.412,4.424,0.17,7.847C8.021,15.914,12,17.042,12,17.042"/>
		<path fill="none" stroke="#000000" stroke-linejoin="round" stroke-miterlimit="10" d="M5.725,8.987
			C3.688,8.662,1.877,9.187,1.877,9.187s0.559,4.668,3.354,6.838C8.026,18.193,12,17.042,12,17.042s-0.003-0.026-0.011-0.077"/>
		<path fill="none" stroke="#000000" stroke-linejoin="round" stroke-miterlimit="10" d="M3.512,13.998
			C1.942,14.893,1,16.044,1,17.312c0,2.898,4.675,5.218,10.75,5.218c2.215,0,4.75-0.346,5.75-0.884V18.5h5.375
			c0.146-1.983-0.867-3.407-2.428-4.399"/>
	</g>
</g>

</svg>
