<?xml version="1.0" encoding="utf-8"?>
<!-- Generator: Adobe Illustrator 16.0.3, SVG Export Plug-In . SVG Version: 6.00 Build 0)  -->
<!DOCTYPE svg PUBLIC "-//W3C//DTD SVG 1.1//EN" "http://www.w3.org/Graphics/SVG/1.1/DTD/svg11.dtd">
<svg version="1.1" xmlns="http://www.w3.org/2000/svg" xmlns:xlink="http://www.w3.org/1999/xlink" x="0px" y="0px" width="24px"
	 height="24px" viewBox="0 0 24 24" enable-background="new 0 0 24 24" xml:space="preserve">
<g id="Outline_Icons_1_">
	<g id="Outline_Icons">
		<g>
			<polyline fill="none" stroke="#000000" stroke-linecap="round" stroke-linejoin="round" stroke-miterlimit="10" points="
				0.712,10.35 3.499,14.5 6.704,10.662 			"/>
			<path fill="none" stroke="#000000" stroke-linecap="round" stroke-linejoin="round" stroke-miterlimit="10" d="M3.488,14.449
				C2.321,9.566,5.474,4.801,10.042,3.723c3.156-0.747,6.317,0.371,8.325,2.641"/>
			<polyline fill="none" stroke="#000000" stroke-linecap="round" stroke-linejoin="round" stroke-miterlimit="10" points="
				23.284,13.652 20.497,9.5 17.292,13.338 			"/>
			<path fill="none" stroke="#000000" stroke-linecap="round" stroke-linejoin="round" stroke-miterlimit="10" d="M20.508,9.553
				c1.167,4.883-1.985,9.646-6.554,10.727c-3.156,0.747-6.317-0.373-8.325-2.641"/>
			<path fill="none" stroke="#000000" stroke-linecap="round" stroke-linejoin="round" stroke-miterlimit="10" d="M11.998,14
				c-1.104,0-1.999-0.895-1.999-1.998c0-1.105,0.896-2,2.001-2.002c1.103,0.002,1.998,0.896,1.998,2
				C13.998,13.105,13.103,14,11.998,14z"/>
		</g>
	</g>
	<g id="New_icons_1_">
	</g>
</g>

</svg>
