<?xml version="1.0" encoding="utf-8"?>
<!-- Generator: Adobe Illustrator 16.0.3, SVG Export Plug-In . SVG Version: 6.00 Build 0)  -->
<!DOCTYPE svg PUBLIC "-//W3C//DTD SVG 1.1//EN" "http://www.w3.org/Graphics/SVG/1.1/DTD/svg11.dtd">
<svg version="1.1" xmlns="http://www.w3.org/2000/svg" xmlns:xlink="http://www.w3.org/1999/xlink" x="0px" y="0px" width="24px"
	 height="24px" viewBox="0 0 24 24" enable-background="new 0 0 24 24" xml:space="preserve">
<g id="Outline_Icons_1_">
	<g id="Outline_Icons">
		<g>
			<path fill="none" stroke="#000000" stroke-linecap="round" stroke-linejoin="round" stroke-miterlimit="10" d="M7.5,13.5V16
				l-4.404,1.255C1.535,17.84,0.5,19.332,0.5,21v2.5h23V21c0-1.668-1.034-3.16-2.596-3.745L16.5,16v-2.5"/>
			<path fill="none" stroke="#000000" stroke-linecap="round" stroke-linejoin="round" stroke-miterlimit="10" d="M12,16.5
				c1.5,0,4.999-2,4.999-5c1.5,0,2-2.5,1-3l0.5-3c0,0,0.501-5-6.499-5s-6.5,5-6.5,5l0.5,3c-1,0.5-0.5,3,1,3
				C7,14.5,10.5,16.5,12,16.5z"/>
			<path fill="none" stroke="#000000" stroke-linejoin="round" stroke-miterlimit="10" d="M18.5,5c-6,0-5,1-6.5,1s-0.5-1-6.5-1"/>
			<path fill="none" stroke="#000000" stroke-linecap="round" stroke-linejoin="round" stroke-miterlimit="10" d="M18,8.5
				c-2.5,2-4.775-0.5-6-0.5s-3.5,2.5-6,0.5"/>
			
				<line fill="none" stroke="#000000" stroke-linecap="round" stroke-linejoin="round" stroke-miterlimit="10" x1="8.5" y1="7" x2="9.5" y2="7"/>
			
				<line fill="none" stroke="#000000" stroke-linecap="round" stroke-linejoin="round" stroke-miterlimit="10" x1="14.5" y1="7" x2="15.5" y2="7"/>
			<path fill="none" stroke="#000000" stroke-linecap="round" stroke-linejoin="round" stroke-miterlimit="10" d="M10,13
				l0.414-0.414C10.79,12.211,11.298,12,11.829,12h0.344c0.53,0,1.039,0.211,1.414,0.586L14,13"/>
			<g>
				<path d="M8.5,2.5C8.224,2.5,8,2.725,8,3c0,0.276,0.224,0.5,0.5,0.5S9,3.276,9,3C9,2.725,8.777,2.5,8.5,2.5L8.5,2.5z"/>
			</g>
			<g>
				<path d="M15.5,2.5C15.224,2.5,15,2.725,15,3c0,0.276,0.224,0.5,0.5,0.5S16,3.276,16,3C16,2.725,15.777,2.5,15.5,2.5L15.5,2.5z"
					/>
			</g>
			<g>
				<path d="M10.5,2C10.224,2,10,2.225,10,2.5C10,2.776,10.224,3,10.5,3S11,2.776,11,2.5C11,2.225,10.777,2,10.5,2L10.5,2z"/>
			</g>
			<g>
				<path d="M13.5,2C13.224,2,13,2.225,13,2.5C13,2.776,13.224,3,13.5,3S14,2.776,14,2.5C14,2.225,13.777,2,13.5,2L13.5,2z"/>
			</g>
			<g>
				<path d="M12,3c-0.276,0-0.5,0.225-0.5,0.5C11.5,3.776,11.724,4,12,4s0.5-0.224,0.5-0.5C12.5,3.225,12.276,3,12,3L12,3z"/>
			</g>
			<path fill="none" stroke="#000000" stroke-linecap="round" stroke-linejoin="round" stroke-miterlimit="10" d="M16.5,15.5
				c0,1.934-1.738,3.5-4.5,3.5s-4.5-1.566-4.5-3.5"/>
		</g>
	</g>
	<g id="New_icons_1_">
	</g>
</g>

</svg>
