<?xml version="1.0" encoding="utf-8"?>
<!-- Generator: Adobe Illustrator 16.0.3, SVG Export Plug-In . SVG Version: 6.00 Build 0)  -->
<!DOCTYPE svg PUBLIC "-//W3C//DTD SVG 1.1//EN" "http://www.w3.org/Graphics/SVG/1.1/DTD/svg11.dtd">
<svg version="1.1" xmlns="http://www.w3.org/2000/svg" xmlns:xlink="http://www.w3.org/1999/xlink" x="0px" y="0px" width="24px"
	 height="24px" viewBox="0 0 24 24" enable-background="new 0 0 24 24" xml:space="preserve">
<g id="Outline_Icons">
	<g>
		<polyline fill="none" stroke="#000000" stroke-linecap="round" stroke-linejoin="round" stroke-miterlimit="10" points="1,9 
			4,13.5 7.5,9.5 		"/>
		<path fill="none" stroke="#000000" stroke-linecap="round" stroke-linejoin="round" stroke-miterlimit="10" d="M4.006,13.5
			C3.25,7.417,7.907,2.7,13.15,2.507s9.65,3.901,9.843,9.144c0.195,5.244-3.9,9.65-9.144,9.843"/>
		<g>
			<path fill="none" stroke="#000000" stroke-linecap="round" stroke-linejoin="round" stroke-miterlimit="10" d="M11.617,9.142
				C11.654,8.388,11.998,7.2,13.559,7.2c1.653,0,1.941,1.333,1.941,2.075c0,0.741-0.288,2.075-1.941,2.075"/>
			<path fill="none" stroke="#000000" stroke-linecap="round" stroke-linejoin="round" stroke-miterlimit="10" d="M11.617,13.559
				c0.037,0.754,0.381,1.941,1.941,1.941c1.653,0,1.941-1.333,1.941-2.075c0-0.741-0.288-2.074-1.941-2.074"/>
		</g>
	</g>
</g>

</svg>
