<?xml version="1.0" encoding="utf-8"?>
<!-- Generator: Adobe Illustrator 16.0.3, SVG Export Plug-In . SVG Version: 6.00 Build 0)  -->
<!DOCTYPE svg PUBLIC "-//W3C//DTD SVG 1.1//EN" "http://www.w3.org/Graphics/SVG/1.1/DTD/svg11.dtd">
<svg version="1.1" xmlns="http://www.w3.org/2000/svg" xmlns:xlink="http://www.w3.org/1999/xlink" x="0px" y="0px" width="24px"
	 height="24px" viewBox="0 0 24 24" enable-background="new 0 0 24 24" xml:space="preserve">
<g id="Outline_Icons">
	<g>
		<path fill="none" stroke="#000000" stroke-linecap="round" stroke-linejoin="round" stroke-miterlimit="10" d="M14.5,10.5
			c-1.318-1.817-3.334-3-5.75-3c-4.004,0-7.25,3.246-7.25,7.25v3.75h10.75c1.242,0,2.25-1.008,2.25-2.25V10.5z"/>
		<path fill="none" stroke="#000000" stroke-linecap="round" stroke-linejoin="round" stroke-miterlimit="10" d="M14.5,10.5
			c1.656,0,3,1.344,3,3v4.25c0,2.071-1.68,3.75-3.75,3.75H3c-1.381,0-2.5-1.119-2.5-2.5v-0.5h1"/>
		<path fill="none" stroke="#000000" stroke-linecap="round" stroke-linejoin="round" stroke-miterlimit="10" d="M21.5,9.5v7.25
			c0,1.519-1.231,2.75-2.75,2.75h-1.684"/>
		<path fill="none" stroke="#000000" stroke-linecap="round" stroke-linejoin="round" stroke-miterlimit="10" d="M20,9.5
			c1.932,0,3.5-1.566,3.5-3.5S21.932,2.5,20,2.5c-1.934,0-3.5,1.566-3.5,3.5v5"/>
		<path fill="none" stroke="#000000" stroke-linecap="round" stroke-linejoin="round" stroke-miterlimit="10" d="M5.5,21.5v2H1
			c-0.277,0-0.5-0.206-0.5-0.5c0-0.293,0.223-0.531,0.5-0.531L3.5,21.5"/>
		<path fill="none" stroke="#000000" stroke-linecap="round" stroke-linejoin="round" stroke-miterlimit="10" d="M10.5,21.5v2H15
			c0.276,0,0.5-0.206,0.5-0.5c0-0.293-0.224-0.531-0.5-0.531L12.5,21.5"/>
		
			<line fill="none" stroke="#000000" stroke-linecap="round" stroke-linejoin="round" stroke-miterlimit="10" x1="20.5" y1="4.5" x2="20.5" y2="5.5"/>
		
			<line fill="none" stroke="#000000" stroke-linecap="round" stroke-linejoin="round" stroke-miterlimit="10" x1="6.008" y1="8.037" x2="14.5" y2="16.5"/>
		
			<line fill="none" stroke="#000000" stroke-linecap="round" stroke-linejoin="round" stroke-miterlimit="10" x1="11.802" y1="8.198" x2="1.5" y2="18.5"/>
		
			<line fill="none" stroke="#000000" stroke-linecap="round" stroke-linejoin="round" stroke-miterlimit="10" x1="2.181" y1="11.681" x2="9" y2="18.5"/>
		
			<line fill="none" stroke="#000000" stroke-linecap="round" stroke-linejoin="round" stroke-miterlimit="10" x1="14.5" y1="13" x2="9" y2="18.5"/>
	</g>
</g>

</svg>
